27/8/2013  8:52 >> Application_Name >> getDataPremium
exec sp_calonlineweb 'Y','110','1','7','3 ','JK-TO162','2000','A','A',661582.7015625,808601.0796875,'0',0

27/8/2013  8:52 >> Application_Name >> getDataPremium
exec sp_calonlineweb 'Y','110','2','7','3 ','JK-TO162','2000','A','A',661582.7015625,808601.0796875,'0',0

27/8/2013  8:52 >> Application_Name >> getDataPremium
exec sp_calonlineweb 'Y','110','3','7','3 ','JK-TO162','2000','A','A',0,0,'0',0

27/8/2013  8:54 >> Application_Name >> getDataPremium
exec sp_calonlineweb 'Y','110','1','4','3 ','JK-TO004','2000','A','A',1774766.25,2169158.75,'0',20

27/8/2013  8:54 >> Application_Name >> getDataPremium
exec sp_calonlineweb 'Y','110','2','4','3 ','JK-TO004','2000','A','A',1774766.25,2169158.75,'0',20

27/8/2013  8:54 >> Application_Name >> getDataPremium
exec sp_calonlineweb 'Y','110','3','4','3 ','JK-TO004','2000','A','A',0,0,'0',20

27/8/2013  8:55 >> Application_Name >> getDataPremium
exec sp_calonlineweb 'Y','110','1','4','3 ','JK-TO004','2000','A','A',1774766.25,2169158.75,'0',0

27/8/2013  8:55 >> Application_Name >> getDataPremium
exec sp_calonlineweb 'Y','110','2','4','3 ','JK-TO004','2000','A','A',1774766.25,2169158.75,'0',0

27/8/2013  8:55 >> Application_Name >> getDataPremium
exec sp_calonlineweb 'Y','110','3','4','3 ','JK-TO004','2000','A','A',0,0,'0',0

27/8/2013  8:55 >> Application_Name >> getDataPremium
exec sp_calonlineweb 'Y','110','1','4','3 ','JK-TO321','9999','A','A',1118102.7375,1366570.0125,'0',0

27/8/2013  8:55 >> Application_Name >> getDataPremium
exec sp_calonlineweb 'Y','110','2','4','3 ','JK-TO321','9999','A','A',1118102.7375,1366570.0125,'0',0

27/8/2013  8:55 >> Application_Name >> getDataPremium
exec sp_calonlineweb 'Y','110','3','4','3 ','JK-TO321','9999','A','A',0,0,'0',0

27/8/2013  8:55 >> Application_Name >> getDataPremium
exec sp_calonlineweb 'Y','110','1','4','5 ','JK-TO234','2000','A','A',462982.5,565867.5,'0',0

27/8/2013  8:55 >> Application_Name >> getDataPremium
exec sp_calonlineweb 'Y','110','2','4','5 ','JK-TO234','2000','A','A',462982.5,565867.5,'0',0

27/8/2013  8:55 >> Application_Name >> getDataPremium
exec sp_calonlineweb 'Y','110','3','4','5 ','JK-TO234','2000','A','A',0,0,'0',0

27/8/2013  8:55 >> Application_Name >> getDataPremium
exec sp_calonlineweb 'Y','110','1','4','3 ','JK-TO004','2000','A','A',1774766.25,2169158.75,'0',0

27/8/2013  8:55 >> Application_Name >> getDataPremium
exec sp_calonlineweb 'Y','110','2','4','3 ','JK-TO004','2000','A','A',1774766.25,2169158.75,'0',0

27/8/2013  8:55 >> Application_Name >> getDataPremium
exec sp_calonlineweb 'Y','110','3','4','3 ','JK-TO004','2000','A','A',0,0,'0',0

27/8/2013  8:56 >> Application_Name >> getDataPremium
exec sp_calonlineweb 'Y','110','1','4','3 ','JK-HO055','9999','A','A',555579,679041,'0',0

27/8/2013  8:56 >> Application_Name >> getDataPremium
exec sp_calonlineweb 'Y','110','2','4','3 ','JK-HO055','9999','A','A',555579,679041,'0',0

27/8/2013  8:56 >> Application_Name >> getDataPremium
exec sp_calonlineweb 'Y','110','3','4','3 ','JK-HO055','9999','A','A',0,0,'0',0

27/8/2013  9:9 >> Application_Name >> getDataPremium
exec sp_calonlineweb 'Y','110','1','4','3 ','JK-HO055','9999','A','A',555579,679041,'0',0

27/8/2013  9:10 >> Application_Name >> getDataPremium
exec sp_calonlineweb 'Y','110','2','4','3 ','JK-HO055','9999','A','A',555579,679041,'0',0

27/8/2013  9:10 >> Application_Name >> getDataPremium
exec sp_calonlineweb 'Y','110','3','4','3 ','JK-HO055','9999','A','A',0,0,'0',0

27/8/2013  9:10 >> Application_Name >> getDataPremium
exec sp_calonlineweb 'Y','110','1','4','3 ','JK-TO004','2000','A','A',685900,857375,'0',0

27/8/2013  9:10 >> Application_Name >> getDataPremium
exec sp_calonlineweb 'Y','110','2','4','3 ','JK-TO004','2000','A','A',685900,857375,'0',0

27/8/2013  9:10 >> Application_Name >> getDataPremium
exec sp_calonlineweb 'Y','110','3','4','3 ','JK-TO004','2000','A','A',0,0,'0',0

27/8/2013  9:11 >> Application_Name >> getDataPremium
exec sp_calonlineweb 'N','110','1','4','3 ','JK-TO004','2000','A','A',685900,857375,'0',0

27/8/2013  9:11 >> Application_Name >> getDataPremium
exec sp_calonlineweb 'N','110','2','4','3 ','JK-TO004','2000','A','A',685900,857375,'0',0

27/8/2013  9:11 >> Application_Name >> getDataPremium
exec sp_calonlineweb 'N','110','3','4','3 ','JK-TO004','2000','A','A',0,0,'0',0

