17/12/2013  0:7 >> Application_Name >> getDataCarMarkByCarMarkCode
SELECT * 
 FROM online_carmark 
 WHERE carmakcod = '' 
 ORDER BY desc_t, carmakcod 

17/12/2013  0:7 >> Application_Name >> getDataCarMarkByCarMarkCode
SELECT * 
 FROM online_carmark 
 WHERE carmakcod = 'JK-MI080' 
 ORDER BY desc_t, carmakcod 

17/12/2013  0:10 >> Application_Name >> getDataPremium
exec sp_calonlineweb 'Y','110','1','2','5 ','JK-MI080','2000','A','A',376200,459800,'0',20

17/12/2013  0:10 >> Application_Name >> getDataPremium
exec sp_calonlineweb 'Y','110','2','2','5 ','JK-MI080','2000','A','A',376200,459800,'0',20

17/12/2013  0:10 >> Application_Name >> getDataPremium
exec sp_calonlineweb 'Y','110','3','2','5 ','JK-MI080','2000','A','A',0,0,'0',20

17/12/2013  8:37 >> Application_Name >> getDataCarMarkByCarMarkCode
SELECT * 
 FROM online_carmark 
 WHERE carmakcod = '' 
 ORDER BY desc_t, carmakcod 

17/12/2013  8:37 >> Application_Name >> getDataCarMarkByCarMarkCode
SELECT * 
 FROM online_carmark 
 WHERE carmakcod = 'JK-HO001' 
 ORDER BY desc_t, carmakcod 

17/12/2013  8:39 >> Application_Name >> getDataPremium
exec sp_calonlineweb 'Y','110','1','1','5 ','JK-HO001','2000','A','A',495000,605000,'0',30

17/12/2013  8:39 >> Application_Name >> getDataPremium
exec sp_calonlineweb 'Y','110','2','1','5 ','JK-HO001','2000','A','A',495000,605000,'0',30

17/12/2013  8:39 >> Application_Name >> getDataPremium
exec sp_calonlineweb 'Y','110','3','1','5 ','JK-HO001','2000','A','A',0,0,'0',30

17/12/2013  8:41 >> Application_Name >> getDataCarMarkByCarMarkCode
SELECT * 
 FROM online_carmark 
 WHERE carmakcod = '' 
 ORDER BY desc_t, carmakcod 

17/12/2013  8:41 >> Application_Name >> getDataPremium
exec sp_calonlineweb 'Y','110','1','1','5 ','JK-HO001','2000','A','A',495000,605000,'0',20

17/12/2013  8:41 >> Application_Name >> getDataPremium
exec sp_calonlineweb 'Y','110','2','1','5 ','JK-HO001','2000','A','A',495000,605000,'0',20

17/12/2013  8:41 >> Application_Name >> getDataPremium
exec sp_calonlineweb 'Y','110','3','1','5 ','JK-HO001','2000','A','A',0,0,'0',20

17/12/2013  8:41 >> Application_Name >> getDataCarMarkByCarMarkCode
SELECT * 
 FROM online_carmark 
 WHERE carmakcod = 'JK-MI002' 
 ORDER BY desc_t, carmakcod 

17/12/2013  8:41 >> Application_Name >> getDataPremium
exec sp_calonlineweb 'Y','110','1','1','5 ','JK-HO001','2000','A','A',495000,605000,'0',30

17/12/2013  8:41 >> Application_Name >> getDataPremium
exec sp_calonlineweb 'Y','110','2','1','5 ','JK-HO001','2000','A','A',495000,605000,'0',30

17/12/2013  8:41 >> Application_Name >> getDataPremium
exec sp_calonlineweb 'Y','110','3','1','5 ','JK-HO001','2000','A','A',0,0,'0',30

17/12/2013  8:43 >> Application_Name >> getDataPremium
exec sp_calonlineweb 'Y','110','1','1','4 ','JK-MI002','2000','A','A',450000,550000,'36',30

17/12/2013  8:43 >> Application_Name >> getDataPremium
exec sp_calonlineweb 'Y','110','2','1','4 ','JK-MI002','2000','A','A',450000,550000,'36',30

17/12/2013  8:43 >> Application_Name >> getDataPremium
exec sp_calonlineweb 'Y','110','3','1','4 ','JK-MI002','2000','A','A',0,0,'36',30

17/12/2013  8:43 >> Application_Name >> getDataPremium
exec sp_calonlineweb 'Y','110','1','1','4 ','JK-MI002','2000','A','A',450000,550000,'36',20

17/12/2013  8:43 >> Application_Name >> getDataPremium
exec sp_calonlineweb 'Y','110','2','1','4 ','JK-MI002','2000','A','A',450000,550000,'36',20

17/12/2013  8:43 >> Application_Name >> getDataPremium
exec sp_calonlineweb 'Y','110','3','1','4 ','JK-MI002','2000','A','A',0,0,'36',20

17/12/2013  8:44 >> Application_Name >> getDataPremium
exec sp_calonlineweb 'N','110','1','1','5 ','JK-HO001','2000','A','A',495000,605000,'0',30

17/12/2013  8:44 >> Application_Name >> getDataPremium
exec sp_calonlineweb 'N','110','2','1','5 ','JK-HO001','2000','A','A',495000,605000,'0',30

17/12/2013  8:44 >> Application_Name >> getDataPremium
exec sp_calonlineweb 'N','110','3','1','5 ','JK-HO001','2000','A','A',0,0,'0',30

17/12/2013  8:44 >> Application_Name >> SMK :: BuyVoluntary_step2-docToUI
Combine

17/12/2013  8:44 >> Application_Name >> SMK :: BuyVoluntary_step2-docToUI
rg_prmm-012409.6

17/12/2013  8:44 >> Application_Name >> SMK :: BuyVoluntary_step2-docToUI
rg_prmm12409.6

17/12/2013  8:44 >> Application_Name >> SMK :: BuyVoluntary_step2-docToUI
cp_comp_prmm600.00

17/12/2013  8:44 >> Application_Name >> getDataPremium
exec sp_calonlineweb 'Y','110','1','1','5 ','JK-HO001','2000','A','A',495000,605000,'0',30

17/12/2013  8:44 >> Application_Name >> getDataPremium
exec sp_calonlineweb 'Y','110','2','1','5 ','JK-HO001','2000','A','A',495000,605000,'0',30

17/12/2013  8:44 >> Application_Name >> getDataPremium
exec sp_calonlineweb 'Y','110','3','1','5 ','JK-HO001','2000','A','A',0,0,'0',30

17/12/2013  8:44 >> Application_Name >> SMK :: BuyVoluntary_step2-docToUI
Combine

17/12/2013  8:44 >> Application_Name >> SMK :: BuyVoluntary_step2-docToUI
rg_prmm-013268

17/12/2013  8:44 >> Application_Name >> SMK :: BuyVoluntary_step2-docToUI
rg_prmm13268

17/12/2013  8:44 >> Application_Name >> SMK :: BuyVoluntary_step2-docToUI
cp_comp_prmm600.00

17/12/2013  8:46 >> Application_Name >> getDataCarMarkByCarMarkCode
SELECT * 
 FROM online_carmark 
 WHERE carmakcod = '' 
 ORDER BY desc_t, carmakcod 

17/12/2013  8:46 >> Application_Name >> getDataCarMarkByCarMarkCode
SELECT * 
 FROM online_carmark 
 WHERE carmakcod = 'JK-TO067' 
 ORDER BY desc_t, carmakcod 

17/12/2013  8:49 >> Application_Name >> getDataPremium
exec sp_calonlineweb 'N','110','1','3','5 ','JK-TO067','2000','A','A',452423.25,552961.75,'0',30

17/12/2013  8:49 >> Application_Name >> getDataPremium
exec sp_calonlineweb 'N','110','2','3','5 ','JK-TO067','2000','A','A',452423.25,552961.75,'0',30

17/12/2013  8:49 >> Application_Name >> getDataPremium
exec sp_calonlineweb 'N','110','3','3','5 ','JK-TO067','2000','A','A',0,0,'0',30

17/12/2013  8:52 >> Application_Name >> getDataPremium
exec sp_calonlineweb 'N','110','1','3','5 ','JK-TO067','2000','A','A',452423.25,552961.75,'0',0

17/12/2013  8:52 >> Application_Name >> getDataPremium
exec sp_calonlineweb 'N','110','2','3','5 ','JK-TO067','2000','A','A',452423.25,552961.75,'0',0

17/12/2013  8:52 >> Application_Name >> getDataPremium
exec sp_calonlineweb 'N','110','3','3','5 ','JK-TO067','2000','A','A',0,0,'0',0

17/12/2013  8:53 >> Application_Name >> getDataPremium
exec sp_calonlineweb 'N','110','1','3','5 ','JK-TO067','2000','A','A',452423.25,552961.75,'0',20

17/12/2013  8:53 >> Application_Name >> getDataPremium
exec sp_calonlineweb 'N','110','2','3','5 ','JK-TO067','2000','A','A',452423.25,552961.75,'0',20

17/12/2013  8:53 >> Application_Name >> getDataPremium
exec sp_calonlineweb 'N','110','3','3','5 ','JK-TO067','2000','A','A',0,0,'0',20

17/12/2013  8:53 >> Application_Name >> getDataPremium
exec sp_calonlineweb 'N','110','1','3','5 ','JK-TO067','2000','A','A',452423.25,552961.75,'0',30

17/12/2013  8:53 >> Application_Name >> getDataPremium
exec sp_calonlineweb 'N','110','2','3','5 ','JK-TO067','2000','A','A',452423.25,552961.75,'0',30

17/12/2013  8:53 >> Application_Name >> getDataPremium
exec sp_calonlineweb 'N','110','3','3','5 ','JK-TO067','2000','A','A',0,0,'0',30

17/12/2013  8:56 >> Application_Name >> getDataCarMarkByCarMarkCode
SELECT * 
 FROM online_carmark 
 WHERE carmakcod = '' 
 ORDER BY desc_t, carmakcod 

17/12/2013  8:56 >> Application_Name >> getDataCarMarkByCarMarkCode
SELECT * 
 FROM online_carmark 
 WHERE carmakcod = 'JK-HO001' 
 ORDER BY desc_t, carmakcod 

17/12/2013  8:58 >> Application_Name >> getDataPremium
exec sp_calonlineweb 'N','110','1','17','5 ','JK-HO001','2000','A','A',217862.700982625,266276.634534318,'0',0

17/12/2013  8:58 >> Application_Name >> getDataPremium
exec sp_calonlineweb 'N','110','2','17','5 ','JK-HO001','2000','A','A',217862.700982625,266276.634534318,'0',0

17/12/2013  8:58 >> Application_Name >> getDataPremium
exec sp_calonlineweb 'N','110','3','17','5 ','JK-HO001','2000','A','A',0,0,'0',0

17/12/2013  8:59 >> Application_Name >> getDataPremium
exec sp_calonlineweb 'N','110','1','17','5 ','JK-HO001','2000','A','A',217862.700982625,266276.634534318,'0',0

17/12/2013  8:59 >> Application_Name >> getDataPremium
exec sp_calonlineweb 'N','110','2','17','5 ','JK-HO001','2000','A','A',217862.700982625,266276.634534318,'0',0

17/12/2013  8:59 >> Application_Name >> getDataPremium
exec sp_calonlineweb 'N','110','3','17','5 ','JK-HO001','2000','A','A',0,0,'0',0

17/12/2013  9:45 >> Application_Name >> getDataCarMarkByCarMarkCode
SELECT * 
 FROM online_carmark 
 WHERE carmakcod = '' 
 ORDER BY desc_t, carmakcod 

17/12/2013  9:45 >> Application_Name >> getDataCarMarkByCarMarkCode
SELECT * 
 FROM online_carmark 
 WHERE carmakcod = 'JK-TO242' 
 ORDER BY desc_t, carmakcod 

17/12/2013  9:46 >> Application_Name >> getDataPremium
exec sp_calonlineweb 'Y','110','1','2','5 ','JK-TO242','2000','A','A',478800,585200,'0',30

17/12/2013  9:46 >> Application_Name >> getDataPremium
exec sp_calonlineweb 'Y','110','2','2','5 ','JK-TO242','2000','A','A',478800,585200,'0',30

17/12/2013  9:46 >> Application_Name >> getDataPremium
exec sp_calonlineweb 'Y','110','3','2','5 ','JK-TO242','2000','A','A',0,0,'0',30

17/12/2013  9:59 >> Application_Name >> getDataCarMarkByCarMarkCode
SELECT * 
 FROM online_carmark 
 WHERE carmakcod = '' 
 ORDER BY desc_t, carmakcod 

17/12/2013  10:0 >> Application_Name >> getDataCarMarkByCarMarkCode
SELECT * 
 FROM online_carmark 
 WHERE carmakcod = 'JK-HO084' 
 ORDER BY desc_t, carmakcod 

17/12/2013  10:31 >> Application_Name >> getDataCarMarkByCarMarkCode
SELECT * 
 FROM online_carmark 
 WHERE carmakcod = '' 
 ORDER BY desc_t, carmakcod 

17/12/2013  10:31 >> Application_Name >> getDataCarMarkByCarMarkCode
SELECT * 
 FROM online_carmark 
 WHERE carmakcod = 'JK-TO067' 
 ORDER BY desc_t, carmakcod 

17/12/2013  10:32 >> Application_Name >> getDataPremium
exec sp_calonlineweb 'N','110','1','3','5 ','JK-TO067','2000','A','A',452423.25,552961.75,'0',20

17/12/2013  10:32 >> Application_Name >> getDataPremium
exec sp_calonlineweb 'N','110','2','3','5 ','JK-TO067','2000','A','A',452423.25,552961.75,'0',20

17/12/2013  10:32 >> Application_Name >> getDataPremium
exec sp_calonlineweb 'N','110','3','3','5 ','JK-TO067','2000','A','A',0,0,'0',20

17/12/2013  10:34 >> Application_Name >> getDataCarMarkByCarMarkCode
SELECT * 
 FROM online_carmark 
 WHERE carmakcod = '' 
 ORDER BY desc_t, carmakcod 

17/12/2013  10:34 >> Application_Name >> getDataCarMarkByCarMarkCode
SELECT * 
 FROM online_carmark 
 WHERE carmakcod = 'JK-MA065' 
 ORDER BY desc_t, carmakcod 

17/12/2013  10:42 >> Application_Name >> getCategoryCompByBrand
SELECT mdc_minor_cd , mdc_desc_t as mdc_desc FROM mtdesc_comp  WHERE mdc_minor_cd <> '0000' AND mdc_major_cd = 'T001' ORDER BY mdc_desc 

17/12/2013  10:48 >> Application_Name >> getDataCarMarkByCarMarkCode
SELECT * 
 FROM online_carmark 
 WHERE carmakcod = '' 
 ORDER BY desc_t, carmakcod 

17/12/2013  10:48 >> Application_Name >> getDataCarMarkByCarMarkCode
SELECT * 
 FROM online_carmark 
 WHERE carmakcod = 'JK-TO242' 
 ORDER BY desc_t, carmakcod 

17/12/2013  10:50 >> Application_Name >> getDataPremium
exec sp_calonlineweb 'Y','110','1','2','5 ','JK-TO242','2000','A','A',478800,585200,'36',30

17/12/2013  10:50 >> Application_Name >> getDataPremium
exec sp_calonlineweb 'Y','110','2','2','5 ','JK-TO242','2000','A','A',478800,585200,'36',30

17/12/2013  10:50 >> Application_Name >> getDataPremium
exec sp_calonlineweb 'Y','110','3','2','5 ','JK-TO242','2000','A','A',0,0,'36',30

17/12/2013  10:55 >> Application_Name >> getDataCarMarkByCarMarkCode
SELECT * 
 FROM online_carmark 
 WHERE carmakcod = '' 
 ORDER BY desc_t, carmakcod 

17/12/2013  10:55 >> Application_Name >> getDataCarMarkByCarMarkCode
SELECT * 
 FROM online_carmark 
 WHERE carmakcod = 'JK-HO001' 
 ORDER BY desc_t, carmakcod 

17/12/2013  10:58 >> Application_Name >> getDataCarMarkByCarMarkCode
SELECT * 
 FROM online_carmark 
 WHERE carmakcod = '' 
 ORDER BY desc_t, carmakcod 

17/12/2013  10:58 >> Application_Name >> getDataCarMarkByCarMarkCode
SELECT * 
 FROM online_carmark 
 WHERE carmakcod = 'JK-TO242' 
 ORDER BY desc_t, carmakcod 

17/12/2013  10:59 >> Application_Name >> getDataPremium
exec sp_calonlineweb 'Y','110','1','1','5 ','JK-TO242','2000','A','A',504000,616000,'36',30

17/12/2013  10:59 >> Application_Name >> getDataPremium
exec sp_calonlineweb 'Y','110','2','1','5 ','JK-TO242','2000','A','A',504000,616000,'36',30

17/12/2013  10:59 >> Application_Name >> getDataPremium
exec sp_calonlineweb 'Y','110','3','1','5 ','JK-TO242','2000','A','A',0,0,'36',30

17/12/2013  11:13 >> Application_Name >> getDataPremium
exec sp_calonlineweb 'Y','110','1','2','5 ','JK-HO001','2000','A','A',470250,574750,'0',20

17/12/2013  11:13 >> Application_Name >> getDataPremium
exec sp_calonlineweb 'Y','110','2','2','5 ','JK-HO001','2000','A','A',470250,574750,'0',20

17/12/2013  11:13 >> Application_Name >> getDataPremium
exec sp_calonlineweb 'Y','110','3','2','5 ','JK-HO001','2000','A','A',0,0,'0',20

17/12/2013  11:13 >> Application_Name >> getDataCarMarkByCarMarkCode
SELECT * 
 FROM online_carmark 
 WHERE carmakcod = '' 
 ORDER BY desc_t, carmakcod 

17/12/2013  11:14 >> Application_Name >> getDataCarMarkByCarMarkCode
SELECT * 
 FROM online_carmark 
 WHERE carmakcod = 'JK-HO001' 
 ORDER BY desc_t, carmakcod 

17/12/2013  11:15 >> Application_Name >> getDataPremium
exec sp_calonlineweb 'Y','110','1','5','5 ','JK-HO001','2000','A','A',403180.59375,492776.28125,'0',0

17/12/2013  11:15 >> Application_Name >> getDataPremium
exec sp_calonlineweb 'Y','110','2','5','5 ','JK-HO001','2000','A','A',403180.59375,492776.28125,'0',0

17/12/2013  11:15 >> Application_Name >> getDataPremium
exec sp_calonlineweb 'Y','110','3','5','5 ','JK-HO001','2000','A','A',0,0,'0',0

17/12/2013  11:15 >> Application_Name >> SMK :: BuyVoluntary_step2-docToUI
Combine

17/12/2013  11:15 >> Application_Name >> SMK :: BuyVoluntary_step2-docToUI
rg_prmm-015898

17/12/2013  11:15 >> Application_Name >> SMK :: BuyVoluntary_step2-docToUI
rg_prmm15898

17/12/2013  11:15 >> Application_Name >> SMK :: BuyVoluntary_step2-docToUI
cp_comp_prmm600.00

17/12/2013  11:16 >> Application_Name >> SMK :: BuyVoluntary_step2-docToUI
Combine

17/12/2013  11:16 >> Application_Name >> SMK :: BuyVoluntary_step2-docToUI
rg_prmm-013647.2

17/12/2013  11:16 >> Application_Name >> SMK :: BuyVoluntary_step2-docToUI
rg_prmm13647.2

17/12/2013  11:16 >> Application_Name >> SMK :: BuyVoluntary_step2-docToUI
cp_comp_prmm600.00

17/12/2013  11:17 >> Application_Name >> getDataPremium
exec sp_calonlineweb 'Y','110','1','2','5 ','JK-HO001','2000','A','A',470250,574750,'0',20

17/12/2013  11:18 >> Application_Name >> getDataPremium
exec sp_calonlineweb 'Y','110','2','2','5 ','JK-HO001','2000','A','A',470250,574750,'0',20

17/12/2013  11:18 >> Application_Name >> getDataPremium
exec sp_calonlineweb 'Y','110','3','2','5 ','JK-HO001','2000','A','A',0,0,'0',20

17/12/2013  11:18 >> Application_Name >> SMK :: BuyVoluntary_step2-docToUI
Combine

17/12/2013  11:18 >> Application_Name >> SMK :: BuyVoluntary_step2-docToUI
rg_prmm-019048.8

17/12/2013  11:18 >> Application_Name >> SMK :: BuyVoluntary_step2-docToUI
rg_prmm19048.8

17/12/2013  11:18 >> Application_Name >> SMK :: BuyVoluntary_step2-docToUI
cp_comp_prmm600.00

17/12/2013  11:18 >> Application_Name >> getDataCarMarkByCarMarkCode
SELECT * 
 FROM online_carmark 
 WHERE carmakcod = '' 
 ORDER BY desc_t, carmakcod 

17/12/2013  11:18 >> Application_Name >> getDataCarMarkByCarMarkCode
SELECT * 
 FROM online_carmark 
 WHERE carmakcod = 'JK-HO001' 
 ORDER BY desc_t, carmakcod 

17/12/2013  11:19 >> Application_Name >> getDataPremium
exec sp_calonlineweb 'Y','110','1','2','5 ','JK-HO001','2000','A','A',470250,574750,'0',20

17/12/2013  11:19 >> Application_Name >> getDataPremium
exec sp_calonlineweb 'Y','110','2','2','5 ','JK-HO001','2000','A','A',470250,574750,'0',20

17/12/2013  11:19 >> Application_Name >> getDataPremium
exec sp_calonlineweb 'Y','110','3','2','5 ','JK-HO001','2000','A','A',0,0,'0',20

17/12/2013  11:23 >> Application_Name >> getDataCarMarkByCarMarkCode
SELECT * 
 FROM online_carmark 
 WHERE carmakcod = '' 
 ORDER BY desc_t, carmakcod 

17/12/2013  11:23 >> Application_Name >> getDataCarMarkByCarMarkCode
SELECT * 
 FROM online_carmark 
 WHERE carmakcod = 'JK-MI080' 
 ORDER BY desc_t, carmakcod 

17/12/2013  11:23 >> Application_Name >> SMK :: BuyVoluntary_step2-docToUI
Combine

17/12/2013  11:23 >> Application_Name >> SMK :: BuyVoluntary_step2-docToUI
rg_prmm-013647.2

17/12/2013  11:23 >> Application_Name >> SMK :: BuyVoluntary_step2-docToUI
rg_prmm13647.2

17/12/2013  11:23 >> Application_Name >> SMK :: BuyVoluntary_step2-docToUI
cp_comp_prmm600.00

17/12/2013  11:24 >> Application_Name >> getDataPremium
exec sp_calonlineweb 'Y','110','1','1','5 ','JK-MI080','2000','A','A',396000,484000,'36',0

17/12/2013  11:24 >> Application_Name >> getDataPremium
exec sp_calonlineweb 'Y','110','2','1','5 ','JK-MI080','2000','A','A',396000,484000,'36',0

17/12/2013  11:24 >> Application_Name >> getDataPremium
exec sp_calonlineweb 'Y','110','3','1','5 ','JK-MI080','2000','A','A',0,0,'36',0

17/12/2013  11:25 >> Application_Name >> SMK :: BuyVoluntary_step2-docToUI
Combine

17/12/2013  11:25 >> Application_Name >> SMK :: BuyVoluntary_step2-docToUI
rg_prmm-013647.2

17/12/2013  11:25 >> Application_Name >> SMK :: BuyVoluntary_step2-docToUI
rg_prmm13647.2

17/12/2013  11:25 >> Application_Name >> SMK :: BuyVoluntary_step2-docToUI
cp_comp_prmm600.00

17/12/2013  11:52 >> Application_Name >> getDataCarMarkByCarMarkCode
SELECT * 
 FROM online_carmark 
 WHERE carmakcod = '' 
 ORDER BY desc_t, carmakcod 

17/12/2013  11:53 >> Application_Name >> getDataCarMarkByCarMarkCode
SELECT * 
 FROM online_carmark 
 WHERE carmakcod = 'JK-MA065' 
 ORDER BY desc_t, carmakcod 

17/12/2013  11:54 >> Application_Name >> getDataCarMarkByCarMarkCode
SELECT * 
 FROM online_carmark 
 WHERE carmakcod = '' 
 ORDER BY desc_t, carmakcod 

17/12/2013  11:54 >> Application_Name >> getDataCarMarkByCarMarkCode
SELECT * 
 FROM online_carmark 
 WHERE carmakcod = 'JK-HO001' 
 ORDER BY desc_t, carmakcod 

17/12/2013  11:55 >> Application_Name >> getDataPremium
exec sp_calonlineweb 'Y','110','1','1','5 ','JK-HO001','2000','A','A',495000,605000,'0',20

17/12/2013  11:55 >> Application_Name >> getDataPremium
exec sp_calonlineweb 'Y','110','2','1','5 ','JK-HO001','2000','A','A',495000,605000,'0',20

17/12/2013  11:55 >> Application_Name >> getDataPremium
exec sp_calonlineweb 'Y','110','3','1','5 ','JK-HO001','2000','A','A',0,0,'0',20

17/12/2013  13:13 >> Application_Name >> getDataCarMarkByCarMarkCode
SELECT * 
 FROM online_carmark 
 WHERE carmakcod = '' 
 ORDER BY desc_t, carmakcod 

17/12/2013  13:13 >> Application_Name >> getDataCarMarkByCarMarkCode
SELECT * 
 FROM online_carmark 
 WHERE carmakcod = 'EK-CR033' 
 ORDER BY desc_t, carmakcod 

17/12/2013  13:16 >> Application_Name >> getDataPremium
exec sp_calonlineweb 'Y','110','1','2','3 ','EK-CR033','9999','A','A',923438,1020642,'0',0

17/12/2013  13:16 >> Application_Name >> getDataPremium
exec sp_calonlineweb 'Y','110','2','2','3 ','EK-CR033','9999','A','A',923438,1020642,'0',0

17/12/2013  13:16 >> Application_Name >> getDataPremium
exec sp_calonlineweb 'Y','110','3','2','3 ','EK-CR033','9999','A','A',0,0,'0',0

17/12/2013  13:18 >> Application_Name >> getDataPremium
exec sp_calonlineweb 'N','110','1','2','3 ','EK-CR033','9999','A','A',923438,1020642,'0',0

17/12/2013  13:18 >> Application_Name >> getDataPremium
exec sp_calonlineweb 'N','110','2','2','3 ','EK-CR033','9999','A','A',923438,1020642,'0',0

17/12/2013  13:18 >> Application_Name >> getDataPremium
exec sp_calonlineweb 'N','110','3','2','3 ','EK-CR033','9999','A','A',0,0,'0',0

17/12/2013  13:21 >> Application_Name >> getDataCarMarkByCarMarkCode
SELECT * 
 FROM online_carmark 
 WHERE carmakcod = '' 
 ORDER BY desc_t, carmakcod 

17/12/2013  13:21 >> Application_Name >> getDataCarMarkByCarMarkCode
SELECT * 
 FROM online_carmark 
 WHERE carmakcod = 'EK-CR033' 
 ORDER BY desc_t, carmakcod 

17/12/2013  13:22 >> Application_Name >> getDataPremium
exec sp_calonlineweb 'N','110','1','2','3 ','EK-CR033','9999','A','A',923438,1020642,'0',0

17/12/2013  13:22 >> Application_Name >> getDataPremium
exec sp_calonlineweb 'N','110','2','2','3 ','EK-CR033','9999','A','A',923438,1020642,'0',0

17/12/2013  13:22 >> Application_Name >> getDataPremium
exec sp_calonlineweb 'N','110','3','2','3 ','EK-CR033','9999','A','A',0,0,'0',0

17/12/2013  13:22 >> Application_Name >> getDataPremium
exec sp_calonlineweb 'N','110','1','2','3 ','EK-CR033','9999','A','A',923438,1020642,'0',0

17/12/2013  13:22 >> Application_Name >> getDataPremium
exec sp_calonlineweb 'N','110','2','2','3 ','EK-CR033','9999','A','A',923438,1020642,'0',0

17/12/2013  13:22 >> Application_Name >> getDataPremium
exec sp_calonlineweb 'N','110','3','2','3 ','EK-CR033','9999','A','A',0,0,'0',0

17/12/2013  13:38 >> Application_Name >> CalculateService :: AdminCalculatorManager
UPDATE register  SET rg_approve = 'H' WHERE rg_regis_no = '90-00055'

17/12/2013  13:38 >> Application_Name >> CalculateService :: AdminCalculatorManager
UPDATE register  SET rg_approve = 'C' WHERE rg_regis_no = '90-00054'

17/12/2013  13:38 >> Application_Name >> CalculateService :: AdminCalculatorManager
UPDATE register  SET rg_approve = 'H' WHERE rg_regis_no = '90-00052'

17/12/2013  13:38 >> Application_Name >> CalculateService :: AdminCalculatorManager
UPDATE register  SET rg_approve = 'H' WHERE rg_regis_no = '90-00051'

17/12/2013  13:38 >> Application_Name >> CalculateService :: AdminCalculatorManager
UPDATE register  SET rg_approve = 'H' WHERE rg_regis_no = '90-00050'

17/12/2013  13:38 >> Application_Name >> CalculateService :: AdminCalculatorManager
UPDATE register  SET rg_approve = 'H' WHERE rg_regis_no = '90-00049'

17/12/2013  13:38 >> Application_Name >> CalculateService :: AdminCalculatorManager
UPDATE register  SET rg_approve = 'H' WHERE rg_regis_no = '90-00046'

17/12/2013  13:38 >> Application_Name >> CalculateService :: AdminCalculatorManager
UPDATE register  SET rg_approve = 'H' WHERE rg_regis_no = '91-00009'

17/12/2013  13:38 >> Application_Name >> CalculateService :: AdminCalculatorManager
UPDATE register  SET rg_approve = 'H' WHERE rg_regis_no = '90-00045'

17/12/2013  13:38 >> Application_Name >> CalculateService :: AdminCalculatorManager
UPDATE register  SET rg_approve = 'H' WHERE rg_regis_no = '90-00041'

17/12/2013  14:1 >> Application_Name >> getDataCarMarkByCarMarkCode
SELECT * 
 FROM online_carmark 
 WHERE carmakcod = '' 
 ORDER BY desc_t, carmakcod 

17/12/2013  14:1 >> Application_Name >> getDataCarMarkByCarMarkCode
SELECT * 
 FROM online_carmark 
 WHERE carmakcod = 'JK-HO001' 
 ORDER BY desc_t, carmakcod 

17/12/2013  14:2 >> Application_Name >> getDataPremium
exec sp_calonlineweb 'Y','110','1','1','5 ','JK-HO001','2000','A','A',495000,605000,'0',20

17/12/2013  14:2 >> Application_Name >> getDataPremium
exec sp_calonlineweb 'Y','110','2','1','5 ','JK-HO001','2000','A','A',495000,605000,'0',20

17/12/2013  14:2 >> Application_Name >> getDataPremium
exec sp_calonlineweb 'Y','110','3','1','5 ','JK-HO001','2000','A','A',0,0,'0',20

17/12/2013  14:3 >> Application_Name >> getDataPremium
exec sp_calonlineweb 'Y','110','1','1','5 ','JK-HO001','2000','A','A',495000,605000,'0',0

17/12/2013  14:3 >> Application_Name >> getDataPremium
exec sp_calonlineweb 'Y','110','2','1','5 ','JK-HO001','2000','A','A',495000,605000,'0',0

17/12/2013  14:3 >> Application_Name >> getDataPremium
exec sp_calonlineweb 'Y','110','3','1','5 ','JK-HO001','2000','A','A',0,0,'0',0

17/12/2013  14:3 >> Application_Name >> SMK :: BuyVoluntary_step2-docToUI
Combine

17/12/2013  14:3 >> Application_Name >> SMK :: BuyVoluntary_step2-docToUI
rg_prmm-018007

17/12/2013  14:3 >> Application_Name >> SMK :: BuyVoluntary_step2-docToUI
rg_prmm18007

17/12/2013  14:3 >> Application_Name >> SMK :: BuyVoluntary_step2-docToUI
cp_comp_prmm600.00

17/12/2013  14:4 >> Application_Name >> getDataCarMarkByCarMarkCode
SELECT * 
 FROM online_carmark 
 WHERE carmakcod = '' 
 ORDER BY desc_t, carmakcod 

17/12/2013  14:10 >> Application_Name >> getDataCarMarkByCarMarkCode
SELECT * 
 FROM online_carmark 
 WHERE carmakcod = '' 
 ORDER BY desc_t, carmakcod 

17/12/2013  14:10 >> Application_Name >> getDataCarMarkByCarMarkCode
SELECT * 
 FROM online_carmark 
 WHERE carmakcod = 'JK-TO242' 
 ORDER BY desc_t, carmakcod 

17/12/2013  14:11 >> Application_Name >> getDataPremium
exec sp_calonlineweb 'Y','110','1','1','5 ','JK-TO242','2000','A','A',504000,616000,'0',30

17/12/2013  14:11 >> Application_Name >> getDataPremium
exec sp_calonlineweb 'Y','110','2','1','5 ','JK-TO242','2000','A','A',504000,616000,'0',30

17/12/2013  14:11 >> Application_Name >> getDataPremium
exec sp_calonlineweb 'Y','110','3','1','5 ','JK-TO242','2000','A','A',0,0,'0',30

17/12/2013  14:12 >> Application_Name >> getDataCarMarkByCarMarkCode
SELECT * 
 FROM online_carmark 
 WHERE carmakcod = '' 
 ORDER BY desc_t, carmakcod 

17/12/2013  14:12 >> Application_Name >> getDataCarMarkByCarMarkCode
SELECT * 
 FROM online_carmark 
 WHERE carmakcod = 'JK-NI100' 
 ORDER BY desc_t, carmakcod 

17/12/2013  14:13 >> Application_Name >> getDataCarMarkByCarMarkCode
SELECT * 
 FROM online_carmark 
 WHERE carmakcod = '' 
 ORDER BY desc_t, carmakcod 

17/12/2013  14:13 >> Application_Name >> getDataCarMarkByCarMarkCode
SELECT * 
 FROM online_carmark 
 WHERE carmakcod = '' 
 ORDER BY desc_t, carmakcod 

17/12/2013  14:13 >> Application_Name >> getDataCarMarkByCarMarkCode
SELECT * 
 FROM online_carmark 
 WHERE carmakcod = 'JK-NI100' 
 ORDER BY desc_t, carmakcod 

17/12/2013  14:13 >> Application_Name >> getDataCarMarkByCarMarkCode
SELECT * 
 FROM online_carmark 
 WHERE carmakcod = 'JK-NI100' 
 ORDER BY desc_t, carmakcod 

17/12/2013  14:14 >> Application_Name >> getDataPremium
exec sp_calonlineweb 'Y','110','1','1','5 ','JK-TO242','2000','A','A',504000,616000,'0',30

17/12/2013  14:14 >> Application_Name >> getDataPremium
exec sp_calonlineweb 'Y','110','2','1','5 ','JK-TO242','2000','A','A',504000,616000,'0',30

17/12/2013  14:14 >> Application_Name >> getDataPremium
exec sp_calonlineweb 'Y','110','3','1','5 ','JK-TO242','2000','A','A',0,0,'0',30

17/12/2013  14:15 >> Application_Name >> getDataPremium
exec sp_calonlineweb 'Y','110','1','3','5 ','JK-NI100','2000','A','A',361000,397100,'25',0

17/12/2013  14:15 >> Application_Name >> getDataPremium
exec sp_calonlineweb 'Y','110','2','3','5 ','JK-NI100','2000','A','A',361000,397100,'25',0

17/12/2013  14:15 >> Application_Name >> getDataPremium
exec sp_calonlineweb 'Y','110','3','3','5 ','JK-NI100','2000','A','A',0,0,'25',0

17/12/2013  14:15 >> Application_Name >> getDataPremium
exec sp_calonlineweb 'N','110','1','2','5 ','JK-NI100','2000','A','A',380000,418000,'0',30

17/12/2013  14:15 >> Application_Name >> getDataPremium
exec sp_calonlineweb 'N','110','2','2','5 ','JK-NI100','2000','A','A',380000,418000,'0',30

17/12/2013  14:15 >> Application_Name >> getDataPremium
exec sp_calonlineweb 'N','110','3','2','5 ','JK-NI100','2000','A','A',0,0,'0',30

17/12/2013  14:16 >> Application_Name >> getDataPremium
exec sp_calonlineweb 'Y','110','1','2','5 ','JK-NI100','2000','A','A',380000,418000,'0',30

17/12/2013  14:16 >> Application_Name >> getDataPremium
exec sp_calonlineweb 'Y','110','2','2','5 ','JK-NI100','2000','A','A',380000,418000,'0',30

17/12/2013  14:16 >> Application_Name >> getDataPremium
exec sp_calonlineweb 'Y','110','3','2','5 ','JK-NI100','2000','A','A',0,0,'0',30

17/12/2013  14:16 >> Application_Name >> SMK :: BuyVoluntary_step2-docToUI
Combine

17/12/2013  14:16 >> Application_Name >> SMK :: BuyVoluntary_step2-docToUI
rg_prmm-012617

17/12/2013  14:16 >> Application_Name >> SMK :: BuyVoluntary_step2-docToUI
rg_prmm12617

17/12/2013  14:16 >> Application_Name >> SMK :: BuyVoluntary_step2-docToUI
cp_comp_prmm600.00

17/12/2013  14:16 >> Application_Name >> getDataPremium
exec sp_calonlineweb 'N','110','1','2','5 ','JK-NI100','2000','A','A',380000,418000,'36',30

17/12/2013  14:16 >> Application_Name >> getDataPremium
exec sp_calonlineweb 'N','110','2','2','5 ','JK-NI100','2000','A','A',380000,418000,'36',30

17/12/2013  14:16 >> Application_Name >> getDataPremium
exec sp_calonlineweb 'N','110','3','2','5 ','JK-NI100','2000','A','A',0,0,'36',30

17/12/2013  14:17 >> Application_Name >> getDataPremium
exec sp_calonlineweb 'N','110','1','2','5 ','JK-NI100','2000','A','A',380000,418000,'36',20

17/12/2013  14:17 >> Application_Name >> getDataPremium
exec sp_calonlineweb 'N','110','2','2','5 ','JK-NI100','2000','A','A',380000,418000,'36',20

17/12/2013  14:17 >> Application_Name >> getDataPremium
exec sp_calonlineweb 'N','110','3','2','5 ','JK-NI100','2000','A','A',0,0,'36',20

17/12/2013  14:18 >> Application_Name >> SMK :: BuyVoluntary_step2-docToUI
Combine

17/12/2013  14:18 >> Application_Name >> SMK :: BuyVoluntary_step2-docToUI
rg_prmm-010994.4

17/12/2013  14:18 >> Application_Name >> SMK :: BuyVoluntary_step2-docToUI
rg_prmm10994.4

17/12/2013  14:18 >> Application_Name >> SMK :: BuyVoluntary_step2-docToUI
cp_comp_prmm600.00

17/12/2013  14:20 >> Application_Name >> getDataPremium
exec sp_calonlineweb 'Y','110','1','2','5 ','JK-NI100','2000','A','A',380000,418000,'0',30

17/12/2013  14:20 >> Application_Name >> getDataPremium
exec sp_calonlineweb 'Y','110','2','2','5 ','JK-NI100','2000','A','A',380000,418000,'0',30

17/12/2013  14:20 >> Application_Name >> getDataPremium
exec sp_calonlineweb 'Y','110','3','2','5 ','JK-NI100','2000','A','A',0,0,'0',30

17/12/2013  14:20 >> Application_Name >> SMK :: BuyVoluntary_step2-docToUI
Combine

17/12/2013  14:20 >> Application_Name >> SMK :: BuyVoluntary_step2-docToUI
rg_prmm-08984.5

17/12/2013  14:20 >> Application_Name >> SMK :: BuyVoluntary_step2-docToUI
rg_prmm8984.5

17/12/2013  14:20 >> Application_Name >> SMK :: BuyVoluntary_step2-docToUI
cp_comp_prmm600.00

17/12/2013  14:20 >> Application_Name >> getDataPremium
exec sp_calonlineweb 'Y','110','1','2','5 ','JK-NI100','2000','A','A',380000,418000,'0',30

17/12/2013  14:20 >> Application_Name >> getDataPremium
exec sp_calonlineweb 'Y','110','2','2','5 ','JK-NI100','2000','A','A',380000,418000,'0',30

17/12/2013  14:20 >> Application_Name >> getDataPremium
exec sp_calonlineweb 'Y','110','3','2','5 ','JK-NI100','2000','A','A',0,0,'0',30

17/12/2013  14:21 >> Application_Name >> SMK :: BuyVoluntary_step2-docToUI
Combine

17/12/2013  14:21 >> Application_Name >> SMK :: BuyVoluntary_step2-docToUI
rg_prmm-010994.4

17/12/2013  14:21 >> Application_Name >> SMK :: BuyVoluntary_step2-docToUI
rg_prmm10994.4

17/12/2013  14:21 >> Application_Name >> SMK :: BuyVoluntary_step2-docToUI
cp_comp_prmm600.00

17/12/2013  14:22 >> Application_Name >> getDataPremium
exec sp_calonlineweb 'Y','110','1','2','5 ','JK-NI100','2000','A','A',380000,418000,'0',20

17/12/2013  14:22 >> Application_Name >> getDataPremium
exec sp_calonlineweb 'Y','110','2','2','5 ','JK-NI100','2000','A','A',380000,418000,'0',20

17/12/2013  14:22 >> Application_Name >> getDataPremium
exec sp_calonlineweb 'Y','110','3','2','5 ','JK-NI100','2000','A','A',0,0,'0',20

17/12/2013  14:24 >> Application_Name >> getDataCarMarkByCarMarkCode
SELECT * 
 FROM online_carmark 
 WHERE carmakcod = '' 
 ORDER BY desc_t, carmakcod 

17/12/2013  14:24 >> Application_Name >> getDataCarMarkByCarMarkCode
SELECT * 
 FROM online_carmark 
 WHERE carmakcod = 'JK-HO001' 
 ORDER BY desc_t, carmakcod 

17/12/2013  14:25 >> Application_Name >> getDataPremium
exec sp_calonlineweb 'Y','110','1','1','5 ','JK-HO001','2000','A','A',495000,605000,'0',0

17/12/2013  14:25 >> Application_Name >> getDataPremium
exec sp_calonlineweb 'Y','110','2','1','5 ','JK-HO001','2000','A','A',495000,605000,'0',0

17/12/2013  14:25 >> Application_Name >> getDataPremium
exec sp_calonlineweb 'Y','110','3','1','5 ','JK-HO001','2000','A','A',0,0,'0',0

17/12/2013  14:26 >> Application_Name >> SMK :: BuyVoluntary_step2-docToUI
Combine

17/12/2013  14:26 >> Application_Name >> SMK :: BuyVoluntary_step2-docToUI
rg_prmm-017533

17/12/2013  14:26 >> Application_Name >> SMK :: BuyVoluntary_step2-docToUI
rg_prmm17533

17/12/2013  14:26 >> Application_Name >> SMK :: BuyVoluntary_step2-docToUI
cp_comp_prmm600.00

17/12/2013  14:29 >> Application_Name >> getDataCarMarkByCarMarkCode
SELECT * 
 FROM online_carmark 
 WHERE carmakcod = '' 
 ORDER BY desc_t, carmakcod 

17/12/2013  14:29 >> Application_Name >> getDataCarMarkByCarMarkCode
SELECT * 
 FROM online_carmark 
 WHERE carmakcod = 'JK-HO001' 
 ORDER BY desc_t, carmakcod 

17/12/2013  14:31 >> Application_Name >> getDataPremium
exec sp_calonlineweb 'Y','110','1','1','5 ','JK-HO001','2000','A','A',495000,605000,'25',20

17/12/2013  14:31 >> Application_Name >> getDataPremium
exec sp_calonlineweb 'Y','110','2','1','5 ','JK-HO001','2000','A','A',495000,605000,'25',20

17/12/2013  14:31 >> Application_Name >> getDataPremium
exec sp_calonlineweb 'Y','110','3','1','5 ','JK-HO001','2000','A','A',0,0,'25',20

17/12/2013  14:33 >> Application_Name >> SMK :: BuyVoluntary_step2-docToUI
Combine

17/12/2013  14:33 >> Application_Name >> SMK :: BuyVoluntary_step2-docToUI
rg_prmm-012108

17/12/2013  14:33 >> Application_Name >> SMK :: BuyVoluntary_step2-docToUI
rg_prmm12108

17/12/2013  14:33 >> Application_Name >> SMK :: BuyVoluntary_step2-docToUI
cp_comp_prmm600.00

17/12/2013  14:37 >> Application_Name >> getDataCarMarkByCarMarkCode
SELECT * 
 FROM online_carmark 
 WHERE carmakcod = '' 
 ORDER BY desc_t, carmakcod 

17/12/2013  14:37 >> Application_Name >> getDataCarMarkByCarMarkCode
SELECT * 
 FROM online_carmark 
 WHERE carmakcod = 'JK-SZ004' 
 ORDER BY desc_t, carmakcod 

17/12/2013  14:40 >> Application_Name >> getDataCarMarkByCarMarkCode
SELECT * 
 FROM online_carmark 
 WHERE carmakcod = '' 
 ORDER BY desc_t, carmakcod 

17/12/2013  14:40 >> Application_Name >> getDataPremium
exec sp_calonlineweb 'N','110','1','1','5 ','JK-SZ004','2000','A','A',405000,495000,'25',20

17/12/2013  14:40 >> Application_Name >> getDataPremium
exec sp_calonlineweb 'N','110','2','1','5 ','JK-SZ004','2000','A','A',405000,495000,'25',20

17/12/2013  14:40 >> Application_Name >> getDataPremium
exec sp_calonlineweb 'N','110','3','1','5 ','JK-SZ004','2000','A','A',0,0,'25',20

17/12/2013  14:45 >> Application_Name >> getDataCarMarkByCarMarkCode
SELECT * 
 FROM online_carmark 
 WHERE carmakcod = '' 
 ORDER BY desc_t, carmakcod 

17/12/2013  14:45 >> Application_Name >> getDataCarMarkByCarMarkCode
SELECT * 
 FROM online_carmark 
 WHERE carmakcod = '' 
 ORDER BY desc_t, carmakcod 

17/12/2013  14:45 >> Application_Name >> getDataCarMarkByCarMarkCode
SELECT * 
 FROM online_carmark 
 WHERE carmakcod = 'JK-TO019' 
 ORDER BY desc_t, carmakcod 

17/12/2013  14:46 >> Application_Name >> getDataPremium
exec sp_calonlineweb 'Y','110','1','3','4 ','JK-TO019','2000','A','A',633555,774345,'0',0

17/12/2013  14:46 >> Application_Name >> getDataPremium
exec sp_calonlineweb 'Y','110','2','3','4 ','JK-TO019','2000','A','A',633555,774345,'0',0

17/12/2013  14:46 >> Application_Name >> getDataPremium
exec sp_calonlineweb 'Y','110','3','3','4 ','JK-TO019','2000','A','A',0,0,'0',0

17/12/2013  14:47 >> Application_Name >> getDataCarMarkByCarMarkCode
SELECT * 
 FROM online_carmark 
 WHERE carmakcod = '' 
 ORDER BY desc_t, carmakcod 

17/12/2013  14:47 >> Application_Name >> getDataCarMarkByCarMarkCode
SELECT * 
 FROM online_carmark 
 WHERE carmakcod = 'JK-HO001' 
 ORDER BY desc_t, carmakcod 

17/12/2013  14:48 >> Application_Name >> getDataPremium
exec sp_calonlineweb 'Y','110','1','1','5 ','JK-HO001','2000','A','A',495000,605000,'0',0

17/12/2013  14:48 >> Application_Name >> getDataPremium
exec sp_calonlineweb 'Y','110','2','1','5 ','JK-HO001','2000','A','A',495000,605000,'0',0

17/12/2013  14:48 >> Application_Name >> getDataPremium
exec sp_calonlineweb 'Y','110','3','1','5 ','JK-HO001','2000','A','A',0,0,'0',0

17/12/2013  14:48 >> Application_Name >> SMK :: BuyVoluntary_step2-docToUI
Combine

17/12/2013  14:48 >> Application_Name >> SMK :: BuyVoluntary_step2-docToUI
rg_prmm-017533

17/12/2013  14:48 >> Application_Name >> SMK :: BuyVoluntary_step2-docToUI
rg_prmm17533

17/12/2013  14:48 >> Application_Name >> SMK :: BuyVoluntary_step2-docToUI
cp_comp_prmm600.00

17/12/2013  14:56 >> Application_Name >> getDataCarMarkByCarMarkCode
SELECT * 
 FROM online_carmark 
 WHERE carmakcod = '' 
 ORDER BY desc_t, carmakcod 

17/12/2013  14:56 >> Application_Name >> getDataCarMarkByCarMarkCode
SELECT * 
 FROM online_carmark 
 WHERE carmakcod = 'JK-TO206' 
 ORDER BY desc_t, carmakcod 

17/12/2013  14:58 >> Application_Name >> getDataPremium
exec sp_calonlineweb 'Y','110','1','11','4 ','JK-TO206','2000','A','A',334095.212095015,408338.592560574,'0',0

17/12/2013  14:58 >> Application_Name >> getDataPremium
exec sp_calonlineweb 'Y','110','2','11','4 ','JK-TO206','2000','A','A',334095.212095015,408338.592560574,'0',0

17/12/2013  14:58 >> Application_Name >> getDataPremium
exec sp_calonlineweb 'Y','110','3','11','4 ','JK-TO206','2000','A','A',0,0,'0',0

17/12/2013  15:2 >> Application_Name >> getDataCarMarkByCarMarkCode
SELECT * 
 FROM online_carmark 
 WHERE carmakcod = '' 
 ORDER BY desc_t, carmakcod 

17/12/2013  15:2 >> Application_Name >> getDataCarMarkByCarMarkCode
SELECT * 
 FROM online_carmark 
 WHERE carmakcod = 'JK-SZ004' 
 ORDER BY desc_t, carmakcod 

17/12/2013  15:3 >> Application_Name >> getDataCarMarkByCarMarkCode
SELECT * 
 FROM online_carmark 
 WHERE carmakcod = '' 
 ORDER BY desc_t, carmakcod 

17/12/2013  15:5 >> Application_Name >> getDataPremium
exec sp_calonlineweb 'Y','110','1','1','5 ','JK-SZ004','2000','A','A',405000,495000,'0',0

17/12/2013  15:5 >> Application_Name >> getDataPremium
exec sp_calonlineweb 'Y','110','2','1','5 ','JK-SZ004','2000','A','A',405000,495000,'0',0

17/12/2013  15:5 >> Application_Name >> getDataPremium
exec sp_calonlineweb 'Y','110','3','1','5 ','JK-SZ004','2000','A','A',0,0,'0',0

17/12/2013  15:6 >> Application_Name >> getDataCarMarkByCarMarkCode
SELECT * 
 FROM online_carmark 
 WHERE carmakcod = '' 
 ORDER BY desc_t, carmakcod 

17/12/2013  15:6 >> Application_Name >> getDataCarMarkByCarMarkCode
SELECT * 
 FROM online_carmark 
 WHERE carmakcod = 'JK-SZ004' 
 ORDER BY desc_t, carmakcod 

17/12/2013  15:7 >> Application_Name >> getDataPremium
exec sp_calonlineweb 'Y','110','1','1','5 ','JK-SZ004','2000','A','A',405000,495000,'0',20

17/12/2013  15:7 >> Application_Name >> getDataPremium
exec sp_calonlineweb 'Y','110','2','1','5 ','JK-SZ004','2000','A','A',405000,495000,'0',20

17/12/2013  15:7 >> Application_Name >> getDataPremium
exec sp_calonlineweb 'Y','110','3','1','5 ','JK-SZ004','2000','A','A',0,0,'0',20

17/12/2013  15:8 >> Application_Name >> getDataCarMarkByCarMarkCode
SELECT * 
 FROM online_carmark 
 WHERE carmakcod = '' 
 ORDER BY desc_t, carmakcod 

17/12/2013  15:8 >> Application_Name >> getDataCarMarkByCarMarkCode
SELECT * 
 FROM online_carmark 
 WHERE carmakcod = 'JK-HO084' 
 ORDER BY desc_t, carmakcod 

17/12/2013  15:11 >> Application_Name >> getDataCarMarkByCarMarkCode
SELECT * 
 FROM online_carmark 
 WHERE carmakcod = '' 
 ORDER BY desc_t, carmakcod 

17/12/2013  15:11 >> Application_Name >> getDataCarMarkByCarMarkCode
SELECT * 
 FROM online_carmark 
 WHERE carmakcod = 'JK-TO206' 
 ORDER BY desc_t, carmakcod 

17/12/2013  15:13 >> Application_Name >> getDataPremium
exec sp_calonlineweb 'Y','110','1','11','4 ','JK-TO206','2000','A','A',334095.212095015,408338.592560574,'36',20

17/12/2013  15:13 >> Application_Name >> getDataPremium
exec sp_calonlineweb 'Y','110','2','11','4 ','JK-TO206','2000','A','A',334095.212095015,408338.592560574,'36',20

17/12/2013  15:13 >> Application_Name >> getDataPremium
exec sp_calonlineweb 'Y','110','3','11','4 ','JK-TO206','2000','A','A',0,0,'36',20

17/12/2013  15:25 >> Application_Name >> getCategoryCompByBrand
SELECT mdc_minor_cd , mdc_desc_t as mdc_desc FROM mtdesc_comp  WHERE mdc_minor_cd <> '0000' AND mdc_major_cd = 'S003' ORDER BY mdc_desc 

17/12/2013  15:34 >> Application_Name >> getDataCarMarkByCarMarkCode
SELECT * 
 FROM online_carmark 
 WHERE carmakcod = '' 
 ORDER BY desc_t, carmakcod 

17/12/2013  15:34 >> Application_Name >> getDataCarMarkByCarMarkCode
SELECT * 
 FROM online_carmark 
 WHERE carmakcod = 'JK-HO084' 
 ORDER BY desc_t, carmakcod 

17/12/2013  15:36 >> Application_Name >> getDataCarMarkByCarMarkCode
SELECT * 
 FROM online_carmark 
 WHERE carmakcod = '' 
 ORDER BY desc_t, carmakcod 

17/12/2013  15:36 >> Application_Name >> getDataCarMarkByCarMarkCode
SELECT * 
 FROM online_carmark 
 WHERE carmakcod = '' 
 ORDER BY desc_t, carmakcod 

17/12/2013  15:36 >> Application_Name >> getDataCarMarkByCarMarkCode
SELECT * 
 FROM online_carmark 
 WHERE carmakcod = '' 
 ORDER BY desc_t, carmakcod 

17/12/2013  15:36 >> Application_Name >> getDataCarMarkByCarMarkCode
SELECT * 
 FROM online_carmark 
 WHERE carmakcod = 'JK-TO002' 
 ORDER BY desc_t, carmakcod 

17/12/2013  15:37 >> Application_Name >> getDataPremium
exec sp_calonlineweb 'N','110','1','2','5 ','JK-HO084','2000','A','A',487350,595650,'0',0

17/12/2013  15:37 >> Application_Name >> getDataPremium
exec sp_calonlineweb 'N','110','2','2','5 ','JK-HO084','2000','A','A',487350,595650,'0',0

17/12/2013  15:37 >> Application_Name >> getDataPremium
exec sp_calonlineweb 'N','110','3','2','5 ','JK-HO084','2000','A','A',0,0,'0',0

17/12/2013  15:38 >> Application_Name >> getDataPremium
exec sp_calonlineweb 'N','110','1','17','4 ','JK-TO002','2000','A','A',240837.313086246,266188.609200588,'0',0

17/12/2013  15:38 >> Application_Name >> getDataPremium
exec sp_calonlineweb 'N','110','2','17','4 ','JK-TO002','2000','A','A',240837.313086246,266188.609200588,'0',0

17/12/2013  15:38 >> Application_Name >> getDataPremium
exec sp_calonlineweb 'N','110','3','17','4 ','JK-TO002','2000','A','A',0,0,'0',0

17/12/2013  15:39 >> Application_Name >> getDataCarMarkByCarMarkCode
SELECT * 
 FROM online_carmark 
 WHERE carmakcod = '' 
 ORDER BY desc_t, carmakcod 

17/12/2013  15:39 >> Application_Name >> getDataCarMarkByCarMarkCode
SELECT * 
 FROM online_carmark 
 WHERE carmakcod = '' 
 ORDER BY desc_t, carmakcod 

17/12/2013  15:39 >> Application_Name >> getDataCarMarkByCarMarkCode
SELECT * 
 FROM online_carmark 
 WHERE carmakcod = 'JK-TO002' 
 ORDER BY desc_t, carmakcod 

17/12/2013  15:39 >> Application_Name >> getDataCarMarkByCarMarkCode
SELECT * 
 FROM online_carmark 
 WHERE carmakcod = 'EK-CR038' 
 ORDER BY desc_t, carmakcod 

17/12/2013  15:40 >> Application_Name >> getDataPremium
exec sp_calonlineweb 'N','110','1','16','4 ','JK-TO002','2000','A','A',253512.961143417,280198.536000619,'0',0

17/12/2013  15:40 >> Application_Name >> getDataPremium
exec sp_calonlineweb 'N','110','2','16','4 ','JK-TO002','2000','A','A',253512.961143417,280198.536000619,'0',0

17/12/2013  15:40 >> Application_Name >> getDataPremium
exec sp_calonlineweb 'N','110','3','16','4 ','JK-TO002','2000','A','A',0,0,'0',0

17/12/2013  15:40 >> Application_Name >> getDataPremium
exec sp_calonlineweb 'Y','110','1','3','3 ','EK-CR038','2000','A','A',613700,676875,'0',0

17/12/2013  15:40 >> Application_Name >> getDataPremium
exec sp_calonlineweb 'Y','110','2','3','3 ','EK-CR038','2000','A','A',613700,676875,'0',0

17/12/2013  15:40 >> Application_Name >> getDataPremium
exec sp_calonlineweb 'Y','110','3','3','3 ','EK-CR038','2000','A','A',0,0,'0',0

17/12/2013  15:40 >> Application_Name >> SMK :: BuyVoluntary_step2-docToUI
Combine

17/12/2013  15:40 >> Application_Name >> SMK :: BuyVoluntary_step2-docToUI
rg_prmm-021666

17/12/2013  15:40 >> Application_Name >> SMK :: BuyVoluntary_step2-docToUI
rg_prmm21666

17/12/2013  15:40 >> Application_Name >> SMK :: BuyVoluntary_step2-docToUI
cp_comp_prmm600.00

17/12/2013  15:53 >> Application_Name >> getDataCarMarkByCarMarkCode
SELECT * 
 FROM online_carmark 
 WHERE carmakcod = '' 
 ORDER BY desc_t, carmakcod 

17/12/2013  15:53 >> Application_Name >> getDataCarMarkByCarMarkCode
SELECT * 
 FROM online_carmark 
 WHERE carmakcod = 'JK-TO242' 
 ORDER BY desc_t, carmakcod 

17/12/2013  15:56 >> Application_Name >> getDataCarMarkByCarMarkCode
SELECT * 
 FROM online_carmark 
 WHERE carmakcod = 'EK-BM037' 
 ORDER BY desc_t, carmakcod 

17/12/2013  15:56 >> Application_Name >> getDataCarMarkByCarMarkCode
SELECT * 
 FROM online_carmark 
 WHERE carmakcod = '' 
 ORDER BY desc_t, carmakcod 

17/12/2013  15:56 >> Application_Name >> getDataCarMarkByCarMarkCode
SELECT * 
 FROM online_carmark 
 WHERE carmakcod = '' 
 ORDER BY desc_t, carmakcod 

17/12/2013  15:56 >> Application_Name >> getDataCarMarkByCarMarkCode
SELECT * 
 FROM online_carmark 
 WHERE carmakcod = 'JK-HO084' 
 ORDER BY desc_t, carmakcod 

17/12/2013  15:56 >> Application_Name >> getDataCarMarkByCarMarkCode
SELECT * 
 FROM online_carmark 
 WHERE carmakcod = 'JK-MI047' 
 ORDER BY desc_t, carmakcod 

17/12/2013  15:57 >> Application_Name >> getDataPremium
exec sp_calonlineweb 'N','110','1','1','5 ','JK-HO084','2000','A','A',513000,627000,'0',0

17/12/2013  15:57 >> Application_Name >> getDataPremium
exec sp_calonlineweb 'N','110','2','1','5 ','JK-HO084','2000','A','A',513000,627000,'0',0

17/12/2013  15:57 >> Application_Name >> getDataPremium
exec sp_calonlineweb 'N','110','3','1','5 ','JK-HO084','2000','A','A',0,0,'0',0

17/12/2013  15:58 >> Application_Name >> getDataCarMarkByCarMarkCode
SELECT * 
 FROM online_carmark 
 WHERE carmakcod = '' 
 ORDER BY desc_t, carmakcod 

17/12/2013  15:58 >> Application_Name >> getDataCarMarkByCarMarkCode
SELECT * 
 FROM online_carmark 
 WHERE carmakcod = 'JK-HO122' 
 ORDER BY desc_t, carmakcod 

17/12/2013  15:58 >> Application_Name >> getDataCarMarkByCarMarkCode
SELECT * 
 FROM online_carmark 
 WHERE carmakcod = 'JK-HO001' 
 ORDER BY desc_t, carmakcod 

17/12/2013  16:0 >> Application_Name >> getDataCarMarkByCarMarkCode
SELECT * 
 FROM online_carmark 
 WHERE carmakcod = '' 
 ORDER BY desc_t, carmakcod 

17/12/2013  16:0 >> Application_Name >> getDataCarMarkByCarMarkCode
SELECT * 
 FROM online_carmark 
 WHERE carmakcod = '' 
 ORDER BY desc_t, carmakcod 

17/12/2013  16:0 >> Application_Name >> getDataCarMarkByCarMarkCode
SELECT * 
 FROM online_carmark 
 WHERE carmakcod = 'JK-HO084' 
 ORDER BY desc_t, carmakcod 

17/12/2013  16:0 >> Application_Name >> getDataCarMarkByCarMarkCode
SELECT * 
 FROM online_carmark 
 WHERE carmakcod = '' 
 ORDER BY desc_t, carmakcod 

17/12/2013  16:0 >> Application_Name >> getDataCarMarkByCarMarkCode
SELECT * 
 FROM online_carmark 
 WHERE carmakcod = 'JK-HO084' 
 ORDER BY desc_t, carmakcod 

17/12/2013  16:0 >> Application_Name >> getDataPremium
exec sp_calonlineweb 'Y','110','1','1','5 ','JK-HO001','2000','A','A',495000,605000,'0',0

17/12/2013  16:0 >> Application_Name >> getDataPremium
exec sp_calonlineweb 'Y','110','2','1','5 ','JK-HO001','2000','A','A',495000,605000,'0',0

17/12/2013  16:0 >> Application_Name >> getDataPremium
exec sp_calonlineweb 'Y','110','3','1','5 ','JK-HO001','2000','A','A',0,0,'0',0

17/12/2013  16:0 >> Application_Name >> getDataPremium
exec sp_calonlineweb 'N','110','1','1','5 ','JK-HO084','2000','A','A',513000,627000,'0',0

17/12/2013  16:0 >> Application_Name >> getDataPremium
exec sp_calonlineweb 'N','110','2','1','5 ','JK-HO084','2000','A','A',513000,627000,'0',0

17/12/2013  16:0 >> Application_Name >> getDataPremium
exec sp_calonlineweb 'N','110','3','1','5 ','JK-HO084','2000','A','A',0,0,'0',0

17/12/2013  16:1 >> Application_Name >> getDataPremium
exec sp_calonlineweb 'Y','110','1','1','5 ','JK-HO084','2000','A','A',513000,627000,'0',20

17/12/2013  16:1 >> Application_Name >> getDataPremium
exec sp_calonlineweb 'Y','110','2','1','5 ','JK-HO084','2000','A','A',513000,627000,'0',20

17/12/2013  16:1 >> Application_Name >> getDataPremium
exec sp_calonlineweb 'Y','110','3','1','5 ','JK-HO084','2000','A','A',0,0,'0',20

17/12/2013  16:2 >> Application_Name >> getDataPremium
exec sp_calonlineweb 'Y','110','1','1','5 ','JK-HO001','2000','A','A',495000,605000,'0',0

17/12/2013  16:2 >> Application_Name >> getDataPremium
exec sp_calonlineweb 'Y','110','1','1','5 ','JK-HO084','2000','A','A',513000,627000,'0',20

17/12/2013  16:2 >> Application_Name >> getDataPremium
exec sp_calonlineweb 'Y','110','2','1','5 ','JK-HO001','2000','A','A',495000,605000,'0',0

17/12/2013  16:2 >> Application_Name >> getDataPremium
exec sp_calonlineweb 'Y','110','2','1','5 ','JK-HO084','2000','A','A',513000,627000,'0',20

17/12/2013  16:2 >> Application_Name >> getDataPremium
exec sp_calonlineweb 'Y','110','3','1','5 ','JK-HO001','2000','A','A',0,0,'0',0

17/12/2013  16:2 >> Application_Name >> getDataPremium
exec sp_calonlineweb 'Y','110','3','1','5 ','JK-HO084','2000','A','A',0,0,'0',20

17/12/2013  16:2 >> Application_Name >> getDataPremium
exec sp_calonlineweb 'Y','110','1','1','5 ','JK-HO001','2000','A','A',495000,605000,'0',0

17/12/2013  16:2 >> Application_Name >> getDataPremium
exec sp_calonlineweb 'Y','110','2','1','5 ','JK-HO001','2000','A','A',495000,605000,'0',0

17/12/2013  16:2 >> Application_Name >> getDataPremium
exec sp_calonlineweb 'Y','110','3','1','5 ','JK-HO001','2000','A','A',0,0,'0',0

17/12/2013  16:2 >> Application_Name >> getDataPremium
exec sp_calonlineweb 'Y','110','1','1','5 ','JK-HO084','2000','A','A',513000,627000,'0',30

17/12/2013  16:2 >> Application_Name >> getDataPremium
exec sp_calonlineweb 'Y','110','2','1','5 ','JK-HO084','2000','A','A',513000,627000,'0',30

17/12/2013  16:2 >> Application_Name >> getDataPremium
exec sp_calonlineweb 'Y','110','3','1','5 ','JK-HO084','2000','A','A',0,0,'0',30

17/12/2013  16:2 >> Application_Name >> getDataPremium
exec sp_calonlineweb 'Y','110','1','1','5 ','JK-HO001','2000','A','A',495000,605000,'0',0

17/12/2013  16:2 >> Application_Name >> getDataPremium
exec sp_calonlineweb 'Y','110','2','1','5 ','JK-HO001','2000','A','A',495000,605000,'0',0

17/12/2013  16:2 >> Application_Name >> getDataPremium
exec sp_calonlineweb 'Y','110','3','1','5 ','JK-HO001','2000','A','A',0,0,'0',0

17/12/2013  16:2 >> Application_Name >> getDataPremium
exec sp_calonlineweb 'Y','110','1','1','5 ','JK-HO084','2000','A','A',513000,627000,'0',30

17/12/2013  16:2 >> Application_Name >> getDataPremium
exec sp_calonlineweb 'Y','110','2','1','5 ','JK-HO084','2000','A','A',513000,627000,'0',30

17/12/2013  16:2 >> Application_Name >> getDataPremium
exec sp_calonlineweb 'Y','110','3','1','5 ','JK-HO084','2000','A','A',0,0,'0',30

17/12/2013  16:2 >> Application_Name >> getDataPremium
exec sp_calonlineweb 'Y','110','1','1','5 ','JK-HO084','2000','A','A',513000,627000,'0',30

17/12/2013  16:2 >> Application_Name >> getDataPremium
exec sp_calonlineweb 'Y','110','2','1','5 ','JK-HO084','2000','A','A',513000,627000,'0',30

17/12/2013  16:2 >> Application_Name >> getDataPremium
exec sp_calonlineweb 'Y','110','3','1','5 ','JK-HO084','2000','A','A',0,0,'0',30

17/12/2013  16:2 >> Application_Name >> getDataPremium
exec sp_calonlineweb 'Y','110','1','1','5 ','JK-HO001','2000','A','A',495000,605000,'0',0

17/12/2013  16:2 >> Application_Name >> getDataPremium
exec sp_calonlineweb 'Y','110','2','1','5 ','JK-HO001','2000','A','A',495000,605000,'0',0

17/12/2013  16:2 >> Application_Name >> getDataPremium
exec sp_calonlineweb 'Y','110','3','1','5 ','JK-HO001','2000','A','A',0,0,'0',0

17/12/2013  16:2 >> Application_Name >> SMK :: BuyVoluntary_step2-docToUI
Combine

17/12/2013  16:2 >> Application_Name >> SMK :: BuyVoluntary_step2-docToUI
rg_prmm-013647.2

17/12/2013  16:2 >> Application_Name >> SMK :: BuyVoluntary_step2-docToUI
rg_prmm13647.2

17/12/2013  16:2 >> Application_Name >> SMK :: BuyVoluntary_step2-docToUI
cp_comp_prmm600.00

17/12/2013  16:3 >> Application_Name >> getDataPremium
exec sp_calonlineweb 'Y','110','1','1','5 ','JK-HO001','2000','A','A',495000,605000,'0',20

17/12/2013  16:3 >> Application_Name >> getDataPremium
exec sp_calonlineweb 'Y','110','2','1','5 ','JK-HO001','2000','A','A',495000,605000,'0',20

17/12/2013  16:3 >> Application_Name >> getDataPremium
exec sp_calonlineweb 'Y','110','3','1','5 ','JK-HO001','2000','A','A',0,0,'0',20

17/12/2013  16:19 >> Application_Name >> getDataCarMarkByCarMarkCode
SELECT * 
 FROM online_carmark 
 WHERE carmakcod = '' 
 ORDER BY desc_t, carmakcod 

17/12/2013  16:39 >> Application_Name >> getDataCarMarkByCarMarkCode
SELECT * 
 FROM online_carmark 
 WHERE carmakcod = '' 
 ORDER BY desc_t, carmakcod 

17/12/2013  17:23 >> Application_Name >> getDataCarMarkByCarMarkCode
SELECT * 
 FROM online_carmark 
 WHERE carmakcod = '' 
 ORDER BY desc_t, carmakcod 

17/12/2013  17:23 >> Application_Name >> getDataCarMarkByCarMarkCode
SELECT * 
 FROM online_carmark 
 WHERE carmakcod = 'JK-TO242' 
 ORDER BY desc_t, carmakcod 

17/12/2013  17:26 >> Application_Name >> getDataPremium
exec sp_calonlineweb 'Y','110','1','1','5 ','JK-TO242','2000','A','A',504000,616000,'0',30

17/12/2013  17:26 >> Application_Name >> getDataPremium
exec sp_calonlineweb 'Y','110','2','1','5 ','JK-TO242','2000','A','A',504000,616000,'0',30

17/12/2013  17:26 >> Application_Name >> getDataPremium
exec sp_calonlineweb 'Y','110','3','1','5 ','JK-TO242','2000','A','A',0,0,'0',30

17/12/2013  17:27 >> Application_Name >> getCategoryCompByBrand
SELECT mdc_minor_cd , mdc_desc_t as mdc_desc FROM mtdesc_comp  WHERE mdc_minor_cd <> '0000' AND mdc_major_cd = 'H004' ORDER BY mdc_desc 

17/12/2013  17:27 >> Application_Name >> getDataCarMarkByCarMarkCode
SELECT * 
 FROM online_carmark 
 WHERE carmakcod = '' 
 ORDER BY desc_t, carmakcod 

17/12/2013  17:27 >> Application_Name >> getDataCarMarkByCarMarkCode
SELECT * 
 FROM online_carmark 
 WHERE carmakcod = 'JK-HO001' 
 ORDER BY desc_t, carmakcod 

17/12/2013  17:29 >> Application_Name >> getDataPremium
exec sp_calonlineweb 'Y','110','1','2','5 ','JK-HO001','2000','A','A',470250,574750,'0',0

17/12/2013  17:29 >> Application_Name >> getDataPremium
exec sp_calonlineweb 'Y','110','2','2','5 ','JK-HO001','2000','A','A',470250,574750,'0',0

17/12/2013  17:29 >> Application_Name >> getDataPremium
exec sp_calonlineweb 'Y','110','3','2','5 ','JK-HO001','2000','A','A',0,0,'0',0

17/12/2013  17:29 >> Application_Name >> SMK :: BuyVoluntary_step2-docToUI
Combine

17/12/2013  17:29 >> Application_Name >> SMK :: BuyVoluntary_step2-docToUI
rg_prmm-016585

17/12/2013  17:29 >> Application_Name >> SMK :: BuyVoluntary_step2-docToUI
rg_prmm16585

17/12/2013  17:29 >> Application_Name >> SMK :: BuyVoluntary_step2-docToUI
cp_comp_prmm600.00

17/12/2013  17:36 >> Application_Name >> getDataCarMarkByCarMarkCode
SELECT * 
 FROM online_carmark 
 WHERE carmakcod = '' 
 ORDER BY desc_t, carmakcod 

17/12/2013  17:36 >> Application_Name >> getDataCarMarkByCarMarkCode
SELECT * 
 FROM online_carmark 
 WHERE carmakcod = '' 
 ORDER BY desc_t, carmakcod 

17/12/2013  17:36 >> Application_Name >> getDataCarMarkByCarMarkCode
SELECT * 
 FROM online_carmark 
 WHERE carmakcod = '' 
 ORDER BY desc_t, carmakcod 

17/12/2013  17:36 >> Application_Name >> getDataCarMarkByCarMarkCode
SELECT * 
 FROM online_carmark 
 WHERE carmakcod = '' 
 ORDER BY desc_t, carmakcod 

17/12/2013  17:36 >> Application_Name >> getDataCarMarkByCarMarkCode
SELECT * 
 FROM online_carmark 
 WHERE carmakcod = 'JP-MA020' 
 ORDER BY desc_t, carmakcod 

17/12/2013  17:39 >> Application_Name >> getDataPremium
exec sp_calonlineweb 'Y','210','1','2','A','','2200','21','A',397027.8,438820.2,'25',0

17/12/2013  17:39 >> Application_Name >> getDataPremium
exec sp_calonlineweb 'Y','210','2','2','A','','2200','21','A',397027.8,438820.2,'25',0

17/12/2013  17:39 >> Application_Name >> getDataPremium
exec sp_calonlineweb 'Y','210','3','2','A','','2200','21','A',0,0,'25',0

17/12/2013  17:39 >> Application_Name >> getDataPremium
exec sp_calonlineweb 'Y','210','1','2','A','','2200','21','A',397027.8,438820.2,'25',0

17/12/2013  17:39 >> Application_Name >> getDataPremium
exec sp_calonlineweb 'Y','210','2','2','A','','2200','21','A',397027.8,438820.2,'25',0

17/12/2013  17:39 >> Application_Name >> getDataPremium
exec sp_calonlineweb 'Y','210','3','2','A','','2200','21','A',0,0,'25',0

17/12/2013  17:40 >> Application_Name >> getDataPremium
exec sp_calonlineweb 'Y','210','1','2','A','','2200','21','A',397027.8,438820.2,'25',20

17/12/2013  17:40 >> Application_Name >> getDataPremium
exec sp_calonlineweb 'Y','210','2','2','A','','2200','21','A',397027.8,438820.2,'25',20

17/12/2013  17:40 >> Application_Name >> getDataPremium
exec sp_calonlineweb 'Y','210','3','2','A','','2200','21','A',0,0,'25',20

17/12/2013  17:41 >> Application_Name >> getDataPremium
exec sp_calonlineweb 'Y','210','1','2','A','','2200','21','A',397027.8,438820.2,'25',0

17/12/2013  17:41 >> Application_Name >> getDataPremium
exec sp_calonlineweb 'Y','210','2','2','A','','2200','21','A',397027.8,438820.2,'25',0

17/12/2013  17:41 >> Application_Name >> getDataPremium
exec sp_calonlineweb 'Y','210','3','2','A','','2200','21','A',0,0,'25',0

17/12/2013  17:41 >> Application_Name >> getDataPremium
exec sp_calonlineweb 'Y','210','1','2','A','','2200','21','A',397027.8,438820.2,'25',0

17/12/2013  17:41 >> Application_Name >> getDataPremium
exec sp_calonlineweb 'Y','210','2','2','A','','2200','21','A',397027.8,438820.2,'25',0

17/12/2013  17:41 >> Application_Name >> getDataPremium
exec sp_calonlineweb 'Y','210','3','2','A','','2200','21','A',0,0,'25',0

17/12/2013  17:41 >> Application_Name >> getDataPremium
exec sp_calonlineweb 'Y','210','1','2','A','','2200','21','A',397027.8,438820.2,'25',0

17/12/2013  17:41 >> Application_Name >> getDataPremium
exec sp_calonlineweb 'Y','210','2','2','A','','2200','21','A',397027.8,438820.2,'25',0

17/12/2013  17:41 >> Application_Name >> getDataPremium
exec sp_calonlineweb 'Y','210','3','2','A','','2200','21','A',0,0,'25',0

17/12/2013  17:41 >> Application_Name >> getDataPremium
exec sp_calonlineweb 'Y','210','1','2','A','','2200','21','A',397027.8,438820.2,'25',0

17/12/2013  17:41 >> Application_Name >> getDataPremium
exec sp_calonlineweb 'Y','210','2','2','A','','2200','21','A',397027.8,438820.2,'25',0

17/12/2013  17:41 >> Application_Name >> getDataPremium
exec sp_calonlineweb 'Y','210','3','2','A','','2200','21','A',0,0,'25',0

17/12/2013  17:41 >> Application_Name >> getDataPremium
exec sp_calonlineweb 'Y','210','1','2','A','','2200','21','A',397027.8,438820.2,'25',0

17/12/2013  17:41 >> Application_Name >> getDataPremium
exec sp_calonlineweb 'Y','210','2','2','A','','2200','21','A',397027.8,438820.2,'25',0

17/12/2013  17:41 >> Application_Name >> getDataPremium
exec sp_calonlineweb 'Y','210','3','2','A','','2200','21','A',0,0,'25',0

17/12/2013  17:41 >> Application_Name >> getDataCarMarkByCarMarkCode
SELECT * 
 FROM online_carmark 
 WHERE carmakcod = '' 
 ORDER BY desc_t, carmakcod 

17/12/2013  17:41 >> Application_Name >> getDataCarMarkByCarMarkCode
SELECT * 
 FROM online_carmark 
 WHERE carmakcod = '' 
 ORDER BY desc_t, carmakcod 

17/12/2013  17:41 >> Application_Name >> getDataCarMarkByCarMarkCode
SELECT * 
 FROM online_carmark 
 WHERE carmakcod = 'JP-MA020' 
 ORDER BY desc_t, carmakcod 

17/12/2013  17:43 >> Application_Name >> SMK :: BuyVoluntary_step2-docToUI
Combine

17/12/2013  17:43 >> Application_Name >> SMK :: BuyVoluntary_step2-docToUI
rg_prmm-016585

17/12/2013  17:43 >> Application_Name >> SMK :: BuyVoluntary_step2-docToUI
rg_prmm16585

17/12/2013  17:43 >> Application_Name >> SMK :: BuyVoluntary_step2-docToUI
cp_comp_prmm600.00

17/12/2013  17:43 >> Application_Name >> getDataPremium
exec sp_calonlineweb 'Y','210','1','2','A','','2200','21','A',397027.8,438820.2,'25',0

17/12/2013  17:43 >> Application_Name >> getDataPremium
exec sp_calonlineweb 'Y','210','2','2','A','','2200','21','A',397027.8,438820.2,'25',0

17/12/2013  17:43 >> Application_Name >> getDataPremium
exec sp_calonlineweb 'Y','210','3','2','A','','2200','21','A',0,0,'25',0

17/12/2013  17:44 >> Application_Name >> getDataCarMarkByCarMarkCode
SELECT * 
 FROM online_carmark 
 WHERE carmakcod = '' 
 ORDER BY desc_t, carmakcod 

17/12/2013  17:45 >> Application_Name >> getDataCarMarkByCarMarkCode
SELECT * 
 FROM online_carmark 
 WHERE carmakcod = '' 
 ORDER BY desc_t, carmakcod 

17/12/2013  17:45 >> Application_Name >> getDataCarMarkByCarMarkCode
SELECT * 
 FROM online_carmark 
 WHERE carmakcod = '' 
 ORDER BY desc_t, carmakcod 

17/12/2013  17:45 >> Application_Name >> getDataCarMarkByCarMarkCode
SELECT * 
 FROM online_carmark 
 WHERE carmakcod = 'JP-MA020' 
 ORDER BY desc_t, carmakcod 

17/12/2013  17:46 >> Application_Name >> getDataPremium
exec sp_calonlineweb 'Y','210','1','2','A','','2200','21','A',397027.8,438820.2,'25',0

17/12/2013  17:46 >> Application_Name >> getDataPremium
exec sp_calonlineweb 'Y','210','2','2','A','','2200','21','A',397027.8,438820.2,'25',0

17/12/2013  17:46 >> Application_Name >> getDataPremium
exec sp_calonlineweb 'Y','210','3','2','A','','2200','21','A',0,0,'25',0

17/12/2013  17:47 >> Application_Name >> getDataPremium
exec sp_calonlineweb 'Y','210','1','2','A','','2200','21','A',397027.8,438820.2,'25',0

17/12/2013  17:47 >> Application_Name >> getDataPremium
exec sp_calonlineweb 'Y','210','2','2','A','','2200','21','A',397027.8,438820.2,'25',0

17/12/2013  17:47 >> Application_Name >> getDataPremium
exec sp_calonlineweb 'Y','210','3','2','A','','2200','21','A',0,0,'25',0

17/12/2013  17:47 >> Application_Name >> getDataPremium
exec sp_calonlineweb 'Y','210','1','2','A','','2200','21','A',397027.8,438820.2,'25',0

17/12/2013  17:47 >> Application_Name >> getDataPremium
exec sp_calonlineweb 'Y','210','2','2','A','','2200','21','A',397027.8,438820.2,'25',0

17/12/2013  17:47 >> Application_Name >> getDataPremium
exec sp_calonlineweb 'Y','210','3','2','A','','2200','21','A',0,0,'25',0

17/12/2013  17:47 >> Application_Name >> getDataPremium
exec sp_calonlineweb 'Y','210','1','2','A','','2200','21','A',397027.8,438820.2,'25',0

17/12/2013  17:47 >> Application_Name >> getDataPremium
exec sp_calonlineweb 'Y','210','2','2','A','','2200','21','A',397027.8,438820.2,'25',0

17/12/2013  17:47 >> Application_Name >> getDataPremium
exec sp_calonlineweb 'Y','210','3','2','A','','2200','21','A',0,0,'25',0

17/12/2013  17:48 >> Application_Name >> getDataCarMarkByCarMarkCode
SELECT * 
 FROM online_carmark 
 WHERE carmakcod = '' 
 ORDER BY desc_t, carmakcod 

17/12/2013  17:48 >> Application_Name >> getDataCarMarkByCarMarkCode
SELECT * 
 FROM online_carmark 
 WHERE carmakcod = '' 
 ORDER BY desc_t, carmakcod 

17/12/2013  17:48 >> Application_Name >> getDataCarMarkByCarMarkCode
SELECT * 
 FROM online_carmark 
 WHERE carmakcod = 'JP-MA020' 
 ORDER BY desc_t, carmakcod 

17/12/2013  17:49 >> Application_Name >> getDataPremium
exec sp_calonlineweb 'Y','210','1','2','A','','2200','21','A',397027.8,438820.2,'0',0

17/12/2013  17:49 >> Application_Name >> getDataPremium
exec sp_calonlineweb 'Y','210','2','2','A','','2200','21','A',397027.8,438820.2,'0',0

17/12/2013  17:49 >> Application_Name >> getDataPremium
exec sp_calonlineweb 'Y','210','3','2','A','','2200','21','A',0,0,'0',0

17/12/2013  17:50 >> Application_Name >> getDataCarMarkByCarMarkCode
SELECT * 
 FROM online_carmark 
 WHERE carmakcod = '' 
 ORDER BY desc_t, carmakcod 

17/12/2013  17:50 >> Application_Name >> getDataCarMarkByCarMarkCode
SELECT * 
 FROM online_carmark 
 WHERE carmakcod = 'JK-HO001' 
 ORDER BY desc_t, carmakcod 

17/12/2013  17:50 >> Application_Name >> getDataPremium
exec sp_calonlineweb 'Y','210','1','2','A','','2200','21','A',397027.8,438820.2,'0',0

17/12/2013  17:50 >> Application_Name >> getDataPremium
exec sp_calonlineweb 'Y','210','2','2','A','','2200','21','A',397027.8,438820.2,'0',0

17/12/2013  17:50 >> Application_Name >> getDataPremium
exec sp_calonlineweb 'Y','210','3','2','A','','2200','21','A',0,0,'0',0

17/12/2013  17:51 >> Application_Name >> getDataPremium
exec sp_calonlineweb 'Y','110','1','2','5 ','JK-HO001','2000','A','A',470250,574750,'0',0

17/12/2013  17:51 >> Application_Name >> getDataPremium
exec sp_calonlineweb 'Y','110','2','2','5 ','JK-HO001','2000','A','A',470250,574750,'0',0

17/12/2013  17:51 >> Application_Name >> getDataPremium
exec sp_calonlineweb 'Y','110','3','2','5 ','JK-HO001','2000','A','A',0,0,'0',0

17/12/2013  17:51 >> Application_Name >> SMK :: BuyVoluntary_step2-docToUI
Combine

17/12/2013  17:51 >> Application_Name >> SMK :: BuyVoluntary_step2-docToUI
rg_prmm-016585

17/12/2013  17:51 >> Application_Name >> SMK :: BuyVoluntary_step2-docToUI
rg_prmm16585

17/12/2013  17:51 >> Application_Name >> SMK :: BuyVoluntary_step2-docToUI
cp_comp_prmm600.00

17/12/2013  17:57 >> Application_Name >> getDataCarMarkByCarMarkCode
SELECT * 
 FROM online_carmark 
 WHERE carmakcod = '' 
 ORDER BY desc_t, carmakcod 

17/12/2013  17:57 >> Application_Name >> getDataCarMarkByCarMarkCode
SELECT * 
 FROM online_carmark 
 WHERE carmakcod = 'JP-MA020' 
 ORDER BY desc_t, carmakcod 

17/12/2013  17:57 >> Application_Name >> getDataPremium
exec sp_calonlineweb 'Y','210','1','2','A','','2200','21','A',397027.8,438820.2,'0',0

17/12/2013  17:57 >> Application_Name >> getDataPremium
exec sp_calonlineweb 'Y','210','2','2','A','','2200','21','A',397027.8,438820.2,'0',0

17/12/2013  17:57 >> Application_Name >> getDataPremium
exec sp_calonlineweb 'Y','210','3','2','A','','2200','21','A',0,0,'0',0

17/12/2013  17:57 >> Application_Name >> getDataPremium
exec sp_calonlineweb 'Y','210','1','2','A','','2200','21','A',397027.8,438820.2,'0',0

17/12/2013  17:57 >> Application_Name >> getDataPremium
exec sp_calonlineweb 'Y','210','2','2','A','','2200','21','A',397027.8,438820.2,'0',0

17/12/2013  17:57 >> Application_Name >> getDataPremium
exec sp_calonlineweb 'Y','210','3','2','A','','2200','21','A',0,0,'0',0

17/12/2013  17:57 >> Application_Name >> getDataPremium
exec sp_calonlineweb 'Y','210','1','2','A','','2200','21','A',397027.8,438820.2,'0',0

17/12/2013  17:57 >> Application_Name >> getDataPremium
exec sp_calonlineweb 'Y','210','2','2','A','','2200','21','A',397027.8,438820.2,'0',0

17/12/2013  17:57 >> Application_Name >> getDataPremium
exec sp_calonlineweb 'Y','210','3','2','A','','2200','21','A',0,0,'0',0

17/12/2013  17:58 >> Application_Name >> getDataCarMarkByCarMarkCode
SELECT * 
 FROM online_carmark 
 WHERE carmakcod = '' 
 ORDER BY desc_t, carmakcod 

17/12/2013  17:58 >> Application_Name >> getDataCarMarkByCarMarkCode
SELECT * 
 FROM online_carmark 
 WHERE carmakcod = '' 
 ORDER BY desc_t, carmakcod 

17/12/2013  17:59 >> Application_Name >> getDataCarMarkByCarMarkCode
SELECT * 
 FROM online_carmark 
 WHERE carmakcod = 'JP-MA020' 
 ORDER BY desc_t, carmakcod 

17/12/2013  18:1 >> Application_Name >> getDataPremium
exec sp_calonlineweb 'Y','210','1','2','A','','2200','21','A',397027.8,438820.2,'25',0

17/12/2013  18:1 >> Application_Name >> getDataPremium
exec sp_calonlineweb 'Y','210','2','2','A','','2200','21','A',397027.8,438820.2,'25',0

17/12/2013  18:1 >> Application_Name >> getDataPremium
exec sp_calonlineweb 'Y','210','3','2','A','','2200','21','A',0,0,'25',0

17/12/2013  18:2 >> Application_Name >> getDataPremium
exec sp_calonlineweb 'Y','210','1','2','A','','2200','21','A',397027.8,438820.2,'25',0

17/12/2013  18:2 >> Application_Name >> getDataPremium
exec sp_calonlineweb 'Y','210','2','2','A','','2200','21','A',397027.8,438820.2,'25',0

17/12/2013  18:2 >> Application_Name >> getDataPremium
exec sp_calonlineweb 'Y','210','3','2','A','','2200','21','A',0,0,'25',0

17/12/2013  18:2 >> Application_Name >> getDataPremium
exec sp_calonlineweb 'Y','210','1','2','A','','2200','21','A',397027.8,438820.2,'25',0

17/12/2013  18:2 >> Application_Name >> getDataPremium
exec sp_calonlineweb 'Y','210','2','2','A','','2200','21','A',397027.8,438820.2,'25',0

17/12/2013  18:2 >> Application_Name >> getDataPremium
exec sp_calonlineweb 'Y','210','3','2','A','','2200','21','A',0,0,'25',0

17/12/2013  18:2 >> Application_Name >> getDataPremium
exec sp_calonlineweb 'Y','210','1','2','A','','2200','21','A',397027.8,438820.2,'25',0

17/12/2013  18:2 >> Application_Name >> getDataPremium
exec sp_calonlineweb 'Y','210','2','2','A','','2200','21','A',397027.8,438820.2,'25',0

17/12/2013  18:2 >> Application_Name >> getDataPremium
exec sp_calonlineweb 'Y','210','3','2','A','','2200','21','A',0,0,'25',0

17/12/2013  18:2 >> Application_Name >> getDataPremium
exec sp_calonlineweb 'Y','210','1','2','A','','2200','21','A',397027.8,438820.2,'25',0

17/12/2013  18:2 >> Application_Name >> getDataPremium
exec sp_calonlineweb 'Y','210','2','2','A','','2200','21','A',397027.8,438820.2,'25',0

17/12/2013  18:2 >> Application_Name >> getDataPremium
exec sp_calonlineweb 'Y','210','3','2','A','','2200','21','A',0,0,'25',0

17/12/2013  18:2 >> Application_Name >> getDataPremium
exec sp_calonlineweb 'Y','210','1','2','A','','2200','21','A',397027.8,438820.2,'25',0

17/12/2013  18:2 >> Application_Name >> getDataPremium
exec sp_calonlineweb 'Y','210','2','2','A','','2200','21','A',397027.8,438820.2,'25',0

17/12/2013  18:2 >> Application_Name >> getDataPremium
exec sp_calonlineweb 'Y','210','3','2','A','','2200','21','A',0,0,'25',0

17/12/2013  18:2 >> Application_Name >> getDataPremium
exec sp_calonlineweb 'Y','210','1','2','A','','2200','21','A',397027.8,438820.2,'25',0

17/12/2013  18:2 >> Application_Name >> getDataPremium
exec sp_calonlineweb 'Y','210','2','2','A','','2200','21','A',397027.8,438820.2,'25',0

17/12/2013  18:2 >> Application_Name >> getDataPremium
exec sp_calonlineweb 'Y','210','3','2','A','','2200','21','A',0,0,'25',0

17/12/2013  18:2 >> Application_Name >> getDataPremium
exec sp_calonlineweb 'Y','210','1','2','A','','2200','21','A',397027.8,438820.2,'25',0

17/12/2013  18:2 >> Application_Name >> getDataPremium
exec sp_calonlineweb 'Y','210','2','2','A','','2200','21','A',397027.8,438820.2,'25',0

17/12/2013  18:2 >> Application_Name >> getDataPremium
exec sp_calonlineweb 'Y','210','3','2','A','','2200','21','A',0,0,'25',0

17/12/2013  18:2 >> Application_Name >> getDataPremium
exec sp_calonlineweb 'Y','210','1','2','A','','2200','21','A',397027.8,438820.2,'25',0

17/12/2013  18:2 >> Application_Name >> getDataPremium
exec sp_calonlineweb 'Y','210','2','2','A','','2200','21','A',397027.8,438820.2,'25',0

17/12/2013  18:2 >> Application_Name >> getDataPremium
exec sp_calonlineweb 'Y','210','3','2','A','','2200','21','A',0,0,'25',0

17/12/2013  18:2 >> Application_Name >> getDataPremium
exec sp_calonlineweb 'Y','210','1','2','A','','2200','21','A',397027.8,438820.2,'25',0

17/12/2013  18:2 >> Application_Name >> getDataPremium
exec sp_calonlineweb 'Y','210','2','2','A','','2200','21','A',397027.8,438820.2,'25',0

17/12/2013  18:2 >> Application_Name >> getDataPremium
exec sp_calonlineweb 'Y','210','3','2','A','','2200','21','A',0,0,'25',0

17/12/2013  18:2 >> Application_Name >> getDataCarMarkByCarMarkCode
SELECT * 
 FROM online_carmark 
 WHERE carmakcod = 'JP-MA043' 
 ORDER BY desc_t, carmakcod 

17/12/2013  18:2 >> Application_Name >> getDataPremium
exec sp_calonlineweb 'Y','210','1','2','A','','12','21','A',326993.8,361414.2,'25',0

17/12/2013  18:2 >> Application_Name >> getDataPremium
exec sp_calonlineweb 'Y','210','2','2','A','','12','21','A',326993.8,361414.2,'25',0

17/12/2013  18:2 >> Application_Name >> getDataPremium
exec sp_calonlineweb 'Y','210','3','2','A','','12','21','A',0,0,'25',0

17/12/2013  18:4 >> Application_Name >> SMK :: BuyVoluntary_step2-docToUI
Combine

17/12/2013  18:4 >> Application_Name >> SMK :: BuyVoluntary_step2-docToUI
rg_prmm-013340

17/12/2013  18:4 >> Application_Name >> SMK :: BuyVoluntary_step2-docToUI
rg_prmm13340

17/12/2013  18:4 >> Application_Name >> SMK :: BuyVoluntary_step2-docToUI
cp_comp_prmm900.00

17/12/2013  18:23 >> Application_Name >> SMK :: BuyVoluntary_step2-docToUI
Combine

17/12/2013  18:23 >> Application_Name >> SMK :: BuyVoluntary_step2-docToUI
rg_prmm-013340

17/12/2013  18:23 >> Application_Name >> SMK :: BuyVoluntary_step2-docToUI
rg_prmm13340

17/12/2013  18:23 >> Application_Name >> SMK :: BuyVoluntary_step2-docToUI
cp_comp_prmm900.00

17/12/2013  19:26 >> Application_Name >> getDataCarMarkByCarMarkCode
SELECT * 
 FROM online_carmark 
 WHERE carmakcod = '' 
 ORDER BY desc_t, carmakcod 

17/12/2013  19:26 >> Application_Name >> getDataCarMarkByCarMarkCode
SELECT * 
 FROM online_carmark 
 WHERE carmakcod = 'JK-TO067' 
 ORDER BY desc_t, carmakcod 

17/12/2013  19:29 >> Application_Name >> getDataPremium
exec sp_calonlineweb 'Y','110','1','1','5 ','JK-TO067','2000','A','A',501300,612700,'0',30

17/12/2013  19:29 >> Application_Name >> getDataPremium
exec sp_calonlineweb 'Y','110','2','1','5 ','JK-TO067','2000','A','A',501300,612700,'0',30

17/12/2013  19:29 >> Application_Name >> getDataPremium
exec sp_calonlineweb 'Y','110','3','1','5 ','JK-TO067','2000','A','A',0,0,'0',30

17/12/2013  19:32 >> Application_Name >> SMK :: BuyVoluntary_step2-docToUI
Combine

17/12/2013  19:32 >> Application_Name >> SMK :: BuyVoluntary_step2-docToUI
rg_prmm-013647.2

17/12/2013  19:32 >> Application_Name >> SMK :: BuyVoluntary_step2-docToUI
rg_prmm13647.2

17/12/2013  19:32 >> Application_Name >> SMK :: BuyVoluntary_step2-docToUI
cp_comp_prmm600.00

17/12/2013  19:57 >> Application_Name >> getDataCarMarkByCarMarkCode
SELECT * 
 FROM online_carmark 
 WHERE carmakcod = '' 
 ORDER BY desc_t, carmakcod 

17/12/2013  19:57 >> Application_Name >> getDataCarMarkByCarMarkCode
SELECT * 
 FROM online_carmark 
 WHERE carmakcod = 'JK-NI100' 
 ORDER BY desc_t, carmakcod 

17/12/2013  19:57 >> Application_Name >> getDataPremium
exec sp_calonlineweb 'Y','110','1','1','5 ','JK-NI100','2000','A','A',400000,440000,'0',0

17/12/2013  19:57 >> Application_Name >> getDataPremium
exec sp_calonlineweb 'Y','110','2','1','5 ','JK-NI100','2000','A','A',400000,440000,'0',0

17/12/2013  19:57 >> Application_Name >> getDataPremium
exec sp_calonlineweb 'Y','110','3','1','5 ','JK-NI100','2000','A','A',0,0,'0',0

17/12/2013  19:58 >> Application_Name >> SMK :: BuyVoluntary_step2-docToUI
Combine

17/12/2013  19:58 >> Application_Name >> SMK :: BuyVoluntary_step2-docToUI
rg_prmm-013498

17/12/2013  19:58 >> Application_Name >> SMK :: BuyVoluntary_step2-docToUI
rg_prmm13498

17/12/2013  19:58 >> Application_Name >> SMK :: BuyVoluntary_step2-docToUI
cp_comp_prmm600.00

17/12/2013  20:33 >> Application_Name >> getCategoryCompByBrand
SELECT mdc_minor_cd , mdc_desc_t as mdc_desc FROM mtdesc_comp  WHERE mdc_minor_cd <> '0000' AND mdc_major_cd = 'T001' ORDER BY mdc_desc 

17/12/2013  20:46 >> Application_Name >> getNewPremium - compprmm
SELECT cp_com_prmm, cp_stamp, cp_tax FROM comprmm WHERE cp_veh_cd = '1.10   '

17/12/2013  20:47 >> Application_Name >> getDataCarMarkByCarMarkCode
SELECT * 
 FROM online_carmark 
 WHERE carmakcod = '' 
 ORDER BY desc_t, carmakcod 

17/12/2013  20:47 >> Application_Name >> getDataCarMarkByCarMarkCode
SELECT * 
 FROM online_carmark 
 WHERE carmakcod = 'JK-TO019' 
 ORDER BY desc_t, carmakcod 

17/12/2013  20:49 >> Application_Name >> getDataPremium
exec sp_calonlineweb 'Y','110','1','11','4 ','JK-TO019','2000','A','A',420313.331345342,513716.293866529,'0',0

17/12/2013  20:49 >> Application_Name >> getDataPremium
exec sp_calonlineweb 'Y','110','2','11','4 ','JK-TO019','2000','A','A',420313.331345342,513716.293866529,'0',0

17/12/2013  20:49 >> Application_Name >> getDataPremium
exec sp_calonlineweb 'Y','110','3','11','4 ','JK-TO019','2000','A','A',0,0,'0',0

17/12/2013  20:50 >> Application_Name >> SMK :: BuyVoluntary_step2-docToUI
Combine

17/12/2013  20:50 >> Application_Name >> SMK :: BuyVoluntary_step2-docToUI
rg_prmm-06477

17/12/2013  20:50 >> Application_Name >> SMK :: BuyVoluntary_step2-docToUI
rg_prmm6477

17/12/2013  20:50 >> Application_Name >> SMK :: BuyVoluntary_step2-docToUI
cp_comp_prmm600.00

17/12/2013  22:59 >> Application_Name >> getDataCarMarkByCarMarkCode
SELECT * 
 FROM online_carmark 
 WHERE carmakcod = '' 
 ORDER BY desc_t, carmakcod 

17/12/2013  23:0 >> Application_Name >> getDataCarMarkByCarMarkCode
SELECT * 
 FROM online_carmark 
 WHERE carmakcod = 'JK-HO002' 
 ORDER BY desc_t, carmakcod 

17/12/2013  23:2 >> Application_Name >> getDataPremium
exec sp_calonlineweb 'N','110','1','2','3 ','JK-HO002','2000','A','A',743850,909150,'0',0

17/12/2013  23:2 >> Application_Name >> getDataPremium
exec sp_calonlineweb 'N','110','2','2','3 ','JK-HO002','2000','A','A',743850,909150,'0',0

17/12/2013  23:2 >> Application_Name >> getDataPremium
exec sp_calonlineweb 'N','110','3','2','3 ','JK-HO002','2000','A','A',0,0,'0',0

