20/11/2013  9:2 >> Application_Name >> getDataCarMarkByCarMarkCode
SELECT * 
 FROM online_carmark 
 WHERE carmakcod = '' 
 ORDER BY desc_t, carmakcod 

20/11/2013  9:2 >> Application_Name >> getDataCarMarkByCarMarkCode
SELECT * 
 FROM online_carmark 
 WHERE carmakcod = 'JK-IS017' 
 ORDER BY desc_t, carmakcod 

20/11/2013  9:2 >> Application_Name >> getDataCarMarkByCarMarkCode
SELECT * 
 FROM online_carmark 
 WHERE carmakcod = '' 
 ORDER BY desc_t, carmakcod 

20/11/2013  9:2 >> Application_Name >> getDataCarMarkByCarMarkCode
SELECT * 
 FROM online_carmark 
 WHERE carmakcod = 'JP-IS030' 
 ORDER BY desc_t, carmakcod 

20/11/2013  9:3 >> Application_Name >> getDataPremium
exec sp_calonlineweb 'N','210','1','3','A','','12','21','A',375187.3,414680.7,'25',0

20/11/2013  9:3 >> Application_Name >> getDataPremium
exec sp_calonlineweb 'N','210','2','3','A','','12','21','A',375187.3,414680.7,'25',0

20/11/2013  9:3 >> Application_Name >> getDataPremium
exec sp_calonlineweb 'N','210','3','3','A','','12','21','A',0,0,'25',0

20/11/2013  9:29 >> Application_Name >> getDataCarMarkByCarMarkCode
SELECT * 
 FROM online_carmark 
 WHERE carmakcod = '' 
 ORDER BY desc_t, carmakcod 

20/11/2013  9:29 >> Application_Name >> getDataCarMarkByCarMarkCode
SELECT * 
 FROM online_carmark 
 WHERE carmakcod = 'JK-HO084' 
 ORDER BY desc_t, carmakcod 

20/11/2013  13:8 >> Application_Name >> getDataCarMarkByCarMarkCode
SELECT * 
 FROM online_carmark 
 WHERE carmakcod = '' 
 ORDER BY desc_t, carmakcod 

20/11/2013  13:14 >> Application_Name >> getDataCarMarkByCarMarkCode
SELECT * 
 FROM online_carmark 
 WHERE carmakcod = '' 
 ORDER BY desc_t, carmakcod 

20/11/2013  13:14 >> Application_Name >> getDataCarMarkByCarMarkCode
SELECT * 
 FROM online_carmark 
 WHERE carmakcod = '' 
 ORDER BY desc_t, carmakcod 

20/11/2013  13:14 >> Application_Name >> getDataCarMarkByCarMarkCode
SELECT * 
 FROM online_carmark 
 WHERE carmakcod = 'EK-CR035' 
 ORDER BY desc_t, carmakcod 

20/11/2013  13:16 >> Application_Name >> getDataCarMarkByCarMarkCode
SELECT * 
 FROM online_carmark 
 WHERE carmakcod = '' 
 ORDER BY desc_t, carmakcod 

20/11/2013  13:20 >> Application_Name >> getDataCarMarkByCarMarkCode
SELECT * 
 FROM online_carmark 
 WHERE carmakcod = 'EK-FO021' 
 ORDER BY desc_t, carmakcod 

20/11/2013  13:29 >> Application_Name >> getDataCarMarkByCarMarkCode
SELECT * 
 FROM online_carmark 
 WHERE carmakcod = '' 
 ORDER BY desc_t, carmakcod 

20/11/2013  13:30 >> Application_Name >> getDataCarMarkByCarMarkCode
SELECT * 
 FROM online_carmark 
 WHERE carmakcod = 'JK-HO011' 
 ORDER BY desc_t, carmakcod 

20/11/2013  13:30 >> Application_Name >> getDataCarMarkByCarMarkCode
SELECT * 
 FROM online_carmark 
 WHERE carmakcod = '' 
 ORDER BY desc_t, carmakcod 

20/11/2013  13:30 >> Application_Name >> getDataCarMarkByCarMarkCode
SELECT * 
 FROM online_carmark 
 WHERE carmakcod = '' 
 ORDER BY desc_t, carmakcod 

20/11/2013  13:31 >> Application_Name >> getDataCarMarkByCarMarkCode
SELECT * 
 FROM online_carmark 
 WHERE carmakcod = '' 
 ORDER BY desc_t, carmakcod 

20/11/2013  13:32 >> Application_Name >> getDataCarMarkByCarMarkCode
SELECT * 
 FROM online_carmark 
 WHERE carmakcod = '' 
 ORDER BY desc_t, carmakcod 

20/11/2013  13:32 >> Application_Name >> getDataCarMarkByCarMarkCode
SELECT * 
 FROM online_carmark 
 WHERE carmakcod = '' 
 ORDER BY desc_t, carmakcod 

20/11/2013  13:54 >> Application_Name >> getDataCarMarkByCarMarkCode
SELECT * 
 FROM online_carmark 
 WHERE carmakcod = '' 
 ORDER BY desc_t, carmakcod 

20/11/2013  13:55 >> Application_Name >> getDataCarMarkByCarMarkCode
SELECT * 
 FROM online_carmark 
 WHERE carmakcod = '' 
 ORDER BY desc_t, carmakcod 

20/11/2013  14:2 >> Application_Name >> getDataCarMarkByCarMarkCode
SELECT * 
 FROM online_carmark 
 WHERE carmakcod = '' 
 ORDER BY desc_t, carmakcod 

20/11/2013  14:3 >> Application_Name >> getDataCarMarkByCarMarkCode
SELECT * 
 FROM online_carmark 
 WHERE carmakcod = '' 
 ORDER BY desc_t, carmakcod 

20/11/2013  14:3 >> Application_Name >> getDataCarMarkByCarMarkCode
SELECT * 
 FROM online_carmark 
 WHERE carmakcod = '' 
 ORDER BY desc_t, carmakcod 

20/11/2013  14:3 >> Application_Name >> getDataCarMarkByCarMarkCode
SELECT * 
 FROM online_carmark 
 WHERE carmakcod = '' 
 ORDER BY desc_t, carmakcod 

20/11/2013  14:3 >> Application_Name >> getDataCarMarkByCarMarkCode
SELECT * 
 FROM online_carmark 
 WHERE carmakcod = '' 
 ORDER BY desc_t, carmakcod 

20/11/2013  14:3 >> Application_Name >> getDataCarMarkByCarMarkCode
SELECT * 
 FROM online_carmark 
 WHERE carmakcod = '' 
 ORDER BY desc_t, carmakcod 

20/11/2013  14:3 >> Application_Name >> getDataCarMarkByCarMarkCode
SELECT * 
 FROM online_carmark 
 WHERE carmakcod = '' 
 ORDER BY desc_t, carmakcod 

20/11/2013  14:4 >> Application_Name >> getDataCarMarkByCarMarkCode
SELECT * 
 FROM online_carmark 
 WHERE carmakcod = '' 
 ORDER BY desc_t, carmakcod 

20/11/2013  14:4 >> Application_Name >> getDataCarMarkByCarMarkCode
SELECT * 
 FROM online_carmark 
 WHERE carmakcod = '' 
 ORDER BY desc_t, carmakcod 

20/11/2013  14:4 >> Application_Name >> getDataCarMarkByCarMarkCode
SELECT * 
 FROM online_carmark 
 WHERE carmakcod = '' 
 ORDER BY desc_t, carmakcod 

20/11/2013  14:4 >> Application_Name >> getDataCarMarkByCarMarkCode
SELECT * 
 FROM online_carmark 
 WHERE carmakcod = '' 
 ORDER BY desc_t, carmakcod 

20/11/2013  14:5 >> Application_Name >> getDataCarMarkByCarMarkCode
SELECT * 
 FROM online_carmark 
 WHERE carmakcod = '' 
 ORDER BY desc_t, carmakcod 

20/11/2013  14:5 >> Application_Name >> getDataCarMarkByCarMarkCode
SELECT * 
 FROM online_carmark 
 WHERE carmakcod = '' 
 ORDER BY desc_t, carmakcod 

20/11/2013  14:5 >> Application_Name >> getDataCarMarkByCarMarkCode
SELECT * 
 FROM online_carmark 
 WHERE carmakcod = '' 
 ORDER BY desc_t, carmakcod 

20/11/2013  14:7 >> Application_Name >> getDataCarMarkByCarMarkCode
SELECT * 
 FROM online_carmark 
 WHERE carmakcod = '' 
 ORDER BY desc_t, carmakcod 

20/11/2013  14:9 >> Application_Name >> getDataCarMarkByCarMarkCode
SELECT * 
 FROM online_carmark 
 WHERE carmakcod = '' 
 ORDER BY desc_t, carmakcod 

20/11/2013  14:9 >> Application_Name >> getDataCarMarkByCarMarkCode
SELECT * 
 FROM online_carmark 
 WHERE carmakcod = '' 
 ORDER BY desc_t, carmakcod 

20/11/2013  14:9 >> Application_Name >> getDataCarMarkByCarMarkCode
SELECT * 
 FROM online_carmark 
 WHERE carmakcod = '' 
 ORDER BY desc_t, carmakcod 

20/11/2013  14:10 >> Application_Name >> getDataCarMarkByCarMarkCode
SELECT * 
 FROM online_carmark 
 WHERE carmakcod = '' 
 ORDER BY desc_t, carmakcod 

20/11/2013  14:10 >> Application_Name >> getDataCarMarkByCarMarkCode
SELECT * 
 FROM online_carmark 
 WHERE carmakcod = '' 
 ORDER BY desc_t, carmakcod 

20/11/2013  14:10 >> Application_Name >> getDataCarMarkByCarMarkCode
SELECT * 
 FROM online_carmark 
 WHERE carmakcod = '' 
 ORDER BY desc_t, carmakcod 

20/11/2013  14:10 >> Application_Name >> getDataCarMarkByCarMarkCode
SELECT * 
 FROM online_carmark 
 WHERE carmakcod = '' 
 ORDER BY desc_t, carmakcod 

20/11/2013  14:10 >> Application_Name >> getDataCarMarkByCarMarkCode
SELECT * 
 FROM online_carmark 
 WHERE carmakcod = '' 
 ORDER BY desc_t, carmakcod 

20/11/2013  14:10 >> Application_Name >> getDataCarMarkByCarMarkCode
SELECT * 
 FROM online_carmark 
 WHERE carmakcod = '' 
 ORDER BY desc_t, carmakcod 

20/11/2013  14:10 >> Application_Name >> getDataCarMarkByCarMarkCode
SELECT * 
 FROM online_carmark 
 WHERE carmakcod = '' 
 ORDER BY desc_t, carmakcod 

20/11/2013  14:10 >> Application_Name >> getDataCarMarkByCarMarkCode
SELECT * 
 FROM online_carmark 
 WHERE carmakcod = '' 
 ORDER BY desc_t, carmakcod 

20/11/2013  14:10 >> Application_Name >> getDataCarMarkByCarMarkCode
SELECT * 
 FROM online_carmark 
 WHERE carmakcod = '' 
 ORDER BY desc_t, carmakcod 

20/11/2013  14:10 >> Application_Name >> getDataCarMarkByCarMarkCode
SELECT * 
 FROM online_carmark 
 WHERE carmakcod = '' 
 ORDER BY desc_t, carmakcod 

20/11/2013  14:10 >> Application_Name >> getDataCarMarkByCarMarkCode
SELECT * 
 FROM online_carmark 
 WHERE carmakcod = '' 
 ORDER BY desc_t, carmakcod 

20/11/2013  14:11 >> Application_Name >> getDataCarMarkByCarMarkCode
SELECT * 
 FROM online_carmark 
 WHERE carmakcod = '' 
 ORDER BY desc_t, carmakcod 

20/11/2013  14:12 >> Application_Name >> getDataCarMarkByCarMarkCode
SELECT * 
 FROM online_carmark 
 WHERE carmakcod = '' 
 ORDER BY desc_t, carmakcod 

20/11/2013  14:12 >> Application_Name >> getDataCarMarkByCarMarkCode
SELECT * 
 FROM online_carmark 
 WHERE carmakcod = '' 
 ORDER BY desc_t, carmakcod 

20/11/2013  14:12 >> Application_Name >> getDataCarMarkByCarMarkCode
SELECT * 
 FROM online_carmark 
 WHERE carmakcod = '' 
 ORDER BY desc_t, carmakcod 

20/11/2013  14:12 >> Application_Name >> getDataCarMarkByCarMarkCode
SELECT * 
 FROM online_carmark 
 WHERE carmakcod = '' 
 ORDER BY desc_t, carmakcod 

20/11/2013  14:12 >> Application_Name >> getDataCarMarkByCarMarkCode
SELECT * 
 FROM online_carmark 
 WHERE carmakcod = '' 
 ORDER BY desc_t, carmakcod 

20/11/2013  14:12 >> Application_Name >> getDataCarMarkByCarMarkCode
SELECT * 
 FROM online_carmark 
 WHERE carmakcod = '' 
 ORDER BY desc_t, carmakcod 

20/11/2013  14:12 >> Application_Name >> getDataCarMarkByCarMarkCode
SELECT * 
 FROM online_carmark 
 WHERE carmakcod = '' 
 ORDER BY desc_t, carmakcod 

20/11/2013  14:12 >> Application_Name >> getDataCarMarkByCarMarkCode
SELECT * 
 FROM online_carmark 
 WHERE carmakcod = '' 
 ORDER BY desc_t, carmakcod 

20/11/2013  14:12 >> Application_Name >> getDataCarMarkByCarMarkCode
SELECT * 
 FROM online_carmark 
 WHERE carmakcod = '' 
 ORDER BY desc_t, carmakcod 

20/11/2013  14:12 >> Application_Name >> getDataCarMarkByCarMarkCode
SELECT * 
 FROM online_carmark 
 WHERE carmakcod = '' 
 ORDER BY desc_t, carmakcod 

20/11/2013  14:12 >> Application_Name >> getDataCarMarkByCarMarkCode
SELECT * 
 FROM online_carmark 
 WHERE carmakcod = '' 
 ORDER BY desc_t, carmakcod 

20/11/2013  14:13 >> Application_Name >> getDataCarMarkByCarMarkCode
SELECT * 
 FROM online_carmark 
 WHERE carmakcod = '' 
 ORDER BY desc_t, carmakcod 

20/11/2013  14:13 >> Application_Name >> getDataCarMarkByCarMarkCode
SELECT * 
 FROM online_carmark 
 WHERE carmakcod = '' 
 ORDER BY desc_t, carmakcod 

20/11/2013  14:13 >> Application_Name >> getDataCarMarkByCarMarkCode
SELECT * 
 FROM online_carmark 
 WHERE carmakcod = '' 
 ORDER BY desc_t, carmakcod 

20/11/2013  14:13 >> Application_Name >> getDataCarMarkByCarMarkCode
SELECT * 
 FROM online_carmark 
 WHERE carmakcod = '' 
 ORDER BY desc_t, carmakcod 

20/11/2013  14:14 >> Application_Name >> getDataCarMarkByCarMarkCode
SELECT * 
 FROM online_carmark 
 WHERE carmakcod = '' 
 ORDER BY desc_t, carmakcod 

20/11/2013  14:14 >> Application_Name >> getDataCarMarkByCarMarkCode
SELECT * 
 FROM online_carmark 
 WHERE carmakcod = '' 
 ORDER BY desc_t, carmakcod 

20/11/2013  14:14 >> Application_Name >> getDataCarMarkByCarMarkCode
SELECT * 
 FROM online_carmark 
 WHERE carmakcod = '' 
 ORDER BY desc_t, carmakcod 

20/11/2013  14:14 >> Application_Name >> getDataCarMarkByCarMarkCode
SELECT * 
 FROM online_carmark 
 WHERE carmakcod = '' 
 ORDER BY desc_t, carmakcod 

20/11/2013  14:16 >> Application_Name >> getDataCarMarkByCarMarkCode
SELECT * 
 FROM online_carmark 
 WHERE carmakcod = '' 
 ORDER BY desc_t, carmakcod 

20/11/2013  14:16 >> Application_Name >> getDataCarMarkByCarMarkCode
SELECT * 
 FROM online_carmark 
 WHERE carmakcod = '' 
 ORDER BY desc_t, carmakcod 

20/11/2013  14:28 >> Application_Name >> getDataCarMarkByCarMarkCode
SELECT * 
 FROM online_carmark 
 WHERE carmakcod = '' 
 ORDER BY desc_t, carmakcod 

20/11/2013  14:29 >> Application_Name >> getDataCarMarkByCarMarkCode
SELECT * 
 FROM online_carmark 
 WHERE carmakcod = '' 
 ORDER BY desc_t, carmakcod 

20/11/2013  15:49 >> Application_Name >> getDataCarMarkByCarMarkCode
SELECT * 
 FROM online_carmark 
 WHERE carmakcod = '' 
 ORDER BY desc_t, carmakcod 

20/11/2013  15:49 >> Application_Name >> getDataCarMarkByCarMarkCode
SELECT * 
 FROM online_carmark 
 WHERE carmakcod = '' 
 ORDER BY desc_t, carmakcod 

20/11/2013  15:49 >> Application_Name >> getDataCarMarkByCarMarkCode
SELECT * 
 FROM online_carmark 
 WHERE carmakcod = '' 
 ORDER BY desc_t, carmakcod 

20/11/2013  15:52 >> Application_Name >> getDataCarMarkByCarMarkCode
SELECT * 
 FROM online_carmark 
 WHERE carmakcod = '' 
 ORDER BY desc_t, carmakcod 

20/11/2013  15:52 >> Application_Name >> getDataCarMarkByCarMarkCode
SELECT * 
 FROM online_carmark 
 WHERE carmakcod = '' 
 ORDER BY desc_t, carmakcod 

