11/11/2013  13:24 >> Application_Name >> CalculateService :: AdminCalculatorManager
UPDATE register  SET rg_approve = 'H' WHERE rg_regis_no = '90-00072'

11/11/2013  13:24 >> Application_Name >> CalculateService :: AdminCalculatorManager
UPDATE register  SET rg_approve = 'H' WHERE rg_regis_no = '90-00064'

11/11/2013  13:24 >> Application_Name >> CalculateService :: AdminCalculatorManager
UPDATE register  SET rg_approve = 'H' WHERE rg_regis_no = '90-00039'

11/11/2013  13:24 >> Application_Name >> CalculateService :: AdminCalculatorManager
UPDATE register  SET rg_approve = 'H' WHERE rg_regis_no = '90-00040'

11/11/2013  13:24 >> Application_Name >> CalculateService :: AdminCalculatorManager
UPDATE register  SET rg_approve = 'H' WHERE rg_regis_no = '90-00041'

11/11/2013  13:24 >> Application_Name >> CalculateService :: AdminCalculatorManager
UPDATE register  SET rg_approve = 'H' WHERE rg_regis_no = '90-00042'

11/11/2013  13:24 >> Application_Name >> CalculateService :: AdminCalculatorManager
UPDATE register  SET rg_approve = 'H' WHERE rg_regis_no = '90-00043'

11/11/2013  13:24 >> Application_Name >> CalculateService :: AdminCalculatorManager
UPDATE register  SET rg_approve = 'H' WHERE rg_regis_no = '90-00044'

11/11/2013  13:24 >> Application_Name >> CalculateService :: AdminCalculatorManager
UPDATE register  SET rg_approve = 'H' WHERE rg_regis_no = '90-00045'

11/11/2013  13:24 >> Application_Name >> CalculateService :: AdminCalculatorManager
UPDATE register  SET rg_approve = 'H' WHERE rg_regis_no = '90-00046'

11/11/2013  13:25 >> Application_Name >> CalculateService :: AdminCalculatorManager
UPDATE register  SET rg_approve = 'A' WHERE rg_regis_no = '90-00072'

11/11/2013  13:25 >> Application_Name >> CalculateService :: AdminCalculatorManager-1
SELECT * ,convert(varchar(10),rg_effect_dt,103) as tmp_effect_dt,      convert(varchar(10),rg_expiry_dt,103) as tmp_expiry_dt,      convert(varchar(10),rg_regis_dt,103) as tmp_regis_dt  FROM register  WHERE rg_regis_no = '90-00072'

11/11/2013  13:25 >> Application_Name >> CalculateService :: AdminCalculatorManager
start informix

11/11/2013  13:25 >> Application_Name >> CalculateService :: AdminCalculatorManager
begin informix

11/11/2013  13:25 >> Application_Name >> CalculateService :: AdminCalculatorManager
call insertPolicy

11/11/2013  13:25 >> Application_Name >> CalculateService :: AdminCalculatorManager
pass insertPolicy

11/11/2013  13:25 >> Application_Name >> insertVolTxtInsure :: AdminInsertVolTxtInsure
Insert into txt_insured (agt_cod,period,pol_yea,file_nam,cust_id,not_dte,car_cod, vol_insure,fire_insure,pre_net,pre_grs,pre_tax,pre_stm,eff_fdte,eff_tdte, deduct,chasis,engine,car_mod,lic_prov_desc, license,car_size,car_nam,car_mak,car_mak_desc,car_weigh,car_seat, not_nam,mot_gar,drv_nam1, drv_birth1,drv_nam2,drv_birth2, cust_name,cust_addr1,cust_addr2,cust_zip,cust_phone,rec_name,rec_addr1,rec_add2,  campaign,mot_typ,not_id,not_no,sys_dte) Values ('0100001','1','56','90-00072','5800100096968','11/08/2013','110','560000.00','560000.00','16374.00','17590.80','1150.80','66.00','11/14/2013','11/14/2014','0.00','699999','','2012','21','555','1500','HO','JK-HO001','JK-HO001','0','0','Internet','N','','','','','จิราพร จันทร์สุวรรณ์','74/62 ถ.ท่าโพธิ์ ท่าวัง','เมือง 21','80000','','จิราพร จันทร์สุวรรณ์','74/62 ถ.ท่าโพธิ์ ท่าวัง','เมือง','206','1','12','100',Today )

11/11/2013  13:25 >> Application_Name >> CalculateService :: AdminCalculatorManager
UPDATE register  SET rg_approve = 'H' WHERE rg_regis_no = '90-00064'

11/11/2013  13:25 >> Application_Name >> CalculateService :: AdminCalculatorManager
UPDATE register  SET rg_approve = 'H' WHERE rg_regis_no = '90-00039'

11/11/2013  13:25 >> Application_Name >> CalculateService :: AdminCalculatorManager
UPDATE register  SET rg_approve = 'H' WHERE rg_regis_no = '90-00040'

11/11/2013  13:25 >> Application_Name >> CalculateService :: AdminCalculatorManager
UPDATE register  SET rg_approve = 'H' WHERE rg_regis_no = '90-00041'

11/11/2013  13:25 >> Application_Name >> CalculateService :: AdminCalculatorManager
UPDATE register  SET rg_approve = 'H' WHERE rg_regis_no = '90-00042'

11/11/2013  13:25 >> Application_Name >> CalculateService :: AdminCalculatorManager
UPDATE register  SET rg_approve = 'H' WHERE rg_regis_no = '90-00043'

11/11/2013  13:25 >> Application_Name >> CalculateService :: AdminCalculatorManager
UPDATE register  SET rg_approve = 'H' WHERE rg_regis_no = '90-00044'

11/11/2013  13:25 >> Application_Name >> CalculateService :: AdminCalculatorManager
UPDATE register  SET rg_approve = 'H' WHERE rg_regis_no = '90-00045'

11/11/2013  13:25 >> Application_Name >> CalculateService :: AdminCalculatorManager
UPDATE register  SET rg_approve = 'H' WHERE rg_regis_no = '90-00046'

11/11/2013  15:22 >> Application_Name >> BLWorker::executeUpdate
String or binary data would be truncated.
The statement has been terminated.

11/11/2013  15:22 >> Application_Name >> BLWorker::SQL
 INSERT INTO personal(pe_regis_no, pe_eff_time, pe_card_type,      pe_card_no, pe_birth_dt, pe_occup, pe_ben_fname,      pe_ben_lname, pe_ben_addr1, pe_ben_addr2, pe_ben_amphor,      pe_ben_changwat, pe_ben_postcode, pe_ben_tel, pe_ben_email, pe_relation)  VALUES('92-00017' ,          '',          '1       ',          '1234566666666666666666666666666666666666666666666666',      '1979/05/23',          '',          'ปัตมา',          'จันทร์สุวรรณ์',          '46/438 คอนโดเลต ลาดพร้าว',          'คลองจั่น',          'บางกะปิ',          '00',          '10240',          '',          '-',          '008     ') 

11/11/2013  15:22 >> Application_Name >> SMK :: RegisManager.insertDataPersonelAccident
Error when call insertDataPersonel

11/11/2013  15:22 >> Application_Name >> RegisManager.insertDataPersonelAccident :: SQL


11/11/2013  15:28 >> Application_Name >> BLWorker::executeUpdate
String or binary data would be truncated.
The statement has been terminated.

11/11/2013  15:28 >> Application_Name >> BLWorker::SQL
 INSERT INTO personal(pe_regis_no, pe_eff_time, pe_card_type,      pe_card_no, pe_birth_dt, pe_occup, pe_ben_fname,      pe_ben_lname, pe_ben_addr1, pe_ben_addr2, pe_ben_amphor,      pe_ben_changwat, pe_ben_postcode, pe_ben_tel, pe_ben_email, pe_relation)  VALUES('92-00018' ,          '',          '1       ',          '1234566666666666666666666666666666666666666666666666',      '1979/05/23',          '',          'ปัตมา',          'จันทร์สุวรรณ์',          '46/438 คอนโดเลต ลาดพร้าว',          'คลองจั่น',          'บางกะปิ',          '00',          '10240',          '',          '-',          '008     ') 

11/11/2013  15:28 >> Application_Name >> SMK :: RegisManager.insertDataPersonelAccident
Error when call insertDataPersonel

11/11/2013  15:28 >> Application_Name >> RegisManager.insertDataPersonelAccident :: SQL


11/11/2013  15:29 >> Application_Name >> BLWorker::executeUpdate
String or binary data would be truncated.
The statement has been terminated.

11/11/2013  15:29 >> Application_Name >> BLWorker::SQL
 INSERT INTO personal(pe_regis_no, pe_eff_time, pe_card_type,      pe_card_no, pe_birth_dt, pe_occup, pe_ben_fname,      pe_ben_lname, pe_ben_addr1, pe_ben_addr2, pe_ben_amphor,      pe_ben_changwat, pe_ben_postcode, pe_ben_tel, pe_ben_email, pe_relation)  VALUES('92-00019' ,          '',          '1       ',          '1234566666666666666666666666666666666666666666666666',      '1979/05/23',          '',          'ปัตมา',          'จันทร์สุวรรณ์',          '46/438 คอนโดเลต ลาดพร้าว',          'คลองจั่น',          'บางกะปิ',          '00',          '10240',          '',          '-',          '008     ') 

11/11/2013  15:29 >> Application_Name >> SMK :: RegisManager.insertDataPersonelAccident
Error when call insertDataPersonel

11/11/2013  15:29 >> Application_Name >> RegisManager.insertDataPersonelAccident :: SQL


11/11/2013  15:29 >> Application_Name >> BLWorker::executeUpdate
String or binary data would be truncated.
The statement has been terminated.

11/11/2013  15:29 >> Application_Name >> BLWorker::SQL
 INSERT INTO personal(pe_regis_no, pe_eff_time, pe_card_type,      pe_card_no, pe_birth_dt, pe_occup, pe_ben_fname,      pe_ben_lname, pe_ben_addr1, pe_ben_addr2, pe_ben_amphor,      pe_ben_changwat, pe_ben_postcode, pe_ben_tel, pe_ben_email, pe_relation)  VALUES('92-00019' ,          '',          '1       ',          '1234566666666666666666666666666666666666666666666666',      '1979/05/23',          '',          'ปัตมา',          'จันทร์สุวรรณ์',          '46/438 คอนโดเลต ลาดพร้าว',          'คลองจั่น',          'บางกะปิ',          '00',          '10240',          '',          '-',          '008     ') 

11/11/2013  15:29 >> Application_Name >> SMK :: RegisManager.insertDataPersonelAccident
Error when call insertDataPersonel

11/11/2013  15:29 >> Application_Name >> RegisManager.insertDataPersonelAccident :: SQL


11/11/2013  16:31 >> Application_Name >> SQL Command
90

11/11/2013  16:34 >> Application_Name >> เบี้ย PA1
100

11/11/2013  16:34 >> Application_Name >> เบี้ย PA2
90

11/11/2013  16:43 >> Application_Name >> เบี้ย PA1
100

11/11/2013  16:43 >> Application_Name >> เบี้ย PA2
90

