28/12/2013  0:33 >> Application_Name >> getDataCarMarkByCarMarkCode
SELECT * 
 FROM online_carmark 
 WHERE carmakcod = '' 
 ORDER BY desc_t, carmakcod 

28/12/2013  0:33 >> Application_Name >> getDataCarMarkByCarMarkCode
SELECT * 
 FROM online_carmark 
 WHERE carmakcod = 'JK-NI097' 
 ORDER BY desc_t, carmakcod 

28/12/2013  0:35 >> Application_Name >> getDataPremium
exec sp_calonlineweb 'Y','110','1','6','4 ','JK-NI097','2000','A','A',487481.990625,595811.321875,'0',0

28/12/2013  0:35 >> Application_Name >> getDataPremium
exec sp_calonlineweb 'Y','110','2','6','4 ','JK-NI097','2000','A','A',487481.990625,595811.321875,'0',0

28/12/2013  0:35 >> Application_Name >> getDataPremium
exec sp_calonlineweb 'Y','110','3','6','4 ','JK-NI097','2000','A','A',0,0,'0',0

28/12/2013  0:38 >> Application_Name >> getDataPremium
exec sp_calonlineweb 'Y','110','1','6','4 ','JK-MA002','2000','A','A',487481.990625,595811.321875,'0',0

28/12/2013  0:38 >> Application_Name >> getDataPremium
exec sp_calonlineweb 'Y','110','2','6','4 ','JK-MA002','2000','A','A',487481.990625,595811.321875,'0',0

28/12/2013  0:38 >> Application_Name >> getDataPremium
exec sp_calonlineweb 'Y','110','3','6','4 ','JK-MA002','2000','A','A',0,0,'0',0

28/12/2013  0:38 >> Application_Name >> SMK :: BuyVoluntary_step2-docToUI
Combine

28/12/2013  0:38 >> Application_Name >> SMK :: BuyVoluntary_step2-docToUI
rg_prmm-019404

28/12/2013  0:38 >> Application_Name >> SMK :: BuyVoluntary_step2-docToUI
rg_prmm19404

28/12/2013  0:38 >> Application_Name >> SMK :: BuyVoluntary_step2-docToUI
cp_comp_prmm600.00

28/12/2013  0:39 >> Application_Name >> getDataPremium
exec sp_calonlineweb 'Y','110','1','6','4 ','JK-MA002','2000','A','A',487481.990625,595811.321875,'0',0

28/12/2013  0:39 >> Application_Name >> getDataPremium
exec sp_calonlineweb 'Y','110','2','6','4 ','JK-MA002','2000','A','A',487481.990625,595811.321875,'0',0

28/12/2013  0:39 >> Application_Name >> getDataPremium
exec sp_calonlineweb 'Y','110','3','6','4 ','JK-MA002','2000','A','A',0,0,'0',0

28/12/2013  0:40 >> Application_Name >> SMK :: BuyVoluntary_step2-docToUI
Combine

28/12/2013  0:40 >> Application_Name >> SMK :: BuyVoluntary_step2-docToUI
rg_prmm-018865

28/12/2013  0:40 >> Application_Name >> SMK :: BuyVoluntary_step2-docToUI
rg_prmm18865

28/12/2013  0:40 >> Application_Name >> SMK :: BuyVoluntary_step2-docToUI
cp_comp_prmm600.00

28/12/2013  2:43 >> Application_Name >> getDataCarMarkByCarMarkCode
SELECT * 
 FROM online_carmark 
 WHERE carmakcod = '' 
 ORDER BY desc_t, carmakcod 

28/12/2013  2:43 >> Application_Name >> getDataCarMarkByCarMarkCode
SELECT * 
 FROM online_carmark 
 WHERE carmakcod = '' 
 ORDER BY desc_t, carmakcod 

28/12/2013  2:43 >> Application_Name >> getDataCarMarkByCarMarkCode
SELECT * 
 FROM online_carmark 
 WHERE carmakcod = '' 
 ORDER BY desc_t, carmakcod 

28/12/2013  2:43 >> Application_Name >> getDataCarMarkByCarMarkCode
SELECT * 
 FROM online_carmark 
 WHERE carmakcod = '' 
 ORDER BY desc_t, carmakcod 

28/12/2013  2:43 >> Application_Name >> getDataCarMarkByCarMarkCode
SELECT * 
 FROM online_carmark 
 WHERE carmakcod = 'JP-IS052' 
 ORDER BY desc_t, carmakcod 

28/12/2013  2:48 >> Application_Name >> getDataCarMarkByCarMarkCode
SELECT * 
 FROM online_carmark 
 WHERE carmakcod = '' 
 ORDER BY desc_t, carmakcod 

28/12/2013  2:48 >> Application_Name >> getDataCarMarkByCarMarkCode
SELECT * 
 FROM online_carmark 
 WHERE carmakcod = '' 
 ORDER BY desc_t, carmakcod 

28/12/2013  2:48 >> Application_Name >> getDataCarMarkByCarMarkCode
SELECT * 
 FROM online_carmark 
 WHERE carmakcod = '' 
 ORDER BY desc_t, carmakcod 

28/12/2013  2:48 >> Application_Name >> getDataCarMarkByCarMarkCode
SELECT * 
 FROM online_carmark 
 WHERE carmakcod = 'JP-IS052' 
 ORDER BY desc_t, carmakcod 

28/12/2013  2:52 >> Application_Name >> getDataPremium
exec sp_calonlineweb 'N','210','1','3','A','','3000','21','A',528143,583737,'0',20

28/12/2013  2:52 >> Application_Name >> getDataPremium
exec sp_calonlineweb 'N','210','2','3','A','','3000','21','A',528143,583737,'0',20

28/12/2013  2:52 >> Application_Name >> getDataPremium
exec sp_calonlineweb 'N','210','3','3','A','','3000','21','A',0,0,'0',20

28/12/2013  2:53 >> Application_Name >> getDataPremium
exec sp_calonlineweb 'N','210','1','3','A','','3000','21','A',528143,583737,'0',20

28/12/2013  2:53 >> Application_Name >> getDataPremium
exec sp_calonlineweb 'N','210','2','3','A','','3000','21','A',528143,583737,'0',20

28/12/2013  2:53 >> Application_Name >> getDataPremium
exec sp_calonlineweb 'N','210','3','3','A','','3000','21','A',0,0,'0',20

28/12/2013  2:56 >> Application_Name >> getDataCarMarkByCarMarkCode
SELECT * 
 FROM online_carmark 
 WHERE carmakcod = '' 
 ORDER BY desc_t, carmakcod 

28/12/2013  2:56 >> Application_Name >> getDataCarMarkByCarMarkCode
SELECT * 
 FROM online_carmark 
 WHERE carmakcod = 'JK-IS047' 
 ORDER BY desc_t, carmakcod 

28/12/2013  2:58 >> Application_Name >> getDataPremium
exec sp_calonlineweb 'N','110','1','4','3 ','JK-IS047','9999','A','A',470698.875,575298.625,'0',0

28/12/2013  2:58 >> Application_Name >> getDataPremium
exec sp_calonlineweb 'N','110','2','4','3 ','JK-IS047','9999','A','A',470698.875,575298.625,'0',0

28/12/2013  2:58 >> Application_Name >> getDataPremium
exec sp_calonlineweb 'N','110','3','4','3 ','JK-IS047','9999','A','A',0,0,'0',0

28/12/2013  6:1 >> Application_Name >> getDataCarMarkByCarMarkCode
SELECT * 
 FROM online_carmark 
 WHERE carmakcod = '' 
 ORDER BY desc_t, carmakcod 

28/12/2013  6:1 >> Application_Name >> getDataCarMarkByCarMarkCode
SELECT * 
 FROM online_carmark 
 WHERE carmakcod = 'JK-IS047' 
 ORDER BY desc_t, carmakcod 

28/12/2013  6:2 >> Application_Name >> getDataCarMarkByCarMarkCode
SELECT * 
 FROM online_carmark 
 WHERE carmakcod = '' 
 ORDER BY desc_t, carmakcod 

28/12/2013  6:4 >> Application_Name >> getDataCarMarkByCarMarkCode
SELECT * 
 FROM online_carmark 
 WHERE carmakcod = 'JP-IS052' 
 ORDER BY desc_t, carmakcod 

28/12/2013  6:4 >> Application_Name >> getDataPremium
exec sp_calonlineweb 'Y','210','1','1','A','','3000','21','A',585200,646800,'0',0

28/12/2013  6:4 >> Application_Name >> getDataPremium
exec sp_calonlineweb 'Y','210','2','1','A','','3000','21','A',585200,646800,'0',0

28/12/2013  6:4 >> Application_Name >> getDataPremium
exec sp_calonlineweb 'Y','210','3','1','A','','3000','21','A',0,0,'0',0

28/12/2013  6:4 >> Application_Name >> getDataPremium
exec sp_calonlineweb 'Y','210','1','1','A','','3000','21','A',585200,646800,'0',0

28/12/2013  6:4 >> Application_Name >> getDataPremium
exec sp_calonlineweb 'Y','210','2','1','A','','3000','21','A',585200,646800,'0',0

28/12/2013  6:4 >> Application_Name >> getDataPremium
exec sp_calonlineweb 'Y','210','3','1','A','','3000','21','A',0,0,'0',0

28/12/2013  6:5 >> Application_Name >> getDataPremium
exec sp_calonlineweb 'Y','210','1','1','A','','3000','21','A',585200,646800,'0',0

28/12/2013  6:5 >> Application_Name >> getDataPremium
exec sp_calonlineweb 'Y','210','2','1','A','','3000','21','A',585200,646800,'0',0

28/12/2013  6:5 >> Application_Name >> getDataPremium
exec sp_calonlineweb 'Y','210','3','1','A','','3000','21','A',0,0,'0',0

28/12/2013  8:13 >> Application_Name >> getDataCarMarkByCarMarkCode
SELECT * 
 FROM online_carmark 
 WHERE carmakcod = '' 
 ORDER BY desc_t, carmakcod 

28/12/2013  8:13 >> Application_Name >> getDataCarMarkByCarMarkCode
SELECT * 
 FROM online_carmark 
 WHERE carmakcod = '' 
 ORDER BY desc_t, carmakcod 

28/12/2013  8:13 >> Application_Name >> getDataCarMarkByCarMarkCode
SELECT * 
 FROM online_carmark 
 WHERE carmakcod = 'JP-IS030' 
 ORDER BY desc_t, carmakcod 

28/12/2013  8:16 >> Application_Name >> getDataPremium
exec sp_calonlineweb 'N','210','1','7','A','','2500','21','A',305592.400770625,337760.021904375,'0',30

28/12/2013  8:16 >> Application_Name >> getDataPremium
exec sp_calonlineweb 'N','210','2','7','A','','2500','21','A',305592.400770625,337760.021904375,'0',30

28/12/2013  8:16 >> Application_Name >> getDataPremium
exec sp_calonlineweb 'N','210','3','7','A','','2500','21','A',0,0,'0',30

28/12/2013  8:16 >> Application_Name >> getDataPremium
exec sp_calonlineweb 'N','210','1','7','A','','2500','21','A',305592.400770625,337760.021904375,'0',30

28/12/2013  8:16 >> Application_Name >> getDataPremium
exec sp_calonlineweb 'N','210','2','7','A','','2500','21','A',305592.400770625,337760.021904375,'0',30

28/12/2013  8:16 >> Application_Name >> getDataPremium
exec sp_calonlineweb 'N','210','3','7','A','','2500','21','A',0,0,'0',30

28/12/2013  9:22 >> Application_Name >> getDataCarMarkByCarMarkCode
SELECT * 
 FROM online_carmark 
 WHERE carmakcod = '' 
 ORDER BY desc_t, carmakcod 

28/12/2013  9:22 >> Application_Name >> getDataCarMarkByCarMarkCode
SELECT * 
 FROM online_carmark 
 WHERE carmakcod = '' 
 ORDER BY desc_t, carmakcod 

28/12/2013  9:22 >> Application_Name >> getDataCarMarkByCarMarkCode
SELECT * 
 FROM online_carmark 
 WHERE carmakcod = '' 
 ORDER BY desc_t, carmakcod 

28/12/2013  9:22 >> Application_Name >> getDataCarMarkByCarMarkCode
SELECT * 
 FROM online_carmark 
 WHERE carmakcod = 'JP-IS052' 
 ORDER BY desc_t, carmakcod 

28/12/2013  9:24 >> Application_Name >> getDataPremium
exec sp_calonlineweb 'Y','320','1','2','A','','4','N','A',555940,614460,'0',0

28/12/2013  9:24 >> Application_Name >> getDataPremium
exec sp_calonlineweb 'Y','320','2','2','A','','4','N','A',555940,614460,'0',0

28/12/2013  9:24 >> Application_Name >> getDataPremium
exec sp_calonlineweb 'Y','320','3','2','A','','4','N','A',0,0,'0',0

28/12/2013  9:25 >> Application_Name >> SMK :: BuyVoluntary_step2-docToUI
Combine

28/12/2013  9:25 >> Application_Name >> SMK :: BuyVoluntary_step2-docToUI
rg_prmm-034406

28/12/2013  9:25 >> Application_Name >> SMK :: BuyVoluntary_step2-docToUI
rg_prmm34406

28/12/2013  9:25 >> Application_Name >> SMK :: BuyVoluntary_step2-docToUI
cp_comp_prmm900.00

28/12/2013  9:26 >> Application_Name >> getDataCarMarkByCarMarkCode
SELECT * 
 FROM online_carmark 
 WHERE carmakcod = '' 
 ORDER BY desc_t, carmakcod 

28/12/2013  9:26 >> Application_Name >> getDataCarMarkByCarMarkCode
SELECT * 
 FROM online_carmark 
 WHERE carmakcod = 'JP-IS052' 
 ORDER BY desc_t, carmakcod 

28/12/2013  9:26 >> Application_Name >> getDataPremium
exec sp_calonlineweb 'Y','210','1','2','A','','3000','21','A',555940,614460,'0',0

28/12/2013  9:26 >> Application_Name >> getDataPremium
exec sp_calonlineweb 'Y','210','2','2','A','','3000','21','A',555940,614460,'0',0

28/12/2013  9:26 >> Application_Name >> getDataPremium
exec sp_calonlineweb 'Y','210','3','2','A','','3000','21','A',0,0,'0',0

28/12/2013  9:26 >> Application_Name >> getDataPremium
exec sp_calonlineweb 'Y','210','1','2','A','','3000','21','A',555940,614460,'0',0

28/12/2013  9:26 >> Application_Name >> getDataPremium
exec sp_calonlineweb 'Y','210','2','2','A','','3000','21','A',555940,614460,'0',0

28/12/2013  9:26 >> Application_Name >> getDataPremium
exec sp_calonlineweb 'Y','210','3','2','A','','3000','21','A',0,0,'0',0

28/12/2013  9:26 >> Application_Name >> getDataPremium
exec sp_calonlineweb 'Y','210','1','1','A','','3000','21','A',585200,646800,'0',0

28/12/2013  9:26 >> Application_Name >> getDataPremium
exec sp_calonlineweb 'Y','210','2','1','A','','3000','21','A',585200,646800,'0',0

28/12/2013  9:26 >> Application_Name >> getDataPremium
exec sp_calonlineweb 'Y','210','3','1','A','','3000','21','A',0,0,'0',0

28/12/2013  9:26 >> Application_Name >> getDataCarMarkByCarMarkCode
SELECT * 
 FROM online_carmark 
 WHERE carmakcod = '' 
 ORDER BY desc_t, carmakcod 

28/12/2013  9:26 >> Application_Name >> getDataCarMarkByCarMarkCode
SELECT * 
 FROM online_carmark 
 WHERE carmakcod = 'JP-IS052' 
 ORDER BY desc_t, carmakcod 

28/12/2013  9:27 >> Application_Name >> getDataPremium
exec sp_calonlineweb 'Y','320','1','1','A','','4','N','A',585200,646800,'0',0

28/12/2013  9:27 >> Application_Name >> getDataPremium
exec sp_calonlineweb 'Y','320','2','1','A','','4','N','A',585200,646800,'0',0

28/12/2013  9:27 >> Application_Name >> getDataPremium
exec sp_calonlineweb 'Y','320','3','1','A','','4','N','A',0,0,'0',0

28/12/2013  9:38 >> Application_Name >> getDataCarMarkByCarMarkCode
SELECT * 
 FROM online_carmark 
 WHERE carmakcod = '' 
 ORDER BY desc_t, carmakcod 

28/12/2013  10:45 >> Application_Name >> getDataCarMarkByCarMarkCode
SELECT * 
 FROM online_carmark 
 WHERE carmakcod = '' 
 ORDER BY desc_t, carmakcod 

28/12/2013  10:50 >> Application_Name >> getDataCarMarkByCarMarkCode
SELECT * 
 FROM online_carmark 
 WHERE carmakcod = '' 
 ORDER BY desc_t, carmakcod 

28/12/2013  10:50 >> Application_Name >> getDataCarMarkByCarMarkCode
SELECT * 
 FROM online_carmark 
 WHERE carmakcod = '' 
 ORDER BY desc_t, carmakcod 

28/12/2013  10:50 >> Application_Name >> getDataCarMarkByCarMarkCode
SELECT * 
 FROM online_carmark 
 WHERE carmakcod = 'JP-IS030' 
 ORDER BY desc_t, carmakcod 

28/12/2013  10:51 >> Application_Name >> getDataPremium
exec sp_calonlineweb 'Y','210','1','4','A','','25','21','A',356427.935,393946.665,'0',0

28/12/2013  10:51 >> Application_Name >> getDataPremium
exec sp_calonlineweb 'Y','210','2','4','A','','25','21','A',356427.935,393946.665,'0',0

28/12/2013  10:51 >> Application_Name >> getDataPremium
exec sp_calonlineweb 'Y','210','3','4','A','','25','21','A',0,0,'0',0

28/12/2013  10:51 >> Application_Name >> getDataPremium
exec sp_calonlineweb 'Y','210','1','4','A','','25','21','A',356427.935,393946.665,'0',0

28/12/2013  10:51 >> Application_Name >> getDataPremium
exec sp_calonlineweb 'Y','210','2','4','A','','25','21','A',356427.935,393946.665,'0',0

28/12/2013  10:51 >> Application_Name >> getDataPremium
exec sp_calonlineweb 'Y','210','3','4','A','','25','21','A',0,0,'0',0

28/12/2013  10:51 >> Application_Name >> getDataPremium
exec sp_calonlineweb 'Y','210','1','4','A','','2500','21','A',356427.935,393946.665,'0',0

28/12/2013  10:51 >> Application_Name >> getDataPremium
exec sp_calonlineweb 'Y','210','2','4','A','','2500','21','A',356427.935,393946.665,'0',0

28/12/2013  10:51 >> Application_Name >> getDataPremium
exec sp_calonlineweb 'Y','210','3','4','A','','2500','21','A',0,0,'0',0

28/12/2013  10:53 >> Application_Name >> getDataPremium
exec sp_calonlineweb 'Y','210','1','4','A','','2500','21','A',356427.935,393946.665,'0',0

28/12/2013  10:53 >> Application_Name >> getDataPremium
exec sp_calonlineweb 'Y','210','2','4','A','','2500','21','A',356427.935,393946.665,'0',0

28/12/2013  10:53 >> Application_Name >> getDataPremium
exec sp_calonlineweb 'Y','210','3','4','A','','2500','21','A',0,0,'0',0

28/12/2013  10:57 >> Application_Name >> getDataPremium
exec sp_calonlineweb 'Y','210','1','4','A','','2500','21','A',356427.935,393946.665,'0',0

28/12/2013  10:57 >> Application_Name >> getDataPremium
exec sp_calonlineweb 'Y','210','2','4','A','','2500','21','A',356427.935,393946.665,'0',0

28/12/2013  10:57 >> Application_Name >> getDataPremium
exec sp_calonlineweb 'Y','210','3','4','A','','2500','21','A',0,0,'0',0

28/12/2013  10:57 >> Application_Name >> getDataPremium
exec sp_calonlineweb 'Y','210','1','4','A','','2500','21','A',356427.935,393946.665,'0',0

28/12/2013  10:57 >> Application_Name >> getDataPremium
exec sp_calonlineweb 'Y','210','2','4','A','','2500','21','A',356427.935,393946.665,'0',0

28/12/2013  10:57 >> Application_Name >> getDataPremium
exec sp_calonlineweb 'Y','210','3','4','A','','2500','21','A',0,0,'0',0

28/12/2013  10:58 >> Application_Name >> getDataCarMarkByCarMarkCode
SELECT * 
 FROM online_carmark 
 WHERE carmakcod = '' 
 ORDER BY desc_t, carmakcod 

28/12/2013  10:58 >> Application_Name >> getDataCarMarkByCarMarkCode
SELECT * 
 FROM online_carmark 
 WHERE carmakcod = '' 
 ORDER BY desc_t, carmakcod 

28/12/2013  10:58 >> Application_Name >> getDataCarMarkByCarMarkCode
SELECT * 
 FROM online_carmark 
 WHERE carmakcod = 'JP-IS030' 
 ORDER BY desc_t, carmakcod 

28/12/2013  11:11 >> Application_Name >> getDataPremium
exec sp_calonlineweb 'Y','210','1','4','A','','12','21','A',356427.935,393946.665,'0',0

28/12/2013  11:11 >> Application_Name >> getDataPremium
exec sp_calonlineweb 'Y','210','2','4','A','','12','21','A',356427.935,393946.665,'0',0

28/12/2013  11:11 >> Application_Name >> getDataPremium
exec sp_calonlineweb 'Y','210','3','4','A','','12','21','A',0,0,'0',0

28/12/2013  11:11 >> Application_Name >> SMK :: BuyVoluntary_step2-docToUI
Combine

28/12/2013  11:11 >> Application_Name >> SMK :: BuyVoluntary_step2-docToUI
rg_prmm-017054

28/12/2013  11:11 >> Application_Name >> SMK :: BuyVoluntary_step2-docToUI
rg_prmm17054

28/12/2013  11:11 >> Application_Name >> SMK :: BuyVoluntary_step2-docToUI
cp_comp_prmm900.00

28/12/2013  11:22 >> Application_Name >> BLWorker::executeUpdate
String or binary data would be truncated.
The statement has been terminated.

28/12/2013  11:22 >> Application_Name >> BLWorker::SQL
INSERT INTO tmpreg(tm_tmp_cd, tm_main_class, tm_pol_type, tm_effect_dt, tm_expiry_dt, tm_regis_dt, tm_regis_time, tm_regis_type, tm_ins_fname, tm_ins_lname, tm_ins_addr1, tm_ins_addr2, tm_ins_amphor, tm_ins_changwat, tm_ins_postcode, tm_ins_tel, tm_ins_email, tm_sum_ins, tm_prmm, tm_tax, tm_stamp, tm_fleet_perc, tm_stat, tm_ins_mobile, tm_ins_idcard, tm_oth_distance, tm_oth_region, tm_oth_flagdeduct, tm_oth_oldpolicy, tm_mott_id, tm_insc_id, tm_prmmgross ) VALUES('131228-001','M',      '1',      '2013/12/28',     '2014/12/28',     '2013/12/28',      '11:22',      'N',      'ภัทร์ฐิตา',      'อภิศราธนานันต์',      '41/129รังสิตแลนด์คอนโดตึกB ห้อง129 ชั้น5 ถ.รังสิต-ปทุมซอย15 ',      'ประชาธิปัตย์',      'ธัญบุรี',      '27',      '12130',      '080-0590095',      '-',      '380000',      '17054',      '1198.61',      '69',      '0',      'N',      '-',      '-',      '',      '1',      '',      'N',      '1',      '5607000003',      '19288.89' ) 

28/12/2013  11:22 >> Application_Name >> BLWorker::executeUpdate
String or binary data would be truncated.
The statement has been terminated.

28/12/2013  11:22 >> Application_Name >> BLWorker::SQL
INSERT INTO tmpreg(tm_tmp_cd, tm_main_class, tm_pol_type, tm_effect_dt, tm_expiry_dt, tm_regis_dt, tm_regis_time, tm_regis_type, tm_ins_fname, tm_ins_lname, tm_ins_addr1, tm_ins_addr2, tm_ins_amphor, tm_ins_changwat, tm_ins_postcode, tm_ins_tel, tm_ins_email, tm_sum_ins, tm_prmm, tm_tax, tm_stamp, tm_fleet_perc, tm_stat, tm_ins_mobile, tm_ins_idcard, tm_oth_distance, tm_oth_region, tm_oth_flagdeduct, tm_oth_oldpolicy, tm_mott_id, tm_insc_id, tm_prmmgross ) VALUES('131228-001','M',      '1',      '2013/12/28',     '2014/12/28',     '2013/12/28',      '11:22',      'N',      'ภัทร์ฐิตา',      'อภิศราธนานันต์',      '41/129รังสิตแลนด์คอนโดตึกB ห้อง129 ชั้น5 ถ.รังสิต-ปทุมซอย15 ',      'ประชาธิปัตย์',      'ธัญบุรี',      '27',      '12130',      '080-0590095',      '-',      '380000',      '17054',      '1198.61',      '69',      '0',      'N',      '-',      '-',      '',      '1',      '',      'N',      '1',      '5607000003',      '19288.89' ) 

28/12/2013  11:23 >> Application_Name >> getDataCarMarkByCarMarkCode
SELECT * 
 FROM online_carmark 
 WHERE carmakcod = '' 
 ORDER BY desc_t, carmakcod 

28/12/2013  11:23 >> Application_Name >> getDataCarMarkByCarMarkCode
SELECT * 
 FROM online_carmark 
 WHERE carmakcod = '' 
 ORDER BY desc_t, carmakcod 

28/12/2013  11:23 >> Application_Name >> getDataCarMarkByCarMarkCode
SELECT * 
 FROM online_carmark 
 WHERE carmakcod = 'JP-IS030' 
 ORDER BY desc_t, carmakcod 

28/12/2013  11:24 >> Application_Name >> getDataPremium
exec sp_calonlineweb 'Y','210','1','4','A','','12','21','A',356427.935,393946.665,'0',0

28/12/2013  11:24 >> Application_Name >> getDataPremium
exec sp_calonlineweb 'Y','210','2','4','A','','12','21','A',356427.935,393946.665,'0',0

28/12/2013  11:24 >> Application_Name >> getDataPremium
exec sp_calonlineweb 'Y','210','3','4','A','','12','21','A',0,0,'0',0

28/12/2013  11:24 >> Application_Name >> SMK :: BuyVoluntary_step2-docToUI
Combine

28/12/2013  11:24 >> Application_Name >> SMK :: BuyVoluntary_step2-docToUI
rg_prmm-017054

28/12/2013  11:24 >> Application_Name >> SMK :: BuyVoluntary_step2-docToUI
rg_prmm17054

28/12/2013  11:24 >> Application_Name >> SMK :: BuyVoluntary_step2-docToUI
cp_comp_prmm900.00

28/12/2013  11:29 >> Application_Name >> getDataCarMarkByCarMarkCode
SELECT * 
 FROM online_carmark 
 WHERE carmakcod = '' 
 ORDER BY desc_t, carmakcod 

28/12/2013  11:30 >> Application_Name >> getDataCarMarkByCarMarkCode
SELECT * 
 FROM online_carmark 
 WHERE carmakcod = 'JK-MA065' 
 ORDER BY desc_t, carmakcod 

28/12/2013  11:35 >> Application_Name >> getDataPremium
exec sp_calonlineweb 'Y','110','1','4','5 ','JK-NI015','2000','A','A',432117,528143,'0',0

28/12/2013  11:35 >> Application_Name >> getDataPremium
exec sp_calonlineweb 'Y','110','2','4','5 ','JK-NI015','2000','A','A',432117,528143,'0',0

28/12/2013  11:35 >> Application_Name >> getDataPremium
exec sp_calonlineweb 'Y','110','3','4','5 ','JK-NI015','2000','A','A',0,0,'0',0

28/12/2013  11:36 >> Application_Name >> SMK :: BuyVoluntary_step2-docToUI
Combine

28/12/2013  11:36 >> Application_Name >> SMK :: BuyVoluntary_step2-docToUI
rg_prmm-015923

28/12/2013  11:36 >> Application_Name >> SMK :: BuyVoluntary_step2-docToUI
rg_prmm15923

28/12/2013  11:36 >> Application_Name >> SMK :: BuyVoluntary_step2-docToUI
cp_comp_prmm600.00

28/12/2013  11:55 >> Application_Name >> getDataCarMarkByCarMarkCode
SELECT * 
 FROM online_carmark 
 WHERE carmakcod = '' 
 ORDER BY desc_t, carmakcod 

28/12/2013  11:55 >> Application_Name >> getDataCarMarkByCarMarkCode
SELECT * 
 FROM online_carmark 
 WHERE carmakcod = 'JK-HO002' 
 ORDER BY desc_t, carmakcod 

28/12/2013  12:9 >> Application_Name >> getDataCarMarkByCarMarkCode
SELECT * 
 FROM online_carmark 
 WHERE carmakcod = '' 
 ORDER BY desc_t, carmakcod 

28/12/2013  12:9 >> Application_Name >> getDataCarMarkByCarMarkCode
SELECT * 
 FROM online_carmark 
 WHERE carmakcod = 'JK-NI100' 
 ORDER BY desc_t, carmakcod 

28/12/2013  12:24 >> Application_Name >> getDataCarMarkByCarMarkCode
SELECT * 
 FROM online_carmark 
 WHERE carmakcod = '' 
 ORDER BY desc_t, carmakcod 

28/12/2013  12:24 >> Application_Name >> getDataCarMarkByCarMarkCode
SELECT * 
 FROM online_carmark 
 WHERE carmakcod = 'EK-FO083' 
 ORDER BY desc_t, carmakcod 

28/12/2013  12:27 >> Application_Name >> getDataPremium
exec sp_calonlineweb 'Y','110','1','1','5 ','JK-NI100','2000','A','A',400000,440000,'0',30

28/12/2013  12:27 >> Application_Name >> getDataPremium
exec sp_calonlineweb 'Y','110','2','1','5 ','JK-NI100','2000','A','A',400000,440000,'0',30

28/12/2013  12:27 >> Application_Name >> getDataPremium
exec sp_calonlineweb 'Y','110','3','1','5 ','JK-NI100','2000','A','A',0,0,'0',30

28/12/2013  12:28 >> Application_Name >> getDataPremium
exec sp_calonlineweb 'Y','110','1','1','5 ','JK-NI100','2000','A','A',400000,440000,'0',30

28/12/2013  12:28 >> Application_Name >> getDataPremium
exec sp_calonlineweb 'Y','110','2','1','5 ','JK-NI100','2000','A','A',400000,440000,'0',30

28/12/2013  12:28 >> Application_Name >> getDataPremium
exec sp_calonlineweb 'Y','110','3','1','5 ','JK-NI100','2000','A','A',0,0,'0',30

28/12/2013  12:28 >> Application_Name >> getDataPremium
exec sp_calonlineweb 'Y','110','1','1','5 ','EK-FO083','2000','A','A',504000,616000,'0',0

28/12/2013  12:28 >> Application_Name >> getDataPremium
exec sp_calonlineweb 'Y','110','2','1','5 ','EK-FO083','2000','A','A',504000,616000,'0',0

28/12/2013  12:28 >> Application_Name >> getDataPremium
exec sp_calonlineweb 'Y','110','3','1','5 ','EK-FO083','2000','A','A',0,0,'0',0

28/12/2013  12:29 >> Application_Name >> SMK :: BuyVoluntary_step2-docToUI
Combine

28/12/2013  12:29 >> Application_Name >> SMK :: BuyVoluntary_step2-docToUI
rg_prmm-017059

28/12/2013  12:29 >> Application_Name >> SMK :: BuyVoluntary_step2-docToUI
rg_prmm17059

28/12/2013  12:29 >> Application_Name >> SMK :: BuyVoluntary_step2-docToUI
cp_comp_prmm600.00

28/12/2013  12:34 >> Application_Name >> SMK :: BuyVoluntary_step2-docToUI
Combine

28/12/2013  12:34 >> Application_Name >> SMK :: BuyVoluntary_step2-docToUI
rg_prmm-012131.2

28/12/2013  12:34 >> Application_Name >> SMK :: BuyVoluntary_step2-docToUI
rg_prmm12131.2

28/12/2013  12:34 >> Application_Name >> SMK :: BuyVoluntary_step2-docToUI
cp_comp_prmm600.00

28/12/2013  12:39 >> Application_Name >> getDataCarMarkByCarMarkCode
SELECT * 
 FROM online_carmark 
 WHERE carmakcod = '' 
 ORDER BY desc_t, carmakcod 

28/12/2013  12:39 >> Application_Name >> getDataCarMarkByCarMarkCode
SELECT * 
 FROM online_carmark 
 WHERE carmakcod = '' 
 ORDER BY desc_t, carmakcod 

28/12/2013  12:39 >> Application_Name >> getDataCarMarkByCarMarkCode
SELECT * 
 FROM online_carmark 
 WHERE carmakcod = 'JK-NI100' 
 ORDER BY desc_t, carmakcod 

28/12/2013  13:5 >> Application_Name >> getDataCarMarkByCarMarkCode
SELECT * 
 FROM online_carmark 
 WHERE carmakcod = '' 
 ORDER BY desc_t, carmakcod 

28/12/2013  13:5 >> Application_Name >> getDataCarMarkByCarMarkCode
SELECT * 
 FROM online_carmark 
 WHERE carmakcod = 'JK-HO001' 
 ORDER BY desc_t, carmakcod 

28/12/2013  14:41 >> Application_Name >> getDataCarMarkByCarMarkCode
SELECT * 
 FROM online_carmark 
 WHERE carmakcod = '' 
 ORDER BY desc_t, carmakcod 

28/12/2013  14:41 >> Application_Name >> getDataCarMarkByCarMarkCode
SELECT * 
 FROM online_carmark 
 WHERE carmakcod = 'JK-NI100' 
 ORDER BY desc_t, carmakcod 

28/12/2013  14:43 >> Application_Name >> getDataPremium
exec sp_calonlineweb 'N','110','1','2','5 ','JK-NI100','2000','A','A',380000,418000,'18',20

28/12/2013  14:43 >> Application_Name >> getDataPremium
exec sp_calonlineweb 'N','110','2','2','5 ','JK-NI100','2000','A','A',380000,418000,'18',20

28/12/2013  14:43 >> Application_Name >> getDataPremium
exec sp_calonlineweb 'N','110','3','2','5 ','JK-NI100','2000','A','A',0,0,'18',20

28/12/2013  16:10 >> Application_Name >> getDataCarMarkByCarMarkCode
SELECT * 
 FROM online_carmark 
 WHERE carmakcod = '' 
 ORDER BY desc_t, carmakcod 

28/12/2013  16:10 >> Application_Name >> getDataCarMarkByCarMarkCode
SELECT * 
 FROM online_carmark 
 WHERE carmakcod = '' 
 ORDER BY desc_t, carmakcod 

28/12/2013  16:11 >> Application_Name >> getDataCarMarkByCarMarkCode
SELECT * 
 FROM online_carmark 
 WHERE carmakcod = 'JK-TO234' 
 ORDER BY desc_t, carmakcod 

28/12/2013  19:32 >> Application_Name >> getDataCarMarkByCarMarkCode
SELECT * 
 FROM online_carmark 
 WHERE carmakcod = '' 
 ORDER BY desc_t, carmakcod 

28/12/2013  19:33 >> Application_Name >> getDataCarMarkByCarMarkCode
SELECT * 
 FROM online_carmark 
 WHERE carmakcod = 'JK-TO179' 
 ORDER BY desc_t, carmakcod 

28/12/2013  19:35 >> Application_Name >> getDataPremium
exec sp_calonlineweb 'N','110','1','2','3 ','JK-TO179','9999','A','A',513342,567378,'0',20

28/12/2013  19:35 >> Application_Name >> getDataPremium
exec sp_calonlineweb 'N','110','2','2','3 ','JK-TO179','9999','A','A',513342,567378,'0',20

28/12/2013  19:35 >> Application_Name >> getDataPremium
exec sp_calonlineweb 'N','110','3','2','3 ','JK-TO179','9999','A','A',0,0,'0',20

28/12/2013  19:36 >> Application_Name >> getDataPremium
exec sp_calonlineweb 'N','110','1','2','3 ','JK-TO179','9999','A','A',513342,567378,'0',0

28/12/2013  19:36 >> Application_Name >> getDataPremium
exec sp_calonlineweb 'N','110','2','2','3 ','JK-TO179','9999','A','A',513342,567378,'0',0

28/12/2013  19:36 >> Application_Name >> getDataPremium
exec sp_calonlineweb 'N','110','3','2','3 ','JK-TO179','9999','A','A',0,0,'0',0

28/12/2013  20:29 >> Application_Name >> getDataCarMarkByCarMarkCode
SELECT * 
 FROM online_carmark 
 WHERE carmakcod = '' 
 ORDER BY desc_t, carmakcod 

28/12/2013  20:29 >> Application_Name >> getDataCarMarkByCarMarkCode
SELECT * 
 FROM online_carmark 
 WHERE carmakcod = 'JK-HO002' 
 ORDER BY desc_t, carmakcod 

28/12/2013  21:14 >> Application_Name >> getDataCarMarkByCarMarkCode
SELECT * 
 FROM online_carmark 
 WHERE carmakcod = '' 
 ORDER BY desc_t, carmakcod 

28/12/2013  21:14 >> Application_Name >> getDataCarMarkByCarMarkCode
SELECT * 
 FROM online_carmark 
 WHERE carmakcod = '' 
 ORDER BY desc_t, carmakcod 

28/12/2013  21:14 >> Application_Name >> getDataCarMarkByCarMarkCode
SELECT * 
 FROM online_carmark 
 WHERE carmakcod = 'JP-IS030' 
 ORDER BY desc_t, carmakcod 

28/12/2013  21:14 >> Application_Name >> getDataCarMarkByCarMarkCode
SELECT * 
 FROM online_carmark 
 WHERE carmakcod = 'JP-IS052' 
 ORDER BY desc_t, carmakcod 

28/12/2013  21:18 >> Application_Name >> getDataPremium
exec sp_calonlineweb 'N','210','1','6','A','','2500','21','A',452816.604625,500481.510375,'36',30

28/12/2013  21:18 >> Application_Name >> getDataPremium
exec sp_calonlineweb 'N','210','2','6','A','','2500','21','A',452816.604625,500481.510375,'36',30

28/12/2013  21:18 >> Application_Name >> getDataPremium
exec sp_calonlineweb 'N','210','3','6','A','','2500','21','A',0,0,'36',30

28/12/2013  21:18 >> Application_Name >> getDataPremium
exec sp_calonlineweb 'N','210','1','6','A','','2500','21','A',452816.604625,500481.510375,'36',30

28/12/2013  21:18 >> Application_Name >> getDataPremium
exec sp_calonlineweb 'N','210','2','6','A','','2500','21','A',452816.604625,500481.510375,'36',30

28/12/2013  21:18 >> Application_Name >> getDataPremium
exec sp_calonlineweb 'N','210','3','6','A','','2500','21','A',0,0,'36',30

28/12/2013  21:18 >> Application_Name >> getDataPremium
exec sp_calonlineweb 'N','210','1','6','A','','2500','21','A',452816.604625,500481.510375,'36',30

28/12/2013  21:18 >> Application_Name >> getDataPremium
exec sp_calonlineweb 'N','210','2','6','A','','2500','21','A',452816.604625,500481.510375,'36',30

28/12/2013  21:18 >> Application_Name >> getDataPremium
exec sp_calonlineweb 'N','210','3','6','A','','2500','21','A',0,0,'36',30

28/12/2013  21:19 >> Application_Name >> getDataCarMarkByCarMarkCode
SELECT * 
 FROM online_carmark 
 WHERE carmakcod = '' 
 ORDER BY desc_t, carmakcod 

28/12/2013  21:22 >> Application_Name >> getDataCarMarkByCarMarkCode
SELECT * 
 FROM online_carmark 
 WHERE carmakcod = '' 
 ORDER BY desc_t, carmakcod 

28/12/2013  21:22 >> Application_Name >> getDataCarMarkByCarMarkCode
SELECT * 
 FROM online_carmark 
 WHERE carmakcod = '' 
 ORDER BY desc_t, carmakcod 

28/12/2013  21:22 >> Application_Name >> getDataCarMarkByCarMarkCode
SELECT * 
 FROM online_carmark 
 WHERE carmakcod = 'JP-IS052' 
 ORDER BY desc_t, carmakcod 

28/12/2013  21:24 >> Application_Name >> getDataPremium
exec sp_calonlineweb 'N','210','1','6','A','','2500','21','A',452816.604625,500481.510375,'0',30

28/12/2013  21:24 >> Application_Name >> getDataPremium
exec sp_calonlineweb 'N','210','2','6','A','','2500','21','A',452816.604625,500481.510375,'0',30

28/12/2013  21:24 >> Application_Name >> getDataPremium
exec sp_calonlineweb 'N','210','3','6','A','','2500','21','A',0,0,'0',30

28/12/2013  21:24 >> Application_Name >> getDataPremium
exec sp_calonlineweb 'N','210','1','6','A','','2500','21','A',452816.604625,500481.510375,'0',30

28/12/2013  21:24 >> Application_Name >> getDataPremium
exec sp_calonlineweb 'N','210','2','6','A','','2500','21','A',452816.604625,500481.510375,'0',30

28/12/2013  21:24 >> Application_Name >> getDataPremium
exec sp_calonlineweb 'N','210','3','6','A','','2500','21','A',0,0,'0',30

28/12/2013  21:25 >> Application_Name >> getDataCarMarkByCarMarkCode
SELECT * 
 FROM online_carmark 
 WHERE carmakcod = 'JK-IS047' 
 ORDER BY desc_t, carmakcod 

28/12/2013  21:25 >> Application_Name >> getDataPremium
exec sp_calonlineweb 'N','210','1','6','A','JK-IS047','2500','21','A',424805.7346875,519207.0090625,'0',30

28/12/2013  21:25 >> Application_Name >> getDataPremium
exec sp_calonlineweb 'N','210','2','6','A','JK-IS047','2500','21','A',424805.7346875,519207.0090625,'0',30

28/12/2013  21:25 >> Application_Name >> getDataPremium
exec sp_calonlineweb 'N','210','3','6','A','JK-IS047','2500','21','A',0,0,'0',30

28/12/2013  21:29 >> Application_Name >> getDataCarMarkByCarMarkCode
SELECT * 
 FROM online_carmark 
 WHERE carmakcod = '' 
 ORDER BY desc_t, carmakcod 

28/12/2013  21:29 >> Application_Name >> getDataCarMarkByCarMarkCode
SELECT * 
 FROM online_carmark 
 WHERE carmakcod = '' 
 ORDER BY desc_t, carmakcod 

28/12/2013  21:29 >> Application_Name >> getDataCarMarkByCarMarkCode
SELECT * 
 FROM online_carmark 
 WHERE carmakcod = 'JP-IS052' 
 ORDER BY desc_t, carmakcod 

28/12/2013  21:30 >> Application_Name >> getDataPremium
exec sp_calonlineweb 'Y','210','1','6','A','','2500','21','A',452816.604625,500481.510375,'0',0

28/12/2013  21:30 >> Application_Name >> getDataPremium
exec sp_calonlineweb 'Y','210','2','6','A','','2500','21','A',452816.604625,500481.510375,'0',0

28/12/2013  21:30 >> Application_Name >> getDataPremium
exec sp_calonlineweb 'Y','210','3','6','A','','2500','21','A',0,0,'0',0

28/12/2013  21:30 >> Application_Name >> getDataPremium
exec sp_calonlineweb 'Y','210','1','6','A','','2500','21','A',452816.604625,500481.510375,'0',0

28/12/2013  21:30 >> Application_Name >> getDataPremium
exec sp_calonlineweb 'Y','210','2','6','A','','2500','21','A',452816.604625,500481.510375,'0',0

28/12/2013  21:30 >> Application_Name >> getDataPremium
exec sp_calonlineweb 'Y','210','3','6','A','','2500','21','A',0,0,'0',0

28/12/2013  21:30 >> Application_Name >> getDataPremium
exec sp_calonlineweb 'Y','210','1','6','A','','2500','21','A',452816.604625,500481.510375,'0',0

28/12/2013  21:30 >> Application_Name >> getDataPremium
exec sp_calonlineweb 'Y','210','2','6','A','','2500','21','A',452816.604625,500481.510375,'0',0

28/12/2013  21:30 >> Application_Name >> getDataPremium
exec sp_calonlineweb 'Y','210','3','6','A','','2500','21','A',0,0,'0',0

28/12/2013  21:30 >> Application_Name >> getDataPremium
exec sp_calonlineweb 'Y','210','1','6','A','','2500','21','A',452816.604625,500481.510375,'0',0

28/12/2013  21:30 >> Application_Name >> getDataPremium
exec sp_calonlineweb 'Y','210','2','6','A','','2500','21','A',452816.604625,500481.510375,'0',0

28/12/2013  21:30 >> Application_Name >> getDataPremium
exec sp_calonlineweb 'Y','210','3','6','A','','2500','21','A',0,0,'0',0

28/12/2013  21:30 >> Application_Name >> getDataPremium
exec sp_calonlineweb 'Y','210','1','6','A','','2500','21','A',452816.604625,500481.510375,'0',0

28/12/2013  21:30 >> Application_Name >> getDataPremium
exec sp_calonlineweb 'Y','210','2','6','A','','2500','21','A',452816.604625,500481.510375,'0',0

28/12/2013  21:30 >> Application_Name >> getDataPremium
exec sp_calonlineweb 'Y','210','3','6','A','','2500','21','A',0,0,'0',0

28/12/2013  21:31 >> Application_Name >> getDataPremium
exec sp_calonlineweb 'Y','210','1','6','A','','2500','21','A',452816.604625,500481.510375,'0',0

28/12/2013  21:31 >> Application_Name >> getDataPremium
exec sp_calonlineweb 'Y','210','2','6','A','','2500','21','A',452816.604625,500481.510375,'0',0

28/12/2013  21:31 >> Application_Name >> getDataPremium
exec sp_calonlineweb 'Y','210','3','6','A','','2500','21','A',0,0,'0',0

28/12/2013  22:4 >> Application_Name >> getCategoryCompByBrand
SELECT mdc_minor_cd , mdc_desc_t as mdc_desc FROM mtdesc_comp  WHERE mdc_minor_cd <> '0000' AND mdc_major_cd = 'T001' ORDER BY mdc_desc 

