12/6/2014  2:14 >> Application_Name >> getDataCarMarkByCarMarkCode
SELECT * 
 FROM online_carmark 
 WHERE carmakcod = '' 
 ORDER BY desc_t, carmakcod 

12/6/2014  2:14 >> Application_Name >> getDataCarMarkByCarMarkCode
SELECT * 
 FROM online_carmark 
 WHERE carmakcod = 'JK-HO001' 
 ORDER BY desc_t, carmakcod 

12/6/2014  2:17 >> Application_Name >> getDataPremium
exec sp_calonlineweb 'Y','110','1','2','5 ','JK-HO001','2000','A','A',470250,574750,'0',20

12/6/2014  2:17 >> Application_Name >> getDataPremium
exec sp_calonlineweb 'Y','110','2','2','5 ','JK-HO001','2000','A','A',470250,574750,'0',20

12/6/2014  2:17 >> Application_Name >> getDataPremium
exec sp_calonlineweb 'Y','110','3','2','5 ','JK-HO001','2000','A','A',0,0,'0',20

12/6/2014  2:20 >> Application_Name >> getDataCarMarkByCarMarkCode
SELECT * 
 FROM online_carmark 
 WHERE carmakcod = '' 
 ORDER BY desc_t, carmakcod 

12/6/2014  2:20 >> Application_Name >> getDataCarMarkByCarMarkCode
SELECT * 
 FROM online_carmark 
 WHERE carmakcod = 'JK-MI080' 
 ORDER BY desc_t, carmakcod 

12/6/2014  2:21 >> Application_Name >> getDataPremium
exec sp_calonlineweb 'Y','110','1','3','5 ','JK-MI080','2000','A','A',357390,436810,'0',20

12/6/2014  2:21 >> Application_Name >> getDataPremium
exec sp_calonlineweb 'Y','110','2','3','5 ','JK-MI080','2000','A','A',357390,436810,'0',20

12/6/2014  2:21 >> Application_Name >> getDataPremium
exec sp_calonlineweb 'Y','110','3','3','5 ','JK-MI080','2000','A','A',0,0,'0',20

12/6/2014  6:31 >> Application_Name >> getDataCarMarkByCarMarkCode
SELECT * 
 FROM online_carmark 
 WHERE carmakcod = '' 
 ORDER BY desc_t, carmakcod 

12/6/2014  6:32 >> Application_Name >> getDataCarMarkByCarMarkCode
SELECT * 
 FROM online_carmark 
 WHERE carmakcod = '' 
 ORDER BY desc_t, carmakcod 

12/6/2014  6:32 >> Application_Name >> getDataCarMarkByCarMarkCode
SELECT * 
 FROM online_carmark 
 WHERE carmakcod = 'JK-HO001' 
 ORDER BY desc_t, carmakcod 

12/6/2014  7:15 >> Application_Name >> getDataCarMarkByCarMarkCode
SELECT * 
 FROM online_carmark 
 WHERE carmakcod = '' 
 ORDER BY desc_t, carmakcod 

12/6/2014  7:16 >> Application_Name >> getDataCarMarkByCarMarkCode
SELECT * 
 FROM online_carmark 
 WHERE carmakcod = 'JK-NI028' 
 ORDER BY desc_t, carmakcod 

12/6/2014  7:19 >> Application_Name >> getDataPremium
exec sp_calonlineweb 'Y','110','1','2','5 ','JK-NI028','2000','A','A',367650,449350,'25',20

12/6/2014  7:19 >> Application_Name >> getDataPremium
exec sp_calonlineweb 'Y','110','2','2','5 ','JK-NI028','2000','A','A',367650,449350,'25',20

12/6/2014  7:19 >> Application_Name >> getDataPremium
exec sp_calonlineweb 'Y','110','3','2','5 ','JK-NI028','2000','A','A',0,0,'25',20

12/6/2014  8:2 >> Application_Name >> getDataCarMarkByCarMarkCode
SELECT * 
 FROM online_carmark 
 WHERE carmakcod = '' 
 ORDER BY desc_t, carmakcod 

12/6/2014  8:3 >> Application_Name >> getDataCarMarkByCarMarkCode
SELECT * 
 FROM online_carmark 
 WHERE carmakcod = 'JK-HO001' 
 ORDER BY desc_t, carmakcod 

12/6/2014  8:5 >> Application_Name >> getDataPremium
exec sp_calonlineweb 'N','110','1','2','5 ','JK-HO001','2000','A','A',470250,574750,'0',30

12/6/2014  8:5 >> Application_Name >> getDataPremium
exec sp_calonlineweb 'N','110','2','2','5 ','JK-HO001','2000','A','A',470250,574750,'0',30

12/6/2014  8:5 >> Application_Name >> getDataPremium
exec sp_calonlineweb 'N','110','3','2','5 ','JK-HO001','2000','A','A',0,0,'0',30

12/6/2014  8:15 >> Application_Name >> getDataCarMarkByCarMarkCode
SELECT * 
 FROM online_carmark 
 WHERE carmakcod = '' 
 ORDER BY desc_t, carmakcod 

12/6/2014  8:15 >> Application_Name >> getDataCarMarkByCarMarkCode
SELECT * 
 FROM online_carmark 
 WHERE carmakcod = 'JK-TO254' 
 ORDER BY desc_t, carmakcod 

12/6/2014  8:18 >> Application_Name >> getDataPremium
exec sp_calonlineweb 'Y','110','1','3','3 ','JK-TO254','9999','A','A',524027.6,579188.4,'0',0

12/6/2014  8:18 >> Application_Name >> getDataPremium
exec sp_calonlineweb 'Y','110','2','3','3 ','JK-TO254','9999','A','A',524027.6,579188.4,'0',0

12/6/2014  8:18 >> Application_Name >> getDataPremium
exec sp_calonlineweb 'Y','110','3','3','3 ','JK-TO254','9999','A','A',0,0,'0',0

12/6/2014  8:21 >> Application_Name >> getDataPremium
exec sp_calonlineweb 'Y','110','1','3','3 ','JK-TO254','9999','A','A',524027.6,579188.4,'36',0

12/6/2014  8:21 >> Application_Name >> getDataPremium
exec sp_calonlineweb 'Y','110','2','3','3 ','JK-TO254','9999','A','A',524027.6,579188.4,'36',0

12/6/2014  8:21 >> Application_Name >> getDataPremium
exec sp_calonlineweb 'Y','110','3','3','3 ','JK-TO254','9999','A','A',0,0,'36',0

12/6/2014  8:21 >> Application_Name >> getDataCarMarkByCarMarkCode
SELECT * 
 FROM online_carmark 
 WHERE carmakcod = '' 
 ORDER BY desc_t, carmakcod 

12/6/2014  8:22 >> Application_Name >> getDataCarMarkByCarMarkCode
SELECT * 
 FROM online_carmark 
 WHERE carmakcod = 'JP-TO100' 
 ORDER BY desc_t, carmakcod 

12/6/2014  8:23 >> Application_Name >> getDataPremium
exec sp_calonlineweb 'Y','210','1','3','A','','2500','21','A',524027.6,579188.4,'36',0

12/6/2014  8:23 >> Application_Name >> getDataPremium
exec sp_calonlineweb 'Y','210','2','3','A','','2500','21','A',524027.6,579188.4,'36',0

12/6/2014  8:23 >> Application_Name >> getDataPremium
exec sp_calonlineweb 'Y','210','3','3','A','','2500','21','A',0,0,'36',0

12/6/2014  8:23 >> Application_Name >> getDataPremium
exec sp_calonlineweb 'Y','210','1','3','A','','2500','21','A',524027.6,579188.4,'36',0

12/6/2014  8:23 >> Application_Name >> getDataPremium
exec sp_calonlineweb 'Y','210','2','3','A','','2500','21','A',524027.6,579188.4,'36',0

12/6/2014  8:23 >> Application_Name >> getDataPremium
exec sp_calonlineweb 'Y','210','3','3','A','','2500','21','A',0,0,'36',0

12/6/2014  8:24 >> Application_Name >> getDataPremium
exec sp_calonlineweb 'Y','210','1','3','A','','2500','21','A',524027.6,579188.4,'36',0

12/6/2014  8:24 >> Application_Name >> getDataPremium
exec sp_calonlineweb 'Y','210','2','3','A','','2500','21','A',524027.6,579188.4,'36',0

12/6/2014  8:24 >> Application_Name >> getDataPremium
exec sp_calonlineweb 'Y','210','3','3','A','','2500','21','A',0,0,'36',0

12/6/2014  8:24 >> Application_Name >> getDataPremium
exec sp_calonlineweb 'Y','210','1','3','A','','2500','21','A',524027.6,579188.4,'36',0

12/6/2014  8:24 >> Application_Name >> getDataPremium
exec sp_calonlineweb 'Y','210','2','3','A','','2500','21','A',524027.6,579188.4,'36',0

12/6/2014  8:24 >> Application_Name >> getDataPremium
exec sp_calonlineweb 'Y','210','3','3','A','','2500','21','A',0,0,'36',0

12/6/2014  8:24 >> Application_Name >> getDataPremium
exec sp_calonlineweb 'Y','210','1','3','A','','2500','21','A',524027.6,579188.4,'36',0

12/6/2014  8:24 >> Application_Name >> getDataPremium
exec sp_calonlineweb 'Y','210','2','3','A','','2500','21','A',524027.6,579188.4,'36',0

12/6/2014  8:24 >> Application_Name >> getDataPremium
exec sp_calonlineweb 'Y','210','3','3','A','','2500','21','A',0,0,'36',0

12/6/2014  8:24 >> Application_Name >> getDataPremium
exec sp_calonlineweb 'Y','210','1','3','A','','2500','21','A',524027.6,579188.4,'36',0

12/6/2014  8:24 >> Application_Name >> getDataPremium
exec sp_calonlineweb 'Y','210','2','3','A','','2500','21','A',524027.6,579188.4,'36',0

12/6/2014  8:24 >> Application_Name >> getDataPremium
exec sp_calonlineweb 'Y','210','3','3','A','','2500','21','A',0,0,'36',0

12/6/2014  8:24 >> Application_Name >> getDataPremium
exec sp_calonlineweb 'Y','210','1','3','A','','2500','21','A',524027.6,579188.4,'36',0

12/6/2014  8:24 >> Application_Name >> getDataPremium
exec sp_calonlineweb 'Y','210','2','3','A','','2500','21','A',524027.6,579188.4,'36',0

12/6/2014  8:24 >> Application_Name >> getDataPremium
exec sp_calonlineweb 'Y','210','3','3','A','','2500','21','A',0,0,'36',0

12/6/2014  8:26 >> Application_Name >> getDataPremium
exec sp_calonlineweb 'Y','210','1','3','A','','2500','21','A',524027.6,579188.4,'36',0

12/6/2014  8:26 >> Application_Name >> getDataPremium
exec sp_calonlineweb 'Y','210','2','3','A','','2500','21','A',524027.6,579188.4,'36',0

12/6/2014  8:26 >> Application_Name >> getDataPremium
exec sp_calonlineweb 'Y','210','3','3','A','','2500','21','A',0,0,'36',0

12/6/2014  8:26 >> Application_Name >> getDataPremium
exec sp_calonlineweb 'Y','210','1','3','A','','2500','21','A',524027.6,579188.4,'36',0

12/6/2014  8:26 >> Application_Name >> getDataPremium
exec sp_calonlineweb 'Y','210','2','3','A','','2500','21','A',524027.6,579188.4,'36',0

12/6/2014  8:26 >> Application_Name >> getDataPremium
exec sp_calonlineweb 'Y','210','3','3','A','','2500','21','A',0,0,'36',0

12/6/2014  8:27 >> Application_Name >> getDataPremium
exec sp_calonlineweb 'Y','210','1','3','A','','2500','21','A',524027.6,579188.4,'36',0

12/6/2014  8:27 >> Application_Name >> getDataPremium
exec sp_calonlineweb 'Y','210','2','3','A','','2500','21','A',524027.6,579188.4,'36',0

12/6/2014  8:27 >> Application_Name >> getDataPremium
exec sp_calonlineweb 'Y','210','3','3','A','','2500','21','A',0,0,'36',0

12/6/2014  8:28 >> Application_Name >> getDataCarMarkByCarMarkCode
SELECT * 
 FROM online_carmark 
 WHERE carmakcod = '' 
 ORDER BY desc_t, carmakcod 

12/6/2014  8:28 >> Application_Name >> getDataCarMarkByCarMarkCode
SELECT * 
 FROM online_carmark 
 WHERE carmakcod = '' 
 ORDER BY desc_t, carmakcod 

12/6/2014  8:28 >> Application_Name >> getDataCarMarkByCarMarkCode
SELECT * 
 FROM online_carmark 
 WHERE carmakcod = 'JP-TO100' 
 ORDER BY desc_t, carmakcod 

12/6/2014  8:31 >> Application_Name >> getDataPremium
exec sp_calonlineweb 'Y','210','1','3','A','','2500','21','A',524027.6,579188.4,'0',0

12/6/2014  8:31 >> Application_Name >> getDataPremium
exec sp_calonlineweb 'Y','210','2','3','A','','2500','21','A',524027.6,579188.4,'0',0

12/6/2014  8:31 >> Application_Name >> getDataPremium
exec sp_calonlineweb 'Y','210','3','3','A','','2500','21','A',0,0,'0',0

12/6/2014  8:31 >> Application_Name >> getDataPremium
exec sp_calonlineweb 'Y','210','1','3','A','','2500','21','A',524027.6,579188.4,'0',0

12/6/2014  8:31 >> Application_Name >> getDataPremium
exec sp_calonlineweb 'Y','210','2','3','A','','2500','21','A',524027.6,579188.4,'0',0

12/6/2014  8:31 >> Application_Name >> getDataPremium
exec sp_calonlineweb 'Y','210','3','3','A','','2500','21','A',0,0,'0',0

12/6/2014  8:31 >> Application_Name >> getDataPremium
exec sp_calonlineweb 'Y','210','1','3','A','','2500','21','A',524027.6,579188.4,'0',0

12/6/2014  8:31 >> Application_Name >> getDataPremium
exec sp_calonlineweb 'Y','210','2','3','A','','2500','21','A',524027.6,579188.4,'0',0

12/6/2014  8:31 >> Application_Name >> getDataPremium
exec sp_calonlineweb 'Y','210','3','3','A','','2500','21','A',0,0,'0',0

12/6/2014  8:31 >> Application_Name >> getDataPremium
exec sp_calonlineweb 'Y','210','1','3','A','','2500','21','A',524027.6,579188.4,'0',0

12/6/2014  8:31 >> Application_Name >> getDataPremium
exec sp_calonlineweb 'Y','210','2','3','A','','2500','21','A',524027.6,579188.4,'0',0

12/6/2014  8:31 >> Application_Name >> getDataPremium
exec sp_calonlineweb 'Y','210','3','3','A','','2500','21','A',0,0,'0',0

12/6/2014  8:31 >> Application_Name >> getDataPremium
exec sp_calonlineweb 'Y','210','1','3','A','','2500','21','A',524027.6,579188.4,'0',0

12/6/2014  8:31 >> Application_Name >> getDataPremium
exec sp_calonlineweb 'Y','210','2','3','A','','2500','21','A',524027.6,579188.4,'0',0

12/6/2014  8:31 >> Application_Name >> getDataPremium
exec sp_calonlineweb 'Y','210','3','3','A','','2500','21','A',0,0,'0',0

12/6/2014  8:31 >> Application_Name >> getDataPremium
exec sp_calonlineweb 'Y','210','1','3','A','','2500','21','A',524027.6,579188.4,'0',0

12/6/2014  8:31 >> Application_Name >> getDataPremium
exec sp_calonlineweb 'Y','210','2','3','A','','2500','21','A',524027.6,579188.4,'0',0

12/6/2014  8:31 >> Application_Name >> getDataPremium
exec sp_calonlineweb 'Y','210','3','3','A','','2500','21','A',0,0,'0',0

12/6/2014  8:31 >> Application_Name >> getDataPremium
exec sp_calonlineweb 'Y','210','1','3','A','','2500','21','A',524027.6,579188.4,'0',0

12/6/2014  8:31 >> Application_Name >> getDataPremium
exec sp_calonlineweb 'Y','210','2','3','A','','2500','21','A',524027.6,579188.4,'0',0

12/6/2014  8:31 >> Application_Name >> getDataPremium
exec sp_calonlineweb 'Y','210','3','3','A','','2500','21','A',0,0,'0',0

12/6/2014  8:31 >> Application_Name >> getDataPremium
exec sp_calonlineweb 'Y','210','1','3','A','','2500','21','A',524027.6,579188.4,'0',0

12/6/2014  8:31 >> Application_Name >> getDataPremium
exec sp_calonlineweb 'Y','210','2','3','A','','2500','21','A',524027.6,579188.4,'0',0

12/6/2014  8:31 >> Application_Name >> getDataPremium
exec sp_calonlineweb 'Y','210','3','3','A','','2500','21','A',0,0,'0',0

12/6/2014  8:31 >> Application_Name >> getDataPremium
exec sp_calonlineweb 'Y','210','1','3','A','','2500','21','A',524027.6,579188.4,'0',0

12/6/2014  8:31 >> Application_Name >> getDataPremium
exec sp_calonlineweb 'Y','210','2','3','A','','2500','21','A',524027.6,579188.4,'0',0

12/6/2014  8:31 >> Application_Name >> getDataPremium
exec sp_calonlineweb 'Y','210','3','3','A','','2500','21','A',0,0,'0',0

12/6/2014  8:31 >> Application_Name >> getDataPremium
exec sp_calonlineweb 'Y','210','1','3','A','EK-BE050','2500','21','A',524027.6,579188.4,'36',0

12/6/2014  8:31 >> Application_Name >> getDataPremium
exec sp_calonlineweb 'Y','210','2','3','A','EK-BE050','2500','21','A',524027.6,579188.4,'36',0

12/6/2014  8:31 >> Application_Name >> getDataPremium
exec sp_calonlineweb 'Y','210','3','3','A','EK-BE050','2500','21','A',0,0,'36',0

12/6/2014  8:54 >> Application_Name >> getDataCarMarkByCarMarkCode
SELECT * 
 FROM online_carmark 
 WHERE carmakcod = '' 
 ORDER BY desc_t, carmakcod 

12/6/2014  8:54 >> Application_Name >> getDataCarMarkByCarMarkCode
SELECT * 
 FROM online_carmark 
 WHERE carmakcod = 'JK-TO255' 
 ORDER BY desc_t, carmakcod 

12/6/2014  8:55 >> Application_Name >> getDataCarMarkByCarMarkCode
SELECT * 
 FROM online_carmark 
 WHERE carmakcod = '' 
 ORDER BY desc_t, carmakcod 

12/6/2014  8:55 >> Application_Name >> getDataCarMarkByCarMarkCode
SELECT * 
 FROM online_carmark 
 WHERE carmakcod = 'JK-TO242' 
 ORDER BY desc_t, carmakcod 

12/6/2014  9:23 >> Application_Name >> getDataCarMarkByCarMarkCode
SELECT * 
 FROM online_carmark 
 WHERE carmakcod = '' 
 ORDER BY desc_t, carmakcod 

12/6/2014  9:23 >> Application_Name >> getDataCarMarkByCarMarkCode
SELECT * 
 FROM online_carmark 
 WHERE carmakcod = 'JK-TO240' 
 ORDER BY desc_t, carmakcod 

12/6/2014  9:24 >> Application_Name >> getDataPremium
exec sp_calonlineweb 'N','110','1','6','3 ','JK-TO240','9999','A','A',619798.5309375,757531.5378125,'0',0

12/6/2014  9:24 >> Application_Name >> getDataPremium
exec sp_calonlineweb 'N','110','2','6','3 ','JK-TO240','9999','A','A',619798.5309375,757531.5378125,'0',0

12/6/2014  9:24 >> Application_Name >> getDataPremium
exec sp_calonlineweb 'N','110','3','6','3 ','JK-TO240','9999','A','A',0,0,'0',0

12/6/2014  9:39 >> Application_Name >> getCategoryCompByBrand
SELECT mdc_minor_cd , mdc_desc_t as mdc_desc FROM mtdesc_comp  WHERE mdc_minor_cd <> '0000' AND mdc_major_cd = 'M002' ORDER BY mdc_desc 

12/6/2014  9:42 >> Application_Name >> getDataCarMarkByCarMarkCode
SELECT * 
 FROM online_carmark 
 WHERE carmakcod = '' 
 ORDER BY desc_t, carmakcod 

12/6/2014  9:42 >> Application_Name >> getDataCarMarkByCarMarkCode
SELECT * 
 FROM online_carmark 
 WHERE carmakcod = 'JK-HO001' 
 ORDER BY desc_t, carmakcod 

12/6/2014  9:44 >> Application_Name >> getDataPremium
exec sp_calonlineweb 'N','110','1','5','5 ','JK-HO001','2000','A','A',403180.59375,492776.28125,'0',0

12/6/2014  9:44 >> Application_Name >> getDataPremium
exec sp_calonlineweb 'N','110','2','5','5 ','JK-HO001','2000','A','A',403180.59375,492776.28125,'0',0

12/6/2014  9:44 >> Application_Name >> getDataPremium
exec sp_calonlineweb 'N','110','3','5','5 ','JK-HO001','2000','A','A',0,0,'0',0

12/6/2014  9:46 >> Application_Name >> getNewPremium - compprmm
SELECT cp_com_prmm, cp_stamp, cp_tax FROM comprmm WHERE cp_veh_cd = '1.10   '

12/6/2014  9:47 >> Application_Name >> getDataCarMarkByCarMarkCode
SELECT * 
 FROM online_carmark 
 WHERE carmakcod = '' 
 ORDER BY desc_t, carmakcod 

12/6/2014  9:47 >> Application_Name >> getDataCarMarkByCarMarkCode
SELECT * 
 FROM online_carmark 
 WHERE carmakcod = '' 
 ORDER BY desc_t, carmakcod 

12/6/2014  9:47 >> Application_Name >> getDataCarMarkByCarMarkCode
SELECT * 
 FROM online_carmark 
 WHERE carmakcod = 'JK-MI047' 
 ORDER BY desc_t, carmakcod 

12/6/2014  9:48 >> Application_Name >> getDataCarMarkByCarMarkCode
SELECT * 
 FROM online_carmark 
 WHERE carmakcod = '' 
 ORDER BY desc_t, carmakcod 

12/6/2014  9:48 >> Application_Name >> getDataCarMarkByCarMarkCode
SELECT * 
 FROM online_carmark 
 WHERE carmakcod = 'JK-SZ004' 
 ORDER BY desc_t, carmakcod 

12/6/2014  9:49 >> Application_Name >> getDataCarMarkByCarMarkCode
SELECT * 
 FROM online_carmark 
 WHERE carmakcod = '' 
 ORDER BY desc_t, carmakcod 

12/6/2014  9:49 >> Application_Name >> getDataCarMarkByCarMarkCode
SELECT * 
 FROM online_carmark 
 WHERE carmakcod = 'JK-HO001' 
 ORDER BY desc_t, carmakcod 

12/6/2014  9:49 >> Application_Name >> getDataPremium
exec sp_calonlineweb 'Y','110','1','2','3 ','JK-MI047','9999','A','A',803700,982300,'36',30

12/6/2014  9:49 >> Application_Name >> getDataPremium
exec sp_calonlineweb 'Y','110','2','2','3 ','JK-MI047','9999','A','A',803700,982300,'36',30

12/6/2014  9:49 >> Application_Name >> getDataPremium
exec sp_calonlineweb 'Y','110','3','2','3 ','JK-MI047','9999','A','A',0,0,'36',30

12/6/2014  9:50 >> Application_Name >> getDataCarMarkByCarMarkCode
SELECT * 
 FROM online_carmark 
 WHERE carmakcod = '' 
 ORDER BY desc_t, carmakcod 

12/6/2014  9:50 >> Application_Name >> getDataCarMarkByCarMarkCode
SELECT * 
 FROM online_carmark 
 WHERE carmakcod = 'JK-HO084' 
 ORDER BY desc_t, carmakcod 

12/6/2014  9:50 >> Application_Name >> getDataPremium
exec sp_calonlineweb 'Y','110','1','2','5 ','JK-SZ004','2000','A','A',342000,380000,'25',20

12/6/2014  9:50 >> Application_Name >> getDataPremium
exec sp_calonlineweb 'Y','110','2','2','5 ','JK-SZ004','2000','A','A',342000,380000,'25',20

12/6/2014  9:50 >> Application_Name >> getDataPremium
exec sp_calonlineweb 'Y','110','3','2','5 ','JK-SZ004','2000','A','A',0,0,'25',20

12/6/2014  9:51 >> Application_Name >> SMK :: BuyVoluntary_step2-docToUI
Combine

12/6/2014  9:51 >> Application_Name >> SMK :: BuyVoluntary_step2-docToUI
rg_prmm-016969.6

12/6/2014  9:51 >> Application_Name >> SMK :: BuyVoluntary_step2-docToUI
rg_prmm16969.6

12/6/2014  9:51 >> Application_Name >> SMK :: BuyVoluntary_step2-docToUI
cp_comp_prmm600.00

12/6/2014  9:52 >> Application_Name >> getDataPremium
exec sp_calonlineweb 'Y','110','1','3','5 ','JK-HO084','2000','A','A',462982.5,565867.5,'0',20

12/6/2014  9:52 >> Application_Name >> getDataPremium
exec sp_calonlineweb 'Y','110','2','3','5 ','JK-HO084','2000','A','A',462982.5,565867.5,'0',20

12/6/2014  9:52 >> Application_Name >> getDataPremium
exec sp_calonlineweb 'Y','110','3','3','5 ','JK-HO084','2000','A','A',0,0,'0',20

12/6/2014  9:55 >> Application_Name >> SMK :: BuyVoluntary_step2-docToUI
Combine

12/6/2014  9:55 >> Application_Name >> SMK :: BuyVoluntary_step2-docToUI
rg_prmm-012954.4

12/6/2014  9:55 >> Application_Name >> SMK :: BuyVoluntary_step2-docToUI
rg_prmm12954.4

12/6/2014  9:55 >> Application_Name >> SMK :: BuyVoluntary_step2-docToUI
cp_comp_prmm600.00

12/6/2014  9:56 >> Application_Name >> getDataPremium
exec sp_calonlineweb 'Y','110','1','2','3 ','JK-MI047','9999','A','A',803700,982300,'36',30

12/6/2014  9:56 >> Application_Name >> getDataPremium
exec sp_calonlineweb 'Y','110','2','2','3 ','JK-MI047','9999','A','A',803700,982300,'36',30

12/6/2014  9:56 >> Application_Name >> getDataPremium
exec sp_calonlineweb 'Y','110','3','2','3 ','JK-MI047','9999','A','A',0,0,'36',30

12/6/2014  10:6 >> Application_Name >> getDataCarMarkByCarMarkCode
SELECT * 
 FROM online_carmark 
 WHERE carmakcod = '' 
 ORDER BY desc_t, carmakcod 

12/6/2014  10:6 >> Application_Name >> getDataCarMarkByCarMarkCode
SELECT * 
 FROM online_carmark 
 WHERE carmakcod = '' 
 ORDER BY desc_t, carmakcod 

12/6/2014  10:6 >> Application_Name >> getDataCarMarkByCarMarkCode
SELECT * 
 FROM online_carmark 
 WHERE carmakcod = 'JK-HO084' 
 ORDER BY desc_t, carmakcod 

12/6/2014  10:7 >> Application_Name >> getDataPremium
exec sp_calonlineweb 'N','110','1','2','5 ','JK-HO084','2000','A','A',487350,595650,'0',0

12/6/2014  10:7 >> Application_Name >> getDataPremium
exec sp_calonlineweb 'N','110','2','2','5 ','JK-HO084','2000','A','A',487350,595650,'0',0

12/6/2014  10:7 >> Application_Name >> getDataPremium
exec sp_calonlineweb 'N','110','3','2','5 ','JK-HO084','2000','A','A',0,0,'0',0

12/6/2014  10:12 >> Application_Name >> getDataCarMarkByCarMarkCode
SELECT * 
 FROM online_carmark 
 WHERE carmakcod = '' 
 ORDER BY desc_t, carmakcod 

12/6/2014  10:13 >> Application_Name >> getDataCarMarkByCarMarkCode
SELECT * 
 FROM online_carmark 
 WHERE carmakcod = 'JK-MA065' 
 ORDER BY desc_t, carmakcod 

12/6/2014  10:14 >> Application_Name >> getDataPremium
exec sp_calonlineweb 'N','110','1','3','5 ','JK-MA065','2000','A','A',454860,555940,'0',0

12/6/2014  10:14 >> Application_Name >> getDataPremium
exec sp_calonlineweb 'N','110','2','3','5 ','JK-MA065','2000','A','A',454860,555940,'0',0

12/6/2014  10:14 >> Application_Name >> getDataPremium
exec sp_calonlineweb 'N','110','3','3','5 ','JK-MA065','2000','A','A',0,0,'0',0

12/6/2014  10:19 >> Application_Name >> getCategoryCompByBrand
SELECT mdc_minor_cd , mdc_desc_t as mdc_desc FROM mtdesc_comp  WHERE mdc_minor_cd <> '0000' AND mdc_major_cd = 'I001' ORDER BY mdc_desc 

12/6/2014  10:19 >> Application_Name >> getDataCarMarkByCarMarkCode
SELECT * 
 FROM online_carmark 
 WHERE carmakcod = '' 
 ORDER BY desc_t, carmakcod 

12/6/2014  10:19 >> Application_Name >> getDataCarMarkByCarMarkCode
SELECT * 
 FROM online_carmark 
 WHERE carmakcod = 'JK-HO001' 
 ORDER BY desc_t, carmakcod 

12/6/2014  10:22 >> Application_Name >> getDataCarMarkByCarMarkCode
SELECT * 
 FROM online_carmark 
 WHERE carmakcod = '' 
 ORDER BY desc_t, carmakcod 

12/6/2014  10:22 >> Application_Name >> getDataCarMarkByCarMarkCode
SELECT * 
 FROM online_carmark 
 WHERE carmakcod = 'JK-HO001' 
 ORDER BY desc_t, carmakcod 

12/6/2014  10:25 >> Application_Name >> getDataPremium
exec sp_calonlineweb 'Y','110','1','2','5 ','JK-HO001','2000','A','A',470250,574750,'25',0

12/6/2014  10:25 >> Application_Name >> getDataPremium
exec sp_calonlineweb 'Y','110','2','2','5 ','JK-HO001','2000','A','A',470250,574750,'25',0

12/6/2014  10:25 >> Application_Name >> getDataPremium
exec sp_calonlineweb 'Y','110','3','2','5 ','JK-HO001','2000','A','A',0,0,'25',0

12/6/2014  10:25 >> Application_Name >> getNewPremium - compprmm
SELECT cp_com_prmm, cp_stamp, cp_tax FROM comprmm WHERE cp_veh_cd = '1.10   '

12/6/2014  10:28 >> Application_Name >> SMK :: BuyVoluntary_step2-docToUI
Combine

12/6/2014  10:28 >> Application_Name >> SMK :: BuyVoluntary_step2-docToUI
rg_prmm-014927

12/6/2014  10:28 >> Application_Name >> SMK :: BuyVoluntary_step2-docToUI
rg_prmm14927

12/6/2014  10:28 >> Application_Name >> SMK :: BuyVoluntary_step2-docToUI
cp_comp_prmm600.00

12/6/2014  10:31 >> Application_Name >> getDataPremium
exec sp_calonlineweb 'Y','110','1','2','5 ','JK-HO001','2000','A','A',470250,574750,'25',0

12/6/2014  10:31 >> Application_Name >> getDataPremium
exec sp_calonlineweb 'Y','110','2','2','5 ','JK-HO001','2000','A','A',470250,574750,'25',0

12/6/2014  10:31 >> Application_Name >> getDataPremium
exec sp_calonlineweb 'Y','110','3','2','5 ','JK-HO001','2000','A','A',0,0,'25',0

12/6/2014  10:39 >> Application_Name >> getDataCarMarkByCarMarkCode
SELECT * 
 FROM online_carmark 
 WHERE carmakcod = '' 
 ORDER BY desc_t, carmakcod 

12/6/2014  10:39 >> Application_Name >> getDataCarMarkByCarMarkCode
SELECT * 
 FROM online_carmark 
 WHERE carmakcod = 'JK-HO001' 
 ORDER BY desc_t, carmakcod 

12/6/2014  10:40 >> Application_Name >> getDataCarMarkByCarMarkCode
SELECT * 
 FROM online_carmark 
 WHERE carmakcod = '' 
 ORDER BY desc_t, carmakcod 

12/6/2014  10:40 >> Application_Name >> getDataCarMarkByCarMarkCode
SELECT * 
 FROM online_carmark 
 WHERE carmakcod = 'EK-CR039' 
 ORDER BY desc_t, carmakcod 

12/6/2014  10:41 >> Application_Name >> getDataPremium
exec sp_calonlineweb 'Y','110','1','2','5 ','JK-HO001','2000','A','A',470250,574750,'0',20

12/6/2014  10:41 >> Application_Name >> getDataPremium
exec sp_calonlineweb 'Y','110','2','2','5 ','JK-HO001','2000','A','A',470250,574750,'0',20

12/6/2014  10:41 >> Application_Name >> getDataPremium
exec sp_calonlineweb 'Y','110','3','2','5 ','JK-HO001','2000','A','A',0,0,'0',20

12/6/2014  10:41 >> Application_Name >> getDataCarMarkByCarMarkCode
SELECT * 
 FROM online_carmark 
 WHERE carmakcod = '' 
 ORDER BY desc_t, carmakcod 

12/6/2014  10:41 >> Application_Name >> getDataCarMarkByCarMarkCode
SELECT * 
 FROM online_carmark 
 WHERE carmakcod = 'EK-CR039' 
 ORDER BY desc_t, carmakcod 

12/6/2014  10:42 >> Application_Name >> getDataCarMarkByCarMarkCode
SELECT * 
 FROM online_carmark 
 WHERE carmakcod = '' 
 ORDER BY desc_t, carmakcod 

12/6/2014  10:42 >> Application_Name >> getDataCarMarkByCarMarkCode
SELECT * 
 FROM online_carmark 
 WHERE carmakcod = '' 
 ORDER BY desc_t, carmakcod 

12/6/2014  10:42 >> Application_Name >> getDataCarMarkByCarMarkCode
SELECT * 
 FROM online_carmark 
 WHERE carmakcod = '' 
 ORDER BY desc_t, carmakcod 

12/6/2014  10:42 >> Application_Name >> getDataPremium
exec sp_calonlineweb 'Y','110','1','2','3 ','EK-CR039','2000','A','A',931000,1045000,'0',30

12/6/2014  10:42 >> Application_Name >> getDataPremium
exec sp_calonlineweb 'Y','110','2','2','3 ','EK-CR039','2000','A','A',931000,1045000,'0',30

12/6/2014  10:42 >> Application_Name >> getDataPremium
exec sp_calonlineweb 'Y','110','3','2','3 ','EK-CR039','2000','A','A',0,0,'0',30

12/6/2014  10:43 >> Application_Name >> getDataCarMarkByCarMarkCode
SELECT * 
 FROM online_carmark 
 WHERE carmakcod = 'JK-MI019' 
 ORDER BY desc_t, carmakcod 

12/6/2014  10:45 >> Application_Name >> getDataPremium
exec sp_calonlineweb 'N','110','1','19','4 ','JK-MI019','9999','A','A',511691.485037878,565553.746620816,'0',0

12/6/2014  10:45 >> Application_Name >> getDataPremium
exec sp_calonlineweb 'N','110','2','19','4 ','JK-MI019','9999','A','A',511691.485037878,565553.746620816,'0',0

12/6/2014  10:45 >> Application_Name >> getDataPremium
exec sp_calonlineweb 'N','110','3','19','4 ','JK-MI019','9999','A','A',0,0,'0',0

12/6/2014  10:53 >> Application_Name >> getCategoryCompByBrand
SELECT mdc_minor_cd , mdc_desc_t as mdc_desc FROM mtdesc_comp  WHERE mdc_minor_cd <> '0000' AND mdc_major_cd = 'T001' ORDER BY mdc_desc 

12/6/2014  10:56 >> Application_Name >> getNewPremium - compprmm
SELECT cp_com_prmm, cp_stamp, cp_tax FROM comprmm WHERE cp_veh_cd = '1.10   '

12/6/2014  10:57 >> Application_Name >> getDataCarMarkByCarMarkCode
SELECT * 
 FROM online_carmark 
 WHERE carmakcod = '' 
 ORDER BY desc_t, carmakcod 

12/6/2014  10:57 >> Application_Name >> getDataCarMarkByCarMarkCode
SELECT * 
 FROM online_carmark 
 WHERE carmakcod = 'JK-TO242' 
 ORDER BY desc_t, carmakcod 

12/6/2014  11:0 >> Application_Name >> getDataPremium
exec sp_calonlineweb 'Y','110','1','4','5 ','JK-TO242','2000','A','A',432117,528143,'25',20

12/6/2014  11:0 >> Application_Name >> getDataPremium
exec sp_calonlineweb 'Y','110','2','4','5 ','JK-TO242','2000','A','A',432117,528143,'25',20

12/6/2014  11:0 >> Application_Name >> getDataPremium
exec sp_calonlineweb 'Y','110','3','4','5 ','JK-TO242','2000','A','A',0,0,'25',20

12/6/2014  11:1 >> Application_Name >> getCategoryCompByBrand
SELECT mdc_minor_cd , mdc_desc_t as mdc_desc FROM mtdesc_comp  WHERE mdc_minor_cd <> '0000' AND mdc_major_cd = 'T001' ORDER BY mdc_desc 

12/6/2014  11:17 >> Application_Name >> getDataCarMarkByCarMarkCode
SELECT * 
 FROM online_carmark 
 WHERE carmakcod = '' 
 ORDER BY desc_t, carmakcod 

12/6/2014  11:17 >> Application_Name >> getDataCarMarkByCarMarkCode
SELECT * 
 FROM online_carmark 
 WHERE carmakcod = 'JK-TO019' 
 ORDER BY desc_t, carmakcod 

12/6/2014  11:17 >> Application_Name >> getDataCarMarkByCarMarkCode
SELECT * 
 FROM online_carmark 
 WHERE carmakcod = 'JK-TO206' 
 ORDER BY desc_t, carmakcod 

12/6/2014  11:18 >> Application_Name >> getDataPremium
exec sp_calonlineweb 'Y','110','1','2','4 ','JK-TO206','2000','A','A',530100,647900,'0',20

12/6/2014  11:18 >> Application_Name >> getDataPremium
exec sp_calonlineweb 'Y','110','2','2','4 ','JK-TO206','2000','A','A',530100,647900,'0',20

12/6/2014  11:18 >> Application_Name >> getDataPremium
exec sp_calonlineweb 'Y','110','3','2','4 ','JK-TO206','2000','A','A',0,0,'0',20

12/6/2014  11:18 >> Application_Name >> getDataPremium
exec sp_calonlineweb 'Y','110','1','2','4 ','JK-TO206','2000','A','A',530100,647900,'0',30

12/6/2014  11:18 >> Application_Name >> getDataPremium
exec sp_calonlineweb 'Y','110','2','2','4 ','JK-TO206','2000','A','A',530100,647900,'0',30

12/6/2014  11:18 >> Application_Name >> getDataPremium
exec sp_calonlineweb 'Y','110','3','2','4 ','JK-TO206','2000','A','A',0,0,'0',30

12/6/2014  11:23 >> Application_Name >> getDataPremium
exec sp_calonlineweb 'Y','110','1','2','4 ','JK-TO206','2000','A','A',530100,647900,'0',30

12/6/2014  11:23 >> Application_Name >> getDataPremium
exec sp_calonlineweb 'Y','110','2','2','4 ','JK-TO206','2000','A','A',530100,647900,'0',30

12/6/2014  11:23 >> Application_Name >> getDataPremium
exec sp_calonlineweb 'Y','110','3','2','4 ','JK-TO206','2000','A','A',0,0,'0',30

12/6/2014  11:24 >> Application_Name >> getDataPremium
exec sp_calonlineweb 'Y','110','1','2','4 ','JK-TO206','2000','A','A',530100,647900,'0',30

12/6/2014  11:24 >> Application_Name >> getDataPremium
exec sp_calonlineweb 'Y','110','2','2','4 ','JK-TO206','2000','A','A',530100,647900,'0',30

12/6/2014  11:24 >> Application_Name >> getDataPremium
exec sp_calonlineweb 'Y','110','3','2','4 ','JK-TO206','2000','A','A',0,0,'0',30

12/6/2014  11:26 >> Application_Name >> getDataCarMarkByCarMarkCode
SELECT * 
 FROM online_carmark 
 WHERE carmakcod = '' 
 ORDER BY desc_t, carmakcod 

12/6/2014  11:26 >> Application_Name >> getDataCarMarkByCarMarkCode
SELECT * 
 FROM online_carmark 
 WHERE carmakcod = '' 
 ORDER BY desc_t, carmakcod 

12/6/2014  11:26 >> Application_Name >> getDataCarMarkByCarMarkCode
SELECT * 
 FROM online_carmark 
 WHERE carmakcod = 'JP-MA043' 
 ORDER BY desc_t, carmakcod 

12/6/2014  11:27 >> Application_Name >> getDataCarMarkByCarMarkCode
SELECT * 
 FROM online_carmark 
 WHERE carmakcod = '' 
 ORDER BY desc_t, carmakcod 

12/6/2014  11:28 >> Application_Name >> getDataPremium
exec sp_calonlineweb 'Y','210','1','2','A','','2200','21','A',326993.8,361414.2,'0',20

12/6/2014  11:28 >> Application_Name >> getDataPremium
exec sp_calonlineweb 'Y','210','2','2','A','','2200','21','A',326993.8,361414.2,'0',20

12/6/2014  11:28 >> Application_Name >> getDataPremium
exec sp_calonlineweb 'Y','210','3','2','A','','2200','21','A',0,0,'0',20

12/6/2014  11:28 >> Application_Name >> getDataPremium
exec sp_calonlineweb 'Y','210','1','2','A','','2200','21','A',326993.8,361414.2,'0',20

12/6/2014  11:28 >> Application_Name >> getDataPremium
exec sp_calonlineweb 'Y','210','2','2','A','','2200','21','A',326993.8,361414.2,'0',20

12/6/2014  11:28 >> Application_Name >> getDataPremium
exec sp_calonlineweb 'Y','210','3','2','A','','2200','21','A',0,0,'0',20

12/6/2014  11:29 >> Application_Name >> getDataCarMarkByCarMarkCode
SELECT * 
 FROM online_carmark 
 WHERE carmakcod = '' 
 ORDER BY desc_t, carmakcod 

12/6/2014  11:29 >> Application_Name >> getDataCarMarkByCarMarkCode
SELECT * 
 FROM online_carmark 
 WHERE carmakcod = 'JP-MA024' 
 ORDER BY desc_t, carmakcod 

12/6/2014  11:29 >> Application_Name >> getDataPremium
exec sp_calonlineweb 'Y','210','1','2','A','','2200','21','A',481501.8,532186.2,'0',20

12/6/2014  11:29 >> Application_Name >> getDataPremium
exec sp_calonlineweb 'Y','210','2','2','A','','2200','21','A',481501.8,532186.2,'0',20

12/6/2014  11:29 >> Application_Name >> getDataPremium
exec sp_calonlineweb 'Y','210','3','2','A','','2200','21','A',0,0,'0',20

12/6/2014  11:30 >> Application_Name >> SMK :: BuyVoluntary_step2-docToUI
Combine

12/6/2014  11:30 >> Application_Name >> SMK :: BuyVoluntary_step2-docToUI
rg_prmm-015410.4

12/6/2014  11:30 >> Application_Name >> SMK :: BuyVoluntary_step2-docToUI
rg_prmm15410.4

12/6/2014  11:30 >> Application_Name >> SMK :: BuyVoluntary_step2-docToUI
cp_comp_prmm600.00

12/6/2014  11:35 >> Application_Name >> getDataPremium
exec sp_calonlineweb 'Y','110','1','2','4 ','JK-TO206','2000','A','A',530100,647900,'0',30

12/6/2014  11:35 >> Application_Name >> getDataPremium
exec sp_calonlineweb 'Y','110','2','2','4 ','JK-TO206','2000','A','A',530100,647900,'0',30

12/6/2014  11:35 >> Application_Name >> getDataPremium
exec sp_calonlineweb 'Y','110','3','2','4 ','JK-TO206','2000','A','A',0,0,'0',30

12/6/2014  11:35 >> Application_Name >> getDataCarMarkByCarMarkCode
SELECT * 
 FROM online_carmark 
 WHERE carmakcod = '' 
 ORDER BY desc_t, carmakcod 

12/6/2014  11:35 >> Application_Name >> SMK :: BuyVoluntary_step2-docToUI
Combine

12/6/2014  11:35 >> Application_Name >> SMK :: BuyVoluntary_step2-docToUI
rg_prmm-015004.8

12/6/2014  11:35 >> Application_Name >> SMK :: BuyVoluntary_step2-docToUI
rg_prmm15004.8

12/6/2014  11:35 >> Application_Name >> SMK :: BuyVoluntary_step2-docToUI
cp_comp_prmm600.00

12/6/2014  11:35 >> Application_Name >> getDataCarMarkByCarMarkCode
SELECT * 
 FROM online_carmark 
 WHERE carmakcod = '' 
 ORDER BY desc_t, carmakcod 

12/6/2014  11:35 >> Application_Name >> getDataCarMarkByCarMarkCode
SELECT * 
 FROM online_carmark 
 WHERE carmakcod = 'JP-TO072' 
 ORDER BY desc_t, carmakcod 

12/6/2014  11:36 >> Application_Name >> getDataPremium
exec sp_calonlineweb 'Y','110','1','2','4 ','JK-TO206','2000','A','A',530100,647900,'0',30

12/6/2014  11:36 >> Application_Name >> getDataPremium
exec sp_calonlineweb 'Y','110','2','2','4 ','JK-TO206','2000','A','A',530100,647900,'0',30

12/6/2014  11:36 >> Application_Name >> getDataPremium
exec sp_calonlineweb 'Y','110','3','2','4 ','JK-TO206','2000','A','A',0,0,'0',30

12/6/2014  11:37 >> Application_Name >> SMK :: BuyVoluntary_step2-docToUI
Combine

12/6/2014  11:37 >> Application_Name >> SMK :: BuyVoluntary_step2-docToUI
rg_prmm-015004.8

12/6/2014  11:37 >> Application_Name >> SMK :: BuyVoluntary_step2-docToUI
rg_prmm15004.8

12/6/2014  11:37 >> Application_Name >> SMK :: BuyVoluntary_step2-docToUI
cp_comp_prmm600.00

12/6/2014  11:38 >> Application_Name >> getDataCarMarkByCarMarkCode
SELECT * 
 FROM online_carmark 
 WHERE carmakcod = '' 
 ORDER BY desc_t, carmakcod 

12/6/2014  11:38 >> Application_Name >> getDataCarMarkByCarMarkCode
SELECT * 
 FROM online_carmark 
 WHERE carmakcod = 'JK-HO084' 
 ORDER BY desc_t, carmakcod 

12/6/2014  11:39 >> Application_Name >> getDataPremium
exec sp_calonlineweb 'Y','110','1','2','5 ','JK-HO084','2000','A','A',487350,595650,'0',0

12/6/2014  11:39 >> Application_Name >> getDataPremium
exec sp_calonlineweb 'Y','110','2','2','5 ','JK-HO084','2000','A','A',487350,595650,'0',0

12/6/2014  11:39 >> Application_Name >> getDataPremium
exec sp_calonlineweb 'Y','110','3','2','5 ','JK-HO084','2000','A','A',0,0,'0',0

12/6/2014  11:43 >> Application_Name >> SENDBACK : regis_no
90-01568

12/6/2014  11:43 >> Application_Name >> SENDBACK : HOSTRESP
00

12/6/2014  11:43 >> Application_Name >> SENDBACK : REFCODE
XXXXXXXXXXXX

12/6/2014  11:43 >> Application_Name >> SENDBACK : AUTHCODE
673543

12/6/2014  11:43 >> Application_Name >> SENDBACK : RETURNINV
000009001568

12/6/2014  11:43 >> Application_Name >> SENDBACK : UAID
XXXXXXXXXXXXXXXXXXXXXXXXXXXXXXXXXXXX

12/6/2014  11:43 >> Application_Name >> SENDBACK : CARDNUMBER
4773XXXXXXXX4241

12/6/2014  11:43 >> Application_Name >> SENDBACK : AMOUNT
000001676561

12/6/2014  11:43 >> Application_Name >> SENDBACK : CURISO
764

12/6/2014  11:43 >> Application_Name >> SENDBACK : FILLSPACE
VISACARDXXXXXXXXXXXX

12/6/2014  11:43 >> Application_Name >> RegisterManager.updateCreditResult :: SQL 
UPDATE CREDIT_POST SET cp_stat = '00'  WHERE cp_ref_no = '90-01568' 

12/6/2014  11:43 >> Application_Name >> SENDBACK : 90-01568:00
buyVoluntary_step4.aspx?regis_no=90-01568&paid_at=4

12/6/2014  11:59 >> Application_Name >> getDataCarMarkByCarMarkCode
SELECT * 
 FROM online_carmark 
 WHERE carmakcod = '' 
 ORDER BY desc_t, carmakcod 

12/6/2014  11:59 >> Application_Name >> getDataCarMarkByCarMarkCode
SELECT * 
 FROM online_carmark 
 WHERE carmakcod = 'JK-TO206' 
 ORDER BY desc_t, carmakcod 

12/6/2014  11:59 >> Application_Name >> getDataPremium
exec sp_calonlineweb 'Y','110','1','2','4 ','JK-TO206','2000','A','A',530100,647900,'0',20

12/6/2014  11:59 >> Application_Name >> getDataPremium
exec sp_calonlineweb 'Y','110','2','2','4 ','JK-TO206','2000','A','A',530100,647900,'0',20

12/6/2014  11:59 >> Application_Name >> getDataPremium
exec sp_calonlineweb 'Y','110','3','2','4 ','JK-TO206','2000','A','A',0,0,'0',20

12/6/2014  12:0 >> Application_Name >> getDataPremium
exec sp_calonlineweb 'Y','110','1','2','4 ','JK-TO206','2000','A','A',530100,647900,'0',30

12/6/2014  12:0 >> Application_Name >> getDataPremium
exec sp_calonlineweb 'Y','110','2','2','4 ','JK-TO206','2000','A','A',530100,647900,'0',30

12/6/2014  12:0 >> Application_Name >> getDataPremium
exec sp_calonlineweb 'Y','110','3','2','4 ','JK-TO206','2000','A','A',0,0,'0',30

12/6/2014  12:0 >> Application_Name >> getDataPremium
exec sp_calonlineweb 'Y','110','1','2','4 ','JK-TO206','2000','A','A',530100,647900,'0',0

12/6/2014  12:0 >> Application_Name >> getDataPremium
exec sp_calonlineweb 'Y','110','2','2','4 ','JK-TO206','2000','A','A',530100,647900,'0',0

12/6/2014  12:0 >> Application_Name >> getDataPremium
exec sp_calonlineweb 'Y','110','3','2','4 ','JK-TO206','2000','A','A',0,0,'0',0

12/6/2014  12:0 >> Application_Name >> getDataPremium
exec sp_calonlineweb 'Y','110','1','2','4 ','JK-TO206','2000','A','A',530100,647900,'0',20

12/6/2014  12:0 >> Application_Name >> getDataPremium
exec sp_calonlineweb 'Y','110','2','2','4 ','JK-TO206','2000','A','A',530100,647900,'0',20

12/6/2014  12:0 >> Application_Name >> getDataPremium
exec sp_calonlineweb 'Y','110','3','2','4 ','JK-TO206','2000','A','A',0,0,'0',20

12/6/2014  12:0 >> Application_Name >> getDataPremium
exec sp_calonlineweb 'Y','110','1','2','4 ','JK-TO206','2000','A','A',530100,647900,'0',30

12/6/2014  12:0 >> Application_Name >> getDataPremium
exec sp_calonlineweb 'Y','110','2','2','4 ','JK-TO206','2000','A','A',530100,647900,'0',30

12/6/2014  12:0 >> Application_Name >> getDataPremium
exec sp_calonlineweb 'Y','110','3','2','4 ','JK-TO206','2000','A','A',0,0,'0',30

12/6/2014  12:15 >> Application_Name >> getCategoryCompByBrand
SELECT mdc_minor_cd , mdc_desc_t as mdc_desc FROM mtdesc_comp  WHERE mdc_minor_cd <> '0000' AND mdc_major_cd = 'M001' ORDER BY mdc_desc 

12/6/2014  12:22 >> Application_Name >> getCategoryCompByBrand
SELECT mdc_minor_cd , mdc_desc_t as mdc_desc FROM mtdesc_comp  WHERE mdc_minor_cd <> '0000' AND mdc_major_cd = 'R003' ORDER BY mdc_desc 

12/6/2014  12:22 >> Application_Name >> getCategoryCompByBrand
SELECT mdc_minor_cd , mdc_desc_t as mdc_desc FROM mtdesc_comp  WHERE mdc_minor_cd <> '0000' AND mdc_major_cd = 'T001' ORDER BY mdc_desc 

12/6/2014  12:42 >> Application_Name >> getDataCarMarkByCarMarkCode
SELECT * 
 FROM online_carmark 
 WHERE carmakcod = '' 
 ORDER BY desc_t, carmakcod 

12/6/2014  12:42 >> Application_Name >> getDataCarMarkByCarMarkCode
SELECT * 
 FROM online_carmark 
 WHERE carmakcod = 'EK-FO083' 
 ORDER BY desc_t, carmakcod 

12/6/2014  12:43 >> Application_Name >> getDataPremium
exec sp_calonlineweb 'Y','110','1','1','5 ','EK-FO083','2000','A','A',504000,616000,'0',0

12/6/2014  12:43 >> Application_Name >> getDataPremium
exec sp_calonlineweb 'Y','110','2','1','5 ','EK-FO083','2000','A','A',504000,616000,'0',0

12/6/2014  12:43 >> Application_Name >> getDataPremium
exec sp_calonlineweb 'Y','110','3','1','5 ','EK-FO083','2000','A','A',0,0,'0',0

12/6/2014  12:50 >> Application_Name >> getDataCarMarkByCarMarkCode
SELECT * 
 FROM online_carmark 
 WHERE carmakcod = '' 
 ORDER BY desc_t, carmakcod 

12/6/2014  12:50 >> Application_Name >> getDataCarMarkByCarMarkCode
SELECT * 
 FROM online_carmark 
 WHERE carmakcod = 'JK-TO242' 
 ORDER BY desc_t, carmakcod 

12/6/2014  12:51 >> Application_Name >> getDataPremium
exec sp_calonlineweb 'N','110','1','3','5 ','JK-TO242','2000','A','A',454860,555940,'0',0

12/6/2014  12:51 >> Application_Name >> getDataPremium
exec sp_calonlineweb 'N','110','2','3','5 ','JK-TO242','2000','A','A',454860,555940,'0',0

12/6/2014  12:51 >> Application_Name >> getDataPremium
exec sp_calonlineweb 'N','110','3','3','5 ','JK-TO242','2000','A','A',0,0,'0',0

12/6/2014  13:4 >> Application_Name >> getDataCarMarkByCarMarkCode
SELECT * 
 FROM online_carmark 
 WHERE carmakcod = '' 
 ORDER BY desc_t, carmakcod 

12/6/2014  13:4 >> Application_Name >> getDataCarMarkByCarMarkCode
SELECT * 
 FROM online_carmark 
 WHERE carmakcod = 'JK-IS021' 
 ORDER BY desc_t, carmakcod 

12/6/2014  13:5 >> Application_Name >> getDataCarMarkByCarMarkCode
SELECT * 
 FROM online_carmark 
 WHERE carmakcod = '' 
 ORDER BY desc_t, carmakcod 

12/6/2014  13:5 >> Application_Name >> getDataCarMarkByCarMarkCode
SELECT * 
 FROM online_carmark 
 WHERE carmakcod = '' 
 ORDER BY desc_t, carmakcod 

12/6/2014  13:6 >> Application_Name >> getDataCarMarkByCarMarkCode
SELECT * 
 FROM online_carmark 
 WHERE carmakcod = 'JP-IS030' 
 ORDER BY desc_t, carmakcod 

12/6/2014  13:7 >> Application_Name >> getDataPremium
exec sp_calonlineweb 'Y','210','1','2','A','','2500','21','A',394934,436506,'0',20

12/6/2014  13:7 >> Application_Name >> getDataPremium
exec sp_calonlineweb 'Y','210','2','2','A','','2500','21','A',394934,436506,'0',20

12/6/2014  13:7 >> Application_Name >> getDataPremium
exec sp_calonlineweb 'Y','210','3','2','A','','2500','21','A',0,0,'0',20

12/6/2014  13:7 >> Application_Name >> getDataCarMarkByCarMarkCode
SELECT * 
 FROM online_carmark 
 WHERE carmakcod = '' 
 ORDER BY desc_t, carmakcod 

12/6/2014  13:8 >> Application_Name >> getDataCarMarkByCarMarkCode
SELECT * 
 FROM online_carmark 
 WHERE carmakcod = 'JK-TO019' 
 ORDER BY desc_t, carmakcod 

12/6/2014  13:9 >> Application_Name >> getDataPremium
exec sp_calonlineweb 'Y','110','1','2','4 ','JK-TO019','2000','A','A',666900,815100,'0',0

12/6/2014  13:9 >> Application_Name >> getDataPremium
exec sp_calonlineweb 'Y','110','2','2','4 ','JK-TO019','2000','A','A',666900,815100,'0',0

12/6/2014  13:9 >> Application_Name >> getDataPremium
exec sp_calonlineweb 'Y','110','3','2','4 ','JK-TO019','2000','A','A',0,0,'0',0

12/6/2014  13:15 >> Application_Name >> getDataCarMarkByCarMarkCode
SELECT * 
 FROM online_carmark 
 WHERE carmakcod = '' 
 ORDER BY desc_t, carmakcod 

12/6/2014  13:15 >> Application_Name >> getDataCarMarkByCarMarkCode
SELECT * 
 FROM online_carmark 
 WHERE carmakcod = 'JK-MA065' 
 ORDER BY desc_t, carmakcod 

12/6/2014  13:18 >> Application_Name >> getDataPremium
exec sp_calonlineweb 'Y','110','1','5','5 ','JK-MA065','2000','A','A',410511.15,501735.85,'25',30

12/6/2014  13:18 >> Application_Name >> getDataPremium
exec sp_calonlineweb 'Y','110','2','5','5 ','JK-MA065','2000','A','A',410511.15,501735.85,'25',30

12/6/2014  13:18 >> Application_Name >> getDataPremium
exec sp_calonlineweb 'Y','110','3','5','5 ','JK-MA065','2000','A','A',0,0,'25',30

12/6/2014  13:19 >> Application_Name >> SMK :: BuyVoluntary_step2-docToUI
Combine

12/6/2014  13:19 >> Application_Name >> SMK :: BuyVoluntary_step2-docToUI
rg_prmm-012009.6

12/6/2014  13:19 >> Application_Name >> SMK :: BuyVoluntary_step2-docToUI
rg_prmm12009.6

12/6/2014  13:19 >> Application_Name >> SMK :: BuyVoluntary_step2-docToUI
cp_comp_prmm600.00

12/6/2014  13:21 >> Application_Name >> getDataPremium
exec sp_calonlineweb 'Y','110','1','5','5 ','JK-MA065','2000','A','A',410511.15,501735.85,'0',30

12/6/2014  13:21 >> Application_Name >> getDataPremium
exec sp_calonlineweb 'Y','110','2','5','5 ','JK-MA065','2000','A','A',410511.15,501735.85,'0',30

12/6/2014  13:21 >> Application_Name >> getDataPremium
exec sp_calonlineweb 'Y','110','3','5','5 ','JK-MA065','2000','A','A',0,0,'0',30

12/6/2014  13:21 >> Application_Name >> getDataPremium
exec sp_calonlineweb 'Y','110','1','5','5 ','JK-MA065','2000','A','A',410511.15,501735.85,'25',30

12/6/2014  13:21 >> Application_Name >> getDataPremium
exec sp_calonlineweb 'Y','110','2','5','5 ','JK-MA065','2000','A','A',410511.15,501735.85,'25',30

12/6/2014  13:21 >> Application_Name >> getDataPremium
exec sp_calonlineweb 'Y','110','3','5','5 ','JK-MA065','2000','A','A',0,0,'25',30

12/6/2014  13:21 >> Application_Name >> SMK :: BuyVoluntary_step2-docToUI
Combine

12/6/2014  13:21 >> Application_Name >> SMK :: BuyVoluntary_step2-docToUI
rg_prmm-012009.6

12/6/2014  13:21 >> Application_Name >> SMK :: BuyVoluntary_step2-docToUI
rg_prmm12009.6

12/6/2014  13:21 >> Application_Name >> SMK :: BuyVoluntary_step2-docToUI
cp_comp_prmm600.00

12/6/2014  13:23 >> Application_Name >> getDataCarMarkByCarMarkCode
SELECT * 
 FROM online_carmark 
 WHERE carmakcod = '' 
 ORDER BY desc_t, carmakcod 

12/6/2014  13:24 >> Application_Name >> getDataCarMarkByCarMarkCode
SELECT * 
 FROM online_carmark 
 WHERE carmakcod = 'JK-HO001' 
 ORDER BY desc_t, carmakcod 

12/6/2014  13:27 >> Application_Name >> getDataCarMarkByCarMarkCode
SELECT * 
 FROM online_carmark 
 WHERE carmakcod = '' 
 ORDER BY desc_t, carmakcod 

12/6/2014  13:27 >> Application_Name >> getDataCarMarkByCarMarkCode
SELECT * 
 FROM online_carmark 
 WHERE carmakcod = '' 
 ORDER BY desc_t, carmakcod 

12/6/2014  13:27 >> Application_Name >> getDataCarMarkByCarMarkCode
SELECT * 
 FROM online_carmark 
 WHERE carmakcod = '' 
 ORDER BY desc_t, carmakcod 

12/6/2014  13:27 >> Application_Name >> getDataCarMarkByCarMarkCode
SELECT * 
 FROM online_carmark 
 WHERE carmakcod = '' 
 ORDER BY desc_t, carmakcod 

12/6/2014  13:27 >> Application_Name >> getDataCarMarkByCarMarkCode
SELECT * 
 FROM online_carmark 
 WHERE carmakcod = '' 
 ORDER BY desc_t, carmakcod 

12/6/2014  13:27 >> Application_Name >> getDataCarMarkByCarMarkCode
SELECT * 
 FROM online_carmark 
 WHERE carmakcod = '' 
 ORDER BY desc_t, carmakcod 

12/6/2014  13:27 >> Application_Name >> getDataCarMarkByCarMarkCode
SELECT * 
 FROM online_carmark 
 WHERE carmakcod = 'JK-HO001' 
 ORDER BY desc_t, carmakcod 

12/6/2014  13:35 >> Application_Name >> getDataCarMarkByCarMarkCode
SELECT * 
 FROM online_carmark 
 WHERE carmakcod = '' 
 ORDER BY desc_t, carmakcod 

12/6/2014  13:35 >> Application_Name >> getDataCarMarkByCarMarkCode
SELECT * 
 FROM online_carmark 
 WHERE carmakcod = 'JK-TO255' 
 ORDER BY desc_t, carmakcod 

12/6/2014  13:38 >> Application_Name >> getDataPremium
exec sp_calonlineweb 'Y','110','1','3','3 ','JK-TO255','2000','A','A',1055112.75,1289582.25,'25',0

12/6/2014  13:38 >> Application_Name >> getDataPremium
exec sp_calonlineweb 'Y','110','2','3','3 ','JK-TO255','2000','A','A',1055112.75,1289582.25,'25',0

12/6/2014  13:38 >> Application_Name >> getDataPremium
exec sp_calonlineweb 'Y','110','3','3','3 ','JK-TO255','2000','A','A',0,0,'25',0

12/6/2014  14:4 >> Application_Name >> getDataCarMarkByCarMarkCode
SELECT * 
 FROM online_carmark 
 WHERE carmakcod = '' 
 ORDER BY desc_t, carmakcod 

12/6/2014  14:5 >> Application_Name >> getDataCarMarkByCarMarkCode
SELECT * 
 FROM online_carmark 
 WHERE carmakcod = '' 
 ORDER BY desc_t, carmakcod 

12/6/2014  14:5 >> Application_Name >> getDataCarMarkByCarMarkCode
SELECT * 
 FROM online_carmark 
 WHERE carmakcod = '' 
 ORDER BY desc_t, carmakcod 

12/6/2014  14:5 >> Application_Name >> getDataCarMarkByCarMarkCode
SELECT * 
 FROM online_carmark 
 WHERE carmakcod = 'JK-HO002' 
 ORDER BY desc_t, carmakcod 

12/6/2014  14:5 >> Application_Name >> getDataCarMarkByCarMarkCode
SELECT * 
 FROM online_carmark 
 WHERE carmakcod = '' 
 ORDER BY desc_t, carmakcod 

12/6/2014  14:6 >> Application_Name >> getDataCarMarkByCarMarkCode
SELECT * 
 FROM online_carmark 
 WHERE carmakcod = 'JK-HO002' 
 ORDER BY desc_t, carmakcod 

12/6/2014  14:7 >> Application_Name >> getDataPremium
exec sp_calonlineweb 'Y','110','1','5','3 ','JK-HO002','2000','A','A',637758.39375,779482.48125,'0',0

12/6/2014  14:7 >> Application_Name >> getDataPremium
exec sp_calonlineweb 'Y','110','2','5','3 ','JK-HO002','2000','A','A',637758.39375,779482.48125,'0',0

12/6/2014  14:7 >> Application_Name >> getDataPremium
exec sp_calonlineweb 'Y','110','3','5','3 ','JK-HO002','2000','A','A',0,0,'0',0

12/6/2014  14:15 >> Application_Name >> getDataCarMarkByCarMarkCode
SELECT * 
 FROM online_carmark 
 WHERE carmakcod = '' 
 ORDER BY desc_t, carmakcod 

12/6/2014  14:16 >> Application_Name >> getDataCarMarkByCarMarkCode
SELECT * 
 FROM online_carmark 
 WHERE carmakcod = 'JK-MA056' 
 ORDER BY desc_t, carmakcod 

12/6/2014  14:16 >> Application_Name >> getDataCarMarkByCarMarkCode
SELECT * 
 FROM online_carmark 
 WHERE carmakcod = '' 
 ORDER BY desc_t, carmakcod 

12/6/2014  14:16 >> Application_Name >> getDataCarMarkByCarMarkCode
SELECT * 
 FROM online_carmark 
 WHERE carmakcod = 'JK-MA017' 
 ORDER BY desc_t, carmakcod 

12/6/2014  14:17 >> Application_Name >> getDataPremium
exec sp_calonlineweb 'N','110','1','10','3 ','JK-MA017','9999','A','A',340334.681251289,415964.610418242,'0',0

12/6/2014  14:17 >> Application_Name >> getDataPremium
exec sp_calonlineweb 'N','110','2','10','3 ','JK-MA017','9999','A','A',340334.681251289,415964.610418242,'0',0

12/6/2014  14:17 >> Application_Name >> getDataPremium
exec sp_calonlineweb 'N','110','3','10','3 ','JK-MA017','9999','A','A',0,0,'0',0

12/6/2014  14:28 >> Application_Name >> getDataCarMarkByCarMarkCode
SELECT * 
 FROM online_carmark 
 WHERE carmakcod = '' 
 ORDER BY desc_t, carmakcod 

12/6/2014  14:28 >> Application_Name >> getDataCarMarkByCarMarkCode
SELECT * 
 FROM online_carmark 
 WHERE carmakcod = 'JK-HO001' 
 ORDER BY desc_t, carmakcod 

12/6/2014  14:31 >> Application_Name >> getDataPremium
exec sp_calonlineweb 'N','110','1','2','5 ','JK-HO001','2000','A','A',470250,574750,'0',0

12/6/2014  14:31 >> Application_Name >> getDataPremium
exec sp_calonlineweb 'N','110','2','2','5 ','JK-HO001','2000','A','A',470250,574750,'0',0

12/6/2014  14:31 >> Application_Name >> getDataPremium
exec sp_calonlineweb 'N','110','3','2','5 ','JK-HO001','2000','A','A',0,0,'0',0

12/6/2014  14:34 >> Application_Name >> getDataCarMarkByCarMarkCode
SELECT * 
 FROM online_carmark 
 WHERE carmakcod = '' 
 ORDER BY desc_t, carmakcod 

12/6/2014  14:34 >> Application_Name >> getDataCarMarkByCarMarkCode
SELECT * 
 FROM online_carmark 
 WHERE carmakcod = '' 
 ORDER BY desc_t, carmakcod 

12/6/2014  14:34 >> Application_Name >> getDataCarMarkByCarMarkCode
SELECT * 
 FROM online_carmark 
 WHERE carmakcod = '' 
 ORDER BY desc_t, carmakcod 

12/6/2014  14:34 >> Application_Name >> getDataCarMarkByCarMarkCode
SELECT * 
 FROM online_carmark 
 WHERE carmakcod = 'JP-TO104' 
 ORDER BY desc_t, carmakcod 

12/6/2014  14:34 >> Application_Name >> getDataCarMarkByCarMarkCode
SELECT * 
 FROM online_carmark 
 WHERE carmakcod = 'JK-TO242' 
 ORDER BY desc_t, carmakcod 

12/6/2014  14:35 >> Application_Name >> getDataPremium
exec sp_calonlineweb 'Y','110','1','2','5 ','JK-TO242','2000','A','A',478800,585200,'0',20

12/6/2014  14:35 >> Application_Name >> getDataPremium
exec sp_calonlineweb 'Y','110','2','2','5 ','JK-TO242','2000','A','A',478800,585200,'0',20

12/6/2014  14:35 >> Application_Name >> getDataPremium
exec sp_calonlineweb 'Y','110','3','2','5 ','JK-TO242','2000','A','A',0,0,'0',20

12/6/2014  14:37 >> Application_Name >> getDataPremium
exec sp_calonlineweb 'Y','210','1','6','A','','3000','21','A',358724.842625,396485.352375,'0',30

12/6/2014  14:37 >> Application_Name >> getDataPremium
exec sp_calonlineweb 'Y','210','2','6','A','','3000','21','A',358724.842625,396485.352375,'0',30

12/6/2014  14:37 >> Application_Name >> getDataPremium
exec sp_calonlineweb 'Y','210','3','6','A','','3000','21','A',0,0,'0',30

12/6/2014  14:37 >> Application_Name >> getDataPremium
exec sp_calonlineweb 'Y','210','1','6','A','','3000','21','A',358724.842625,396485.352375,'0',30

12/6/2014  14:37 >> Application_Name >> getDataPremium
exec sp_calonlineweb 'Y','210','2','6','A','','3000','21','A',358724.842625,396485.352375,'0',30

12/6/2014  14:37 >> Application_Name >> getDataPremium
exec sp_calonlineweb 'Y','210','3','6','A','','3000','21','A',0,0,'0',30

12/6/2014  14:38 >> Application_Name >> getDataCarMarkByCarMarkCode
SELECT * 
 FROM online_carmark 
 WHERE carmakcod = '' 
 ORDER BY desc_t, carmakcod 

12/6/2014  14:38 >> Application_Name >> getDataCarMarkByCarMarkCode
SELECT * 
 FROM online_carmark 
 WHERE carmakcod = 'JK-TO321' 
 ORDER BY desc_t, carmakcod 

12/6/2014  14:40 >> Application_Name >> getDataPremium
exec sp_calonlineweb 'N','110','1','8','3 ','JK-TO321','9999','A','A',769036.963950281,849988.223313469,'0',0

12/6/2014  14:40 >> Application_Name >> getDataPremium
exec sp_calonlineweb 'N','110','2','8','3 ','JK-TO321','9999','A','A',769036.963950281,849988.223313469,'0',0

12/6/2014  14:40 >> Application_Name >> getDataPremium
exec sp_calonlineweb 'N','110','3','8','3 ','JK-TO321','9999','A','A',0,0,'0',0

12/6/2014  14:43 >> Application_Name >> getDataCarMarkByCarMarkCode
SELECT * 
 FROM online_carmark 
 WHERE carmakcod = '' 
 ORDER BY desc_t, carmakcod 

12/6/2014  14:44 >> Application_Name >> getDataCarMarkByCarMarkCode
SELECT * 
 FROM online_carmark 
 WHERE carmakcod = 'JK-TO242' 
 ORDER BY desc_t, carmakcod 

12/6/2014  14:47 >> Application_Name >> getDataPremium
exec sp_calonlineweb 'N','110','1','4','5 ','JK-TO242','2000','A','A',432117,528143,'0',30

12/6/2014  14:47 >> Application_Name >> getDataPremium
exec sp_calonlineweb 'N','110','2','4','5 ','JK-TO242','2000','A','A',432117,528143,'0',30

12/6/2014  14:47 >> Application_Name >> getDataPremium
exec sp_calonlineweb 'N','110','3','4','5 ','JK-TO242','2000','A','A',0,0,'0',30

12/6/2014  14:50 >> Application_Name >> getDataCarMarkByCarMarkCode
SELECT * 
 FROM online_carmark 
 WHERE carmakcod = '' 
 ORDER BY desc_t, carmakcod 

12/6/2014  14:50 >> Application_Name >> getDataCarMarkByCarMarkCode
SELECT * 
 FROM online_carmark 
 WHERE carmakcod = 'JK-TO242' 
 ORDER BY desc_t, carmakcod 

12/6/2014  14:53 >> Application_Name >> getDataPremium
exec sp_calonlineweb 'N','110','1','4','5 ','JK-TO242','2000','A','A',432117,528143,'36',30

12/6/2014  14:53 >> Application_Name >> getDataPremium
exec sp_calonlineweb 'N','110','2','4','5 ','JK-TO242','2000','A','A',432117,528143,'36',30

12/6/2014  14:53 >> Application_Name >> getDataPremium
exec sp_calonlineweb 'N','110','3','4','5 ','JK-TO242','2000','A','A',0,0,'36',30

12/6/2014  14:53 >> Application_Name >> getDataPremium
exec sp_calonlineweb 'N','110','1','4','5 ','JK-TO242','2000','A','A',432117,528143,'36',30

12/6/2014  14:53 >> Application_Name >> getDataPremium
exec sp_calonlineweb 'N','110','2','4','5 ','JK-TO242','2000','A','A',432117,528143,'36',30

12/6/2014  14:53 >> Application_Name >> getDataPremium
exec sp_calonlineweb 'N','110','3','4','5 ','JK-TO242','2000','A','A',0,0,'36',30

12/6/2014  14:53 >> Application_Name >> getDataPremium
exec sp_calonlineweb 'N','110','1','4','5 ','JK-TO242','2000','A','A',432117,528143,'36',30

12/6/2014  14:53 >> Application_Name >> getDataPremium
exec sp_calonlineweb 'N','110','2','4','5 ','JK-TO242','2000','A','A',432117,528143,'36',30

12/6/2014  14:53 >> Application_Name >> getDataPremium
exec sp_calonlineweb 'N','110','3','4','5 ','JK-TO242','2000','A','A',0,0,'36',30

12/6/2014  15:11 >> Application_Name >> getDataCarMarkByCarMarkCode
SELECT * 
 FROM online_carmark 
 WHERE carmakcod = '' 
 ORDER BY desc_t, carmakcod 

12/6/2014  15:11 >> Application_Name >> getDataCarMarkByCarMarkCode
SELECT * 
 FROM online_carmark 
 WHERE carmakcod = 'JK-MI080' 
 ORDER BY desc_t, carmakcod 

12/6/2014  15:14 >> Application_Name >> getDataPremium
exec sp_calonlineweb 'Y','110','1','3','5 ','JK-MI080','2000','A','A',357390,436810,'0',0

12/6/2014  15:14 >> Application_Name >> getDataPremium
exec sp_calonlineweb 'Y','110','2','3','5 ','JK-MI080','2000','A','A',357390,436810,'0',0

12/6/2014  15:14 >> Application_Name >> getDataPremium
exec sp_calonlineweb 'Y','110','3','3','5 ','JK-MI080','2000','A','A',0,0,'0',0

12/6/2014  15:15 >> Application_Name >> SMK :: BuyVoluntary_step2-docToUI
Combine

12/6/2014  15:15 >> Application_Name >> SMK :: BuyVoluntary_step2-docToUI
rg_prmm-013789

12/6/2014  15:15 >> Application_Name >> SMK :: BuyVoluntary_step2-docToUI
rg_prmm13789

12/6/2014  15:15 >> Application_Name >> SMK :: BuyVoluntary_step2-docToUI
cp_comp_prmm600.00

12/6/2014  15:18 >> Application_Name >> getDataCarMarkByCarMarkCode
SELECT * 
 FROM online_carmark 
 WHERE carmakcod = '' 
 ORDER BY desc_t, carmakcod 

12/6/2014  15:18 >> Application_Name >> getDataCarMarkByCarMarkCode
SELECT * 
 FROM online_carmark 
 WHERE carmakcod = 'JK-TO206' 
 ORDER BY desc_t, carmakcod 

12/6/2014  15:20 >> Application_Name >> getDataPremium
exec sp_calonlineweb 'N','110','1','14','4 ','JK-TO206','2000','A','A',286444.882469963,350099.300796622,'0',0

12/6/2014  15:20 >> Application_Name >> getDataPremium
exec sp_calonlineweb 'N','110','2','14','4 ','JK-TO206','2000','A','A',286444.882469963,350099.300796622,'0',0

12/6/2014  15:20 >> Application_Name >> getDataPremium
exec sp_calonlineweb 'N','110','3','14','4 ','JK-TO206','2000','A','A',0,0,'0',0

12/6/2014  15:20 >> Application_Name >> getDataPremium
exec sp_calonlineweb 'N','110','1','14','4 ','JK-TO206','2000','A','A',286444.882469963,350099.300796622,'0',0

12/6/2014  15:20 >> Application_Name >> getDataPremium
exec sp_calonlineweb 'N','110','2','14','4 ','JK-TO206','2000','A','A',286444.882469963,350099.300796622,'0',0

12/6/2014  15:20 >> Application_Name >> getDataPremium
exec sp_calonlineweb 'N','110','3','14','4 ','JK-TO206','2000','A','A',0,0,'0',0

12/6/2014  15:25 >> Application_Name >> getDataCarMarkByCarMarkCode
SELECT * 
 FROM online_carmark 
 WHERE carmakcod = '' 
 ORDER BY desc_t, carmakcod 

12/6/2014  15:25 >> Application_Name >> getDataCarMarkByCarMarkCode
SELECT * 
 FROM online_carmark 
 WHERE carmakcod = 'JK-HO084' 
 ORDER BY desc_t, carmakcod 

12/6/2014  15:27 >> Application_Name >> getDataCarMarkByCarMarkCode
SELECT * 
 FROM online_carmark 
 WHERE carmakcod = '' 
 ORDER BY desc_t, carmakcod 

12/6/2014  15:27 >> Application_Name >> getDataCarMarkByCarMarkCode
SELECT * 
 FROM online_carmark 
 WHERE carmakcod = 'JK-MA065' 
 ORDER BY desc_t, carmakcod 

12/6/2014  15:28 >> Application_Name >> getDataPremium
exec sp_calonlineweb 'Y','110','1','11','5 ','JK-HO084','2000','A','A',307152.049829289,375408.060902464,'0',0

12/6/2014  15:28 >> Application_Name >> getDataPremium
exec sp_calonlineweb 'Y','110','2','11','5 ','JK-HO084','2000','A','A',307152.049829289,375408.060902464,'0',0

12/6/2014  15:28 >> Application_Name >> getDataPremium
exec sp_calonlineweb 'Y','110','3','11','5 ','JK-HO084','2000','A','A',0,0,'0',0

12/6/2014  15:28 >> Application_Name >> getDataPremium
exec sp_calonlineweb 'Y','110','1','3','5 ','JK-MA065','2000','A','A',454860,555940,'0',20

12/6/2014  15:28 >> Application_Name >> getDataPremium
exec sp_calonlineweb 'Y','110','2','3','5 ','JK-MA065','2000','A','A',454860,555940,'0',20

12/6/2014  15:28 >> Application_Name >> getDataPremium
exec sp_calonlineweb 'Y','110','3','3','5 ','JK-MA065','2000','A','A',0,0,'0',20

12/6/2014  15:29 >> Application_Name >> getDataPremium
exec sp_calonlineweb 'Y','110','1','9','5 ','JK-HO084','2000','A','A',340334.681251289,415964.610418242,'0',0

12/6/2014  15:29 >> Application_Name >> getDataPremium
exec sp_calonlineweb 'Y','110','2','9','5 ','JK-HO084','2000','A','A',340334.681251289,415964.610418242,'0',0

12/6/2014  15:30 >> Application_Name >> getDataPremium
exec sp_calonlineweb 'Y','110','3','9','5 ','JK-HO084','2000','A','A',0,0,'0',0

12/6/2014  15:30 >> Application_Name >> SMK :: BuyVoluntary_step2-docToUI
Combine

12/6/2014  15:30 >> Application_Name >> SMK :: BuyVoluntary_step2-docToUI
rg_prmm-012954.4

12/6/2014  15:30 >> Application_Name >> SMK :: BuyVoluntary_step2-docToUI
rg_prmm12954.4

12/6/2014  15:30 >> Application_Name >> SMK :: BuyVoluntary_step2-docToUI
cp_comp_prmm600.00

12/6/2014  15:30 >> Application_Name >> getDataCarMarkByCarMarkCode
SELECT * 
 FROM online_carmark 
 WHERE carmakcod = '' 
 ORDER BY desc_t, carmakcod 

12/6/2014  15:31 >> Application_Name >> getDataCarMarkByCarMarkCode
SELECT * 
 FROM online_carmark 
 WHERE carmakcod = 'JK-MA065' 
 ORDER BY desc_t, carmakcod 

12/6/2014  15:31 >> Application_Name >> getDataCarMarkByCarMarkCode
SELECT * 
 FROM online_carmark 
 WHERE carmakcod = '' 
 ORDER BY desc_t, carmakcod 

12/6/2014  15:31 >> Application_Name >> getDataPremium
exec sp_calonlineweb 'Y','110','1','3','5 ','JK-MA065','2000','A','A',454860,555940,'0',20

12/6/2014  15:31 >> Application_Name >> getDataPremium
exec sp_calonlineweb 'Y','110','2','3','5 ','JK-MA065','2000','A','A',454860,555940,'0',20

12/6/2014  15:31 >> Application_Name >> getDataPremium
exec sp_calonlineweb 'Y','110','3','3','5 ','JK-MA065','2000','A','A',0,0,'0',20

12/6/2014  15:31 >> Application_Name >> getDataCarMarkByCarMarkCode
SELECT * 
 FROM online_carmark 
 WHERE carmakcod = 'EK-FO083' 
 ORDER BY desc_t, carmakcod 

12/6/2014  15:31 >> Application_Name >> getDataPremium
exec sp_calonlineweb 'Y','110','1','3','5 ','JK-MA065','2000','A','A',454860,555940,'0',20

12/6/2014  15:31 >> Application_Name >> getDataPremium
exec sp_calonlineweb 'Y','110','2','3','5 ','JK-MA065','2000','A','A',454860,555940,'0',20

12/6/2014  15:31 >> Application_Name >> getDataPremium
exec sp_calonlineweb 'Y','110','3','3','5 ','JK-MA065','2000','A','A',0,0,'0',20

12/6/2014  15:33 >> Application_Name >> getDataPremium
exec sp_calonlineweb 'Y','110','1','2','5 ','EK-FO083','2000','A','A',478800,585200,'0',20

12/6/2014  15:33 >> Application_Name >> getDataPremium
exec sp_calonlineweb 'Y','110','2','2','5 ','EK-FO083','2000','A','A',478800,585200,'0',20

12/6/2014  15:33 >> Application_Name >> getDataPremium
exec sp_calonlineweb 'Y','110','3','2','5 ','EK-FO083','2000','A','A',0,0,'0',20

12/6/2014  15:33 >> Application_Name >> getDataPremium
exec sp_calonlineweb 'N','110','1','3','5 ','JK-MA065','2000','A','A',454860,555940,'0',0

12/6/2014  15:33 >> Application_Name >> getDataPremium
exec sp_calonlineweb 'N','110','2','3','5 ','JK-MA065','2000','A','A',454860,555940,'0',0

12/6/2014  15:33 >> Application_Name >> getDataPremium
exec sp_calonlineweb 'N','110','3','3','5 ','JK-MA065','2000','A','A',0,0,'0',0

12/6/2014  15:34 >> Application_Name >> SMK :: BuyVoluntary_step2-docToUI
Combine

12/6/2014  15:34 >> Application_Name >> SMK :: BuyVoluntary_step2-docToUI
rg_prmm-014026.4

12/6/2014  15:34 >> Application_Name >> SMK :: BuyVoluntary_step2-docToUI
rg_prmm14026.4

12/6/2014  15:34 >> Application_Name >> SMK :: BuyVoluntary_step2-docToUI
cp_comp_prmm600.00

12/6/2014  15:37 >> Application_Name >> getDataCarMarkByCarMarkCode
SELECT * 
 FROM online_carmark 
 WHERE carmakcod = '' 
 ORDER BY desc_t, carmakcod 

12/6/2014  15:37 >> Application_Name >> getDataCarMarkByCarMarkCode
SELECT * 
 FROM online_carmark 
 WHERE carmakcod = 'JK-TO321' 
 ORDER BY desc_t, carmakcod 

12/6/2014  15:39 >> Application_Name >> getDataPremium
exec sp_calonlineweb 'Y','110','1','9','3 ','JK-TO321','9999','A','A',730585.115752767,807488.812147796,'0',0

12/6/2014  15:39 >> Application_Name >> getDataPremium
exec sp_calonlineweb 'Y','110','2','9','3 ','JK-TO321','9999','A','A',730585.115752767,807488.812147796,'0',0

12/6/2014  15:39 >> Application_Name >> getDataPremium
exec sp_calonlineweb 'Y','110','3','9','3 ','JK-TO321','9999','A','A',0,0,'0',0

12/6/2014  15:41 >> Application_Name >> getDataCarMarkByCarMarkCode
SELECT * 
 FROM online_carmark 
 WHERE carmakcod = '' 
 ORDER BY desc_t, carmakcod 

12/6/2014  15:41 >> Application_Name >> getDataCarMarkByCarMarkCode
SELECT * 
 FROM online_carmark 
 WHERE carmakcod = 'JK-MA065' 
 ORDER BY desc_t, carmakcod 

12/6/2014  15:42 >> Application_Name >> getDataPremium
exec sp_calonlineweb 'N','110','1','3','5 ','JK-MA065','2000','A','A',454860,555940,'25',0

12/6/2014  15:42 >> Application_Name >> getDataPremium
exec sp_calonlineweb 'N','110','2','3','5 ','JK-MA065','2000','A','A',454860,555940,'25',0

12/6/2014  15:42 >> Application_Name >> getDataPremium
exec sp_calonlineweb 'N','110','3','3','5 ','JK-MA065','2000','A','A',0,0,'25',0

12/6/2014  15:44 >> Application_Name >> getDataPremium
exec sp_calonlineweb 'N','110','1','3','5 ','JK-MA065','2000','A','A',454860,555940,'0',0

12/6/2014  15:44 >> Application_Name >> getDataPremium
exec sp_calonlineweb 'N','110','2','3','5 ','JK-MA065','2000','A','A',454860,555940,'0',0

12/6/2014  15:44 >> Application_Name >> getDataPremium
exec sp_calonlineweb 'N','110','3','3','5 ','JK-MA065','2000','A','A',0,0,'0',0

12/6/2014  16:5 >> Application_Name >> getDataCarMarkByCarMarkCode
SELECT * 
 FROM online_carmark 
 WHERE carmakcod = '' 
 ORDER BY desc_t, carmakcod 

12/6/2014  16:5 >> Application_Name >> getDataCarMarkByCarMarkCode
SELECT * 
 FROM online_carmark 
 WHERE carmakcod = 'JK-HO001' 
 ORDER BY desc_t, carmakcod 

12/6/2014  16:5 >> Application_Name >> getDataCarMarkByCarMarkCode
SELECT * 
 FROM online_carmark 
 WHERE carmakcod = '' 
 ORDER BY desc_t, carmakcod 

12/6/2014  16:6 >> Application_Name >> getDataCarMarkByCarMarkCode
SELECT * 
 FROM online_carmark 
 WHERE carmakcod = 'JK-TO206' 
 ORDER BY desc_t, carmakcod 

12/6/2014  16:6 >> Application_Name >> getDataPremium
exec sp_calonlineweb 'N','110','1','3','5 ','JK-MA065','2000','A','A',454860,555940,'25',0

12/6/2014  16:6 >> Application_Name >> getDataPremium
exec sp_calonlineweb 'N','110','2','3','5 ','JK-MA065','2000','A','A',454860,555940,'25',0

12/6/2014  16:6 >> Application_Name >> getDataPremium
exec sp_calonlineweb 'N','110','3','3','5 ','JK-MA065','2000','A','A',0,0,'25',0

12/6/2014  16:7 >> Application_Name >> getDataPremium
exec sp_calonlineweb 'Y','110','1','4','4 ','JK-TO206','2000','A','A',478415.25,584729.75,'0',0

12/6/2014  16:7 >> Application_Name >> getDataPremium
exec sp_calonlineweb 'Y','110','2','4','4 ','JK-TO206','2000','A','A',478415.25,584729.75,'0',0

12/6/2014  16:7 >> Application_Name >> getDataPremium
exec sp_calonlineweb 'Y','110','3','4','4 ','JK-TO206','2000','A','A',0,0,'0',0

12/6/2014  16:8 >> Application_Name >> getDataPremium
exec sp_calonlineweb 'N','110','1','2','5 ','JK-HO001','2000','A','A',470250,574750,'0',20

12/6/2014  16:8 >> Application_Name >> getDataPremium
exec sp_calonlineweb 'N','110','2','2','5 ','JK-HO001','2000','A','A',470250,574750,'0',20

12/6/2014  16:8 >> Application_Name >> getDataPremium
exec sp_calonlineweb 'N','110','3','2','5 ','JK-HO001','2000','A','A',0,0,'0',20

12/6/2014  16:8 >> Application_Name >> getDataPremium
exec sp_calonlineweb 'N','110','1','3','5 ','JK-MA065','2000','A','A',454860,555940,'25',0

12/6/2014  16:8 >> Application_Name >> getDataPremium
exec sp_calonlineweb 'N','110','2','3','5 ','JK-MA065','2000','A','A',454860,555940,'25',0

12/6/2014  16:8 >> Application_Name >> getDataPremium
exec sp_calonlineweb 'N','110','3','3','5 ','JK-MA065','2000','A','A',0,0,'25',0

12/6/2014  16:8 >> Application_Name >> getDataPremium
exec sp_calonlineweb 'N','110','1','3','5 ','JK-MA065','2000','A','A',454860,555940,'25',0

12/6/2014  16:8 >> Application_Name >> getDataPremium
exec sp_calonlineweb 'N','110','2','3','5 ','JK-MA065','2000','A','A',454860,555940,'25',0

12/6/2014  16:8 >> Application_Name >> getDataPremium
exec sp_calonlineweb 'N','110','3','3','5 ','JK-MA065','2000','A','A',0,0,'25',0

12/6/2014  16:9 >> Application_Name >> getDataPremium
exec sp_calonlineweb 'N','110','1','3','5 ','JK-MA065','2000','A','A',454860,555940,'0',0

12/6/2014  16:9 >> Application_Name >> getDataPremium
exec sp_calonlineweb 'N','110','2','3','5 ','JK-MA065','2000','A','A',454860,555940,'0',0

12/6/2014  16:9 >> Application_Name >> getDataPremium
exec sp_calonlineweb 'N','110','3','3','5 ','JK-MA065','2000','A','A',0,0,'0',0

12/6/2014  16:9 >> Application_Name >> getDataPremium
exec sp_calonlineweb 'N','110','1','2','5 ','JK-HO001','2000','A','A',470250,574750,'0',0

12/6/2014  16:9 >> Application_Name >> getDataPremium
exec sp_calonlineweb 'N','110','2','2','5 ','JK-HO001','2000','A','A',470250,574750,'0',0

12/6/2014  16:9 >> Application_Name >> getDataPremium
exec sp_calonlineweb 'N','110','3','2','5 ','JK-HO001','2000','A','A',0,0,'0',0

12/6/2014  16:9 >> Application_Name >> getDataPremium
exec sp_calonlineweb 'N','110','1','2','5 ','JK-HO001','2000','A','A',470250,574750,'0',30

12/6/2014  16:9 >> Application_Name >> getDataPremium
exec sp_calonlineweb 'N','110','2','2','5 ','JK-HO001','2000','A','A',470250,574750,'0',30

12/6/2014  16:9 >> Application_Name >> getDataPremium
exec sp_calonlineweb 'N','110','3','2','5 ','JK-HO001','2000','A','A',0,0,'0',30

12/6/2014  16:17 >> Application_Name >> getDataPremium
exec sp_calonlineweb 'N','110','1','3','5 ','JK-MA065','2000','A','A',454860,555940,'25',0

12/6/2014  16:17 >> Application_Name >> getDataPremium
exec sp_calonlineweb 'N','110','2','3','5 ','JK-MA065','2000','A','A',454860,555940,'25',0

12/6/2014  16:17 >> Application_Name >> getDataPremium
exec sp_calonlineweb 'N','110','3','3','5 ','JK-MA065','2000','A','A',0,0,'25',0

12/6/2014  16:23 >> Application_Name >> getCategoryCompByBrand
SELECT mdc_minor_cd , mdc_desc_t as mdc_desc FROM mtdesc_comp  WHERE mdc_minor_cd <> '0000' AND mdc_major_cd = 'M001' ORDER BY mdc_desc 

12/6/2014  16:24 >> Application_Name >> getDataCarMarkByCarMarkCode
SELECT * 
 FROM online_carmark 
 WHERE carmakcod = '' 
 ORDER BY desc_t, carmakcod 

12/6/2014  16:24 >> Application_Name >> getDataCarMarkByCarMarkCode
SELECT * 
 FROM online_carmark 
 WHERE carmakcod = 'JK-MA056' 
 ORDER BY desc_t, carmakcod 

12/6/2014  16:25 >> Application_Name >> getDataCarMarkByCarMarkCode
SELECT * 
 FROM online_carmark 
 WHERE carmakcod = '' 
 ORDER BY desc_t, carmakcod 

12/6/2014  16:32 >> Application_Name >> getDataCarMarkByCarMarkCode
SELECT * 
 FROM online_carmark 
 WHERE carmakcod = '' 
 ORDER BY desc_t, carmakcod 

12/6/2014  16:33 >> Application_Name >> getDataCarMarkByCarMarkCode
SELECT * 
 FROM online_carmark 
 WHERE carmakcod = 'JK-MI080' 
 ORDER BY desc_t, carmakcod 

12/6/2014  16:35 >> Application_Name >> getDataPremium
exec sp_calonlineweb 'Y','110','1','2','5 ','JK-MI080','2000','A','A',376200,459800,'25',20

12/6/2014  16:35 >> Application_Name >> getDataPremium
exec sp_calonlineweb 'Y','110','2','2','5 ','JK-MI080','2000','A','A',376200,459800,'25',20

12/6/2014  16:35 >> Application_Name >> getDataPremium
exec sp_calonlineweb 'Y','110','3','2','5 ','JK-MI080','2000','A','A',0,0,'25',20

12/6/2014  16:35 >> Application_Name >> SMK :: BuyVoluntary_step2-docToUI
Combine

12/6/2014  16:35 >> Application_Name >> SMK :: BuyVoluntary_step2-docToUI
rg_prmm-09733.6

12/6/2014  16:35 >> Application_Name >> SMK :: BuyVoluntary_step2-docToUI
rg_prmm9733.6

12/6/2014  16:35 >> Application_Name >> SMK :: BuyVoluntary_step2-docToUI
cp_comp_prmm600.00

12/6/2014  16:36 >> Application_Name >> getDataCarMarkByCarMarkCode
SELECT * 
 FROM online_carmark 
 WHERE carmakcod = '' 
 ORDER BY desc_t, carmakcod 

12/6/2014  16:36 >> Application_Name >> getDataCarMarkByCarMarkCode
SELECT * 
 FROM online_carmark 
 WHERE carmakcod = '' 
 ORDER BY desc_t, carmakcod 

12/6/2014  16:36 >> Application_Name >> getDataCarMarkByCarMarkCode
SELECT * 
 FROM online_carmark 
 WHERE carmakcod = 'JP-MI034' 
 ORDER BY desc_t, carmakcod 

12/6/2014  16:37 >> Application_Name >> getDataPremium
exec sp_calonlineweb 'Y','320','1','8','A','','4','N','A',306765.607428062,339056.723999437,'0',0

12/6/2014  16:37 >> Application_Name >> getDataPremium
exec sp_calonlineweb 'Y','320','2','8','A','','4','N','A',306765.607428062,339056.723999437,'0',0

12/6/2014  16:37 >> Application_Name >> getDataPremium
exec sp_calonlineweb 'Y','320','3','8','A','','4','N','A',0,0,'0',0

12/6/2014  17:21 >> Application_Name >> getDataCarMarkByCarMarkCode
SELECT * 
 FROM online_carmark 
 WHERE carmakcod = '' 
 ORDER BY desc_t, carmakcod 

12/6/2014  17:21 >> Application_Name >> getDataCarMarkByCarMarkCode
SELECT * 
 FROM online_carmark 
 WHERE carmakcod = 'JK-TO321' 
 ORDER BY desc_t, carmakcod 

12/6/2014  17:24 >> Application_Name >> getDataPremium
exec sp_calonlineweb 'Y','110','1','11','3 ','JK-TO321','9999','A','A',659353.066966873,728758.652963386,'0',0

12/6/2014  17:24 >> Application_Name >> getDataPremium
exec sp_calonlineweb 'Y','110','2','11','3 ','JK-TO321','9999','A','A',659353.066966873,728758.652963386,'0',0

12/6/2014  17:24 >> Application_Name >> getDataPremium
exec sp_calonlineweb 'Y','110','3','11','3 ','JK-TO321','9999','A','A',0,0,'0',0

12/6/2014  17:24 >> Application_Name >> SMK :: BuyVoluntary_step2-docToUI
Combine

12/6/2014  17:24 >> Application_Name >> SMK :: BuyVoluntary_step2-docToUI
rg_prmm-013029

12/6/2014  17:24 >> Application_Name >> SMK :: BuyVoluntary_step2-docToUI
rg_prmm13029

12/6/2014  17:24 >> Application_Name >> SMK :: BuyVoluntary_step2-docToUI
cp_comp_prmm600.00

12/6/2014  18:20 >> Application_Name >> getCategoryCompByBrand
SELECT mdc_minor_cd , mdc_desc_t as mdc_desc FROM mtdesc_comp  WHERE mdc_minor_cd <> '0000' AND mdc_major_cd = 'T001' ORDER BY mdc_desc 

12/6/2014  18:38 >> Application_Name >> getDataCarMarkByCarMarkCode
SELECT * 
 FROM online_carmark 
 WHERE carmakcod = '' 
 ORDER BY desc_t, carmakcod 

12/6/2014  18:38 >> Application_Name >> getDataCarMarkByCarMarkCode
SELECT * 
 FROM online_carmark 
 WHERE carmakcod = '' 
 ORDER BY desc_t, carmakcod 

12/6/2014  18:38 >> Application_Name >> getDataCarMarkByCarMarkCode
SELECT * 
 FROM online_carmark 
 WHERE carmakcod = '' 
 ORDER BY desc_t, carmakcod 

12/6/2014  18:38 >> Application_Name >> getDataCarMarkByCarMarkCode
SELECT * 
 FROM online_carmark 
 WHERE carmakcod = '' 
 ORDER BY desc_t, carmakcod 

12/6/2014  18:38 >> Application_Name >> getDataCarMarkByCarMarkCode
SELECT * 
 FROM online_carmark 
 WHERE carmakcod = '' 
 ORDER BY desc_t, carmakcod 

12/6/2014  18:38 >> Application_Name >> getDataCarMarkByCarMarkCode
SELECT * 
 FROM online_carmark 
 WHERE carmakcod = '' 
 ORDER BY desc_t, carmakcod 

12/6/2014  18:38 >> Application_Name >> getDataCarMarkByCarMarkCode
SELECT * 
 FROM online_carmark 
 WHERE carmakcod = 'JK-HO001' 
 ORDER BY desc_t, carmakcod 

12/6/2014  18:39 >> Application_Name >> getDataCarMarkByCarMarkCode
SELECT * 
 FROM online_carmark 
 WHERE carmakcod = '' 
 ORDER BY desc_t, carmakcod 

12/6/2014  18:39 >> Application_Name >> getDataCarMarkByCarMarkCode
SELECT * 
 FROM online_carmark 
 WHERE carmakcod = 'JK-HO001' 
 ORDER BY desc_t, carmakcod 

12/6/2014  18:40 >> Application_Name >> getDataPremium
exec sp_calonlineweb 'Y','110','1','2','5 ','JK-HO001','2000','A','A',470250,574750,'0',20

12/6/2014  18:40 >> Application_Name >> getDataPremium
exec sp_calonlineweb 'Y','110','2','2','5 ','JK-HO001','2000','A','A',470250,574750,'0',20

12/6/2014  18:40 >> Application_Name >> getDataPremium
exec sp_calonlineweb 'Y','110','3','2','5 ','JK-HO001','2000','A','A',0,0,'0',20

12/6/2014  18:40 >> Application_Name >> getDataPremium
exec sp_calonlineweb 'Y','110','1','2','5 ','JK-HO001','2000','A','A',470250,574750,'0',20

12/6/2014  18:40 >> Application_Name >> getDataPremium
exec sp_calonlineweb 'Y','110','2','2','5 ','JK-HO001','2000','A','A',470250,574750,'0',20

12/6/2014  18:40 >> Application_Name >> getDataPremium
exec sp_calonlineweb 'Y','110','3','2','5 ','JK-HO001','2000','A','A',0,0,'0',20

12/6/2014  18:41 >> Application_Name >> SMK :: BuyVoluntary_step2-docToUI
Combine

12/6/2014  18:41 >> Application_Name >> SMK :: BuyVoluntary_step2-docToUI
rg_prmm-013051.2

12/6/2014  18:41 >> Application_Name >> SMK :: BuyVoluntary_step2-docToUI
rg_prmm13051.2

12/6/2014  18:41 >> Application_Name >> SMK :: BuyVoluntary_step2-docToUI
cp_comp_prmm600.00

12/6/2014  18:50 >> Application_Name >> getDataCarMarkByCarMarkCode
SELECT * 
 FROM online_carmark 
 WHERE carmakcod = '' 
 ORDER BY desc_t, carmakcod 

12/6/2014  18:50 >> Application_Name >> getDataCarMarkByCarMarkCode
SELECT * 
 FROM online_carmark 
 WHERE carmakcod = 'JK-TO242' 
 ORDER BY desc_t, carmakcod 

12/6/2014  18:51 >> Application_Name >> getDataPremium
exec sp_calonlineweb 'Y','110','1','4','5 ','JK-TO242','2000','A','A',432117,528143,'0',0

12/6/2014  18:51 >> Application_Name >> getDataPremium
exec sp_calonlineweb 'Y','110','2','4','5 ','JK-TO242','2000','A','A',432117,528143,'0',0

12/6/2014  18:51 >> Application_Name >> getDataPremium
exec sp_calonlineweb 'Y','110','3','4','5 ','JK-TO242','2000','A','A',0,0,'0',0

12/6/2014  19:44 >> Application_Name >> getDataCarMarkByCarMarkCode
SELECT * 
 FROM online_carmark 
 WHERE carmakcod = '' 
 ORDER BY desc_t, carmakcod 

12/6/2014  19:44 >> Application_Name >> getDataCarMarkByCarMarkCode
SELECT * 
 FROM online_carmark 
 WHERE carmakcod = 'JK-HO002' 
 ORDER BY desc_t, carmakcod 

12/6/2014  19:47 >> Application_Name >> getDataPremium
exec sp_calonlineweb 'N','110','1','7','3 ','JK-HO002','2000','A','A',575576.950359375,703482.939328125,'0',0

12/6/2014  19:47 >> Application_Name >> getDataPremium
exec sp_calonlineweb 'N','110','2','7','3 ','JK-HO002','2000','A','A',575576.950359375,703482.939328125,'0',0

12/6/2014  19:47 >> Application_Name >> getDataPremium
exec sp_calonlineweb 'N','110','3','7','3 ','JK-HO002','2000','A','A',0,0,'0',0

12/6/2014  19:50 >> Application_Name >> getDataCarMarkByCarMarkCode
SELECT * 
 FROM online_carmark 
 WHERE carmakcod = '' 
 ORDER BY desc_t, carmakcod 

12/6/2014  19:51 >> Application_Name >> getDataCarMarkByCarMarkCode
SELECT * 
 FROM online_carmark 
 WHERE carmakcod = '' 
 ORDER BY desc_t, carmakcod 

12/6/2014  19:51 >> Application_Name >> getDataCarMarkByCarMarkCode
SELECT * 
 FROM online_carmark 
 WHERE carmakcod = 'JK-HO001' 
 ORDER BY desc_t, carmakcod 

12/6/2014  19:52 >> Application_Name >> getDataCarMarkByCarMarkCode
SELECT * 
 FROM online_carmark 
 WHERE carmakcod = 'JK-TO242' 
 ORDER BY desc_t, carmakcod 

12/6/2014  19:53 >> Application_Name >> getDataPremium
exec sp_calonlineweb 'Y','110','1','2','5 ','JK-HO001','2000','A','A',470250,574750,'0',0

12/6/2014  19:53 >> Application_Name >> getDataPremium
exec sp_calonlineweb 'Y','110','2','2','5 ','JK-HO001','2000','A','A',470250,574750,'0',0

12/6/2014  19:53 >> Application_Name >> getDataPremium
exec sp_calonlineweb 'Y','110','3','2','5 ','JK-HO001','2000','A','A',0,0,'0',0

12/6/2014  19:54 >> Application_Name >> SMK :: BuyVoluntary_step2-docToUI
Combine

12/6/2014  19:54 >> Application_Name >> SMK :: BuyVoluntary_step2-docToUI
rg_prmm-02604

12/6/2014  19:54 >> Application_Name >> SMK :: BuyVoluntary_step2-docToUI
rg_prmm2604

12/6/2014  19:54 >> Application_Name >> SMK :: BuyVoluntary_step2-docToUI
cp_comp_prmm600.00

12/6/2014  20:12 >> Application_Name >> getDataCarMarkByCarMarkCode
SELECT * 
 FROM online_carmark 
 WHERE carmakcod = '' 
 ORDER BY desc_t, carmakcod 

12/6/2014  20:12 >> Application_Name >> getDataCarMarkByCarMarkCode
SELECT * 
 FROM online_carmark 
 WHERE carmakcod = 'JK-HO001' 
 ORDER BY desc_t, carmakcod 

12/6/2014  20:13 >> Application_Name >> getDataPremium
exec sp_calonlineweb 'Y','110','1','2','5 ','JK-HO001','2000','A','A',470250,574750,'0',0

12/6/2014  20:13 >> Application_Name >> getDataPremium
exec sp_calonlineweb 'Y','110','2','2','5 ','JK-HO001','2000','A','A',470250,574750,'0',0

12/6/2014  20:13 >> Application_Name >> getDataPremium
exec sp_calonlineweb 'Y','110','3','2','5 ','JK-HO001','2000','A','A',0,0,'0',0

12/6/2014  20:13 >> Application_Name >> SMK :: BuyVoluntary_step2-docToUI
Combine

12/6/2014  20:13 >> Application_Name >> SMK :: BuyVoluntary_step2-docToUI
rg_prmm-02604

12/6/2014  20:13 >> Application_Name >> SMK :: BuyVoluntary_step2-docToUI
rg_prmm2604

12/6/2014  20:13 >> Application_Name >> SMK :: BuyVoluntary_step2-docToUI
cp_comp_prmm600.00

12/6/2014  20:15 >> Application_Name >> getDataPremium
exec sp_calonlineweb 'Y','110','1','2','5 ','JK-HO001','2000','A','A',470250,574750,'25',0

12/6/2014  20:15 >> Application_Name >> getDataPremium
exec sp_calonlineweb 'Y','110','2','2','5 ','JK-HO001','2000','A','A',470250,574750,'25',0

12/6/2014  20:15 >> Application_Name >> getDataPremium
exec sp_calonlineweb 'Y','110','3','2','5 ','JK-HO001','2000','A','A',0,0,'25',0

12/6/2014  20:15 >> Application_Name >> SMK :: BuyVoluntary_step2-docToUI
Combine

12/6/2014  20:15 >> Application_Name >> SMK :: BuyVoluntary_step2-docToUI
rg_prmm-02604

12/6/2014  20:15 >> Application_Name >> SMK :: BuyVoluntary_step2-docToUI
rg_prmm2604

12/6/2014  20:15 >> Application_Name >> SMK :: BuyVoluntary_step2-docToUI
cp_comp_prmm600.00

12/6/2014  20:22 >> Application_Name >> BLWorker::executeUpdate
String or binary data would be truncated.
The statement has been terminated.

12/6/2014  20:22 >> Application_Name >> BLWorker::SQL
INSERT INTO tmpreg(tm_tmp_cd, tm_main_class, tm_pol_type, tm_effect_dt, tm_expiry_dt, tm_regis_dt, tm_regis_time, tm_regis_type, tm_ins_fname, tm_ins_lname, tm_ins_addr1, tm_ins_addr2, tm_ins_amphor, tm_ins_changwat, tm_ins_postcode, tm_ins_tel, tm_ins_email, tm_sum_ins, tm_prmm, tm_tax, tm_stamp, tm_fleet_perc, tm_stat, tm_ins_mobile, tm_ins_idcard, tm_oth_distance, tm_oth_region, tm_oth_flagdeduct, tm_oth_oldpolicy, tm_mott_id, tm_insc_id, tm_prmmgross ) VALUES('140612-011','M',      '3',      '2014/06/22',     '2015/06/22',     '2014/6/12',      '20:22',      'N',      'จินตวรีย์',      'เรืองฤทธิ์',      'บก.ตม.3 ศูนย์ราชการเฉลิมพระเกียรติฯ ชั้น3 ถ.แจ้งวัฒนะ',      'แขวงทุ่งสองห้อง',      'หลักสี่',      '00',      '50210',      '',      'Jinthawaree@gmail.com',      '0',      '2604',      '183.05',      '11',      '0',      'N',      '0816718338',      '1509900210895',      '',      '1',      '',      'N',      '',      '',      '3443.26' ) 

12/6/2014  20:23 >> Application_Name >> BLWorker::executeUpdate
String or binary data would be truncated.
The statement has been terminated.

12/6/2014  20:23 >> Application_Name >> BLWorker::SQL
INSERT INTO tmpreg(tm_tmp_cd, tm_main_class, tm_pol_type, tm_effect_dt, tm_expiry_dt, tm_regis_dt, tm_regis_time, tm_regis_type, tm_ins_fname, tm_ins_lname, tm_ins_addr1, tm_ins_addr2, tm_ins_amphor, tm_ins_changwat, tm_ins_postcode, tm_ins_tel, tm_ins_email, tm_sum_ins, tm_prmm, tm_tax, tm_stamp, tm_fleet_perc, tm_stat, tm_ins_mobile, tm_ins_idcard, tm_oth_distance, tm_oth_region, tm_oth_flagdeduct, tm_oth_oldpolicy, tm_mott_id, tm_insc_id, tm_prmmgross ) VALUES('140612-011','M',      '3',      '2014/06/22',     '2015/06/22',     '2014/6/12',      '20:23',      'N',      'จินตวรีย์',      'เรืองฤทธิ์',      'บก.ตม.3 ศูนย์ราชการเฉลิมพระเกียรติฯ ชั้น3 ถ.แจ้งวัฒนะ',      'แขวงทุ่งสองห้อง',      'หลักสี่',      '00',      '50210',      '',      'Jinthawaree@gmail.com',      '0',      '2604',      '183.05',      '11',      '0',      'N',      '0816718338',      '1509900210895',      '',      '1',      '',      'N',      '',      '',      '3443.26' ) 

12/6/2014  20:28 >> Application_Name >> getDataCarMarkByCarMarkCode
SELECT * 
 FROM online_carmark 
 WHERE carmakcod = '' 
 ORDER BY desc_t, carmakcod 

12/6/2014  20:28 >> Application_Name >> getDataCarMarkByCarMarkCode
SELECT * 
 FROM online_carmark 
 WHERE carmakcod = 'JK-MI080' 
 ORDER BY desc_t, carmakcod 

12/6/2014  20:31 >> Application_Name >> getDataPremium
exec sp_calonlineweb 'Y','110','1','2','5 ','JK-MI080','2000','A','A',376200,459800,'25',20

12/6/2014  20:31 >> Application_Name >> getDataPremium
exec sp_calonlineweb 'Y','110','2','2','5 ','JK-MI080','2000','A','A',376200,459800,'25',20

12/6/2014  20:31 >> Application_Name >> getDataPremium
exec sp_calonlineweb 'Y','110','3','2','5 ','JK-MI080','2000','A','A',0,0,'25',20

12/6/2014  20:32 >> Application_Name >> SMK :: BuyVoluntary_step2-docToUI
Combine

12/6/2014  20:32 >> Application_Name >> SMK :: BuyVoluntary_step2-docToUI
rg_prmm-09733.6

12/6/2014  20:32 >> Application_Name >> SMK :: BuyVoluntary_step2-docToUI
rg_prmm9733.6

12/6/2014  20:32 >> Application_Name >> SMK :: BuyVoluntary_step2-docToUI
cp_comp_prmm600.00

12/6/2014  20:49 >> Application_Name >> getDataCarMarkByCarMarkCode
SELECT * 
 FROM online_carmark 
 WHERE carmakcod = '' 
 ORDER BY desc_t, carmakcod 

12/6/2014  20:49 >> Application_Name >> getDataCarMarkByCarMarkCode
SELECT * 
 FROM online_carmark 
 WHERE carmakcod = 'JK-HO001' 
 ORDER BY desc_t, carmakcod 

12/6/2014  20:51 >> Application_Name >> getDataCarMarkByCarMarkCode
SELECT * 
 FROM online_carmark 
 WHERE carmakcod = '' 
 ORDER BY desc_t, carmakcod 

12/6/2014  20:51 >> Application_Name >> getDataCarMarkByCarMarkCode
SELECT * 
 FROM online_carmark 
 WHERE carmakcod = 'JK-HO001' 
 ORDER BY desc_t, carmakcod 

12/6/2014  20:52 >> Application_Name >> getDataPremium
exec sp_calonlineweb 'Y','110','1','2','5 ','JK-HO001','2000','A','A',470250,574750,'0',0

12/6/2014  20:52 >> Application_Name >> getDataPremium
exec sp_calonlineweb 'Y','110','2','2','5 ','JK-HO001','2000','A','A',470250,574750,'0',0

12/6/2014  20:52 >> Application_Name >> getDataPremium
exec sp_calonlineweb 'Y','110','3','2','5 ','JK-HO001','2000','A','A',0,0,'0',0

12/6/2014  20:52 >> Application_Name >> getDataPremium
exec sp_calonlineweb 'Y','110','1','2','5 ','JK-HO001','2000','A','A',470250,574750,'0',20

12/6/2014  20:53 >> Application_Name >> getDataPremium
exec sp_calonlineweb 'Y','110','2','2','5 ','JK-HO001','2000','A','A',470250,574750,'0',20

12/6/2014  20:53 >> Application_Name >> getDataPremium
exec sp_calonlineweb 'Y','110','3','2','5 ','JK-HO001','2000','A','A',0,0,'0',20

12/6/2014  20:53 >> Application_Name >> SMK :: BuyVoluntary_step2-docToUI
Combine

12/6/2014  20:53 >> Application_Name >> SMK :: BuyVoluntary_step2-docToUI
rg_prmm-013268

12/6/2014  20:53 >> Application_Name >> SMK :: BuyVoluntary_step2-docToUI
rg_prmm13268

12/6/2014  20:53 >> Application_Name >> SMK :: BuyVoluntary_step2-docToUI
cp_comp_prmm600.00

12/6/2014  21:4 >> Application_Name >> getDataCarMarkByCarMarkCode
SELECT * 
 FROM online_carmark 
 WHERE carmakcod = '' 
 ORDER BY desc_t, carmakcod 

12/6/2014  21:4 >> Application_Name >> getDataCarMarkByCarMarkCode
SELECT * 
 FROM online_carmark 
 WHERE carmakcod = 'JK-MI047' 
 ORDER BY desc_t, carmakcod 

12/6/2014  21:5 >> Application_Name >> getDataCarMarkByCarMarkCode
SELECT * 
 FROM online_carmark 
 WHERE carmakcod = '' 
 ORDER BY desc_t, carmakcod 

12/6/2014  21:5 >> Application_Name >> getDataCarMarkByCarMarkCode
SELECT * 
 FROM online_carmark 
 WHERE carmakcod = '' 
 ORDER BY desc_t, carmakcod 

12/6/2014  21:5 >> Application_Name >> getDataCarMarkByCarMarkCode
SELECT * 
 FROM online_carmark 
 WHERE carmakcod = 'EK-CR038' 
 ORDER BY desc_t, carmakcod 

12/6/2014  21:7 >> Application_Name >> getDataPremium
exec sp_calonlineweb 'Y','110','1','2','3 ','EK-CR038','2000','A','A',646000,712500,'0',0

12/6/2014  21:7 >> Application_Name >> getDataPremium
exec sp_calonlineweb 'Y','110','2','2','3 ','EK-CR038','2000','A','A',646000,712500,'0',0

12/6/2014  21:7 >> Application_Name >> getDataPremium
exec sp_calonlineweb 'Y','110','3','2','3 ','EK-CR038','2000','A','A',0,0,'0',0

12/6/2014  21:8 >> Application_Name >> getDataPremium
exec sp_calonlineweb 'Y','110','1','3','3 ','JK-MI047','9999','A','A',763515,933185,'0',0

12/6/2014  21:8 >> Application_Name >> getDataPremium
exec sp_calonlineweb 'Y','110','2','3','3 ','JK-MI047','9999','A','A',763515,933185,'0',0

12/6/2014  21:8 >> Application_Name >> getDataPremium
exec sp_calonlineweb 'Y','110','3','3','3 ','JK-MI047','9999','A','A',0,0,'0',0

12/6/2014  21:8 >> Application_Name >> getDataPremium
exec sp_calonlineweb 'Y','110','1','2','3 ','EK-CR038','2000','A','A',646000,712500,'0',0

12/6/2014  21:8 >> Application_Name >> getDataPremium
exec sp_calonlineweb 'Y','110','2','2','3 ','EK-CR038','2000','A','A',646000,712500,'0',0

12/6/2014  21:8 >> Application_Name >> getDataPremium
exec sp_calonlineweb 'Y','110','3','2','3 ','EK-CR038','2000','A','A',0,0,'0',0

12/6/2014  21:8 >> Application_Name >> SMK :: BuyVoluntary_step2-docToUI
Combine

12/6/2014  21:8 >> Application_Name >> SMK :: BuyVoluntary_step2-docToUI
rg_prmm-021241

12/6/2014  21:8 >> Application_Name >> SMK :: BuyVoluntary_step2-docToUI
rg_prmm21241

12/6/2014  21:8 >> Application_Name >> SMK :: BuyVoluntary_step2-docToUI
cp_comp_prmm600.00

12/6/2014  21:8 >> Application_Name >> getDataPremium
exec sp_calonlineweb 'Y','110','1','3','3 ','JK-MI047','9999','A','A',763515,933185,'0',0

12/6/2014  21:9 >> Application_Name >> getDataPremium
exec sp_calonlineweb 'Y','110','2','3','3 ','JK-MI047','9999','A','A',763515,933185,'0',0

12/6/2014  21:9 >> Application_Name >> getDataPremium
exec sp_calonlineweb 'Y','110','3','3','3 ','JK-MI047','9999','A','A',0,0,'0',0

12/6/2014  21:10 >> Application_Name >> getDataCarMarkByCarMarkCode
SELECT * 
 FROM online_carmark 
 WHERE carmakcod = '' 
 ORDER BY desc_t, carmakcod 

12/6/2014  21:10 >> Application_Name >> getDataCarMarkByCarMarkCode
SELECT * 
 FROM online_carmark 
 WHERE carmakcod = 'JK-MI047' 
 ORDER BY desc_t, carmakcod 

12/6/2014  21:25 >> Application_Name >> getDataCarMarkByCarMarkCode
SELECT * 
 FROM online_carmark 
 WHERE carmakcod = '' 
 ORDER BY desc_t, carmakcod 

12/6/2014  21:25 >> Application_Name >> getDataCarMarkByCarMarkCode
SELECT * 
 FROM online_carmark 
 WHERE carmakcod = '' 
 ORDER BY desc_t, carmakcod 

12/6/2014  21:25 >> Application_Name >> getDataCarMarkByCarMarkCode
SELECT * 
 FROM online_carmark 
 WHERE carmakcod = 'JP-IS030' 
 ORDER BY desc_t, carmakcod 

12/6/2014  22:0 >> Application_Name >> getDataCarMarkByCarMarkCode
SELECT * 
 FROM online_carmark 
 WHERE carmakcod = '' 
 ORDER BY desc_t, carmakcod 

12/6/2014  22:0 >> Application_Name >> getDataCarMarkByCarMarkCode
SELECT * 
 FROM online_carmark 
 WHERE carmakcod = 'JK-NI004' 
 ORDER BY desc_t, carmakcod 

12/6/2014  22:2 >> Application_Name >> getDataPremium
exec sp_calonlineweb 'Y','110','1','15','5 ','JK-NI004','2000','A','A',222009.157492553,245378.542491769,'0',0

12/6/2014  22:2 >> Application_Name >> getDataPremium
exec sp_calonlineweb 'Y','110','2','15','5 ','JK-NI004','2000','A','A',222009.157492553,245378.542491769,'0',0

12/6/2014  22:2 >> Application_Name >> getDataPremium
exec sp_calonlineweb 'Y','110','3','15','5 ','JK-NI004','2000','A','A',0,0,'0',0

12/6/2014  22:5 >> Application_Name >> SMK :: BuyVoluntary_step2-docToUI
Combine

12/6/2014  22:5 >> Application_Name >> SMK :: BuyVoluntary_step2-docToUI
rg_prmm-07239

12/6/2014  22:5 >> Application_Name >> SMK :: BuyVoluntary_step2-docToUI
rg_prmm7239

12/6/2014  22:5 >> Application_Name >> SMK :: BuyVoluntary_step2-docToUI
cp_comp_prmm600.00

12/6/2014  22:5 >> Application_Name >> getDataPremium
exec sp_calonlineweb 'Y','110','1','15','5 ','EK-BM046','2000','A','A',222009.157492553,245378.542491769,'0',0

12/6/2014  22:5 >> Application_Name >> getDataPremium
exec sp_calonlineweb 'Y','110','2','15','5 ','EK-BM046','2000','A','A',222009.157492553,245378.542491769,'0',0

12/6/2014  22:5 >> Application_Name >> getDataPremium
exec sp_calonlineweb 'Y','110','3','15','5 ','EK-BM046','2000','A','A',0,0,'0',0

12/6/2014  22:8 >> Application_Name >> getDataCarMarkByCarMarkCode
SELECT * 
 FROM online_carmark 
 WHERE carmakcod = '' 
 ORDER BY desc_t, carmakcod 

12/6/2014  22:8 >> Application_Name >> getDataCarMarkByCarMarkCode
SELECT * 
 FROM online_carmark 
 WHERE carmakcod = 'EK-FO083' 
 ORDER BY desc_t, carmakcod 

12/6/2014  22:9 >> Application_Name >> getDataPremium
exec sp_calonlineweb 'Y','110','1','2','5 ','EK-FO083','2000','A','A',478800,585200,'0',0

12/6/2014  22:9 >> Application_Name >> getDataPremium
exec sp_calonlineweb 'Y','110','2','2','5 ','EK-FO083','2000','A','A',478800,585200,'0',0

12/6/2014  22:9 >> Application_Name >> getDataPremium
exec sp_calonlineweb 'Y','110','3','2','5 ','EK-FO083','2000','A','A',0,0,'0',0

12/6/2014  22:30 >> Application_Name >> getDataCarMarkByCarMarkCode
SELECT * 
 FROM online_carmark 
 WHERE carmakcod = '' 
 ORDER BY desc_t, carmakcod 

12/6/2014  22:30 >> Application_Name >> getDataCarMarkByCarMarkCode
SELECT * 
 FROM online_carmark 
 WHERE carmakcod = 'JK-NI004' 
 ORDER BY desc_t, carmakcod 

12/6/2014  22:31 >> Application_Name >> getDataPremium
exec sp_calonlineweb 'Y','110','1','15','5 ','JK-NI004','2000','A','A',222009.157492553,245378.542491769,'0',0

12/6/2014  22:31 >> Application_Name >> getDataPremium
exec sp_calonlineweb 'Y','110','2','15','5 ','JK-NI004','2000','A','A',222009.157492553,245378.542491769,'0',0

12/6/2014  22:31 >> Application_Name >> getDataPremium
exec sp_calonlineweb 'Y','110','3','15','5 ','JK-NI004','2000','A','A',0,0,'0',0

12/6/2014  22:34 >> Application_Name >> SMK :: BuyVoluntary_step2-docToUI
Combine

12/6/2014  22:34 >> Application_Name >> SMK :: BuyVoluntary_step2-docToUI
rg_prmm-08273

12/6/2014  22:34 >> Application_Name >> SMK :: BuyVoluntary_step2-docToUI
rg_prmm8273

12/6/2014  22:34 >> Application_Name >> SMK :: BuyVoluntary_step2-docToUI
cp_comp_prmm600.00

12/6/2014  22:40 >> Application_Name >> SENDBACK : regis_no
90-01573

12/6/2014  22:40 >> Application_Name >> SENDBACK : HOSTRESP
00

12/6/2014  22:40 >> Application_Name >> SENDBACK : REFCODE
XXXXXXXXXXXX

12/6/2014  22:40 >> Application_Name >> SENDBACK : AUTHCODE
T78285

12/6/2014  22:40 >> Application_Name >> SENDBACK : RETURNINV
000009001573

12/6/2014  22:40 >> Application_Name >> SENDBACK : UAID
XXXXXXXXXXXXXXXXXXXXXXXXXXXXXXXXXXXX

12/6/2014  22:40 >> Application_Name >> SENDBACK : CARDNUMBER
5241XXXXXXXX7007

12/6/2014  22:40 >> Application_Name >> SENDBACK : AMOUNT
000000953370

12/6/2014  22:40 >> Application_Name >> SENDBACK : CURISO
764

12/6/2014  22:40 >> Application_Name >> SENDBACK : FILLSPACE
MASTERCARDXXXXXXXXXX

12/6/2014  22:40 >> Application_Name >> RegisterManager.updateCreditResult :: SQL 
UPDATE CREDIT_POST SET cp_stat = '00'  WHERE cp_ref_no = '90-01573' 

12/6/2014  22:40 >> Application_Name >> SENDBACK : 90-01573:00
buyVoluntary_step4.aspx?regis_no=90-01573&paid_at=4

12/6/2014  22:49 >> Application_Name >> getDataCarMarkByCarMarkCode
SELECT * 
 FROM online_carmark 
 WHERE carmakcod = '' 
 ORDER BY desc_t, carmakcod 

12/6/2014  22:49 >> Application_Name >> getDataCarMarkByCarMarkCode
SELECT * 
 FROM online_carmark 
 WHERE carmakcod = 'JK-HO116' 
 ORDER BY desc_t, carmakcod 

12/6/2014  22:52 >> Application_Name >> getDataPremium
exec sp_calonlineweb 'Y','110','1','2','3 ','JK-HO116','2000','A','A',735300,898700,'36',0

12/6/2014  22:52 >> Application_Name >> getDataPremium
exec sp_calonlineweb 'Y','110','2','2','3 ','JK-HO116','2000','A','A',735300,898700,'36',0

12/6/2014  22:52 >> Application_Name >> getDataPremium
exec sp_calonlineweb 'Y','110','3','2','3 ','JK-HO116','2000','A','A',0,0,'36',0

12/6/2014  23:16 >> Application_Name >> getDataCarMarkByCarMarkCode
SELECT * 
 FROM online_carmark 
 WHERE carmakcod = '' 
 ORDER BY desc_t, carmakcod 

12/6/2014  23:16 >> Application_Name >> getDataCarMarkByCarMarkCode
SELECT * 
 FROM online_carmark 
 WHERE carmakcod = 'JK-HO084' 
 ORDER BY desc_t, carmakcod 

12/6/2014  23:19 >> Application_Name >> getDataPremium
exec sp_calonlineweb 'N','110','1','2','5 ','JK-HO084','2000','A','A',487350,595650,'0',0

12/6/2014  23:19 >> Application_Name >> getDataPremium
exec sp_calonlineweb 'N','110','2','2','5 ','JK-HO084','2000','A','A',487350,595650,'0',0

12/6/2014  23:19 >> Application_Name >> getDataPremium
exec sp_calonlineweb 'N','110','3','2','5 ','JK-HO084','2000','A','A',0,0,'0',0

12/6/2014  23:55 >> Application_Name >> getDataCarMarkByCarMarkCode
SELECT * 
 FROM online_carmark 
 WHERE carmakcod = '' 
 ORDER BY desc_t, carmakcod 

12/6/2014  23:55 >> Application_Name >> getDataCarMarkByCarMarkCode
SELECT * 
 FROM online_carmark 
 WHERE carmakcod = 'JK-HO001' 
 ORDER BY desc_t, carmakcod 

12/6/2014  23:57 >> Application_Name >> getDataPremium
exec sp_calonlineweb 'Y','110','1','3','5 ','JK-HO001','2000','A','A',446737.5,546012.5,'25',30

12/6/2014  23:57 >> Application_Name >> getDataPremium
exec sp_calonlineweb 'Y','110','2','3','5 ','JK-HO001','2000','A','A',446737.5,546012.5,'25',30

12/6/2014  23:57 >> Application_Name >> getDataPremium
exec sp_calonlineweb 'Y','110','3','3','5 ','JK-HO001','2000','A','A',0,0,'25',30

12/6/2014  23:59 >> Application_Name >> getDataPremium
exec sp_calonlineweb 'Y','110','1','3','5 ','JK-HO001','2000','A','A',446737.5,546012.5,'25',20

12/6/2014  23:59 >> Application_Name >> getDataPremium
exec sp_calonlineweb 'Y','110','2','3','5 ','JK-HO001','2000','A','A',446737.5,546012.5,'25',20

12/6/2014  23:59 >> Application_Name >> getDataPremium
exec sp_calonlineweb 'Y','110','3','3','5 ','JK-HO001','2000','A','A',0,0,'25',20

