27/3/2014  1:8 >> Application_Name >> getDataCarMarkByCarMarkCode
SELECT * 
 FROM online_carmark 
 WHERE carmakcod = '' 
 ORDER BY desc_t, carmakcod 

27/3/2014  1:8 >> Application_Name >> getDataCarMarkByCarMarkCode
SELECT * 
 FROM online_carmark 
 WHERE carmakcod = 'JK-HO001' 
 ORDER BY desc_t, carmakcod 

27/3/2014  1:8 >> Application_Name >> getDataPremium
exec sp_calonlineweb 'Y','110','1','2','5 ','JK-HO001','2000','A','A',470250,574750,'25',20

27/3/2014  1:8 >> Application_Name >> getDataPremium
exec sp_calonlineweb 'Y','110','2','2','5 ','JK-HO001','2000','A','A',470250,574750,'25',20

27/3/2014  1:8 >> Application_Name >> getDataPremium
exec sp_calonlineweb 'Y','110','3','2','5 ','JK-HO001','2000','A','A',0,0,'25',20

27/3/2014  1:9 >> Application_Name >> SMK :: BuyVoluntary_step2-docToUI
Combine

27/3/2014  1:9 >> Application_Name >> SMK :: BuyVoluntary_step2-docToUI
rg_prmm-012283.2

27/3/2014  1:9 >> Application_Name >> SMK :: BuyVoluntary_step2-docToUI
rg_prmm12283.2

27/3/2014  1:9 >> Application_Name >> SMK :: BuyVoluntary_step2-docToUI
cp_comp_prmm600.00

27/3/2014  7:6 >> Application_Name >> getDataCarMarkByCarMarkCode
SELECT * 
 FROM online_carmark 
 WHERE carmakcod = '' 
 ORDER BY desc_t, carmakcod 

27/3/2014  7:6 >> Application_Name >> getDataCarMarkByCarMarkCode
SELECT * 
 FROM online_carmark 
 WHERE carmakcod = 'JK-NI100' 
 ORDER BY desc_t, carmakcod 

27/3/2014  8:14 >> Application_Name >> getDataCarMarkByCarMarkCode
SELECT * 
 FROM online_carmark 
 WHERE carmakcod = '' 
 ORDER BY desc_t, carmakcod 

27/3/2014  8:14 >> Application_Name >> getDataCarMarkByCarMarkCode
SELECT * 
 FROM online_carmark 
 WHERE carmakcod = 'JK-TO002' 
 ORDER BY desc_t, carmakcod 

27/3/2014  9:30 >> Application_Name >> getDataCarMarkByCarMarkCode
SELECT * 
 FROM online_carmark 
 WHERE carmakcod = '' 
 ORDER BY desc_t, carmakcod 

27/3/2014  9:31 >> Application_Name >> getDataCarMarkByCarMarkCode
SELECT * 
 FROM online_carmark 
 WHERE carmakcod = '' 
 ORDER BY desc_t, carmakcod 

27/3/2014  9:31 >> Application_Name >> getDataCarMarkByCarMarkCode
SELECT * 
 FROM online_carmark 
 WHERE carmakcod = 'JP-TO044' 
 ORDER BY desc_t, carmakcod 

27/3/2014  9:31 >> Application_Name >> getDataCarMarkByCarMarkCode
SELECT * 
 FROM online_carmark 
 WHERE carmakcod = '' 
 ORDER BY desc_t, carmakcod 

27/3/2014  9:31 >> Application_Name >> getDataCarMarkByCarMarkCode
SELECT * 
 FROM online_carmark 
 WHERE carmakcod = '' 
 ORDER BY desc_t, carmakcod 

27/3/2014  9:33 >> Application_Name >> getDataPremium
exec sp_calonlineweb 'Y','210','1','3','A','','3000','21','A',501392.9,554171.1,'0',0

27/3/2014  9:33 >> Application_Name >> getDataPremium
exec sp_calonlineweb 'Y','210','2','3','A','','3000','21','A',501392.9,554171.1,'0',0

27/3/2014  9:33 >> Application_Name >> getDataPremium
exec sp_calonlineweb 'Y','210','3','3','A','','3000','21','A',0,0,'0',0

27/3/2014  9:35 >> Application_Name >> getDataCarMarkByCarMarkCode
SELECT * 
 FROM online_carmark 
 WHERE carmakcod = 'JK-TO179' 
 ORDER BY desc_t, carmakcod 

27/3/2014  9:35 >> Application_Name >> getDataPremium
exec sp_calonlineweb 'Y','210','1','3','A','JK-TO179','2996','21','A',487674.9,539009.1,'0',0

27/3/2014  9:35 >> Application_Name >> getDataPremium
exec sp_calonlineweb 'Y','210','2','3','A','JK-TO179','2996','21','A',487674.9,539009.1,'0',0

27/3/2014  9:35 >> Application_Name >> getDataPremium
exec sp_calonlineweb 'Y','210','3','3','A','JK-TO179','2996','21','A',0,0,'0',0

27/3/2014  9:36 >> Application_Name >> getDataCarMarkByCarMarkCode
SELECT * 
 FROM online_carmark 
 WHERE carmakcod = 'JK-TO254' 
 ORDER BY desc_t, carmakcod 

27/3/2014  9:36 >> Application_Name >> getDataPremium
exec sp_calonlineweb 'Y','210','1','3','A','JK-TO254','3000','21','A',524027.6,579188.4,'0',0

27/3/2014  9:36 >> Application_Name >> getDataPremium
exec sp_calonlineweb 'Y','210','2','3','A','JK-TO254','3000','21','A',524027.6,579188.4,'0',0

27/3/2014  9:36 >> Application_Name >> getDataPremium
exec sp_calonlineweb 'Y','210','3','3','A','JK-TO254','3000','21','A',0,0,'0',0

27/3/2014  9:37 >> Application_Name >> getDataPremium
exec sp_calonlineweb 'Y','210','1','3','A','JK-TO254','3000','21','A',524027.6,579188.4,'0',30

27/3/2014  9:37 >> Application_Name >> getDataPremium
exec sp_calonlineweb 'Y','210','2','3','A','JK-TO254','3000','21','A',524027.6,579188.4,'0',30

27/3/2014  9:37 >> Application_Name >> getDataPremium
exec sp_calonlineweb 'Y','210','3','3','A','JK-TO254','3000','21','A',0,0,'0',30

27/3/2014  9:37 >> Application_Name >> getDataPremium
exec sp_calonlineweb 'Y','210','1','3','A','JK-TO254','3000','21','A',524027.6,579188.4,'0',30

27/3/2014  9:37 >> Application_Name >> getDataPremium
exec sp_calonlineweb 'Y','210','2','3','A','JK-TO254','3000','21','A',524027.6,579188.4,'0',30

27/3/2014  9:37 >> Application_Name >> getDataPremium
exec sp_calonlineweb 'Y','210','3','3','A','JK-TO254','3000','21','A',0,0,'0',30

27/3/2014  9:37 >> Application_Name >> getDataPremium
exec sp_calonlineweb 'Y','210','1','3','A','JK-TO254','3000','21','A',524027.6,579188.4,'0',30

27/3/2014  9:37 >> Application_Name >> getDataPremium
exec sp_calonlineweb 'Y','210','2','3','A','JK-TO254','3000','21','A',524027.6,579188.4,'0',30

27/3/2014  9:37 >> Application_Name >> getDataPremium
exec sp_calonlineweb 'Y','210','3','3','A','JK-TO254','3000','21','A',0,0,'0',30

27/3/2014  9:50 >> Application_Name >> getDataCarMarkByCarMarkCode
SELECT * 
 FROM online_carmark 
 WHERE carmakcod = '' 
 ORDER BY desc_t, carmakcod 

27/3/2014  9:50 >> Application_Name >> getDataCarMarkByCarMarkCode
SELECT * 
 FROM online_carmark 
 WHERE carmakcod = 'JK-TO254' 
 ORDER BY desc_t, carmakcod 

27/3/2014  9:50 >> Application_Name >> getDataCarMarkByCarMarkCode
SELECT * 
 FROM online_carmark 
 WHERE carmakcod = '' 
 ORDER BY desc_t, carmakcod 

27/3/2014  9:50 >> Application_Name >> getDataCarMarkByCarMarkCode
SELECT * 
 FROM online_carmark 
 WHERE carmakcod = '' 
 ORDER BY desc_t, carmakcod 

27/3/2014  9:50 >> Application_Name >> getDataCarMarkByCarMarkCode
SELECT * 
 FROM online_carmark 
 WHERE carmakcod = '' 
 ORDER BY desc_t, carmakcod 

27/3/2014  9:51 >> Application_Name >> getDataCarMarkByCarMarkCode
SELECT * 
 FROM online_carmark 
 WHERE carmakcod = 'JK-HO122' 
 ORDER BY desc_t, carmakcod 

27/3/2014  9:51 >> Application_Name >> getDataCarMarkByCarMarkCode
SELECT * 
 FROM online_carmark 
 WHERE carmakcod = 'JP-TO017' 
 ORDER BY desc_t, carmakcod 

27/3/2014  9:51 >> Application_Name >> getDataPremium
exec sp_calonlineweb 'Y','210','1','3','A','','3000','21','A',685214.1,757341.9,'0',0

27/3/2014  9:51 >> Application_Name >> getDataPremium
exec sp_calonlineweb 'Y','210','2','3','A','','3000','21','A',685214.1,757341.9,'0',0

27/3/2014  9:51 >> Application_Name >> getDataPremium
exec sp_calonlineweb 'Y','210','3','3','A','','3000','21','A',0,0,'0',0

27/3/2014  9:51 >> Application_Name >> getDataPremium
exec sp_calonlineweb 'Y','210','1','3','A','','3000','21','A',685214.1,757341.9,'0',0

27/3/2014  9:51 >> Application_Name >> getDataPremium
exec sp_calonlineweb 'Y','210','2','3','A','','3000','21','A',685214.1,757341.9,'0',0

27/3/2014  9:51 >> Application_Name >> getDataPremium
exec sp_calonlineweb 'Y','210','3','3','A','','3000','21','A',0,0,'0',0

27/3/2014  9:51 >> Application_Name >> getDataPremium
exec sp_calonlineweb 'Y','210','1','3','A','','3000','21','A',685214.1,757341.9,'0',0

27/3/2014  9:51 >> Application_Name >> getDataPremium
exec sp_calonlineweb 'Y','210','2','3','A','','3000','21','A',685214.1,757341.9,'0',0

27/3/2014  9:51 >> Application_Name >> getDataPremium
exec sp_calonlineweb 'Y','210','3','3','A','','3000','21','A',0,0,'0',0

27/3/2014  9:52 >> Application_Name >> getDataPremium
exec sp_calonlineweb 'Y','210','1','3','A','','3000','21','A',685214.1,757341.9,'0',0

27/3/2014  9:52 >> Application_Name >> getDataPremium
exec sp_calonlineweb 'Y','210','2','3','A','','3000','21','A',685214.1,757341.9,'0',0

27/3/2014  9:52 >> Application_Name >> getDataPremium
exec sp_calonlineweb 'Y','210','3','3','A','','3000','21','A',0,0,'0',0

27/3/2014  9:52 >> Application_Name >> getDataPremium
exec sp_calonlineweb 'Y','210','1','3','A','','3000','21','A',685214.1,757341.9,'0',0

27/3/2014  9:52 >> Application_Name >> getDataPremium
exec sp_calonlineweb 'Y','210','2','3','A','','3000','21','A',685214.1,757341.9,'0',0

27/3/2014  9:52 >> Application_Name >> getDataPremium
exec sp_calonlineweb 'Y','210','3','3','A','','3000','21','A',0,0,'0',0

27/3/2014  9:52 >> Application_Name >> getDataPremium
exec sp_calonlineweb 'N','110','1','2','5 ','JK-HO122','2000','A','A',427500,522500,'0',20

27/3/2014  9:53 >> Application_Name >> getDataPremium
exec sp_calonlineweb 'N','110','2','2','5 ','JK-HO122','2000','A','A',427500,522500,'0',20

27/3/2014  9:53 >> Application_Name >> getDataPremium
exec sp_calonlineweb 'N','110','3','2','5 ','JK-HO122','2000','A','A',0,0,'0',20

27/3/2014  9:54 >> Application_Name >> getDataPremium
exec sp_calonlineweb 'Y','110','1','2','5 ','JK-HO122','2000','A','A',427500,522500,'0',0

27/3/2014  9:54 >> Application_Name >> getDataPremium
exec sp_calonlineweb 'Y','110','2','2','5 ','JK-HO122','2000','A','A',427500,522500,'0',0

27/3/2014  9:54 >> Application_Name >> getDataPremium
exec sp_calonlineweb 'Y','110','3','2','5 ','JK-HO122','2000','A','A',0,0,'0',0

27/3/2014  10:6 >> Application_Name >> getDataCarMarkByCarMarkCode
SELECT * 
 FROM online_carmark 
 WHERE carmakcod = '' 
 ORDER BY desc_t, carmakcod 

27/3/2014  10:6 >> Application_Name >> getDataCarMarkByCarMarkCode
SELECT * 
 FROM online_carmark 
 WHERE carmakcod = 'JK-SZ004' 
 ORDER BY desc_t, carmakcod 

27/3/2014  10:8 >> Application_Name >> getDataPremium
exec sp_calonlineweb 'Y','110','1','2','5 ','JK-SZ004','2000','A','A',342000,380000,'25',30

27/3/2014  10:8 >> Application_Name >> getDataPremium
exec sp_calonlineweb 'Y','110','2','2','5 ','JK-SZ004','2000','A','A',342000,380000,'25',30

27/3/2014  10:8 >> Application_Name >> getDataPremium
exec sp_calonlineweb 'Y','110','3','2','5 ','JK-SZ004','2000','A','A',0,0,'25',30

27/3/2014  10:12 >> Application_Name >> getDataCarMarkByCarMarkCode
SELECT * 
 FROM online_carmark 
 WHERE carmakcod = '' 
 ORDER BY desc_t, carmakcod 

27/3/2014  10:12 >> Application_Name >> getDataCarMarkByCarMarkCode
SELECT * 
 FROM online_carmark 
 WHERE carmakcod = 'JK-MI080' 
 ORDER BY desc_t, carmakcod 

27/3/2014  10:18 >> Application_Name >> getDataPremium
exec sp_calonlineweb 'Y','110','1','3','5 ','JK-MI080','2000','A','A',357390,436810,'25',20

27/3/2014  10:18 >> Application_Name >> getDataPremium
exec sp_calonlineweb 'Y','110','2','3','5 ','JK-MI080','2000','A','A',357390,436810,'25',20

27/3/2014  10:18 >> Application_Name >> getDataPremium
exec sp_calonlineweb 'Y','110','3','3','5 ','JK-MI080','2000','A','A',0,0,'25',20

27/3/2014  10:22 >> Application_Name >> getDataCarMarkByCarMarkCode
SELECT * 
 FROM online_carmark 
 WHERE carmakcod = '' 
 ORDER BY desc_t, carmakcod 

27/3/2014  10:22 >> Application_Name >> getDataCarMarkByCarMarkCode
SELECT * 
 FROM online_carmark 
 WHERE carmakcod = '' 
 ORDER BY desc_t, carmakcod 

27/3/2014  10:22 >> Application_Name >> getDataCarMarkByCarMarkCode
SELECT * 
 FROM online_carmark 
 WHERE carmakcod = 'JP-TO072' 
 ORDER BY desc_t, carmakcod 

27/3/2014  10:23 >> Application_Name >> getDataCarMarkByCarMarkCode
SELECT * 
 FROM online_carmark 
 WHERE carmakcod = 'JP-TO043' 
 ORDER BY desc_t, carmakcod 

27/3/2014  10:23 >> Application_Name >> getDataCarMarkByCarMarkCode
SELECT * 
 FROM online_carmark 
 WHERE carmakcod = 'JP-TO072' 
 ORDER BY desc_t, carmakcod 

27/3/2014  10:23 >> Application_Name >> getDataCarMarkByCarMarkCode
SELECT * 
 FROM online_carmark 
 WHERE carmakcod = 'JP-TO043' 
 ORDER BY desc_t, carmakcod 

27/3/2014  11:3 >> Application_Name >> getDataCarMarkByCarMarkCode
SELECT * 
 FROM online_carmark 
 WHERE carmakcod = '' 
 ORDER BY desc_t, carmakcod 

27/3/2014  11:3 >> Application_Name >> getDataCarMarkByCarMarkCode
SELECT * 
 FROM online_carmark 
 WHERE carmakcod = 'JK-HO084' 
 ORDER BY desc_t, carmakcod 

27/3/2014  11:37 >> Application_Name >> getDataCarMarkByCarMarkCode
SELECT * 
 FROM online_carmark 
 WHERE carmakcod = '' 
 ORDER BY desc_t, carmakcod 

27/3/2014  11:37 >> Application_Name >> getDataCarMarkByCarMarkCode
SELECT * 
 FROM online_carmark 
 WHERE carmakcod = 'JK-HO001' 
 ORDER BY desc_t, carmakcod 

27/3/2014  11:38 >> Application_Name >> getDataPremium
exec sp_calonlineweb 'Y','110','1','2','5 ','JK-HO001','2000','A','A',470250,574750,'0',0

27/3/2014  11:38 >> Application_Name >> getDataPremium
exec sp_calonlineweb 'Y','110','2','2','5 ','JK-HO001','2000','A','A',470250,574750,'0',0

27/3/2014  11:38 >> Application_Name >> getDataPremium
exec sp_calonlineweb 'Y','110','3','2','5 ','JK-HO001','2000','A','A',0,0,'0',0

27/3/2014  11:48 >> Application_Name >> getDataCarMarkByCarMarkCode
SELECT * 
 FROM online_carmark 
 WHERE carmakcod = '' 
 ORDER BY desc_t, carmakcod 

27/3/2014  11:49 >> Application_Name >> getDataCarMarkByCarMarkCode
SELECT * 
 FROM online_carmark 
 WHERE carmakcod = 'JK-HO001' 
 ORDER BY desc_t, carmakcod 

27/3/2014  11:50 >> Application_Name >> getDataPremium
exec sp_calonlineweb 'N','110','1','4','5 ','JK-HO001','2000','A','A',424400.625,518711.875,'0',0

27/3/2014  11:50 >> Application_Name >> getDataPremium
exec sp_calonlineweb 'N','110','2','4','5 ','JK-HO001','2000','A','A',424400.625,518711.875,'0',0

27/3/2014  11:50 >> Application_Name >> getDataPremium
exec sp_calonlineweb 'N','110','3','4','5 ','JK-HO001','2000','A','A',0,0,'0',0

27/3/2014  11:50 >> Application_Name >> getDataCarMarkByCarMarkCode
SELECT * 
 FROM online_carmark 
 WHERE carmakcod = '' 
 ORDER BY desc_t, carmakcod 

27/3/2014  11:50 >> Application_Name >> getDataCarMarkByCarMarkCode
SELECT * 
 FROM online_carmark 
 WHERE carmakcod = 'JK-IS021' 
 ORDER BY desc_t, carmakcod 

27/3/2014  11:50 >> Application_Name >> getDataCarMarkByCarMarkCode
SELECT * 
 FROM online_carmark 
 WHERE carmakcod = 'JK-IS047' 
 ORDER BY desc_t, carmakcod 

27/3/2014  11:50 >> Application_Name >> getDataPremium
exec sp_calonlineweb 'N','110','1','4','5 ','EK-BE010','2000','A','A',424400.625,518711.875,'0',0

27/3/2014  11:50 >> Application_Name >> getDataPremium
exec sp_calonlineweb 'N','110','2','4','5 ','EK-BE010','2000','A','A',424400.625,518711.875,'0',0

27/3/2014  11:50 >> Application_Name >> getDataPremium
exec sp_calonlineweb 'N','110','3','4','5 ','EK-BE010','2000','A','A',0,0,'0',0

27/3/2014  11:51 >> Application_Name >> getDataPremium
exec sp_calonlineweb 'Y','110','1','2','3 ','JK-IS047','9999','A','A',521550,637450,'0',20

27/3/2014  11:51 >> Application_Name >> getDataPremium
exec sp_calonlineweb 'Y','110','2','2','3 ','JK-IS047','9999','A','A',521550,637450,'0',20

27/3/2014  11:51 >> Application_Name >> getDataPremium
exec sp_calonlineweb 'Y','110','3','2','3 ','JK-IS047','9999','A','A',0,0,'0',20

27/3/2014  11:51 >> Application_Name >> getDataPremium
exec sp_calonlineweb 'N','110','1','4','5 ','EK-BE010','2000','A','A',424400.625,518711.875,'0',0

27/3/2014  11:51 >> Application_Name >> getDataPremium
exec sp_calonlineweb 'N','110','2','4','5 ','EK-BE010','2000','A','A',424400.625,518711.875,'0',0

27/3/2014  11:51 >> Application_Name >> getDataPremium
exec sp_calonlineweb 'N','110','3','4','5 ','EK-BE010','2000','A','A',0,0,'0',0

27/3/2014  11:52 >> Application_Name >> getDataCarMarkByCarMarkCode
SELECT * 
 FROM online_carmark 
 WHERE carmakcod = '' 
 ORDER BY desc_t, carmakcod 

27/3/2014  11:52 >> Application_Name >> getDataCarMarkByCarMarkCode
SELECT * 
 FROM online_carmark 
 WHERE carmakcod = '' 
 ORDER BY desc_t, carmakcod 

27/3/2014  11:52 >> Application_Name >> getDataCarMarkByCarMarkCode
SELECT * 
 FROM online_carmark 
 WHERE carmakcod = '' 
 ORDER BY desc_t, carmakcod 

27/3/2014  11:53 >> Application_Name >> getDataCarMarkByCarMarkCode
SELECT * 
 FROM online_carmark 
 WHERE carmakcod = 'JK-HO001' 
 ORDER BY desc_t, carmakcod 

27/3/2014  11:54 >> Application_Name >> getDataCarMarkByCarMarkCode
SELECT * 
 FROM online_carmark 
 WHERE carmakcod = '' 
 ORDER BY desc_t, carmakcod 

27/3/2014  11:55 >> Application_Name >> getDataPremium
exec sp_calonlineweb 'Y','110','1','2','5 ','JK-HO001','2000','A','A',470250,574750,'0',20

27/3/2014  11:55 >> Application_Name >> getDataPremium
exec sp_calonlineweb 'Y','110','2','2','5 ','JK-HO001','2000','A','A',470250,574750,'0',20

27/3/2014  11:55 >> Application_Name >> getDataPremium
exec sp_calonlineweb 'Y','110','3','2','5 ','JK-HO001','2000','A','A',0,0,'0',20

27/3/2014  11:56 >> Application_Name >> getDataCarMarkByCarMarkCode
SELECT * 
 FROM online_carmark 
 WHERE carmakcod = 'JK-HO001' 
 ORDER BY desc_t, carmakcod 

27/3/2014  11:59 >> Application_Name >> getDataPremium
exec sp_calonlineweb 'N','110','1','4','5 ','JK-HO001','2000','A','A',424400.625,518711.875,'0',0

27/3/2014  11:59 >> Application_Name >> getDataPremium
exec sp_calonlineweb 'N','110','2','4','5 ','JK-HO001','2000','A','A',424400.625,518711.875,'0',0

27/3/2014  11:59 >> Application_Name >> getDataPremium
exec sp_calonlineweb 'N','110','3','4','5 ','JK-HO001','2000','A','A',0,0,'0',0

27/3/2014  11:59 >> Application_Name >> getDataCarMarkByCarMarkCode
SELECT * 
 FROM online_carmark 
 WHERE carmakcod = '' 
 ORDER BY desc_t, carmakcod 

27/3/2014  11:59 >> Application_Name >> getDataCarMarkByCarMarkCode
SELECT * 
 FROM online_carmark 
 WHERE carmakcod = 'JK-IS047' 
 ORDER BY desc_t, carmakcod 

27/3/2014  12:1 >> Application_Name >> getDataCarMarkByCarMarkCode
SELECT * 
 FROM online_carmark 
 WHERE carmakcod = '' 
 ORDER BY desc_t, carmakcod 

27/3/2014  12:1 >> Application_Name >> getDataCarMarkByCarMarkCode
SELECT * 
 FROM online_carmark 
 WHERE carmakcod = 'JP-IS052' 
 ORDER BY desc_t, carmakcod 

27/3/2014  12:2 >> Application_Name >> getDataPremium
exec sp_calonlineweb 'Y','210','1','2','A','','2500','21','A',555940,614460,'25',30

27/3/2014  12:2 >> Application_Name >> getDataPremium
exec sp_calonlineweb 'Y','210','2','2','A','','2500','21','A',555940,614460,'25',30

27/3/2014  12:2 >> Application_Name >> getDataPremium
exec sp_calonlineweb 'Y','210','3','2','A','','2500','21','A',0,0,'25',30

27/3/2014  12:4 >> Application_Name >> getDataPremium
exec sp_calonlineweb 'Y','210','1','2','A','','2500','21','A',555940,614460,'25',30

27/3/2014  12:4 >> Application_Name >> getDataPremium
exec sp_calonlineweb 'Y','210','2','2','A','','2500','21','A',555940,614460,'25',30

27/3/2014  12:4 >> Application_Name >> getDataPremium
exec sp_calonlineweb 'Y','210','3','2','A','','2500','21','A',0,0,'25',30

27/3/2014  12:4 >> Application_Name >> getDataPremium
exec sp_calonlineweb 'Y','210','1','2','A','','2500','21','A',555940,614460,'25',30

27/3/2014  12:4 >> Application_Name >> getDataPremium
exec sp_calonlineweb 'Y','210','2','2','A','','2500','21','A',555940,614460,'25',30

27/3/2014  12:4 >> Application_Name >> getDataPremium
exec sp_calonlineweb 'Y','210','3','2','A','','2500','21','A',0,0,'25',30

27/3/2014  12:4 >> Application_Name >> getDataPremium
exec sp_calonlineweb 'Y','210','1','2','A','','2500','21','A',555940,614460,'25',30

27/3/2014  12:4 >> Application_Name >> getDataPremium
exec sp_calonlineweb 'Y','210','2','2','A','','2500','21','A',555940,614460,'25',30

27/3/2014  12:4 >> Application_Name >> getDataPremium
exec sp_calonlineweb 'Y','210','3','2','A','','2500','21','A',0,0,'25',30

27/3/2014  12:4 >> Application_Name >> getDataPremium
exec sp_calonlineweb 'Y','210','1','2','A','','2500','21','A',555940,614460,'25',30

27/3/2014  12:4 >> Application_Name >> getDataPremium
exec sp_calonlineweb 'Y','210','2','2','A','','2500','21','A',555940,614460,'25',30

27/3/2014  12:4 >> Application_Name >> getDataPremium
exec sp_calonlineweb 'Y','210','3','2','A','','2500','21','A',0,0,'25',30

27/3/2014  12:5 >> Application_Name >> getDataPremium
exec sp_calonlineweb 'Y','210','1','2','A','','2500','21','A',555940,614460,'25',30

27/3/2014  12:5 >> Application_Name >> getDataPremium
exec sp_calonlineweb 'Y','210','2','2','A','','2500','21','A',555940,614460,'25',30

27/3/2014  12:5 >> Application_Name >> getDataPremium
exec sp_calonlineweb 'Y','210','3','2','A','','2500','21','A',0,0,'25',30

27/3/2014  12:5 >> Application_Name >> getDataPremium
exec sp_calonlineweb 'Y','210','1','2','A','','2500','21','A',555940,614460,'25',30

27/3/2014  12:5 >> Application_Name >> getDataPremium
exec sp_calonlineweb 'Y','210','2','2','A','','2500','21','A',555940,614460,'25',30

27/3/2014  12:5 >> Application_Name >> getDataPremium
exec sp_calonlineweb 'Y','210','3','2','A','','2500','21','A',0,0,'25',30

27/3/2014  12:6 >> Application_Name >> getDataPremium
exec sp_calonlineweb 'Y','210','1','2','A','','2500','21','A',555940,614460,'25',30

27/3/2014  12:6 >> Application_Name >> getDataPremium
exec sp_calonlineweb 'Y','210','2','2','A','','2500','21','A',555940,614460,'25',30

27/3/2014  12:6 >> Application_Name >> getDataPremium
exec sp_calonlineweb 'Y','210','3','2','A','','2500','21','A',0,0,'25',30

27/3/2014  12:7 >> Application_Name >> getDataPremium
exec sp_calonlineweb 'Y','210','1','2','A','','2500','21','A',555940,614460,'25',30

27/3/2014  12:7 >> Application_Name >> getDataPremium
exec sp_calonlineweb 'Y','210','2','2','A','','2500','21','A',555940,614460,'25',30

27/3/2014  12:7 >> Application_Name >> getDataPremium
exec sp_calonlineweb 'Y','210','3','2','A','','2500','21','A',0,0,'25',30

27/3/2014  12:7 >> Application_Name >> getDataPremium
exec sp_calonlineweb 'Y','210','1','2','A','','2500','21','A',555940,614460,'25',30

27/3/2014  12:7 >> Application_Name >> getDataPremium
exec sp_calonlineweb 'Y','210','2','2','A','','2500','21','A',555940,614460,'25',30

27/3/2014  12:7 >> Application_Name >> getDataPremium
exec sp_calonlineweb 'Y','210','3','2','A','','2500','21','A',0,0,'25',30

27/3/2014  12:8 >> Application_Name >> getDataPremium
exec sp_calonlineweb 'Y','210','1','2','A','','2500','21','A',555940,614460,'25',30

27/3/2014  12:8 >> Application_Name >> getDataPremium
exec sp_calonlineweb 'Y','210','2','2','A','','2500','21','A',555940,614460,'25',30

27/3/2014  12:8 >> Application_Name >> getDataPremium
exec sp_calonlineweb 'Y','210','3','2','A','','2500','21','A',0,0,'25',30

27/3/2014  12:8 >> Application_Name >> getDataPremium
exec sp_calonlineweb 'Y','210','1','2','A','','2500','21','A',555940,614460,'25',30

27/3/2014  12:8 >> Application_Name >> getDataPremium
exec sp_calonlineweb 'Y','210','2','2','A','','2500','21','A',555940,614460,'25',30

27/3/2014  12:8 >> Application_Name >> getDataPremium
exec sp_calonlineweb 'Y','210','3','2','A','','2500','21','A',0,0,'25',30

27/3/2014  12:12 >> Application_Name >> getDataPremium
exec sp_calonlineweb 'Y','210','1','2','A','','2500','21','A',555940,614460,'25',30

27/3/2014  12:12 >> Application_Name >> getDataPremium
exec sp_calonlineweb 'Y','210','2','2','A','','2500','21','A',555940,614460,'25',30

27/3/2014  12:12 >> Application_Name >> getDataPremium
exec sp_calonlineweb 'Y','210','3','2','A','','2500','21','A',0,0,'25',30

27/3/2014  12:12 >> Application_Name >> getDataPremium
exec sp_calonlineweb 'Y','210','1','2','A','','2500','21','A',555940,614460,'25',30

27/3/2014  12:12 >> Application_Name >> getDataPremium
exec sp_calonlineweb 'Y','210','2','2','A','','2500','21','A',555940,614460,'25',30

27/3/2014  12:12 >> Application_Name >> getDataPremium
exec sp_calonlineweb 'Y','210','3','2','A','','2500','21','A',0,0,'25',30

27/3/2014  12:12 >> Application_Name >> getDataPremium
exec sp_calonlineweb 'Y','210','1','2','A','','2500','21','A',555940,614460,'25',30

27/3/2014  12:12 >> Application_Name >> getDataPremium
exec sp_calonlineweb 'Y','210','2','2','A','','2500','21','A',555940,614460,'25',30

27/3/2014  12:12 >> Application_Name >> getDataPremium
exec sp_calonlineweb 'Y','210','3','2','A','','2500','21','A',0,0,'25',30

27/3/2014  12:14 >> Application_Name >> getDataPremium
exec sp_calonlineweb 'Y','210','1','2','A','','2500','21','A',555940,614460,'25',30

27/3/2014  12:14 >> Application_Name >> getDataPremium
exec sp_calonlineweb 'Y','210','2','2','A','','2500','21','A',555940,614460,'25',30

27/3/2014  12:14 >> Application_Name >> getDataPremium
exec sp_calonlineweb 'Y','210','3','2','A','','2500','21','A',0,0,'25',30

27/3/2014  12:14 >> Application_Name >> getDataPremium
exec sp_calonlineweb 'Y','210','1','2','A','','2500','21','A',555940,614460,'25',30

27/3/2014  12:14 >> Application_Name >> getDataPremium
exec sp_calonlineweb 'Y','210','2','2','A','','2500','21','A',555940,614460,'25',30

27/3/2014  12:14 >> Application_Name >> getDataPremium
exec sp_calonlineweb 'Y','210','3','2','A','','2500','21','A',0,0,'25',30

27/3/2014  12:14 >> Application_Name >> getDataPremium
exec sp_calonlineweb 'Y','210','1','2','A','','2500','21','A',555940,614460,'25',30

27/3/2014  12:14 >> Application_Name >> getDataPremium
exec sp_calonlineweb 'Y','210','2','2','A','','2500','21','A',555940,614460,'25',30

27/3/2014  12:14 >> Application_Name >> getDataPremium
exec sp_calonlineweb 'Y','210','3','2','A','','2500','21','A',0,0,'25',30

27/3/2014  12:15 >> Application_Name >> getDataPremium
exec sp_calonlineweb 'Y','210','1','2','A','','2500','21','A',555940,614460,'25',30

27/3/2014  12:15 >> Application_Name >> getDataPremium
exec sp_calonlineweb 'Y','210','2','2','A','','2500','21','A',555940,614460,'25',30

27/3/2014  12:15 >> Application_Name >> getDataPremium
exec sp_calonlineweb 'Y','210','3','2','A','','2500','21','A',0,0,'25',30

27/3/2014  12:17 >> Application_Name >> getDataPremium
exec sp_calonlineweb 'Y','210','1','2','A','','2500','21','A',555940,614460,'25',30

27/3/2014  12:17 >> Application_Name >> getDataPremium
exec sp_calonlineweb 'Y','210','2','2','A','','2500','21','A',555940,614460,'25',30

27/3/2014  12:17 >> Application_Name >> getDataPremium
exec sp_calonlineweb 'Y','210','3','2','A','','2500','21','A',0,0,'25',30

27/3/2014  12:19 >> Application_Name >> getDataPremium
exec sp_calonlineweb 'Y','210','1','2','A','','2500','21','A',555940,614460,'25',30

27/3/2014  12:19 >> Application_Name >> getDataPremium
exec sp_calonlineweb 'Y','210','2','2','A','','2500','21','A',555940,614460,'25',30

27/3/2014  12:19 >> Application_Name >> getDataPremium
exec sp_calonlineweb 'Y','210','3','2','A','','2500','21','A',0,0,'25',30

27/3/2014  12:20 >> Application_Name >> getDataCarMarkByCarMarkCode
SELECT * 
 FROM online_carmark 
 WHERE carmakcod = '' 
 ORDER BY desc_t, carmakcod 

27/3/2014  12:20 >> Application_Name >> getDataCarMarkByCarMarkCode
SELECT * 
 FROM online_carmark 
 WHERE carmakcod = 'JK-MI080' 
 ORDER BY desc_t, carmakcod 

27/3/2014  12:20 >> Application_Name >> getDataPremium
exec sp_calonlineweb 'Y','210','1','2','A','','2500','21','A',555940,614460,'25',30

27/3/2014  12:20 >> Application_Name >> getDataPremium
exec sp_calonlineweb 'Y','210','2','2','A','','2500','21','A',555940,614460,'25',30

27/3/2014  12:20 >> Application_Name >> getDataPremium
exec sp_calonlineweb 'Y','210','3','2','A','','2500','21','A',0,0,'25',30

27/3/2014  12:20 >> Application_Name >> getDataPremium
exec sp_calonlineweb 'Y','210','1','2','A','','2500','21','A',555940,614460,'25',30

27/3/2014  12:20 >> Application_Name >> getDataPremium
exec sp_calonlineweb 'Y','210','2','2','A','','2500','21','A',555940,614460,'25',30

27/3/2014  12:20 >> Application_Name >> getDataPremium
exec sp_calonlineweb 'Y','210','3','2','A','','2500','21','A',0,0,'25',30

27/3/2014  12:22 >> Application_Name >> getDataPremium
exec sp_calonlineweb 'Y','110','1','2','5 ','JK-MI080','2000','A','A',376200,459800,'0',0

27/3/2014  12:22 >> Application_Name >> getDataPremium
exec sp_calonlineweb 'Y','110','2','2','5 ','JK-MI080','2000','A','A',376200,459800,'0',0

27/3/2014  12:22 >> Application_Name >> getDataPremium
exec sp_calonlineweb 'Y','110','3','2','5 ','JK-MI080','2000','A','A',0,0,'0',0

27/3/2014  12:23 >> Application_Name >> getDataPremium
exec sp_calonlineweb 'Y','210','1','2','A','','2500','21','A',555940,614460,'25',30

27/3/2014  12:23 >> Application_Name >> getDataPremium
exec sp_calonlineweb 'Y','210','2','2','A','','2500','21','A',555940,614460,'25',30

27/3/2014  12:23 >> Application_Name >> getDataPremium
exec sp_calonlineweb 'Y','210','3','2','A','','2500','21','A',0,0,'25',30

27/3/2014  12:23 >> Application_Name >> getDataPremium
exec sp_calonlineweb 'Y','210','1','2','A','','2500','21','A',555940,614460,'25',30

27/3/2014  12:23 >> Application_Name >> getDataPremium
exec sp_calonlineweb 'Y','210','2','2','A','','2500','21','A',555940,614460,'25',30

27/3/2014  12:23 >> Application_Name >> getDataPremium
exec sp_calonlineweb 'Y','210','3','2','A','','2500','21','A',0,0,'25',30

27/3/2014  12:23 >> Application_Name >> getDataPremium
exec sp_calonlineweb 'Y','210','1','2','A','','2500','21','A',555940,614460,'25',30

27/3/2014  12:23 >> Application_Name >> getDataPremium
exec sp_calonlineweb 'Y','210','2','2','A','','2500','21','A',555940,614460,'25',30

27/3/2014  12:23 >> Application_Name >> getDataPremium
exec sp_calonlineweb 'Y','210','3','2','A','','2500','21','A',0,0,'25',30

27/3/2014  12:30 >> Application_Name >> getDataPremium
exec sp_calonlineweb 'Y','210','1','2','A','','2500','21','A',555940,614460,'25',30

27/3/2014  12:30 >> Application_Name >> getDataPremium
exec sp_calonlineweb 'Y','210','2','2','A','','2500','21','A',555940,614460,'25',30

27/3/2014  12:30 >> Application_Name >> getDataPremium
exec sp_calonlineweb 'Y','210','3','2','A','','2500','21','A',0,0,'25',30

27/3/2014  12:30 >> Application_Name >> getDataPremium
exec sp_calonlineweb 'Y','210','1','2','A','','2500','21','A',555940,614460,'25',30

27/3/2014  12:30 >> Application_Name >> getDataPremium
exec sp_calonlineweb 'Y','210','2','2','A','','2500','21','A',555940,614460,'25',30

27/3/2014  12:30 >> Application_Name >> getDataPremium
exec sp_calonlineweb 'Y','210','3','2','A','','2500','21','A',0,0,'25',30

27/3/2014  12:30 >> Application_Name >> getDataPremium
exec sp_calonlineweb 'Y','210','1','2','A','','2499','21','A',555940,614460,'25',30

27/3/2014  12:30 >> Application_Name >> getDataPremium
exec sp_calonlineweb 'Y','210','2','2','A','','2499','21','A',555940,614460,'25',30

27/3/2014  12:30 >> Application_Name >> getDataPremium
exec sp_calonlineweb 'Y','210','3','2','A','','2499','21','A',0,0,'25',30

27/3/2014  12:31 >> Application_Name >> getDataPremium
exec sp_calonlineweb 'Y','210','1','2','A','','2499','21','A',555940,614460,'25',20

27/3/2014  12:31 >> Application_Name >> getDataPremium
exec sp_calonlineweb 'Y','210','2','2','A','','2499','21','A',555940,614460,'25',20

27/3/2014  12:31 >> Application_Name >> getDataPremium
exec sp_calonlineweb 'Y','210','3','2','A','','2499','21','A',0,0,'25',20

27/3/2014  12:31 >> Application_Name >> getDataPremium
exec sp_calonlineweb 'Y','210','1','2','A','','2499','21','A',555940,614460,'18',20

27/3/2014  12:31 >> Application_Name >> getDataPremium
exec sp_calonlineweb 'Y','210','2','2','A','','2499','21','A',555940,614460,'18',20

27/3/2014  12:31 >> Application_Name >> getDataPremium
exec sp_calonlineweb 'Y','210','3','2','A','','2499','21','A',0,0,'18',20

27/3/2014  12:31 >> Application_Name >> getDataPremium
exec sp_calonlineweb 'Y','210','1','2','A','','2499','21','A',555940,614460,'25',20

27/3/2014  12:31 >> Application_Name >> getDataPremium
exec sp_calonlineweb 'Y','210','2','2','A','','2499','21','A',555940,614460,'25',20

27/3/2014  12:31 >> Application_Name >> getDataPremium
exec sp_calonlineweb 'Y','210','3','2','A','','2499','21','A',0,0,'25',20

27/3/2014  12:31 >> Application_Name >> getDataPremium
exec sp_calonlineweb 'Y','210','1','2','A','','2499','21','A',555940,614460,'25',20

27/3/2014  12:31 >> Application_Name >> getDataPremium
exec sp_calonlineweb 'Y','210','2','2','A','','2499','21','A',555940,614460,'25',20

27/3/2014  12:31 >> Application_Name >> getDataPremium
exec sp_calonlineweb 'Y','210','3','2','A','','2499','21','A',0,0,'25',20

27/3/2014  12:38 >> Application_Name >> getDataCarMarkByCarMarkCode
SELECT * 
 FROM online_carmark 
 WHERE carmakcod = '' 
 ORDER BY desc_t, carmakcod 

27/3/2014  12:38 >> Application_Name >> getDataCarMarkByCarMarkCode
SELECT * 
 FROM online_carmark 
 WHERE carmakcod = '' 
 ORDER BY desc_t, carmakcod 

27/3/2014  12:38 >> Application_Name >> getDataCarMarkByCarMarkCode
SELECT * 
 FROM online_carmark 
 WHERE carmakcod = '' 
 ORDER BY desc_t, carmakcod 

27/3/2014  12:39 >> Application_Name >> getDataCarMarkByCarMarkCode
SELECT * 
 FROM online_carmark 
 WHERE carmakcod = 'JP-IS052' 
 ORDER BY desc_t, carmakcod 

27/3/2014  12:39 >> Application_Name >> getDataPremium
exec sp_calonlineweb 'Y','320','1','2','A','','4','N','A',555940,614460,'25',20

27/3/2014  12:39 >> Application_Name >> getDataPremium
exec sp_calonlineweb 'Y','320','2','2','A','','4','N','A',555940,614460,'25',20

27/3/2014  12:39 >> Application_Name >> getDataPremium
exec sp_calonlineweb 'Y','320','3','2','A','','4','N','A',0,0,'25',20

27/3/2014  12:40 >> Application_Name >> getDataPremium
exec sp_calonlineweb 'Y','320','1','2','A','','4','N','A',555940,614460,'25',30

27/3/2014  12:40 >> Application_Name >> getDataPremium
exec sp_calonlineweb 'Y','320','2','2','A','','4','N','A',555940,614460,'25',30

27/3/2014  12:40 >> Application_Name >> getDataPremium
exec sp_calonlineweb 'Y','320','3','2','A','','4','N','A',0,0,'25',30

27/3/2014  12:40 >> Application_Name >> SMK :: BuyVoluntary_step2-docToUI
Combine

27/3/2014  12:40 >> Application_Name >> SMK :: BuyVoluntary_step2-docToUI
rg_prmm-023384.9

27/3/2014  12:40 >> Application_Name >> SMK :: BuyVoluntary_step2-docToUI
rg_prmm23384.9

27/3/2014  12:40 >> Application_Name >> SMK :: BuyVoluntary_step2-docToUI
cp_comp_prmm900.00

27/3/2014  12:41 >> Application_Name >> getDataCarMarkByCarMarkCode
SELECT * 
 FROM online_carmark 
 WHERE carmakcod = '' 
 ORDER BY desc_t, carmakcod 

27/3/2014  12:41 >> Application_Name >> getDataCarMarkByCarMarkCode
SELECT * 
 FROM online_carmark 
 WHERE carmakcod = 'JP-IS052' 
 ORDER BY desc_t, carmakcod 

27/3/2014  12:41 >> Application_Name >> getDataCarMarkByCarMarkCode
SELECT * 
 FROM online_carmark 
 WHERE carmakcod = '' 
 ORDER BY desc_t, carmakcod 

27/3/2014  12:41 >> Application_Name >> getDataCarMarkByCarMarkCode
SELECT * 
 FROM online_carmark 
 WHERE carmakcod = 'JP-IS052' 
 ORDER BY desc_t, carmakcod 

27/3/2014  12:41 >> Application_Name >> getDataPremium
exec sp_calonlineweb 'Y','320','1','2','A','','4','N','A',555940,614460,'25',30

27/3/2014  12:41 >> Application_Name >> getDataPremium
exec sp_calonlineweb 'Y','320','2','2','A','','4','N','A',555940,614460,'25',30

27/3/2014  12:41 >> Application_Name >> getDataPremium
exec sp_calonlineweb 'Y','320','3','2','A','','4','N','A',0,0,'25',30

27/3/2014  12:56 >> Application_Name >> getDataCarMarkByCarMarkCode
SELECT * 
 FROM online_carmark 
 WHERE carmakcod = '' 
 ORDER BY desc_t, carmakcod 

27/3/2014  12:56 >> Application_Name >> getDataCarMarkByCarMarkCode
SELECT * 
 FROM online_carmark 
 WHERE carmakcod = 'JK-MA065' 
 ORDER BY desc_t, carmakcod 

27/3/2014  12:57 >> Application_Name >> getDataPremium
exec sp_calonlineweb 'Y','110','1','3','5 ','JK-MA065','2000','A','A',454860,555940,'0',0

27/3/2014  12:57 >> Application_Name >> getDataPremium
exec sp_calonlineweb 'Y','110','2','3','5 ','JK-MA065','2000','A','A',454860,555940,'0',0

27/3/2014  12:57 >> Application_Name >> getDataPremium
exec sp_calonlineweb 'Y','110','3','3','5 ','JK-MA065','2000','A','A',0,0,'0',0

27/3/2014  13:10 >> Application_Name >> getCategoryCompByBrand
SELECT mdc_minor_cd , mdc_desc_t as mdc_desc FROM mtdesc_comp  WHERE mdc_minor_cd <> '0000' AND mdc_major_cd = 'T001' ORDER BY mdc_desc 

27/3/2014  13:17 >> Application_Name >> getDataCarMarkByCarMarkCode
SELECT * 
 FROM online_carmark 
 WHERE carmakcod = '' 
 ORDER BY desc_t, carmakcod 

27/3/2014  13:18 >> Application_Name >> getDataCarMarkByCarMarkCode
SELECT * 
 FROM online_carmark 
 WHERE carmakcod = 'JK-TO242' 
 ORDER BY desc_t, carmakcod 

27/3/2014  13:20 >> Application_Name >> getDataPremium
exec sp_calonlineweb 'Y','110','1','2','5 ','JK-TO242','2000','A','A',478800,585200,'0',0

27/3/2014  13:20 >> Application_Name >> getDataPremium
exec sp_calonlineweb 'Y','110','2','2','5 ','JK-TO242','2000','A','A',478800,585200,'0',0

27/3/2014  13:20 >> Application_Name >> getDataPremium
exec sp_calonlineweb 'Y','110','3','2','5 ','JK-TO242','2000','A','A',0,0,'0',0

27/3/2014  13:20 >> Application_Name >> getDataPremium
exec sp_calonlineweb 'Y','110','1','2','5 ','JK-TO242','2000','A','A',478800,585200,'0',0

27/3/2014  13:20 >> Application_Name >> getDataPremium
exec sp_calonlineweb 'Y','110','2','2','5 ','JK-TO242','2000','A','A',478800,585200,'0',0

27/3/2014  13:20 >> Application_Name >> getDataPremium
exec sp_calonlineweb 'Y','110','3','2','5 ','JK-TO242','2000','A','A',0,0,'0',0

27/3/2014  13:21 >> Application_Name >> getDataCarMarkByCarMarkCode
SELECT * 
 FROM online_carmark 
 WHERE carmakcod = '' 
 ORDER BY desc_t, carmakcod 

27/3/2014  13:21 >> Application_Name >> getDataCarMarkByCarMarkCode
SELECT * 
 FROM online_carmark 
 WHERE carmakcod = 'JK-TO242' 
 ORDER BY desc_t, carmakcod 

27/3/2014  13:22 >> Application_Name >> getDataPremium
exec sp_calonlineweb 'Y','110','1','2','5 ','JK-TO242','2000','A','A',478800,585200,'0',0

27/3/2014  13:22 >> Application_Name >> getDataPremium
exec sp_calonlineweb 'Y','110','2','2','5 ','JK-TO242','2000','A','A',478800,585200,'0',0

27/3/2014  13:22 >> Application_Name >> getDataPremium
exec sp_calonlineweb 'Y','110','3','2','5 ','JK-TO242','2000','A','A',0,0,'0',0

27/3/2014  13:49 >> Application_Name >> getDataCarMarkByCarMarkCode
SELECT * 
 FROM online_carmark 
 WHERE carmakcod = '' 
 ORDER BY desc_t, carmakcod 

27/3/2014  13:49 >> Application_Name >> getDataCarMarkByCarMarkCode
SELECT * 
 FROM online_carmark 
 WHERE carmakcod = 'JK-TO242' 
 ORDER BY desc_t, carmakcod 

27/3/2014  14:8 >> Application_Name >> getDataCarMarkByCarMarkCode
SELECT * 
 FROM online_carmark 
 WHERE carmakcod = '' 
 ORDER BY desc_t, carmakcod 

27/3/2014  14:8 >> Application_Name >> getDataCarMarkByCarMarkCode
SELECT * 
 FROM online_carmark 
 WHERE carmakcod = 'JK-HO084' 
 ORDER BY desc_t, carmakcod 

27/3/2014  14:11 >> Application_Name >> getDataPremium
exec sp_calonlineweb 'Y','110','1','4','5 ','JK-HO084','2000','A','A',439833.375,537574.125,'0',0

27/3/2014  14:11 >> Application_Name >> getDataPremium
exec sp_calonlineweb 'Y','110','2','4','5 ','JK-HO084','2000','A','A',439833.375,537574.125,'0',0

27/3/2014  14:11 >> Application_Name >> getDataPremium
exec sp_calonlineweb 'Y','110','3','4','5 ','JK-HO084','2000','A','A',0,0,'0',0

27/3/2014  14:11 >> Application_Name >> getDataPremium
exec sp_calonlineweb 'Y','110','1','4','5 ','JK-HO084','2000','A','A',439833.375,537574.125,'0',30

27/3/2014  14:11 >> Application_Name >> getDataPremium
exec sp_calonlineweb 'Y','110','2','4','5 ','JK-HO084','2000','A','A',439833.375,537574.125,'0',30

27/3/2014  14:11 >> Application_Name >> getDataPremium
exec sp_calonlineweb 'Y','110','3','4','5 ','JK-HO084','2000','A','A',0,0,'0',30

27/3/2014  14:52 >> Application_Name >> getDataCarMarkByCarMarkCode
SELECT * 
 FROM online_carmark 
 WHERE carmakcod = '' 
 ORDER BY desc_t, carmakcod 

27/3/2014  14:52 >> Application_Name >> getDataCarMarkByCarMarkCode
SELECT * 
 FROM online_carmark 
 WHERE carmakcod = 'JK-SZ004' 
 ORDER BY desc_t, carmakcod 

27/3/2014  14:54 >> Application_Name >> getDataPremium
exec sp_calonlineweb 'Y','110','1','3','5 ','JK-SZ004','2000','A','A',324900,361000,'0',0

27/3/2014  14:54 >> Application_Name >> getDataPremium
exec sp_calonlineweb 'Y','110','2','3','5 ','JK-SZ004','2000','A','A',324900,361000,'0',0

27/3/2014  14:54 >> Application_Name >> getDataPremium
exec sp_calonlineweb 'Y','110','3','3','5 ','JK-SZ004','2000','A','A',0,0,'0',0

27/3/2014  14:55 >> Application_Name >> SMK :: BuyVoluntary_step2-docToUI
Combine

27/3/2014  14:55 >> Application_Name >> SMK :: BuyVoluntary_step2-docToUI
rg_prmm-013076

27/3/2014  14:55 >> Application_Name >> SMK :: BuyVoluntary_step2-docToUI
rg_prmm13076

27/3/2014  14:55 >> Application_Name >> SMK :: BuyVoluntary_step2-docToUI
cp_comp_prmm600.00

27/3/2014  14:56 >> Application_Name >> getDataCarMarkByCarMarkCode
SELECT * 
 FROM online_carmark 
 WHERE carmakcod = '' 
 ORDER BY desc_t, carmakcod 

27/3/2014  14:56 >> Application_Name >> getDataPremium
exec sp_calonlineweb 'Y','110','1','3','5 ','JK-SZ004','2000','A','A',324900,361000,'36',0

27/3/2014  14:56 >> Application_Name >> getDataPremium
exec sp_calonlineweb 'Y','110','2','3','5 ','JK-SZ004','2000','A','A',324900,361000,'36',0

27/3/2014  14:56 >> Application_Name >> getDataPremium
exec sp_calonlineweb 'Y','110','3','3','5 ','JK-SZ004','2000','A','A',0,0,'36',0

27/3/2014  14:56 >> Application_Name >> getDataCarMarkByCarMarkCode
SELECT * 
 FROM online_carmark 
 WHERE carmakcod = '' 
 ORDER BY desc_t, carmakcod 

27/3/2014  14:56 >> Application_Name >> getDataCarMarkByCarMarkCode
SELECT * 
 FROM online_carmark 
 WHERE carmakcod = '' 
 ORDER BY desc_t, carmakcod 

27/3/2014  14:56 >> Application_Name >> getDataCarMarkByCarMarkCode
SELECT * 
 FROM online_carmark 
 WHERE carmakcod = '' 
 ORDER BY desc_t, carmakcod 

27/3/2014  14:56 >> Application_Name >> getDataCarMarkByCarMarkCode
SELECT * 
 FROM online_carmark 
 WHERE carmakcod = '' 
 ORDER BY desc_t, carmakcod 

27/3/2014  14:58 >> Application_Name >> getDataPremium
exec sp_calonlineweb 'Y','110','1','3','5 ','JK-SZ004','2000','A','A',324900,361000,'36',20

27/3/2014  14:58 >> Application_Name >> getDataPremium
exec sp_calonlineweb 'Y','110','2','3','5 ','JK-SZ004','2000','A','A',324900,361000,'36',20

27/3/2014  14:58 >> Application_Name >> getDataPremium
exec sp_calonlineweb 'Y','110','3','3','5 ','JK-SZ004','2000','A','A',0,0,'36',20

27/3/2014  15:31 >> Application_Name >> getDataCarMarkByCarMarkCode
SELECT * 
 FROM online_carmark 
 WHERE carmakcod = '' 
 ORDER BY desc_t, carmakcod 

27/3/2014  15:31 >> Application_Name >> getDataCarMarkByCarMarkCode
SELECT * 
 FROM online_carmark 
 WHERE carmakcod = 'JK-NI100' 
 ORDER BY desc_t, carmakcod 

27/3/2014  15:33 >> Application_Name >> getDataPremium
exec sp_calonlineweb 'Y','110','1','3','5 ','JK-NI100','2000','A','A',361000,397100,'0',0

27/3/2014  15:33 >> Application_Name >> getDataPremium
exec sp_calonlineweb 'Y','110','2','3','5 ','JK-NI100','2000','A','A',361000,397100,'0',0

27/3/2014  15:33 >> Application_Name >> getDataPremium
exec sp_calonlineweb 'Y','110','3','3','5 ','JK-NI100','2000','A','A',0,0,'0',0

27/3/2014  15:34 >> Application_Name >> getDataPremium
exec sp_calonlineweb 'Y','110','1','3','5 ','JK-NI100','2000','A','A',361000,397100,'0',20

27/3/2014  15:34 >> Application_Name >> getDataPremium
exec sp_calonlineweb 'Y','110','2','3','5 ','JK-NI100','2000','A','A',361000,397100,'0',20

27/3/2014  15:34 >> Application_Name >> getDataPremium
exec sp_calonlineweb 'Y','110','3','3','5 ','JK-NI100','2000','A','A',0,0,'0',20

27/3/2014  15:38 >> Application_Name >> getDataCarMarkByCarMarkCode
SELECT * 
 FROM online_carmark 
 WHERE carmakcod = '' 
 ORDER BY desc_t, carmakcod 

27/3/2014  15:38 >> Application_Name >> getDataCarMarkByCarMarkCode
SELECT * 
 FROM online_carmark 
 WHERE carmakcod = 'JK-NI100' 
 ORDER BY desc_t, carmakcod 

27/3/2014  15:42 >> Application_Name >> getDataCarMarkByCarMarkCode
SELECT * 
 FROM online_carmark 
 WHERE carmakcod = '' 
 ORDER BY desc_t, carmakcod 

27/3/2014  15:42 >> Application_Name >> getDataCarMarkByCarMarkCode
SELECT * 
 FROM online_carmark 
 WHERE carmakcod = 'JK-TO240' 
 ORDER BY desc_t, carmakcod 

27/3/2014  15:45 >> Application_Name >> getDataPremium
exec sp_calonlineweb 'Y','110','1','4','3 ','JK-TO240','9999','A','A',686757.375,839370.125,'0',30

27/3/2014  15:45 >> Application_Name >> getDataPremium
exec sp_calonlineweb 'Y','110','2','4','3 ','JK-TO240','9999','A','A',686757.375,839370.125,'0',30

27/3/2014  15:45 >> Application_Name >> getDataPremium
exec sp_calonlineweb 'Y','110','3','4','3 ','JK-TO240','9999','A','A',0,0,'0',30

27/3/2014  15:53 >> Application_Name >> getDataCarMarkByCarMarkCode
SELECT * 
 FROM online_carmark 
 WHERE carmakcod = '' 
 ORDER BY desc_t, carmakcod 

27/3/2014  15:59 >> Application_Name >> getDataPremium
exec sp_calonlineweb 'Y','110','1','3','5 ','JK-NI100','2000','A','A',361000,397100,'0',0

27/3/2014  15:59 >> Application_Name >> getDataPremium
exec sp_calonlineweb 'Y','110','2','3','5 ','JK-NI100','2000','A','A',361000,397100,'0',0

27/3/2014  15:59 >> Application_Name >> getDataPremium
exec sp_calonlineweb 'Y','110','3','3','5 ','JK-NI100','2000','A','A',0,0,'0',0

27/3/2014  15:59 >> Application_Name >> SMK :: BuyVoluntary_step2-docToUI
Combine

27/3/2014  15:59 >> Application_Name >> SMK :: BuyVoluntary_step2-docToUI
rg_prmm-013789

27/3/2014  15:59 >> Application_Name >> SMK :: BuyVoluntary_step2-docToUI
rg_prmm13789

27/3/2014  15:59 >> Application_Name >> SMK :: BuyVoluntary_step2-docToUI
cp_comp_prmm600.00

27/3/2014  16:34 >> Application_Name >> getDataCarMarkByCarMarkCode
SELECT * 
 FROM online_carmark 
 WHERE carmakcod = '' 
 ORDER BY desc_t, carmakcod 

27/3/2014  16:34 >> Application_Name >> getDataCarMarkByCarMarkCode
SELECT * 
 FROM online_carmark 
 WHERE carmakcod = 'JK-TO242' 
 ORDER BY desc_t, carmakcod 

27/3/2014  16:54 >> Application_Name >> getDataCarMarkByCarMarkCode
SELECT * 
 FROM online_carmark 
 WHERE carmakcod = '' 
 ORDER BY desc_t, carmakcod 

27/3/2014  16:54 >> Application_Name >> getDataCarMarkByCarMarkCode
SELECT * 
 FROM online_carmark 
 WHERE carmakcod = 'JK-MI080' 
 ORDER BY desc_t, carmakcod 

27/3/2014  16:56 >> Application_Name >> getDataPremium
exec sp_calonlineweb 'Y','110','1','2','5 ','JK-MI080','2000','A','A',376200,459800,'0',0

27/3/2014  16:56 >> Application_Name >> getDataPremium
exec sp_calonlineweb 'Y','110','2','2','5 ','JK-MI080','2000','A','A',376200,459800,'0',0

27/3/2014  16:56 >> Application_Name >> getDataPremium
exec sp_calonlineweb 'Y','110','3','2','5 ','JK-MI080','2000','A','A',0,0,'0',0

27/3/2014  16:59 >> Application_Name >> getDataPremium
exec sp_calonlineweb 'N','110','1','2','5 ','JK-MI080','2000','A','A',376200,459800,'0',0

27/3/2014  16:59 >> Application_Name >> getDataPremium
exec sp_calonlineweb 'N','110','2','2','5 ','JK-MI080','2000','A','A',376200,459800,'0',0

27/3/2014  16:59 >> Application_Name >> getDataPremium
exec sp_calonlineweb 'N','110','3','2','5 ','JK-MI080','2000','A','A',0,0,'0',0

27/3/2014  16:59 >> Application_Name >> getDataCarMarkByCarMarkCode
SELECT * 
 FROM online_carmark 
 WHERE carmakcod = '' 
 ORDER BY desc_t, carmakcod 

27/3/2014  17:0 >> Application_Name >> getDataCarMarkByCarMarkCode
SELECT * 
 FROM online_carmark 
 WHERE carmakcod = '' 
 ORDER BY desc_t, carmakcod 

27/3/2014  17:0 >> Application_Name >> getDataCarMarkByCarMarkCode
SELECT * 
 FROM online_carmark 
 WHERE carmakcod = 'JP-TO043' 
 ORDER BY desc_t, carmakcod 

27/3/2014  17:11 >> Application_Name >> getDataCarMarkByCarMarkCode
SELECT * 
 FROM online_carmark 
 WHERE carmakcod = '' 
 ORDER BY desc_t, carmakcod 

27/3/2014  17:11 >> Application_Name >> getDataCarMarkByCarMarkCode
SELECT * 
 FROM online_carmark 
 WHERE carmakcod = 'JK-NI028' 
 ORDER BY desc_t, carmakcod 

27/3/2014  17:13 >> Application_Name >> getDataPremium
exec sp_calonlineweb 'Y','110','1','4','5 ','JK-NI028','2000','A','A',331804.125,405538.375,'0',0

27/3/2014  17:13 >> Application_Name >> getDataPremium
exec sp_calonlineweb 'Y','110','2','4','5 ','JK-NI028','2000','A','A',331804.125,405538.375,'0',0

27/3/2014  17:13 >> Application_Name >> getDataPremium
exec sp_calonlineweb 'Y','110','3','4','5 ','JK-NI028','2000','A','A',0,0,'0',0

27/3/2014  17:15 >> Application_Name >> getDataPremium
exec sp_calonlineweb 'Y','110','1','4','5 ','JK-NI028','2000','A','A',331804.125,405538.375,'36',0

27/3/2014  17:15 >> Application_Name >> getDataPremium
exec sp_calonlineweb 'Y','110','2','4','5 ','JK-NI028','2000','A','A',331804.125,405538.375,'36',0

27/3/2014  17:15 >> Application_Name >> getDataPremium
exec sp_calonlineweb 'Y','110','3','4','5 ','JK-NI028','2000','A','A',0,0,'36',0

27/3/2014  17:15 >> Application_Name >> getDataPremium
exec sp_calonlineweb 'Y','110','1','4','5 ','JK-NI028','2000','A','A',331804.125,405538.375,'36',20

27/3/2014  17:15 >> Application_Name >> getDataPremium
exec sp_calonlineweb 'Y','110','2','4','5 ','JK-NI028','2000','A','A',331804.125,405538.375,'36',20

27/3/2014  17:15 >> Application_Name >> getDataPremium
exec sp_calonlineweb 'Y','110','3','4','5 ','JK-NI028','2000','A','A',0,0,'36',20

27/3/2014  17:16 >> Application_Name >> getDataPremium
exec sp_calonlineweb 'Y','110','1','4','5 ','JK-NI028','2000','A','A',331804.125,405538.375,'36',30

27/3/2014  17:16 >> Application_Name >> getDataPremium
exec sp_calonlineweb 'Y','110','2','4','5 ','JK-NI028','2000','A','A',331804.125,405538.375,'36',30

27/3/2014  17:16 >> Application_Name >> getDataPremium
exec sp_calonlineweb 'Y','110','3','4','5 ','JK-NI028','2000','A','A',0,0,'36',30

27/3/2014  17:22 >> Application_Name >> getDataPremium
exec sp_calonlineweb 'N','110','1','4','5 ','JK-NI028','2000','A','A',331804.125,405538.375,'36',30

27/3/2014  17:22 >> Application_Name >> getDataPremium
exec sp_calonlineweb 'N','110','2','4','5 ','JK-NI028','2000','A','A',331804.125,405538.375,'36',30

27/3/2014  17:22 >> Application_Name >> getDataPremium
exec sp_calonlineweb 'N','110','3','4','5 ','JK-NI028','2000','A','A',0,0,'36',30

27/3/2014  17:23 >> Application_Name >> getDataPremium
exec sp_calonlineweb 'Y','110','1','4','5 ','JK-NI028','2000','A','A',331804.125,405538.375,'36',30

27/3/2014  17:23 >> Application_Name >> getDataPremium
exec sp_calonlineweb 'Y','110','2','4','5 ','JK-NI028','2000','A','A',331804.125,405538.375,'36',30

27/3/2014  17:23 >> Application_Name >> getDataPremium
exec sp_calonlineweb 'Y','110','3','4','5 ','JK-NI028','2000','A','A',0,0,'36',30

27/3/2014  17:23 >> Application_Name >> SMK :: BuyVoluntary_step2-docToUI
Combine

27/3/2014  17:23 >> Application_Name >> SMK :: BuyVoluntary_step2-docToUI
rg_prmm-09305.6

27/3/2014  17:23 >> Application_Name >> SMK :: BuyVoluntary_step2-docToUI
rg_prmm9305.6

27/3/2014  17:23 >> Application_Name >> SMK :: BuyVoluntary_step2-docToUI
cp_comp_prmm600.00

27/3/2014  17:35 >> Application_Name >> getDataCarMarkByCarMarkCode
SELECT * 
 FROM online_carmark 
 WHERE carmakcod = '' 
 ORDER BY desc_t, carmakcod 

27/3/2014  17:35 >> Application_Name >> getDataCarMarkByCarMarkCode
SELECT * 
 FROM online_carmark 
 WHERE carmakcod = 'JK-TO004' 
 ORDER BY desc_t, carmakcod 

27/3/2014  17:37 >> Application_Name >> getDataPremium
exec sp_calonlineweb 'N','110','1','8','3 ','JK-TO004','2000','A','A',689426.512195594,761997.724005656,'36',0

27/3/2014  17:37 >> Application_Name >> getDataPremium
exec sp_calonlineweb 'N','110','2','8','3 ','JK-TO004','2000','A','A',689426.512195594,761997.724005656,'36',0

27/3/2014  17:37 >> Application_Name >> getDataPremium
exec sp_calonlineweb 'N','110','3','8','3 ','JK-TO004','2000','A','A',0,0,'36',0

27/3/2014  18:45 >> Application_Name >> getDataCarMarkByCarMarkCode
SELECT * 
 FROM online_carmark 
 WHERE carmakcod = '' 
 ORDER BY desc_t, carmakcod 

27/3/2014  18:45 >> Application_Name >> getDataCarMarkByCarMarkCode
SELECT * 
 FROM online_carmark 
 WHERE carmakcod = 'JK-HO003' 
 ORDER BY desc_t, carmakcod 

27/3/2014  18:48 >> Application_Name >> getDataPremium
exec sp_calonlineweb 'Y','110','1','6','3 ','JK-HO003','2000','A','A',698631.33285,772171.47315,'0',20

27/3/2014  18:48 >> Application_Name >> getDataPremium
exec sp_calonlineweb 'Y','110','2','6','3 ','JK-HO003','2000','A','A',698631.33285,772171.47315,'0',20

27/3/2014  18:48 >> Application_Name >> getDataPremium
exec sp_calonlineweb 'Y','110','3','6','3 ','JK-HO003','2000','A','A',0,0,'0',20

27/3/2014  18:48 >> Application_Name >> getDataPremium
exec sp_calonlineweb 'Y','110','1','6','3 ','JK-HO003','2000','A','A',698631.33285,772171.47315,'0',20

27/3/2014  18:48 >> Application_Name >> getDataPremium
exec sp_calonlineweb 'Y','110','2','6','3 ','JK-HO003','2000','A','A',698631.33285,772171.47315,'0',20

27/3/2014  18:48 >> Application_Name >> getDataPremium
exec sp_calonlineweb 'Y','110','3','6','3 ','JK-HO003','2000','A','A',0,0,'0',20

27/3/2014  18:48 >> Application_Name >> getDataPremium
exec sp_calonlineweb 'Y','110','1','6','3 ','JK-HO003','2000','A','A',698631.33285,772171.47315,'0',20

27/3/2014  18:48 >> Application_Name >> getDataPremium
exec sp_calonlineweb 'Y','110','2','6','3 ','JK-HO003','2000','A','A',698631.33285,772171.47315,'0',20

27/3/2014  18:48 >> Application_Name >> getDataPremium
exec sp_calonlineweb 'Y','110','3','6','3 ','JK-HO003','2000','A','A',0,0,'0',20

27/3/2014  18:55 >> Application_Name >> getDataCarMarkByCarMarkCode
SELECT * 
 FROM online_carmark 
 WHERE carmakcod = '' 
 ORDER BY desc_t, carmakcod 

27/3/2014  18:55 >> Application_Name >> getDataCarMarkByCarMarkCode
SELECT * 
 FROM online_carmark 
 WHERE carmakcod = 'JK-NI100' 
 ORDER BY desc_t, carmakcod 

27/3/2014  18:57 >> Application_Name >> getDataPremium
exec sp_calonlineweb 'Y','110','1','2','5 ','JK-NI100','2000','A','A',380000,418000,'0',20

27/3/2014  18:57 >> Application_Name >> getDataPremium
exec sp_calonlineweb 'Y','110','2','2','5 ','JK-NI100','2000','A','A',380000,418000,'0',20

27/3/2014  18:57 >> Application_Name >> getDataPremium
exec sp_calonlineweb 'Y','110','3','2','5 ','JK-NI100','2000','A','A',0,0,'0',20

27/3/2014  18:57 >> Application_Name >> SMK :: BuyVoluntary_step2-docToUI
Combine

27/3/2014  18:57 >> Application_Name >> SMK :: BuyVoluntary_step2-docToUI
rg_prmm-010994.4

27/3/2014  18:57 >> Application_Name >> SMK :: BuyVoluntary_step2-docToUI
rg_prmm10994.4

27/3/2014  18:57 >> Application_Name >> SMK :: BuyVoluntary_step2-docToUI
cp_comp_prmm600.00

27/3/2014  19:2 >> Application_Name >> getCategoryCompByBrand
SELECT mdc_minor_cd , mdc_desc_t as mdc_desc FROM mtdesc_comp  WHERE mdc_minor_cd <> '0000' AND mdc_major_cd = 'N001' ORDER BY mdc_desc 

27/3/2014  19:3 >> Application_Name >> getDataCarMarkByCarMarkCode
SELECT * 
 FROM online_carmark 
 WHERE carmakcod = '' 
 ORDER BY desc_t, carmakcod 

27/3/2014  19:4 >> Application_Name >> getDataCarMarkByCarMarkCode
SELECT * 
 FROM online_carmark 
 WHERE carmakcod = 'JK-NI100' 
 ORDER BY desc_t, carmakcod 

27/3/2014  19:5 >> Application_Name >> getDataPremium
exec sp_calonlineweb 'Y','110','1','2','5 ','JK-NI100','2000','A','A',380000,418000,'0',20

27/3/2014  19:5 >> Application_Name >> getDataPremium
exec sp_calonlineweb 'Y','110','2','2','5 ','JK-NI100','2000','A','A',380000,418000,'0',20

27/3/2014  19:5 >> Application_Name >> getDataPremium
exec sp_calonlineweb 'Y','110','3','2','5 ','JK-NI100','2000','A','A',0,0,'0',20

27/3/2014  19:55 >> Application_Name >> getDataCarMarkByCarMarkCode
SELECT * 
 FROM online_carmark 
 WHERE carmakcod = '' 
 ORDER BY desc_t, carmakcod 

27/3/2014  19:55 >> Application_Name >> getDataCarMarkByCarMarkCode
SELECT * 
 FROM online_carmark 
 WHERE carmakcod = '' 
 ORDER BY desc_t, carmakcod 

27/3/2014  19:55 >> Application_Name >> getDataCarMarkByCarMarkCode
SELECT * 
 FROM online_carmark 
 WHERE carmakcod = 'JK-NI100' 
 ORDER BY desc_t, carmakcod 

27/3/2014  19:57 >> Application_Name >> getDataPremium
exec sp_calonlineweb 'Y','110','1','3','5 ','JK-NI100','2000','A','A',361000,397100,'0',30

27/3/2014  19:57 >> Application_Name >> getDataPremium
exec sp_calonlineweb 'Y','110','2','3','5 ','JK-NI100','2000','A','A',361000,397100,'0',30

27/3/2014  19:57 >> Application_Name >> getDataPremium
exec sp_calonlineweb 'Y','110','3','3','5 ','JK-NI100','2000','A','A',0,0,'0',30

27/3/2014  19:57 >> Application_Name >> getDataPremium
exec sp_calonlineweb 'Y','110','1','3','5 ','JK-NI100','2000','A','A',361000,397100,'0',30

27/3/2014  19:57 >> Application_Name >> getDataPremium
exec sp_calonlineweb 'Y','110','2','3','5 ','JK-NI100','2000','A','A',361000,397100,'0',30

27/3/2014  19:57 >> Application_Name >> getDataPremium
exec sp_calonlineweb 'Y','110','3','3','5 ','JK-NI100','2000','A','A',0,0,'0',30

27/3/2014  19:58 >> Application_Name >> getDataPremium
exec sp_calonlineweb 'Y','110','1','3','5 ','JK-NI100','2000','A','A',361000,397100,'36',30

27/3/2014  19:58 >> Application_Name >> getDataPremium
exec sp_calonlineweb 'Y','110','2','3','5 ','JK-NI100','2000','A','A',361000,397100,'36',30

27/3/2014  19:58 >> Application_Name >> getDataPremium
exec sp_calonlineweb 'Y','110','3','3','5 ','JK-NI100','2000','A','A',0,0,'36',30

27/3/2014  19:58 >> Application_Name >> SMK :: BuyVoluntary_step2-docToUI
Combine

27/3/2014  19:58 >> Application_Name >> SMK :: BuyVoluntary_step2-docToUI
rg_prmm-09532.8

27/3/2014  19:58 >> Application_Name >> SMK :: BuyVoluntary_step2-docToUI
rg_prmm9532.8

27/3/2014  19:58 >> Application_Name >> SMK :: BuyVoluntary_step2-docToUI
cp_comp_prmm600.00

27/3/2014  20:6 >> Application_Name >> getDataCarMarkByCarMarkCode
SELECT * 
 FROM online_carmark 
 WHERE carmakcod = '' 
 ORDER BY desc_t, carmakcod 

27/3/2014  20:6 >> Application_Name >> getDataCarMarkByCarMarkCode
SELECT * 
 FROM online_carmark 
 WHERE carmakcod = 'JK-NI100' 
 ORDER BY desc_t, carmakcod 

27/3/2014  20:6 >> Application_Name >> getDataPremium
exec sp_calonlineweb 'Y','110','1','3','5 ','JK-NI100','2000','A','A',361000,397100,'0',30

27/3/2014  20:6 >> Application_Name >> getDataPremium
exec sp_calonlineweb 'Y','110','2','3','5 ','JK-NI100','2000','A','A',361000,397100,'0',30

27/3/2014  20:6 >> Application_Name >> getDataPremium
exec sp_calonlineweb 'Y','110','3','3','5 ','JK-NI100','2000','A','A',0,0,'0',30

27/3/2014  20:40 >> Application_Name >> getDataCarMarkByCarMarkCode
SELECT * 
 FROM online_carmark 
 WHERE carmakcod = '' 
 ORDER BY desc_t, carmakcod 

27/3/2014  20:40 >> Application_Name >> getDataCarMarkByCarMarkCode
SELECT * 
 FROM online_carmark 
 WHERE carmakcod = 'JK-MI080' 
 ORDER BY desc_t, carmakcod 

27/3/2014  20:41 >> Application_Name >> getDataPremium
exec sp_calonlineweb 'Y','110','1','2','5 ','JK-MI080','2000','A','A',376200,459800,'0',0

27/3/2014  20:41 >> Application_Name >> getDataPremium
exec sp_calonlineweb 'Y','110','2','2','5 ','JK-MI080','2000','A','A',376200,459800,'0',0

27/3/2014  20:41 >> Application_Name >> getDataPremium
exec sp_calonlineweb 'Y','110','3','2','5 ','JK-MI080','2000','A','A',0,0,'0',0

27/3/2014  21:8 >> Application_Name >> getDataCarMarkByCarMarkCode
SELECT * 
 FROM online_carmark 
 WHERE carmakcod = '' 
 ORDER BY desc_t, carmakcod 

27/3/2014  21:8 >> Application_Name >> getDataCarMarkByCarMarkCode
SELECT * 
 FROM online_carmark 
 WHERE carmakcod = '' 
 ORDER BY desc_t, carmakcod 

27/3/2014  21:8 >> Application_Name >> getDataCarMarkByCarMarkCode
SELECT * 
 FROM online_carmark 
 WHERE carmakcod = 'JP-IS052' 
 ORDER BY desc_t, carmakcod 

27/3/2014  21:10 >> Application_Name >> getDataPremium
exec sp_calonlineweb 'Y','210','1','5','A','','2500','21','A',476649.0575,526822.6425,'0',20

27/3/2014  21:10 >> Application_Name >> getDataPremium
exec sp_calonlineweb 'Y','210','2','5','A','','2500','21','A',476649.0575,526822.6425,'0',20

27/3/2014  21:10 >> Application_Name >> getDataPremium
exec sp_calonlineweb 'Y','210','3','5','A','','2500','21','A',0,0,'0',20

27/3/2014  21:11 >> Application_Name >> getDataPremium
exec sp_calonlineweb 'Y','210','1','5','A','','2500','21','A',476649.0575,526822.6425,'0',20

27/3/2014  21:11 >> Application_Name >> getDataPremium
exec sp_calonlineweb 'Y','210','2','5','A','','2500','21','A',476649.0575,526822.6425,'0',20

27/3/2014  21:11 >> Application_Name >> getDataPremium
exec sp_calonlineweb 'Y','210','3','5','A','','2500','21','A',0,0,'0',20

27/3/2014  21:11 >> Application_Name >> getDataPremium
exec sp_calonlineweb 'Y','210','1','5','A','','2500','21','A',476649.0575,526822.6425,'0',20

27/3/2014  21:11 >> Application_Name >> getDataPremium
exec sp_calonlineweb 'Y','210','2','5','A','','2500','21','A',476649.0575,526822.6425,'0',20

27/3/2014  21:11 >> Application_Name >> getDataPremium
exec sp_calonlineweb 'Y','210','3','5','A','','2500','21','A',0,0,'0',20

27/3/2014  21:12 >> Application_Name >> getDataPremium
exec sp_calonlineweb 'Y','210','1','5','A','','2499','21','A',476649.0575,526822.6425,'0',20

27/3/2014  21:12 >> Application_Name >> getDataPremium
exec sp_calonlineweb 'Y','210','2','5','A','','2499','21','A',476649.0575,526822.6425,'0',20

27/3/2014  21:12 >> Application_Name >> getDataPremium
exec sp_calonlineweb 'Y','210','3','5','A','','2499','21','A',0,0,'0',20

27/3/2014  21:13 >> Application_Name >> getDataPremium
exec sp_calonlineweb 'Y','210','1','5','A','','2499','21','A',476649.0575,526822.6425,'0',20

27/3/2014  21:13 >> Application_Name >> getDataPremium
exec sp_calonlineweb 'Y','210','2','5','A','','2499','21','A',476649.0575,526822.6425,'0',20

27/3/2014  21:13 >> Application_Name >> getDataPremium
exec sp_calonlineweb 'Y','210','3','5','A','','2499','21','A',0,0,'0',20

27/3/2014  21:14 >> Application_Name >> getDataCarMarkByCarMarkCode
SELECT * 
 FROM online_carmark 
 WHERE carmakcod = '' 
 ORDER BY desc_t, carmakcod 

27/3/2014  21:14 >> Application_Name >> getDataCarMarkByCarMarkCode
SELECT * 
 FROM online_carmark 
 WHERE carmakcod = 'JP-IS052' 
 ORDER BY desc_t, carmakcod 

27/3/2014  21:14 >> Application_Name >> getDataCarMarkByCarMarkCode
SELECT * 
 FROM online_carmark 
 WHERE carmakcod = '' 
 ORDER BY desc_t, carmakcod 

27/3/2014  21:14 >> Application_Name >> getDataCarMarkByCarMarkCode
SELECT * 
 FROM online_carmark 
 WHERE carmakcod = 'JP-IS052' 
 ORDER BY desc_t, carmakcod 

27/3/2014  21:14 >> Application_Name >> getDataPremium
exec sp_calonlineweb 'Y','210','1','5','A','','2499','21','A',476649.0575,526822.6425,'0',20

27/3/2014  21:14 >> Application_Name >> getDataPremium
exec sp_calonlineweb 'Y','210','2','5','A','','2499','21','A',476649.0575,526822.6425,'0',20

27/3/2014  21:14 >> Application_Name >> getDataPremium
exec sp_calonlineweb 'Y','210','3','5','A','','2499','21','A',0,0,'0',20

27/3/2014  21:15 >> Application_Name >> getDataPremium
exec sp_calonlineweb 'Y','210','1','5','A','','2499','21','A',476649.0575,526822.6425,'0',20

27/3/2014  21:15 >> Application_Name >> getDataPremium
exec sp_calonlineweb 'Y','210','2','5','A','','2499','21','A',476649.0575,526822.6425,'0',20

27/3/2014  21:15 >> Application_Name >> getDataPremium
exec sp_calonlineweb 'Y','210','3','5','A','','2499','21','A',0,0,'0',20

27/3/2014  21:30 >> Application_Name >> getDataCarMarkByCarMarkCode
SELECT * 
 FROM online_carmark 
 WHERE carmakcod = '' 
 ORDER BY desc_t, carmakcod 

27/3/2014  21:30 >> Application_Name >> getDataCarMarkByCarMarkCode
SELECT * 
 FROM online_carmark 
 WHERE carmakcod = 'JP-IS052' 
 ORDER BY desc_t, carmakcod 

27/3/2014  21:31 >> Application_Name >> getDataPremium
exec sp_calonlineweb 'Y','210','1','5','A','','12','21','A',476649.0575,526822.6425,'0',20

27/3/2014  21:31 >> Application_Name >> getDataPremium
exec sp_calonlineweb 'Y','210','2','5','A','','12','21','A',476649.0575,526822.6425,'0',20

27/3/2014  21:31 >> Application_Name >> getDataPremium
exec sp_calonlineweb 'Y','210','3','5','A','','12','21','A',0,0,'0',20

27/3/2014  21:39 >> Application_Name >> SMK :: BuyVoluntary_step2-docToUI
Combine

27/3/2014  21:39 >> Application_Name >> SMK :: BuyVoluntary_step2-docToUI
rg_prmm-015985.6

27/3/2014  21:39 >> Application_Name >> SMK :: BuyVoluntary_step2-docToUI
rg_prmm15985.6

27/3/2014  21:39 >> Application_Name >> SMK :: BuyVoluntary_step2-docToUI
cp_comp_prmm900.00

27/3/2014  21:45 >> Application_Name >> getDataCarMarkByCarMarkCode
SELECT * 
 FROM online_carmark 
 WHERE carmakcod = '' 
 ORDER BY desc_t, carmakcod 

27/3/2014  21:45 >> Application_Name >> getDataCarMarkByCarMarkCode
SELECT * 
 FROM online_carmark 
 WHERE carmakcod = 'JK-MI080' 
 ORDER BY desc_t, carmakcod 

27/3/2014  21:47 >> Application_Name >> getDataPremium
exec sp_calonlineweb 'Y','110','1','2','5 ','JK-MI080','2000','A','A',376200,459800,'0',0

27/3/2014  21:47 >> Application_Name >> getDataPremium
exec sp_calonlineweb 'Y','110','2','2','5 ','JK-MI080','2000','A','A',376200,459800,'0',0

27/3/2014  21:47 >> Application_Name >> getDataPremium
exec sp_calonlineweb 'Y','110','3','2','5 ','JK-MI080','2000','A','A',0,0,'0',0

27/3/2014  21:47 >> Application_Name >> getDataPremium
exec sp_calonlineweb 'Y','110','1','2','5 ','JK-MI080','2000','A','A',376200,459800,'0',0

27/3/2014  21:47 >> Application_Name >> getDataPremium
exec sp_calonlineweb 'Y','110','2','2','5 ','JK-MI080','2000','A','A',376200,459800,'0',0

27/3/2014  21:47 >> Application_Name >> getDataPremium
exec sp_calonlineweb 'Y','110','3','2','5 ','JK-MI080','2000','A','A',0,0,'0',0

27/3/2014  21:48 >> Application_Name >> getDataPremium
exec sp_calonlineweb 'Y','110','1','2','5 ','JK-MI080','2000','A','A',376200,459800,'0',20

27/3/2014  21:48 >> Application_Name >> getDataPremium
exec sp_calonlineweb 'Y','110','2','2','5 ','JK-MI080','2000','A','A',376200,459800,'0',20

27/3/2014  21:48 >> Application_Name >> getDataPremium
exec sp_calonlineweb 'Y','110','3','2','5 ','JK-MI080','2000','A','A',0,0,'0',20

27/3/2014  21:48 >> Application_Name >> getDataPremium
exec sp_calonlineweb 'Y','110','1','2','5 ','JK-MI080','2000','A','A',376200,459800,'0',30

27/3/2014  21:48 >> Application_Name >> getDataPremium
exec sp_calonlineweb 'Y','110','2','2','5 ','JK-MI080','2000','A','A',376200,459800,'0',30

27/3/2014  21:48 >> Application_Name >> getDataPremium
exec sp_calonlineweb 'Y','110','3','2','5 ','JK-MI080','2000','A','A',0,0,'0',30

27/3/2014  21:51 >> Application_Name >> getDataPremium
exec sp_calonlineweb 'Y','110','1','2','5 ','JK-MI080','2000','A','A',376200,459800,'25',20

27/3/2014  21:51 >> Application_Name >> getDataPremium
exec sp_calonlineweb 'Y','110','2','2','5 ','JK-MI080','2000','A','A',376200,459800,'25',20

27/3/2014  21:51 >> Application_Name >> getDataPremium
exec sp_calonlineweb 'Y','110','3','2','5 ','JK-MI080','2000','A','A',0,0,'25',20

27/3/2014  21:51 >> Application_Name >> getDataPremium
exec sp_calonlineweb 'Y','110','1','2','5 ','JK-MI080','2000','A','A',376200,459800,'25',30

27/3/2014  21:51 >> Application_Name >> getDataPremium
exec sp_calonlineweb 'Y','110','2','2','5 ','JK-MI080','2000','A','A',376200,459800,'25',30

27/3/2014  21:51 >> Application_Name >> getDataPremium
exec sp_calonlineweb 'Y','110','3','2','5 ','JK-MI080','2000','A','A',0,0,'25',30

27/3/2014  21:51 >> Application_Name >> getDataCarMarkByCarMarkCode
SELECT * 
 FROM online_carmark 
 WHERE carmakcod = '' 
 ORDER BY desc_t, carmakcod 

27/3/2014  21:51 >> Application_Name >> getDataCarMarkByCarMarkCode
SELECT * 
 FROM online_carmark 
 WHERE carmakcod = '' 
 ORDER BY desc_t, carmakcod 

27/3/2014  21:51 >> Application_Name >> getDataCarMarkByCarMarkCode
SELECT * 
 FROM online_carmark 
 WHERE carmakcod = 'JP-IS052' 
 ORDER BY desc_t, carmakcod 

27/3/2014  21:53 >> Application_Name >> getDataPremium
exec sp_calonlineweb 'Y','210','1','5','A','','2499','21','A',476649.0575,526822.6425,'0',20

27/3/2014  21:53 >> Application_Name >> getDataPremium
exec sp_calonlineweb 'Y','210','2','5','A','','2499','21','A',476649.0575,526822.6425,'0',20

27/3/2014  21:53 >> Application_Name >> getDataPremium
exec sp_calonlineweb 'Y','210','3','5','A','','2499','21','A',0,0,'0',20

27/3/2014  21:53 >> Application_Name >> getDataPremium
exec sp_calonlineweb 'Y','210','1','5','A','','2499','21','A',476649.0575,526822.6425,'0',20

27/3/2014  21:53 >> Application_Name >> getDataPremium
exec sp_calonlineweb 'Y','210','2','5','A','','2499','21','A',476649.0575,526822.6425,'0',20

27/3/2014  21:53 >> Application_Name >> getDataPremium
exec sp_calonlineweb 'Y','210','3','5','A','','2499','21','A',0,0,'0',20

27/3/2014  22:22 >> Application_Name >> getDataCarMarkByCarMarkCode
SELECT * 
 FROM online_carmark 
 WHERE carmakcod = '' 
 ORDER BY desc_t, carmakcod 

27/3/2014  22:22 >> Application_Name >> getDataCarMarkByCarMarkCode
SELECT * 
 FROM online_carmark 
 WHERE carmakcod = 'JK-TO175' 
 ORDER BY desc_t, carmakcod 

27/3/2014  22:22 >> Application_Name >> getDataPremium
exec sp_calonlineweb 'Y','110','1','3','5 ','JK-TO175','2000','A','A',406125,496375,'0',0

27/3/2014  22:22 >> Application_Name >> getDataPremium
exec sp_calonlineweb 'Y','110','2','3','5 ','JK-TO175','2000','A','A',406125,496375,'0',0

27/3/2014  22:22 >> Application_Name >> getDataPremium
exec sp_calonlineweb 'Y','110','3','3','5 ','JK-TO175','2000','A','A',0,0,'0',0

27/3/2014  22:23 >> Application_Name >> SMK :: BuyVoluntary_step2-docToUI
Combine

27/3/2014  22:23 >> Application_Name >> SMK :: BuyVoluntary_step2-docToUI
rg_prmm-06244

27/3/2014  22:23 >> Application_Name >> SMK :: BuyVoluntary_step2-docToUI
rg_prmm6244

27/3/2014  22:23 >> Application_Name >> SMK :: BuyVoluntary_step2-docToUI
cp_comp_prmm600.00

27/3/2014  22:23 >> Application_Name >> getDataCarMarkByCarMarkCode
SELECT * 
 FROM online_carmark 
 WHERE carmakcod = '' 
 ORDER BY desc_t, carmakcod 

27/3/2014  22:23 >> Application_Name >> getDataCarMarkByCarMarkCode
SELECT * 
 FROM online_carmark 
 WHERE carmakcod = 'JK-TO206' 
 ORDER BY desc_t, carmakcod 

27/3/2014  22:23 >> Application_Name >> getDataCarMarkByCarMarkCode
SELECT * 
 FROM online_carmark 
 WHERE carmakcod = 'JK-TO175' 
 ORDER BY desc_t, carmakcod 

27/3/2014  22:23 >> Application_Name >> getDataPremium
exec sp_calonlineweb 'Y','110','1','3','5 ','JK-TO175','2000','A','A',406125,496375,'0',0

27/3/2014  22:23 >> Application_Name >> getDataPremium
exec sp_calonlineweb 'Y','110','2','3','5 ','JK-TO175','2000','A','A',406125,496375,'0',0

27/3/2014  22:23 >> Application_Name >> getDataPremium
exec sp_calonlineweb 'Y','110','3','3','5 ','JK-TO175','2000','A','A',0,0,'0',0

27/3/2014  22:26 >> Application_Name >> getDataPremium
exec sp_calonlineweb 'N','110','1','3','5 ','JK-TO175','2000','A','A',406125,496375,'0',0

27/3/2014  22:26 >> Application_Name >> getDataPremium
exec sp_calonlineweb 'N','110','2','3','5 ','JK-TO175','2000','A','A',406125,496375,'0',0

27/3/2014  22:26 >> Application_Name >> getDataPremium
exec sp_calonlineweb 'N','110','3','3','5 ','JK-TO175','2000','A','A',0,0,'0',0

27/3/2014  23:24 >> Application_Name >> getDataCarMarkByCarMarkCode
SELECT * 
 FROM online_carmark 
 WHERE carmakcod = '' 
 ORDER BY desc_t, carmakcod 

27/3/2014  23:24 >> Application_Name >> getDataCarMarkByCarMarkCode
SELECT * 
 FROM online_carmark 
 WHERE carmakcod = 'JK-SZ004' 
 ORDER BY desc_t, carmakcod 

27/3/2014  23:24 >> Application_Name >> getDataPremium
exec sp_calonlineweb 'Y','110','1','2','5 ','JK-SZ004','2000','A','A',342000,380000,'0',0

27/3/2014  23:24 >> Application_Name >> getDataPremium
exec sp_calonlineweb 'Y','110','2','2','5 ','JK-SZ004','2000','A','A',342000,380000,'0',0

27/3/2014  23:24 >> Application_Name >> getDataPremium
exec sp_calonlineweb 'Y','110','3','2','5 ','JK-SZ004','2000','A','A',0,0,'0',0

27/3/2014  23:25 >> Application_Name >> getDataPremium
exec sp_calonlineweb 'Y','110','1','2','5 ','JK-SZ004','2000','A','A',342000,380000,'0',20

27/3/2014  23:25 >> Application_Name >> getDataPremium
exec sp_calonlineweb 'Y','110','2','2','5 ','JK-SZ004','2000','A','A',342000,380000,'0',20

27/3/2014  23:25 >> Application_Name >> getDataPremium
exec sp_calonlineweb 'Y','110','3','2','5 ','JK-SZ004','2000','A','A',0,0,'0',20

27/3/2014  23:25 >> Application_Name >> getDataPremium
exec sp_calonlineweb 'Y','110','1','2','5 ','JK-SZ004','2000','A','A',342000,380000,'18',20

27/3/2014  23:25 >> Application_Name >> getDataPremium
exec sp_calonlineweb 'Y','110','2','2','5 ','JK-SZ004','2000','A','A',342000,380000,'18',20

27/3/2014  23:25 >> Application_Name >> getDataPremium
exec sp_calonlineweb 'Y','110','3','2','5 ','JK-SZ004','2000','A','A',0,0,'18',20

27/3/2014  23:25 >> Application_Name >> getDataPremium
exec sp_calonlineweb 'Y','110','1','2','5 ','JK-SZ004','2000','A','A',342000,380000,'18',20

27/3/2014  23:25 >> Application_Name >> getDataPremium
exec sp_calonlineweb 'Y','110','2','2','5 ','JK-SZ004','2000','A','A',342000,380000,'18',20

27/3/2014  23:25 >> Application_Name >> getDataPremium
exec sp_calonlineweb 'Y','110','3','2','5 ','JK-SZ004','2000','A','A',0,0,'18',20

27/3/2014  23:38 >> Application_Name >> getDataPremium
exec sp_calonlineweb 'Y','110','1','2','5 ','JK-SZ004','2000','A','A',342000,380000,'25',20

27/3/2014  23:38 >> Application_Name >> getDataPremium
exec sp_calonlineweb 'Y','110','2','2','5 ','JK-SZ004','2000','A','A',342000,380000,'25',20

27/3/2014  23:38 >> Application_Name >> getDataPremium
exec sp_calonlineweb 'Y','110','3','2','5 ','JK-SZ004','2000','A','A',0,0,'25',20

27/3/2014  23:38 >> Application_Name >> getDataPremium
exec sp_calonlineweb 'Y','110','1','2','5 ','JK-SZ004','2000','A','A',342000,380000,'0',20

27/3/2014  23:38 >> Application_Name >> getDataPremium
exec sp_calonlineweb 'Y','110','2','2','5 ','JK-SZ004','2000','A','A',342000,380000,'0',20

27/3/2014  23:38 >> Application_Name >> getDataPremium
exec sp_calonlineweb 'Y','110','3','2','5 ','JK-SZ004','2000','A','A',0,0,'0',20

27/3/2014  23:40 >> Application_Name >> getDataPremium
exec sp_calonlineweb 'Y','110','1','2','5 ','JK-SZ004','2000','A','A',342000,380000,'25',20

27/3/2014  23:40 >> Application_Name >> getDataPremium
exec sp_calonlineweb 'Y','110','2','2','5 ','JK-SZ004','2000','A','A',342000,380000,'25',20

27/3/2014  23:40 >> Application_Name >> getDataPremium
exec sp_calonlineweb 'Y','110','3','2','5 ','JK-SZ004','2000','A','A',0,0,'25',20

27/3/2014  23:55 >> Application_Name >> getDataCarMarkByCarMarkCode
SELECT * 
 FROM online_carmark 
 WHERE carmakcod = '' 
 ORDER BY desc_t, carmakcod 

27/3/2014  23:55 >> Application_Name >> getDataCarMarkByCarMarkCode
SELECT * 
 FROM online_carmark 
 WHERE carmakcod = 'JK-NI028' 
 ORDER BY desc_t, carmakcod 

27/3/2014  23:55 >> Application_Name >> getDataPremium
exec sp_calonlineweb 'Y','110','1','2','5 ','JK-NI028','2000','A','A',367650,449350,'0',20

27/3/2014  23:55 >> Application_Name >> getDataPremium
exec sp_calonlineweb 'Y','110','2','2','5 ','JK-NI028','2000','A','A',367650,449350,'0',20

27/3/2014  23:55 >> Application_Name >> getDataPremium
exec sp_calonlineweb 'Y','110','3','2','5 ','JK-NI028','2000','A','A',0,0,'0',20

27/3/2014  23:56 >> Application_Name >> getDataPremium
exec sp_calonlineweb 'Y','110','1','2','5 ','JK-NI028','2000','A','A',367650,449350,'25',20

27/3/2014  23:56 >> Application_Name >> getDataPremium
exec sp_calonlineweb 'Y','110','2','2','5 ','JK-NI028','2000','A','A',367650,449350,'25',20

27/3/2014  23:56 >> Application_Name >> getDataPremium
exec sp_calonlineweb 'Y','110','3','2','5 ','JK-NI028','2000','A','A',0,0,'25',20

