29/5/2014  0:28 >> Application_Name >> getDataCarMarkByCarMarkCode
SELECT * 
 FROM online_carmark 
 WHERE carmakcod = '' 
 ORDER BY desc_t, carmakcod 

29/5/2014  0:28 >> Application_Name >> getDataCarMarkByCarMarkCode
SELECT * 
 FROM online_carmark 
 WHERE carmakcod = 'JK-TO019' 
 ORDER BY desc_t, carmakcod 

29/5/2014  0:31 >> Application_Name >> getDataPremium
exec sp_calonlineweb 'Y','110','1','3','4 ','JK-TO019','2000','A','A',633555,774345,'36',30

29/5/2014  0:31 >> Application_Name >> getDataPremium
exec sp_calonlineweb 'Y','110','2','3','4 ','JK-TO019','2000','A','A',633555,774345,'36',30

29/5/2014  0:31 >> Application_Name >> getDataPremium
exec sp_calonlineweb 'Y','110','3','3','4 ','JK-TO019','2000','A','A',0,0,'36',30

29/5/2014  0:58 >> Application_Name >> getDataCarMarkByCarMarkCode
SELECT * 
 FROM online_carmark 
 WHERE carmakcod = '' 
 ORDER BY desc_t, carmakcod 

29/5/2014  0:58 >> Application_Name >> getDataCarMarkByCarMarkCode
SELECT * 
 FROM online_carmark 
 WHERE carmakcod = '' 
 ORDER BY desc_t, carmakcod 

29/5/2014  0:58 >> Application_Name >> getDataCarMarkByCarMarkCode
SELECT * 
 FROM online_carmark 
 WHERE carmakcod = 'JK-SZ004' 
 ORDER BY desc_t, carmakcod 

29/5/2014  1:0 >> Application_Name >> getDataPremium
exec sp_calonlineweb 'Y','110','1','2','5 ','JK-SZ004','2000','A','A',342000,380000,'0',0

29/5/2014  1:0 >> Application_Name >> getDataPremium
exec sp_calonlineweb 'Y','110','2','2','5 ','JK-SZ004','2000','A','A',342000,380000,'0',0

29/5/2014  1:0 >> Application_Name >> getDataPremium
exec sp_calonlineweb 'Y','110','3','2','5 ','JK-SZ004','2000','A','A',0,0,'0',0

29/5/2014  6:24 >> Application_Name >> getDataCarMarkByCarMarkCode
SELECT * 
 FROM online_carmark 
 WHERE carmakcod = '' 
 ORDER BY desc_t, carmakcod 

29/5/2014  6:24 >> Application_Name >> getDataCarMarkByCarMarkCode
SELECT * 
 FROM online_carmark 
 WHERE carmakcod = '' 
 ORDER BY desc_t, carmakcod 

29/5/2014  6:25 >> Application_Name >> getDataCarMarkByCarMarkCode
SELECT * 
 FROM online_carmark 
 WHERE carmakcod = 'JK-HO001' 
 ORDER BY desc_t, carmakcod 

29/5/2014  6:27 >> Application_Name >> getDataPremium
exec sp_calonlineweb 'N','110','1','5','5 ','JK-HO001','2000','A','A',403180.59375,492776.28125,'0',30

29/5/2014  6:27 >> Application_Name >> getDataPremium
exec sp_calonlineweb 'N','110','2','5','5 ','JK-HO001','2000','A','A',403180.59375,492776.28125,'0',30

29/5/2014  6:27 >> Application_Name >> getDataPremium
exec sp_calonlineweb 'N','110','3','5','5 ','JK-HO001','2000','A','A',0,0,'0',30

29/5/2014  7:30 >> Application_Name >> getDataCarMarkByCarMarkCode
SELECT * 
 FROM online_carmark 
 WHERE carmakcod = '' 
 ORDER BY desc_t, carmakcod 

29/5/2014  7:30 >> Application_Name >> getDataCarMarkByCarMarkCode
SELECT * 
 FROM online_carmark 
 WHERE carmakcod = 'JK-TO242' 
 ORDER BY desc_t, carmakcod 

29/5/2014  7:43 >> Application_Name >> getDataCarMarkByCarMarkCode
SELECT * 
 FROM online_carmark 
 WHERE carmakcod = '' 
 ORDER BY desc_t, carmakcod 

29/5/2014  7:43 >> Application_Name >> getDataCarMarkByCarMarkCode
SELECT * 
 FROM online_carmark 
 WHERE carmakcod = 'JK-HO001' 
 ORDER BY desc_t, carmakcod 

29/5/2014  7:46 >> Application_Name >> getDataPremium
exec sp_calonlineweb 'N','110','1','2','5 ','JK-HO001','2000','A','A',470250,574750,'36',20

29/5/2014  7:46 >> Application_Name >> getDataPremium
exec sp_calonlineweb 'N','110','2','2','5 ','JK-HO001','2000','A','A',470250,574750,'36',20

29/5/2014  7:46 >> Application_Name >> getDataPremium
exec sp_calonlineweb 'N','110','3','2','5 ','JK-HO001','2000','A','A',0,0,'36',20

29/5/2014  7:47 >> Application_Name >> getDataPremium
exec sp_calonlineweb 'N','110','1','2','5 ','JK-HO001','2000','A','A',470250,574750,'0',20

29/5/2014  7:47 >> Application_Name >> getDataPremium
exec sp_calonlineweb 'N','110','2','2','5 ','JK-HO001','2000','A','A',470250,574750,'0',20

29/5/2014  7:47 >> Application_Name >> getDataPremium
exec sp_calonlineweb 'N','110','3','2','5 ','JK-HO001','2000','A','A',0,0,'0',20

29/5/2014  7:51 >> Application_Name >> getDataCarMarkByCarMarkCode
SELECT * 
 FROM online_carmark 
 WHERE carmakcod = '' 
 ORDER BY desc_t, carmakcod 

29/5/2014  7:51 >> Application_Name >> getDataCarMarkByCarMarkCode
SELECT * 
 FROM online_carmark 
 WHERE carmakcod = 'JK-HO001' 
 ORDER BY desc_t, carmakcod 

29/5/2014  7:52 >> Application_Name >> getDataPremium
exec sp_calonlineweb 'Y','110','1','2','5 ','JK-HO001','2000','A','A',470250,574750,'0',20

29/5/2014  7:52 >> Application_Name >> getDataPremium
exec sp_calonlineweb 'Y','110','2','2','5 ','JK-HO001','2000','A','A',470250,574750,'0',20

29/5/2014  7:52 >> Application_Name >> getDataPremium
exec sp_calonlineweb 'Y','110','3','2','5 ','JK-HO001','2000','A','A',0,0,'0',20

29/5/2014  8:58 >> Application_Name >> getDataCarMarkByCarMarkCode
SELECT * 
 FROM online_carmark 
 WHERE carmakcod = 'EK-BE051' 
 ORDER BY desc_t, carmakcod 

29/5/2014  9:15 >> Application_Name >> getDataCarMarkByCarMarkCode
SELECT * 
 FROM online_carmark 
 WHERE carmakcod = '' 
 ORDER BY desc_t, carmakcod 

29/5/2014  9:15 >> Application_Name >> getDataCarMarkByCarMarkCode
SELECT * 
 FROM online_carmark 
 WHERE carmakcod = '' 
 ORDER BY desc_t, carmakcod 

29/5/2014  9:21 >> Application_Name >> getDataCarMarkByCarMarkCode
SELECT * 
 FROM online_carmark 
 WHERE carmakcod = '' 
 ORDER BY desc_t, carmakcod 

29/5/2014  9:27 >> Application_Name >> getDataCarMarkByCarMarkCode
SELECT * 
 FROM online_carmark 
 WHERE carmakcod = '' 
 ORDER BY desc_t, carmakcod 

29/5/2014  9:27 >> Application_Name >> getDataCarMarkByCarMarkCode
SELECT * 
 FROM online_carmark 
 WHERE carmakcod = 'JK-MI002' 
 ORDER BY desc_t, carmakcod 

29/5/2014  9:31 >> Application_Name >> getDataCarMarkByCarMarkCode
SELECT * 
 FROM online_carmark 
 WHERE carmakcod = '' 
 ORDER BY desc_t, carmakcod 

29/5/2014  9:31 >> Application_Name >> getDataCarMarkByCarMarkCode
SELECT * 
 FROM online_carmark 
 WHERE carmakcod = 'JK-HO116' 
 ORDER BY desc_t, carmakcod 

29/5/2014  9:37 >> Application_Name >> getDataCarMarkByCarMarkCode
SELECT * 
 FROM online_carmark 
 WHERE carmakcod = '' 
 ORDER BY desc_t, carmakcod 

29/5/2014  9:37 >> Application_Name >> getDataCarMarkByCarMarkCode
SELECT * 
 FROM online_carmark 
 WHERE carmakcod = '' 
 ORDER BY desc_t, carmakcod 

29/5/2014  9:37 >> Application_Name >> getDataCarMarkByCarMarkCode
SELECT * 
 FROM online_carmark 
 WHERE carmakcod = 'JP-TO047' 
 ORDER BY desc_t, carmakcod 

29/5/2014  9:38 >> Application_Name >> getDataPremium
exec sp_calonlineweb 'N','320','1','21','A','','4','N','A',158020.594597686,174654.341397441,'0',0

29/5/2014  9:38 >> Application_Name >> getDataPremium
exec sp_calonlineweb 'N','320','2','21','A','','4','N','A',158020.594597686,174654.341397441,'0',0

29/5/2014  9:38 >> Application_Name >> getDataPremium
exec sp_calonlineweb 'N','320','3','21','A','','4','N','A',0,0,'0',0

29/5/2014  9:47 >> Application_Name >> getDataCarMarkByCarMarkCode
SELECT * 
 FROM online_carmark 
 WHERE carmakcod = '' 
 ORDER BY desc_t, carmakcod 

29/5/2014  9:47 >> Application_Name >> getDataCarMarkByCarMarkCode
SELECT * 
 FROM online_carmark 
 WHERE carmakcod = 'JK-HO001' 
 ORDER BY desc_t, carmakcod 

29/5/2014  9:49 >> Application_Name >> getDataPremium
exec sp_calonlineweb 'N','110','1','2','5 ','JK-HO001','2000','A','A',470250,574750,'0',0

29/5/2014  9:49 >> Application_Name >> getDataPremium
exec sp_calonlineweb 'N','110','2','2','5 ','JK-HO001','2000','A','A',470250,574750,'0',0

29/5/2014  9:49 >> Application_Name >> getDataPremium
exec sp_calonlineweb 'N','110','3','2','5 ','JK-HO001','2000','A','A',0,0,'0',0

29/5/2014  10:7 >> Application_Name >> getDataCarMarkByCarMarkCode
SELECT * 
 FROM online_carmark 
 WHERE carmakcod = '' 
 ORDER BY desc_t, carmakcod 

29/5/2014  10:9 >> Application_Name >> getDataCarMarkByCarMarkCode
SELECT * 
 FROM online_carmark 
 WHERE carmakcod = '' 
 ORDER BY desc_t, carmakcod 

29/5/2014  10:9 >> Application_Name >> getDataCarMarkByCarMarkCode
SELECT * 
 FROM online_carmark 
 WHERE carmakcod = 'JK-NI028' 
 ORDER BY desc_t, carmakcod 

29/5/2014  10:19 >> Application_Name >> getDataCarMarkByCarMarkCode
SELECT * 
 FROM online_carmark 
 WHERE carmakcod = '' 
 ORDER BY desc_t, carmakcod 

29/5/2014  10:19 >> Application_Name >> getDataCarMarkByCarMarkCode
SELECT * 
 FROM online_carmark 
 WHERE carmakcod = 'JK-NI028' 
 ORDER BY desc_t, carmakcod 

29/5/2014  10:20 >> Application_Name >> getDataPremium
exec sp_calonlineweb 'Y','110','1','3','5 ','JK-NI028','2000','A','A',349267.5,426882.5,'0',0

29/5/2014  10:20 >> Application_Name >> getDataPremium
exec sp_calonlineweb 'Y','110','2','3','5 ','JK-NI028','2000','A','A',349267.5,426882.5,'0',0

29/5/2014  10:20 >> Application_Name >> getDataPremium
exec sp_calonlineweb 'Y','110','3','3','5 ','JK-NI028','2000','A','A',0,0,'0',0

29/5/2014  10:21 >> Application_Name >> getCategoryCompByBrand
SELECT mdc_minor_cd , mdc_desc_t as mdc_desc FROM mtdesc_comp  WHERE mdc_minor_cd <> '0000' AND mdc_major_cd = 'T001' ORDER BY mdc_desc 

29/5/2014  10:21 >> Application_Name >> getDataCarMarkByCarMarkCode
SELECT * 
 FROM online_carmark 
 WHERE carmakcod = '' 
 ORDER BY desc_t, carmakcod 

29/5/2014  10:21 >> Application_Name >> getDataCarMarkByCarMarkCode
SELECT * 
 FROM online_carmark 
 WHERE carmakcod = 'JK-MA065' 
 ORDER BY desc_t, carmakcod 

29/5/2014  10:22 >> Application_Name >> getDataCarMarkByCarMarkCode
SELECT * 
 FROM online_carmark 
 WHERE carmakcod = '' 
 ORDER BY desc_t, carmakcod 

29/5/2014  10:22 >> Application_Name >> getDataCarMarkByCarMarkCode
SELECT * 
 FROM online_carmark 
 WHERE carmakcod = 'JK-HO001' 
 ORDER BY desc_t, carmakcod 

29/5/2014  10:24 >> Application_Name >> getDataPremium
exec sp_calonlineweb 'Y','110','1','3','5 ','JK-HO001','2000','A','A',446737.5,546012.5,'0',0

29/5/2014  10:24 >> Application_Name >> getDataPremium
exec sp_calonlineweb 'Y','110','2','3','5 ','JK-HO001','2000','A','A',446737.5,546012.5,'0',0

29/5/2014  10:24 >> Application_Name >> getDataPremium
exec sp_calonlineweb 'Y','110','3','3','5 ','JK-HO001','2000','A','A',0,0,'0',0

29/5/2014  10:25 >> Application_Name >> getDataPremium
exec sp_calonlineweb 'N','110','1','3','5 ','JK-HO001','2000','A','A',446737.5,546012.5,'0',0

29/5/2014  10:25 >> Application_Name >> getDataPremium
exec sp_calonlineweb 'N','110','2','3','5 ','JK-HO001','2000','A','A',446737.5,546012.5,'0',0

29/5/2014  10:25 >> Application_Name >> getDataPremium
exec sp_calonlineweb 'N','110','3','3','5 ','JK-HO001','2000','A','A',0,0,'0',0

29/5/2014  10:26 >> Application_Name >> getDataCarMarkByCarMarkCode
SELECT * 
 FROM online_carmark 
 WHERE carmakcod = '' 
 ORDER BY desc_t, carmakcod 

29/5/2014  10:26 >> Application_Name >> getDataCarMarkByCarMarkCode
SELECT * 
 FROM online_carmark 
 WHERE carmakcod = 'JK-MA065' 
 ORDER BY desc_t, carmakcod 

29/5/2014  10:27 >> Application_Name >> getDataCarMarkByCarMarkCode
SELECT * 
 FROM online_carmark 
 WHERE carmakcod = '' 
 ORDER BY desc_t, carmakcod 

29/5/2014  10:27 >> Application_Name >> getDataCarMarkByCarMarkCode
SELECT * 
 FROM online_carmark 
 WHERE carmakcod = 'JK-HO001' 
 ORDER BY desc_t, carmakcod 

29/5/2014  10:28 >> Application_Name >> getDataPremium
exec sp_calonlineweb 'N','110','1','2','5 ','JK-HO001','2000','A','A',470250,574750,'0',0

29/5/2014  10:28 >> Application_Name >> getDataPremium
exec sp_calonlineweb 'N','110','2','2','5 ','JK-HO001','2000','A','A',470250,574750,'0',0

29/5/2014  10:28 >> Application_Name >> getDataPremium
exec sp_calonlineweb 'N','110','3','2','5 ','JK-HO001','2000','A','A',0,0,'0',0

29/5/2014  10:31 >> Application_Name >> getDataCarMarkByCarMarkCode
SELECT * 
 FROM online_carmark 
 WHERE carmakcod = '' 
 ORDER BY desc_t, carmakcod 

29/5/2014  10:32 >> Application_Name >> getDataPremium
exec sp_calonlineweb 'Y','110','1','2','5 ','JK-MA065','2000','A','A',478800,585200,'36',20

29/5/2014  10:32 >> Application_Name >> getDataPremium
exec sp_calonlineweb 'Y','110','2','2','5 ','JK-MA065','2000','A','A',478800,585200,'36',20

29/5/2014  10:32 >> Application_Name >> getDataPremium
exec sp_calonlineweb 'Y','110','3','2','5 ','JK-MA065','2000','A','A',0,0,'36',20

29/5/2014  10:32 >> Application_Name >> getDataCarMarkByCarMarkCode
SELECT * 
 FROM online_carmark 
 WHERE carmakcod = 'JK-MA065' 
 ORDER BY desc_t, carmakcod 

29/5/2014  10:33 >> Application_Name >> getDataPremium
exec sp_calonlineweb 'Y','110','1','2','5 ','JK-MA065','2000','A','A',478800,585200,'36',20

29/5/2014  10:33 >> Application_Name >> getDataPremium
exec sp_calonlineweb 'Y','110','2','2','5 ','JK-MA065','2000','A','A',478800,585200,'36',20

29/5/2014  10:33 >> Application_Name >> getDataPremium
exec sp_calonlineweb 'Y','110','3','2','5 ','JK-MA065','2000','A','A',0,0,'36',20

29/5/2014  10:33 >> Application_Name >> getDataPremium
exec sp_calonlineweb 'Y','110','1','2','5 ','JK-MA065','2000','A','A',478800,585200,'36',20

29/5/2014  10:33 >> Application_Name >> getDataPremium
exec sp_calonlineweb 'Y','110','2','2','5 ','JK-MA065','2000','A','A',478800,585200,'36',20

29/5/2014  10:33 >> Application_Name >> getDataPremium
exec sp_calonlineweb 'Y','110','3','2','5 ','JK-MA065','2000','A','A',0,0,'36',20

29/5/2014  10:40 >> Application_Name >> getDataCarMarkByCarMarkCode
SELECT * 
 FROM online_carmark 
 WHERE carmakcod = '' 
 ORDER BY desc_t, carmakcod 

29/5/2014  10:40 >> Application_Name >> getDataCarMarkByCarMarkCode
SELECT * 
 FROM online_carmark 
 WHERE carmakcod = 'JK-HO001' 
 ORDER BY desc_t, carmakcod 

29/5/2014  10:41 >> Application_Name >> getDataPremium
exec sp_calonlineweb 'Y','110','1','2','5 ','JK-HO001','2000','A','A',470250,574750,'0',20

29/5/2014  10:41 >> Application_Name >> getDataPremium
exec sp_calonlineweb 'Y','110','2','2','5 ','JK-HO001','2000','A','A',470250,574750,'0',20

29/5/2014  10:41 >> Application_Name >> getDataPremium
exec sp_calonlineweb 'Y','110','3','2','5 ','JK-HO001','2000','A','A',0,0,'0',20

29/5/2014  10:41 >> Application_Name >> getDataCarMarkByCarMarkCode
SELECT * 
 FROM online_carmark 
 WHERE carmakcod = '' 
 ORDER BY desc_t, carmakcod 

29/5/2014  10:41 >> Application_Name >> getDataCarMarkByCarMarkCode
SELECT * 
 FROM online_carmark 
 WHERE carmakcod = 'JK-HO084' 
 ORDER BY desc_t, carmakcod 

29/5/2014  10:46 >> Application_Name >> getDataCarMarkByCarMarkCode
SELECT * 
 FROM online_carmark 
 WHERE carmakcod = '' 
 ORDER BY desc_t, carmakcod 

29/5/2014  10:46 >> Application_Name >> getDataCarMarkByCarMarkCode
SELECT * 
 FROM online_carmark 
 WHERE carmakcod = 'JK-NI029' 
 ORDER BY desc_t, carmakcod 

29/5/2014  10:46 >> Application_Name >> getDataCarMarkByCarMarkCode
SELECT * 
 FROM online_carmark 
 WHERE carmakcod = 'JK-NI100' 
 ORDER BY desc_t, carmakcod 

29/5/2014  10:47 >> Application_Name >> getDataCarMarkByCarMarkCode
SELECT * 
 FROM online_carmark 
 WHERE carmakcod = '' 
 ORDER BY desc_t, carmakcod 

29/5/2014  10:47 >> Application_Name >> getDataCarMarkByCarMarkCode
SELECT * 
 FROM online_carmark 
 WHERE carmakcod = 'JK-HO001' 
 ORDER BY desc_t, carmakcod 

29/5/2014  10:48 >> Application_Name >> getDataPremium
exec sp_calonlineweb 'Y','110','1','2','5 ','JK-NI100','2000','A','A',380000,418000,'0',20

29/5/2014  10:48 >> Application_Name >> getDataPremium
exec sp_calonlineweb 'Y','110','2','2','5 ','JK-NI100','2000','A','A',380000,418000,'0',20

29/5/2014  10:48 >> Application_Name >> getDataPremium
exec sp_calonlineweb 'Y','110','3','2','5 ','JK-NI100','2000','A','A',0,0,'0',20

29/5/2014  10:49 >> Application_Name >> SMK :: BuyVoluntary_step2-docToUI
Combine

29/5/2014  10:49 >> Application_Name >> SMK :: BuyVoluntary_step2-docToUI
rg_prmm-011562.4

29/5/2014  10:49 >> Application_Name >> SMK :: BuyVoluntary_step2-docToUI
rg_prmm11562.4

29/5/2014  10:49 >> Application_Name >> SMK :: BuyVoluntary_step2-docToUI
cp_comp_prmm600.00

29/5/2014  10:49 >> Application_Name >> getDataPremium
exec sp_calonlineweb 'Y','110','1','2','5 ','JK-NI100','2000','A','A',380000,418000,'0',20

29/5/2014  10:49 >> Application_Name >> getDataPremium
exec sp_calonlineweb 'Y','110','2','2','5 ','JK-NI100','2000','A','A',380000,418000,'0',20

29/5/2014  10:49 >> Application_Name >> getDataPremium
exec sp_calonlineweb 'Y','110','3','2','5 ','JK-NI100','2000','A','A',0,0,'0',20

29/5/2014  10:55 >> Application_Name >> getDataCarMarkByCarMarkCode
SELECT * 
 FROM online_carmark 
 WHERE carmakcod = '' 
 ORDER BY desc_t, carmakcod 

29/5/2014  10:55 >> Application_Name >> getDataCarMarkByCarMarkCode
SELECT * 
 FROM online_carmark 
 WHERE carmakcod = 'JK-NI100' 
 ORDER BY desc_t, carmakcod 

29/5/2014  10:57 >> Application_Name >> getDataCarMarkByCarMarkCode
SELECT * 
 FROM online_carmark 
 WHERE carmakcod = '' 
 ORDER BY desc_t, carmakcod 

29/5/2014  10:57 >> Application_Name >> getDataCarMarkByCarMarkCode
SELECT * 
 FROM online_carmark 
 WHERE carmakcod = 'JK-NI100' 
 ORDER BY desc_t, carmakcod 

29/5/2014  10:59 >> Application_Name >> getDataPremium
exec sp_calonlineweb 'Y','110','1','3','5 ','JK-NI100','2000','A','A',361000,397100,'0',0

29/5/2014  10:59 >> Application_Name >> getDataPremium
exec sp_calonlineweb 'Y','110','2','3','5 ','JK-NI100','2000','A','A',361000,397100,'0',0

29/5/2014  10:59 >> Application_Name >> getDataPremium
exec sp_calonlineweb 'Y','110','3','3','5 ','JK-NI100','2000','A','A',0,0,'0',0

29/5/2014  11:1 >> Application_Name >> getDataCarMarkByCarMarkCode
SELECT * 
 FROM online_carmark 
 WHERE carmakcod = '' 
 ORDER BY desc_t, carmakcod 

29/5/2014  11:1 >> Application_Name >> getDataCarMarkByCarMarkCode
SELECT * 
 FROM online_carmark 
 WHERE carmakcod = 'JK-SZ004' 
 ORDER BY desc_t, carmakcod 

29/5/2014  11:2 >> Application_Name >> getDataPremium
exec sp_calonlineweb 'Y','110','1','2','5 ','JK-SZ004','2000','A','A',342000,380000,'0',20

29/5/2014  11:2 >> Application_Name >> getDataPremium
exec sp_calonlineweb 'Y','110','2','2','5 ','JK-SZ004','2000','A','A',342000,380000,'0',20

29/5/2014  11:2 >> Application_Name >> getDataPremium
exec sp_calonlineweb 'Y','110','3','2','5 ','JK-SZ004','2000','A','A',0,0,'0',20

29/5/2014  11:6 >> Application_Name >> getDataCarMarkByCarMarkCode
SELECT * 
 FROM online_carmark 
 WHERE carmakcod = '' 
 ORDER BY desc_t, carmakcod 

29/5/2014  11:6 >> Application_Name >> getDataCarMarkByCarMarkCode
SELECT * 
 FROM online_carmark 
 WHERE carmakcod = 'JK-HO084' 
 ORDER BY desc_t, carmakcod 

29/5/2014  11:7 >> Application_Name >> getDataPremium
exec sp_calonlineweb 'Y','110','1','2','5 ','JK-HO084','2000','A','A',487350,595650,'0',0

29/5/2014  11:7 >> Application_Name >> getDataPremium
exec sp_calonlineweb 'Y','110','2','2','5 ','JK-HO084','2000','A','A',487350,595650,'0',0

29/5/2014  11:7 >> Application_Name >> getDataPremium
exec sp_calonlineweb 'Y','110','3','2','5 ','JK-HO084','2000','A','A',0,0,'0',0

29/5/2014  11:15 >> Application_Name >> getDataCarMarkByCarMarkCode
SELECT * 
 FROM online_carmark 
 WHERE carmakcod = '' 
 ORDER BY desc_t, carmakcod 

29/5/2014  11:15 >> Application_Name >> getDataCarMarkByCarMarkCode
SELECT * 
 FROM online_carmark 
 WHERE carmakcod = 'JK-SZ004' 
 ORDER BY desc_t, carmakcod 

29/5/2014  11:16 >> Application_Name >> getDataPremium
exec sp_calonlineweb 'Y','110','1','2','5 ','JK-SZ004','2000','A','A',342000,380000,'0',20

29/5/2014  11:16 >> Application_Name >> getDataPremium
exec sp_calonlineweb 'Y','110','2','2','5 ','JK-SZ004','2000','A','A',342000,380000,'0',20

29/5/2014  11:16 >> Application_Name >> getDataPremium
exec sp_calonlineweb 'Y','110','3','2','5 ','JK-SZ004','2000','A','A',0,0,'0',20

29/5/2014  11:16 >> Application_Name >> SMK :: BuyVoluntary_step2-docToUI
Combine

29/5/2014  11:16 >> Application_Name >> SMK :: BuyVoluntary_step2-docToUI
rg_prmm-010994.4

29/5/2014  11:16 >> Application_Name >> SMK :: BuyVoluntary_step2-docToUI
rg_prmm10994.4

29/5/2014  11:16 >> Application_Name >> SMK :: BuyVoluntary_step2-docToUI
cp_comp_prmm600.00

29/5/2014  11:18 >> Application_Name >> SMK :: BuyVoluntary_step2-docToUI
Combine

29/5/2014  11:18 >> Application_Name >> SMK :: BuyVoluntary_step2-docToUI
rg_prmm-010994.4

29/5/2014  11:18 >> Application_Name >> SMK :: BuyVoluntary_step2-docToUI
rg_prmm10994.4

29/5/2014  11:18 >> Application_Name >> SMK :: BuyVoluntary_step2-docToUI
cp_comp_prmm600.00

29/5/2014  11:18 >> Application_Name >> getDataPremium
exec sp_calonlineweb 'Y','110','1','2','5 ','JK-SZ004','2000','A','A',342000,380000,'0',20

29/5/2014  11:18 >> Application_Name >> getDataPremium
exec sp_calonlineweb 'Y','110','2','2','5 ','JK-SZ004','2000','A','A',342000,380000,'0',20

29/5/2014  11:18 >> Application_Name >> getDataPremium
exec sp_calonlineweb 'Y','110','3','2','5 ','JK-SZ004','2000','A','A',0,0,'0',20

29/5/2014  11:18 >> Application_Name >> SMK :: BuyVoluntary_step2-docToUI
Combine

29/5/2014  11:18 >> Application_Name >> SMK :: BuyVoluntary_step2-docToUI
rg_prmm-010425.6

29/5/2014  11:18 >> Application_Name >> SMK :: BuyVoluntary_step2-docToUI
rg_prmm10425.6

29/5/2014  11:18 >> Application_Name >> SMK :: BuyVoluntary_step2-docToUI
cp_comp_prmm600.00

29/5/2014  11:19 >> Application_Name >> getDataPremium
exec sp_calonlineweb 'Y','110','1','2','5 ','JK-SZ004','2000','A','A',342000,380000,'0',20

29/5/2014  11:19 >> Application_Name >> getDataPremium
exec sp_calonlineweb 'Y','110','2','2','5 ','JK-SZ004','2000','A','A',342000,380000,'0',20

29/5/2014  11:19 >> Application_Name >> getDataPremium
exec sp_calonlineweb 'Y','110','3','2','5 ','JK-SZ004','2000','A','A',0,0,'0',20

29/5/2014  11:21 >> Application_Name >> getDataCarMarkByCarMarkCode
SELECT * 
 FROM online_carmark 
 WHERE carmakcod = '' 
 ORDER BY desc_t, carmakcod 

29/5/2014  11:21 >> Application_Name >> getDataCarMarkByCarMarkCode
SELECT * 
 FROM online_carmark 
 WHERE carmakcod = 'JK-NI077' 
 ORDER BY desc_t, carmakcod 

29/5/2014  11:22 >> Application_Name >> SMK :: BuyVoluntary_step2-docToUI
Combine

29/5/2014  11:22 >> Application_Name >> SMK :: BuyVoluntary_step2-docToUI
rg_prmm-010994.4

29/5/2014  11:22 >> Application_Name >> SMK :: BuyVoluntary_step2-docToUI
rg_prmm10994.4

29/5/2014  11:22 >> Application_Name >> SMK :: BuyVoluntary_step2-docToUI
cp_comp_prmm600.00

29/5/2014  11:22 >> Application_Name >> getDataPremium
exec sp_calonlineweb 'Y','110','1','2','5 ','JK-SZ004','2000','A','A',342000,380000,'0',20

29/5/2014  11:22 >> Application_Name >> getDataPremium
exec sp_calonlineweb 'Y','110','2','2','5 ','JK-SZ004','2000','A','A',342000,380000,'0',20

29/5/2014  11:22 >> Application_Name >> getDataPremium
exec sp_calonlineweb 'Y','110','3','2','5 ','JK-SZ004','2000','A','A',0,0,'0',20

29/5/2014  11:23 >> Application_Name >> SMK :: BuyVoluntary_step2-docToUI
Combine

29/5/2014  11:23 >> Application_Name >> SMK :: BuyVoluntary_step2-docToUI
rg_prmm-010994.4

29/5/2014  11:23 >> Application_Name >> SMK :: BuyVoluntary_step2-docToUI
rg_prmm10994.4

29/5/2014  11:23 >> Application_Name >> SMK :: BuyVoluntary_step2-docToUI
cp_comp_prmm600.00

29/5/2014  11:23 >> Application_Name >> getDataPremium
exec sp_calonlineweb 'Y','110','1','2','3 ','JK-NI077','2000','A','A',851238,940842,'0',30

29/5/2014  11:23 >> Application_Name >> getDataPremium
exec sp_calonlineweb 'Y','110','2','2','3 ','JK-NI077','2000','A','A',851238,940842,'0',30

29/5/2014  11:23 >> Application_Name >> getDataPremium
exec sp_calonlineweb 'Y','110','3','2','3 ','JK-NI077','2000','A','A',0,0,'0',30

29/5/2014  11:30 >> Application_Name >> SENDBACK : regis_no
90-01490

29/5/2014  11:30 >> Application_Name >> SENDBACK : HOSTRESP
00

29/5/2014  11:30 >> Application_Name >> SENDBACK : REFCODE
XXXXXXXXXXXX

29/5/2014  11:30 >> Application_Name >> SENDBACK : AUTHCODE
002519

29/5/2014  11:30 >> Application_Name >> SENDBACK : RETURNINV
000009001490

29/5/2014  11:30 >> Application_Name >> SENDBACK : UAID
XXXXXXXXXXXXXXXXXXXXXXXXXXXXXXXXXXXX

29/5/2014  11:30 >> Application_Name >> SENDBACK : CARDNUMBER
4966XXXXXXXX3011

29/5/2014  11:30 >> Application_Name >> SENDBACK : AMOUNT
000001245629

29/5/2014  11:30 >> Application_Name >> SENDBACK : CURISO
764

29/5/2014  11:30 >> Application_Name >> SENDBACK : FILLSPACE
VISACARDXXXXXXXXXXXX

29/5/2014  11:30 >> Application_Name >> RegisterManager.updateCreditResult :: SQL 
UPDATE CREDIT_POST SET cp_stat = '00'  WHERE cp_ref_no = '90-01490' 

29/5/2014  11:30 >> Application_Name >> SENDBACK : 90-01490:00
buyVoluntary_step4.aspx?regis_no=90-01490&paid_at=4

29/5/2014  11:38 >> Application_Name >> getDataCarMarkByCarMarkCode
SELECT * 
 FROM online_carmark 
 WHERE carmakcod = '' 
 ORDER BY desc_t, carmakcod 

29/5/2014  11:38 >> Application_Name >> getDataCarMarkByCarMarkCode
SELECT * 
 FROM online_carmark 
 WHERE carmakcod = 'JK-TO242' 
 ORDER BY desc_t, carmakcod 

29/5/2014  11:40 >> Application_Name >> getDataPremium
exec sp_calonlineweb 'Y','110','1','3','5 ','JK-TO242','2000','A','A',454860,555940,'25',30

29/5/2014  11:41 >> Application_Name >> getDataPremium
exec sp_calonlineweb 'Y','110','2','3','5 ','JK-TO242','2000','A','A',454860,555940,'25',30

29/5/2014  11:41 >> Application_Name >> getDataPremium
exec sp_calonlineweb 'Y','110','3','3','5 ','JK-TO242','2000','A','A',0,0,'25',30

29/5/2014  11:48 >> Application_Name >> getDataCarMarkByCarMarkCode
SELECT * 
 FROM online_carmark 
 WHERE carmakcod = '' 
 ORDER BY desc_t, carmakcod 

29/5/2014  11:48 >> Application_Name >> getDataCarMarkByCarMarkCode
SELECT * 
 FROM online_carmark 
 WHERE carmakcod = 'JK-TO242' 
 ORDER BY desc_t, carmakcod 

29/5/2014  11:54 >> Application_Name >> getDataCarMarkByCarMarkCode
SELECT * 
 FROM online_carmark 
 WHERE carmakcod = '' 
 ORDER BY desc_t, carmakcod 

29/5/2014  11:54 >> Application_Name >> getDataCarMarkByCarMarkCode
SELECT * 
 FROM online_carmark 
 WHERE carmakcod = 'JK-NI028' 
 ORDER BY desc_t, carmakcod 

29/5/2014  12:24 >> Application_Name >> getDataCarMarkByCarMarkCode
SELECT * 
 FROM online_carmark 
 WHERE carmakcod = '' 
 ORDER BY desc_t, carmakcod 

29/5/2014  12:24 >> Application_Name >> getDataCarMarkByCarMarkCode
SELECT * 
 FROM online_carmark 
 WHERE carmakcod = 'JK-HO001' 
 ORDER BY desc_t, carmakcod 

29/5/2014  12:34 >> Application_Name >> getDataCarMarkByCarMarkCode
SELECT * 
 FROM online_carmark 
 WHERE carmakcod = '' 
 ORDER BY desc_t, carmakcod 

29/5/2014  12:35 >> Application_Name >> getDataCarMarkByCarMarkCode
SELECT * 
 FROM online_carmark 
 WHERE carmakcod = 'JK-TO242' 
 ORDER BY desc_t, carmakcod 

29/5/2014  12:37 >> Application_Name >> getDataPremium
exec sp_calonlineweb 'Y','110','1','2','5 ','JK-TO242','2000','A','A',478800,585200,'18',0

29/5/2014  12:37 >> Application_Name >> getDataPremium
exec sp_calonlineweb 'Y','110','2','2','5 ','JK-TO242','2000','A','A',478800,585200,'18',0

29/5/2014  12:37 >> Application_Name >> getDataPremium
exec sp_calonlineweb 'Y','110','3','2','5 ','JK-TO242','2000','A','A',0,0,'18',0

29/5/2014  12:38 >> Application_Name >> getDataPremium
exec sp_calonlineweb 'Y','110','1','2','5 ','JK-TO242','2000','A','A',478800,585200,'18',20

29/5/2014  12:38 >> Application_Name >> getDataPremium
exec sp_calonlineweb 'Y','110','2','2','5 ','JK-TO242','2000','A','A',478800,585200,'18',20

29/5/2014  12:38 >> Application_Name >> getDataPremium
exec sp_calonlineweb 'Y','110','3','2','5 ','JK-TO242','2000','A','A',0,0,'18',20

29/5/2014  12:38 >> Application_Name >> SMK :: BuyVoluntary_step2-docToUI
Combine

29/5/2014  12:38 >> Application_Name >> SMK :: BuyVoluntary_step2-docToUI
rg_prmm-012964.8

29/5/2014  12:38 >> Application_Name >> SMK :: BuyVoluntary_step2-docToUI
rg_prmm12964.8

29/5/2014  12:38 >> Application_Name >> SMK :: BuyVoluntary_step2-docToUI
cp_comp_prmm600.00

29/5/2014  12:47 >> Application_Name >> getCategoryCompByBrand
SELECT mdc_minor_cd , mdc_desc_t as mdc_desc FROM mtdesc_comp  WHERE mdc_minor_cd <> '0000' AND mdc_major_cd = 'S003' ORDER BY mdc_desc 

29/5/2014  12:59 >> Application_Name >> getDataPremium
exec sp_calonlineweb 'Y','110','1','3','5 ','JK-TO242','2000','A','A',454860,555940,'25',20

29/5/2014  12:59 >> Application_Name >> getDataPremium
exec sp_calonlineweb 'Y','110','2','3','5 ','JK-TO242','2000','A','A',454860,555940,'25',20

29/5/2014  12:59 >> Application_Name >> getDataPremium
exec sp_calonlineweb 'Y','110','3','3','5 ','JK-TO242','2000','A','A',0,0,'25',20

29/5/2014  13:2 >> Application_Name >> getDataCarMarkByCarMarkCode
SELECT * 
 FROM online_carmark 
 WHERE carmakcod = '' 
 ORDER BY desc_t, carmakcod 

29/5/2014  13:3 >> Application_Name >> getDataCarMarkByCarMarkCode
SELECT * 
 FROM online_carmark 
 WHERE carmakcod = 'JK-TO019' 
 ORDER BY desc_t, carmakcod 

29/5/2014  13:3 >> Application_Name >> getDataCarMarkByCarMarkCode
SELECT * 
 FROM online_carmark 
 WHERE carmakcod = '' 
 ORDER BY desc_t, carmakcod 

29/5/2014  13:3 >> Application_Name >> getDataCarMarkByCarMarkCode
SELECT * 
 FROM online_carmark 
 WHERE carmakcod = 'JK-SZ004' 
 ORDER BY desc_t, carmakcod 

29/5/2014  13:4 >> Application_Name >> getDataPremium
exec sp_calonlineweb 'Y','110','1','2','5 ','JK-SZ004','2000','A','A',342000,380000,'0',0

29/5/2014  13:4 >> Application_Name >> getDataPremium
exec sp_calonlineweb 'Y','110','2','2','5 ','JK-SZ004','2000','A','A',342000,380000,'0',0

29/5/2014  13:4 >> Application_Name >> getDataPremium
exec sp_calonlineweb 'Y','110','3','2','5 ','JK-SZ004','2000','A','A',0,0,'0',0

29/5/2014  13:4 >> Application_Name >> getDataPremium
exec sp_calonlineweb 'Y','110','1','2','4 ','JK-TO019','2000','A','A',666900,815100,'0',20

29/5/2014  13:4 >> Application_Name >> getDataPremium
exec sp_calonlineweb 'Y','110','2','2','4 ','JK-TO019','2000','A','A',666900,815100,'0',20

29/5/2014  13:4 >> Application_Name >> getDataPremium
exec sp_calonlineweb 'Y','110','3','2','4 ','JK-TO019','2000','A','A',0,0,'0',20

29/5/2014  13:8 >> Application_Name >> getDataCarMarkByCarMarkCode
SELECT * 
 FROM online_carmark 
 WHERE carmakcod = '' 
 ORDER BY desc_t, carmakcod 

29/5/2014  13:9 >> Application_Name >> getDataCarMarkByCarMarkCode
SELECT * 
 FROM online_carmark 
 WHERE carmakcod = 'JK-MA065' 
 ORDER BY desc_t, carmakcod 

29/5/2014  13:30 >> Application_Name >> getDataCarMarkByCarMarkCode
SELECT * 
 FROM online_carmark 
 WHERE carmakcod = '' 
 ORDER BY desc_t, carmakcod 

29/5/2014  13:31 >> Application_Name >> getDataCarMarkByCarMarkCode
SELECT * 
 FROM online_carmark 
 WHERE carmakcod = 'JK-TO242' 
 ORDER BY desc_t, carmakcod 

29/5/2014  13:32 >> Application_Name >> getDataPremium
exec sp_calonlineweb 'Y','110','1','2','5 ','JK-TO242','2000','A','A',478800,585200,'0',0

29/5/2014  13:32 >> Application_Name >> getDataPremium
exec sp_calonlineweb 'Y','110','2','2','5 ','JK-TO242','2000','A','A',478800,585200,'0',0

29/5/2014  13:32 >> Application_Name >> getDataPremium
exec sp_calonlineweb 'Y','110','3','2','5 ','JK-TO242','2000','A','A',0,0,'0',0

29/5/2014  13:46 >> Application_Name >> getDataCarMarkByCarMarkCode
SELECT * 
 FROM online_carmark 
 WHERE carmakcod = '' 
 ORDER BY desc_t, carmakcod 

29/5/2014  13:46 >> Application_Name >> getDataCarMarkByCarMarkCode
SELECT * 
 FROM online_carmark 
 WHERE carmakcod = 'JK-HO116' 
 ORDER BY desc_t, carmakcod 

29/5/2014  13:49 >> Application_Name >> getDataPremium
exec sp_calonlineweb 'Y','110','1','2','3 ','JK-HO116','2000','A','A',735300,898700,'0',0

29/5/2014  13:49 >> Application_Name >> getDataPremium
exec sp_calonlineweb 'Y','110','2','2','3 ','JK-HO116','2000','A','A',735300,898700,'0',0

29/5/2014  13:49 >> Application_Name >> getDataPremium
exec sp_calonlineweb 'Y','110','3','2','3 ','JK-HO116','2000','A','A',0,0,'0',0

29/5/2014  13:49 >> Application_Name >> getDataCarMarkByCarMarkCode
SELECT * 
 FROM online_carmark 
 WHERE carmakcod = '' 
 ORDER BY desc_t, carmakcod 

29/5/2014  13:49 >> Application_Name >> getDataCarMarkByCarMarkCode
SELECT * 
 FROM online_carmark 
 WHERE carmakcod = 'JK-MA065' 
 ORDER BY desc_t, carmakcod 

29/5/2014  13:50 >> Application_Name >> getDataPremium
exec sp_calonlineweb 'Y','110','1','3','5 ','JK-TO242','2000','A','A',454860,555940,'25',20

29/5/2014  13:50 >> Application_Name >> getDataPremium
exec sp_calonlineweb 'Y','110','2','3','5 ','JK-TO242','2000','A','A',454860,555940,'25',20

29/5/2014  13:50 >> Application_Name >> getDataPremium
exec sp_calonlineweb 'Y','110','3','3','5 ','JK-TO242','2000','A','A',0,0,'25',20

29/5/2014  13:51 >> Application_Name >> getDataPremium
exec sp_calonlineweb 'Y','110','1','3','5 ','JK-MA065','2000','A','A',454860,555940,'0',0

29/5/2014  13:51 >> Application_Name >> getDataPremium
exec sp_calonlineweb 'Y','110','2','3','5 ','JK-MA065','2000','A','A',454860,555940,'0',0

29/5/2014  13:51 >> Application_Name >> getDataPremium
exec sp_calonlineweb 'Y','110','3','3','5 ','JK-MA065','2000','A','A',0,0,'0',0

29/5/2014  13:51 >> Application_Name >> getDataCarMarkByCarMarkCode
SELECT * 
 FROM online_carmark 
 WHERE carmakcod = '' 
 ORDER BY desc_t, carmakcod 

29/5/2014  13:51 >> Application_Name >> getDataCarMarkByCarMarkCode
SELECT * 
 FROM online_carmark 
 WHERE carmakcod = 'JK-TO242' 
 ORDER BY desc_t, carmakcod 

29/5/2014  13:54 >> Application_Name >> getDataPremium
exec sp_calonlineweb 'Y','110','1','2','5 ','JK-TO242','2000','A','A',478800,585200,'18',0

29/5/2014  13:54 >> Application_Name >> getDataPremium
exec sp_calonlineweb 'Y','110','2','2','5 ','JK-TO242','2000','A','A',478800,585200,'18',0

29/5/2014  13:54 >> Application_Name >> getDataPremium
exec sp_calonlineweb 'Y','110','3','2','5 ','JK-TO242','2000','A','A',0,0,'18',0

29/5/2014  13:58 >> Application_Name >> getDataPremium
exec sp_calonlineweb 'Y','110','1','3','5 ','JK-TO242','2000','A','A',454860,555940,'25',20

29/5/2014  13:58 >> Application_Name >> getDataPremium
exec sp_calonlineweb 'Y','110','2','3','5 ','JK-TO242','2000','A','A',454860,555940,'25',20

29/5/2014  13:58 >> Application_Name >> getDataPremium
exec sp_calonlineweb 'Y','110','3','3','5 ','JK-TO242','2000','A','A',0,0,'25',20

29/5/2014  14:20 >> Application_Name >> getDataCarMarkByCarMarkCode
SELECT * 
 FROM online_carmark 
 WHERE carmakcod = '' 
 ORDER BY desc_t, carmakcod 

29/5/2014  14:20 >> Application_Name >> getDataCarMarkByCarMarkCode
SELECT * 
 FROM online_carmark 
 WHERE carmakcod = 'JK-HO001' 
 ORDER BY desc_t, carmakcod 

29/5/2014  14:21 >> Application_Name >> getDataPremium
exec sp_calonlineweb 'Y','110','1','2','5 ','JK-HO001','2000','A','A',470250,574750,'0',0

29/5/2014  14:21 >> Application_Name >> getDataPremium
exec sp_calonlineweb 'Y','110','2','2','5 ','JK-HO001','2000','A','A',470250,574750,'0',0

29/5/2014  14:21 >> Application_Name >> getDataPremium
exec sp_calonlineweb 'Y','110','3','2','5 ','JK-HO001','2000','A','A',0,0,'0',0

29/5/2014  14:22 >> Application_Name >> getDataCarMarkByCarMarkCode
SELECT * 
 FROM online_carmark 
 WHERE carmakcod = '' 
 ORDER BY desc_t, carmakcod 

29/5/2014  14:22 >> Application_Name >> getDataCarMarkByCarMarkCode
SELECT * 
 FROM online_carmark 
 WHERE carmakcod = 'JK-MA056' 
 ORDER BY desc_t, carmakcod 

29/5/2014  14:24 >> Application_Name >> getDataPremium
exec sp_calonlineweb 'N','110','1','3','3 ','JK-MA056','2000','A','A',714780,873620,'25',20

29/5/2014  14:24 >> Application_Name >> getDataPremium
exec sp_calonlineweb 'N','110','2','3','3 ','JK-MA056','2000','A','A',714780,873620,'25',20

29/5/2014  14:24 >> Application_Name >> getDataPremium
exec sp_calonlineweb 'N','110','3','3','3 ','JK-MA056','2000','A','A',0,0,'25',20

29/5/2014  14:27 >> Application_Name >> getDataCarMarkByCarMarkCode
SELECT * 
 FROM online_carmark 
 WHERE carmakcod = '' 
 ORDER BY desc_t, carmakcod 

29/5/2014  14:27 >> Application_Name >> getDataCarMarkByCarMarkCode
SELECT * 
 FROM online_carmark 
 WHERE carmakcod = 'JK-MI002' 
 ORDER BY desc_t, carmakcod 

29/5/2014  14:28 >> Application_Name >> getDataPremium
exec sp_calonlineweb 'N','110','1','19','4 ','JK-MI002','2000','A','A',178746.443306198,218467.875152021,'0',0

29/5/2014  14:28 >> Application_Name >> getDataPremium
exec sp_calonlineweb 'N','110','2','19','4 ','JK-MI002','2000','A','A',178746.443306198,218467.875152021,'0',0

29/5/2014  14:28 >> Application_Name >> getDataPremium
exec sp_calonlineweb 'N','110','3','19','4 ','JK-MI002','2000','A','A',0,0,'0',0

29/5/2014  14:32 >> Application_Name >> getDataCarMarkByCarMarkCode
SELECT * 
 FROM online_carmark 
 WHERE carmakcod = '' 
 ORDER BY desc_t, carmakcod 

29/5/2014  14:32 >> Application_Name >> getDataCarMarkByCarMarkCode
SELECT * 
 FROM online_carmark 
 WHERE carmakcod = 'EK-BE001' 
 ORDER BY desc_t, carmakcod 

29/5/2014  14:33 >> Application_Name >> getDataPremium
exec sp_calonlineweb 'Y','110','1','11','2 ','EK-BE001','2000','A','A',1185499.13969199,1448943.39295688,'0',0

29/5/2014  14:33 >> Application_Name >> getDataPremium
exec sp_calonlineweb 'Y','110','2','11','2 ','EK-BE001','2000','A','A',1185499.13969199,1448943.39295688,'0',0

29/5/2014  14:33 >> Application_Name >> getDataPremium
exec sp_calonlineweb 'Y','110','3','11','2 ','EK-BE001','2000','A','A',0,0,'0',0

29/5/2014  14:41 >> Application_Name >> getDataCarMarkByCarMarkCode
SELECT * 
 FROM online_carmark 
 WHERE carmakcod = '' 
 ORDER BY desc_t, carmakcod 

29/5/2014  14:41 >> Application_Name >> getDataCarMarkByCarMarkCode
SELECT * 
 FROM online_carmark 
 WHERE carmakcod = 'JK-TO206' 
 ORDER BY desc_t, carmakcod 

29/5/2014  14:53 >> Application_Name >> getDataCarMarkByCarMarkCode
SELECT * 
 FROM online_carmark 
 WHERE carmakcod = '' 
 ORDER BY desc_t, carmakcod 

29/5/2014  14:53 >> Application_Name >> getDataCarMarkByCarMarkCode
SELECT * 
 FROM online_carmark 
 WHERE carmakcod = 'JK-TO206' 
 ORDER BY desc_t, carmakcod 

29/5/2014  14:54 >> Application_Name >> getDataCarMarkByCarMarkCode
SELECT * 
 FROM online_carmark 
 WHERE carmakcod = '' 
 ORDER BY desc_t, carmakcod 

29/5/2014  14:54 >> Application_Name >> getDataCarMarkByCarMarkCode
SELECT * 
 FROM online_carmark 
 WHERE carmakcod = 'JK-TO240' 
 ORDER BY desc_t, carmakcod 

29/5/2014  14:55 >> Application_Name >> getDataPremium
exec sp_calonlineweb 'Y','110','1','3','4 ','JK-TO206','2000','A','A',503595,615505,'0',0

29/5/2014  14:55 >> Application_Name >> getDataPremium
exec sp_calonlineweb 'Y','110','2','3','4 ','JK-TO206','2000','A','A',503595,615505,'0',0

29/5/2014  14:55 >> Application_Name >> getDataPremium
exec sp_calonlineweb 'Y','110','3','3','4 ','JK-TO206','2000','A','A',0,0,'0',0

29/5/2014  14:57 >> Application_Name >> getDataCarMarkByCarMarkCode
SELECT * 
 FROM online_carmark 
 WHERE carmakcod = '' 
 ORDER BY desc_t, carmakcod 

29/5/2014  14:57 >> Application_Name >> getDataCarMarkByCarMarkCode
SELECT * 
 FROM online_carmark 
 WHERE carmakcod = 'JK-TO206' 
 ORDER BY desc_t, carmakcod 

29/5/2014  14:58 >> Application_Name >> getCategoryCompByBrand
SELECT mdc_minor_cd , mdc_desc_t as mdc_desc FROM mtdesc_comp  WHERE mdc_minor_cd <> '0000' AND mdc_major_cd = 'T001' ORDER BY mdc_desc 

29/5/2014  15:0 >> Application_Name >> getDataCarMarkByCarMarkCode
SELECT * 
 FROM online_carmark 
 WHERE carmakcod = '' 
 ORDER BY desc_t, carmakcod 

29/5/2014  15:0 >> Application_Name >> getDataCarMarkByCarMarkCode
SELECT * 
 FROM online_carmark 
 WHERE carmakcod = 'JK-TO206' 
 ORDER BY desc_t, carmakcod 

29/5/2014  15:1 >> Application_Name >> getDataPremium
exec sp_calonlineweb 'Y','110','1','2','4 ','JK-TO206','2000','A','A',530100,647900,'0',0

29/5/2014  15:1 >> Application_Name >> getDataPremium
exec sp_calonlineweb 'Y','110','2','2','4 ','JK-TO206','2000','A','A',530100,647900,'0',0

29/5/2014  15:1 >> Application_Name >> getDataPremium
exec sp_calonlineweb 'Y','110','3','2','4 ','JK-TO206','2000','A','A',0,0,'0',0

29/5/2014  15:3 >> Application_Name >> SMK :: BuyVoluntary_step2-docToUI
Combine

29/5/2014  15:3 >> Application_Name >> SMK :: BuyVoluntary_step2-docToUI
rg_prmm-019769

29/5/2014  15:3 >> Application_Name >> SMK :: BuyVoluntary_step2-docToUI
rg_prmm19769

29/5/2014  15:3 >> Application_Name >> SMK :: BuyVoluntary_step2-docToUI
cp_comp_prmm600.00

29/5/2014  15:4 >> Application_Name >> getDataPremium
exec sp_calonlineweb 'Y','110','1','2','4 ','JK-TO206','2000','A','A',530100,647900,'0',0

29/5/2014  15:4 >> Application_Name >> getDataPremium
exec sp_calonlineweb 'Y','110','2','2','4 ','JK-TO206','2000','A','A',530100,647900,'0',0

29/5/2014  15:4 >> Application_Name >> getDataPremium
exec sp_calonlineweb 'Y','110','3','2','4 ','JK-TO206','2000','A','A',0,0,'0',0

29/5/2014  15:4 >> Application_Name >> SMK :: BuyVoluntary_step2-docToUI
Combine

29/5/2014  15:4 >> Application_Name >> SMK :: BuyVoluntary_step2-docToUI
rg_prmm-019769

29/5/2014  15:4 >> Application_Name >> SMK :: BuyVoluntary_step2-docToUI
rg_prmm19769

29/5/2014  15:4 >> Application_Name >> SMK :: BuyVoluntary_step2-docToUI
cp_comp_prmm600.00

29/5/2014  15:10 >> Application_Name >> getDataCarMarkByCarMarkCode
SELECT * 
 FROM online_carmark 
 WHERE carmakcod = '' 
 ORDER BY desc_t, carmakcod 

29/5/2014  15:10 >> Application_Name >> getDataCarMarkByCarMarkCode
SELECT * 
 FROM online_carmark 
 WHERE carmakcod = 'JK-HO001' 
 ORDER BY desc_t, carmakcod 

29/5/2014  15:12 >> Application_Name >> getDataPremium
exec sp_calonlineweb 'Y','110','1','2','5 ','JK-HO001','2000','A','A',470250,574750,'0',0

29/5/2014  15:12 >> Application_Name >> getDataPremium
exec sp_calonlineweb 'Y','110','2','2','5 ','JK-HO001','2000','A','A',470250,574750,'0',0

29/5/2014  15:12 >> Application_Name >> getDataPremium
exec sp_calonlineweb 'Y','110','3','2','5 ','JK-HO001','2000','A','A',0,0,'0',0

29/5/2014  15:15 >> Application_Name >> getDataPremium
exec sp_calonlineweb 'Y','110','1','2','5 ','JK-HO001','2000','A','A',470250,574750,'0',30

29/5/2014  15:15 >> Application_Name >> getDataPremium
exec sp_calonlineweb 'Y','110','2','2','5 ','JK-HO001','2000','A','A',470250,574750,'0',30

29/5/2014  15:15 >> Application_Name >> getDataPremium
exec sp_calonlineweb 'Y','110','3','2','5 ','JK-HO001','2000','A','A',0,0,'0',30

29/5/2014  15:15 >> Application_Name >> getDataPremium
exec sp_calonlineweb 'Y','110','1','2','5 ','JK-HO001','2000','A','A',470250,574750,'0',20

29/5/2014  15:15 >> Application_Name >> getDataPremium
exec sp_calonlineweb 'Y','110','2','2','5 ','JK-HO001','2000','A','A',470250,574750,'0',20

29/5/2014  15:15 >> Application_Name >> getDataPremium
exec sp_calonlineweb 'Y','110','3','2','5 ','JK-HO001','2000','A','A',0,0,'0',20

29/5/2014  15:26 >> Application_Name >> getDataCarMarkByCarMarkCode
SELECT * 
 FROM online_carmark 
 WHERE carmakcod = '' 
 ORDER BY desc_t, carmakcod 

29/5/2014  15:50 >> Application_Name >> getDataCarMarkByCarMarkCode
SELECT * 
 FROM online_carmark 
 WHERE carmakcod = '' 
 ORDER BY desc_t, carmakcod 

29/5/2014  15:50 >> Application_Name >> getDataCarMarkByCarMarkCode
SELECT * 
 FROM online_carmark 
 WHERE carmakcod = 'JK-TO242' 
 ORDER BY desc_t, carmakcod 

29/5/2014  15:51 >> Application_Name >> getDataPremium
exec sp_calonlineweb 'Y','110','1','5','5 ','JK-TO242','2000','A','A',410511.15,501735.85,'0',30

29/5/2014  15:51 >> Application_Name >> getDataPremium
exec sp_calonlineweb 'Y','110','2','5','5 ','JK-TO242','2000','A','A',410511.15,501735.85,'0',30

29/5/2014  15:51 >> Application_Name >> getDataPremium
exec sp_calonlineweb 'Y','110','3','5','5 ','JK-TO242','2000','A','A',0,0,'0',30

29/5/2014  15:51 >> Application_Name >> getDataPremium
exec sp_calonlineweb 'Y','110','1','5','5 ','JK-TO242','2000','A','A',410511.15,501735.85,'25',30

29/5/2014  15:51 >> Application_Name >> getDataPremium
exec sp_calonlineweb 'Y','110','2','5','5 ','JK-TO242','2000','A','A',410511.15,501735.85,'25',30

29/5/2014  15:51 >> Application_Name >> getDataPremium
exec sp_calonlineweb 'Y','110','3','5','5 ','JK-TO242','2000','A','A',0,0,'25',30

29/5/2014  15:52 >> Application_Name >> SMK :: BuyVoluntary_step2-docToUI
Combine

29/5/2014  15:52 >> Application_Name >> SMK :: BuyVoluntary_step2-docToUI
rg_prmm-012009.6

29/5/2014  15:52 >> Application_Name >> SMK :: BuyVoluntary_step2-docToUI
rg_prmm12009.6

29/5/2014  15:52 >> Application_Name >> SMK :: BuyVoluntary_step2-docToUI
cp_comp_prmm600.00

29/5/2014  15:53 >> Application_Name >> getDataCarMarkByCarMarkCode
SELECT * 
 FROM online_carmark 
 WHERE carmakcod = '' 
 ORDER BY desc_t, carmakcod 

29/5/2014  15:53 >> Application_Name >> getDataCarMarkByCarMarkCode
SELECT * 
 FROM online_carmark 
 WHERE carmakcod = 'JK-TO242' 
 ORDER BY desc_t, carmakcod 

29/5/2014  15:54 >> Application_Name >> getDataPremium
exec sp_calonlineweb 'Y','110','1','5','5 ','JK-TO242','2000','A','A',410511.15,501735.85,'0',30

29/5/2014  15:54 >> Application_Name >> getDataPremium
exec sp_calonlineweb 'Y','110','2','5','5 ','JK-TO242','2000','A','A',410511.15,501735.85,'0',30

29/5/2014  15:54 >> Application_Name >> getDataPremium
exec sp_calonlineweb 'Y','110','3','5','5 ','JK-TO242','2000','A','A',0,0,'0',30

29/5/2014  15:54 >> Application_Name >> getDataPremium
exec sp_calonlineweb 'Y','110','1','5','5 ','JK-TO242','2000','A','A',410511.15,501735.85,'25',30

29/5/2014  15:54 >> Application_Name >> getDataPremium
exec sp_calonlineweb 'Y','110','2','5','5 ','JK-TO242','2000','A','A',410511.15,501735.85,'25',30

29/5/2014  15:54 >> Application_Name >> getDataPremium
exec sp_calonlineweb 'Y','110','3','5','5 ','JK-TO242','2000','A','A',0,0,'25',30

29/5/2014  15:55 >> Application_Name >> getDataPremium
exec sp_calonlineweb 'N','110','1','5','5 ','JK-TO242','2000','A','A',410511.15,501735.85,'25',30

29/5/2014  15:55 >> Application_Name >> getDataPremium
exec sp_calonlineweb 'N','110','2','5','5 ','JK-TO242','2000','A','A',410511.15,501735.85,'25',30

29/5/2014  15:55 >> Application_Name >> getDataPremium
exec sp_calonlineweb 'N','110','3','5','5 ','JK-TO242','2000','A','A',0,0,'25',30

29/5/2014  15:55 >> Application_Name >> getDataPremium
exec sp_calonlineweb 'Y','110','1','5','5 ','JK-TO242','2000','A','A',410511.15,501735.85,'25',30

29/5/2014  15:55 >> Application_Name >> getDataPremium
exec sp_calonlineweb 'Y','110','2','5','5 ','JK-TO242','2000','A','A',410511.15,501735.85,'25',30

29/5/2014  15:55 >> Application_Name >> getDataPremium
exec sp_calonlineweb 'Y','110','3','5','5 ','JK-TO242','2000','A','A',0,0,'25',30

29/5/2014  16:5 >> Application_Name >> getDataCarMarkByCarMarkCode
SELECT * 
 FROM online_carmark 
 WHERE carmakcod = '' 
 ORDER BY desc_t, carmakcod 

29/5/2014  16:5 >> Application_Name >> getDataCarMarkByCarMarkCode
SELECT * 
 FROM online_carmark 
 WHERE carmakcod = 'JK-TO242' 
 ORDER BY desc_t, carmakcod 

29/5/2014  16:7 >> Application_Name >> getDataPremium
exec sp_calonlineweb 'Y','110','1','3','5 ','JK-TO242','2000','A','A',454860,555940,'0',30

29/5/2014  16:7 >> Application_Name >> getDataPremium
exec sp_calonlineweb 'Y','110','2','3','5 ','JK-TO242','2000','A','A',454860,555940,'0',30

29/5/2014  16:7 >> Application_Name >> getDataPremium
exec sp_calonlineweb 'Y','110','3','3','5 ','JK-TO242','2000','A','A',0,0,'0',30

29/5/2014  16:9 >> Application_Name >> getDataCarMarkByCarMarkCode
SELECT * 
 FROM online_carmark 
 WHERE carmakcod = '' 
 ORDER BY desc_t, carmakcod 

29/5/2014  16:9 >> Application_Name >> getDataCarMarkByCarMarkCode
SELECT * 
 FROM online_carmark 
 WHERE carmakcod = 'JK-HO001' 
 ORDER BY desc_t, carmakcod 

29/5/2014  16:10 >> Application_Name >> getDataPremium
exec sp_calonlineweb 'Y','110','1','2','5 ','JK-HO001','2000','A','A',470250,574750,'0',20

29/5/2014  16:10 >> Application_Name >> getDataPremium
exec sp_calonlineweb 'Y','110','2','2','5 ','JK-HO001','2000','A','A',470250,574750,'0',20

29/5/2014  16:10 >> Application_Name >> getDataPremium
exec sp_calonlineweb 'Y','110','3','2','5 ','JK-HO001','2000','A','A',0,0,'0',20

29/5/2014  16:13 >> Application_Name >> getDataPremium
exec sp_calonlineweb 'Y','110','1','2','5 ','JK-HO001','2000','A','A',470250,574750,'0',20

29/5/2014  16:13 >> Application_Name >> getDataPremium
exec sp_calonlineweb 'Y','110','2','2','5 ','JK-HO001','2000','A','A',470250,574750,'0',20

29/5/2014  16:13 >> Application_Name >> getDataPremium
exec sp_calonlineweb 'Y','110','3','2','5 ','JK-HO001','2000','A','A',0,0,'0',20

29/5/2014  16:14 >> Application_Name >> SMK :: BuyVoluntary_step2-docToUI
Combine

29/5/2014  16:14 >> Application_Name >> SMK :: BuyVoluntary_step2-docToUI
rg_prmm-013268

29/5/2014  16:14 >> Application_Name >> SMK :: BuyVoluntary_step2-docToUI
rg_prmm13268

29/5/2014  16:14 >> Application_Name >> SMK :: BuyVoluntary_step2-docToUI
cp_comp_prmm600.00

29/5/2014  16:31 >> Application_Name >> getDataCarMarkByCarMarkCode
SELECT * 
 FROM online_carmark 
 WHERE carmakcod = '' 
 ORDER BY desc_t, carmakcod 

29/5/2014  16:31 >> Application_Name >> getDataCarMarkByCarMarkCode
SELECT * 
 FROM online_carmark 
 WHERE carmakcod = 'JK-HO001' 
 ORDER BY desc_t, carmakcod 

29/5/2014  16:31 >> Application_Name >> getDataCarMarkByCarMarkCode
SELECT * 
 FROM online_carmark 
 WHERE carmakcod = '' 
 ORDER BY desc_t, carmakcod 

29/5/2014  16:31 >> Application_Name >> getDataCarMarkByCarMarkCode
SELECT * 
 FROM online_carmark 
 WHERE carmakcod = 'JK-MI061' 
 ORDER BY desc_t, carmakcod 

29/5/2014  16:34 >> Application_Name >> getDataPremium
exec sp_calonlineweb 'N','110','1','3','3 ','JK-MI061','9999','A','A',373635,456665,'0',0

29/5/2014  16:34 >> Application_Name >> getDataPremium
exec sp_calonlineweb 'N','110','2','3','3 ','JK-MI061','9999','A','A',373635,456665,'0',0

29/5/2014  16:34 >> Application_Name >> getDataPremium
exec sp_calonlineweb 'N','110','3','3','3 ','JK-MI061','9999','A','A',0,0,'0',0

29/5/2014  16:41 >> Application_Name >> getCategoryCompByBrand
SELECT mdc_minor_cd , mdc_desc_t as mdc_desc FROM mtdesc_comp  WHERE mdc_minor_cd <> '0000' AND mdc_major_cd = 'I001' ORDER BY mdc_desc 

29/5/2014  16:43 >> Application_Name >> getDataCarMarkByCarMarkCode
SELECT * 
 FROM online_carmark 
 WHERE carmakcod = '' 
 ORDER BY desc_t, carmakcod 

29/5/2014  16:43 >> Application_Name >> getDataCarMarkByCarMarkCode
SELECT * 
 FROM online_carmark 
 WHERE carmakcod = '' 
 ORDER BY desc_t, carmakcod 

29/5/2014  16:43 >> Application_Name >> getDataCarMarkByCarMarkCode
SELECT * 
 FROM online_carmark 
 WHERE carmakcod = 'JP-IS052' 
 ORDER BY desc_t, carmakcod 

29/5/2014  16:45 >> Application_Name >> getDataPremium
exec sp_calonlineweb 'Y','210','1','5','A','','2500','21','A',476649.0575,526822.6425,'0',0

29/5/2014  16:45 >> Application_Name >> getDataPremium
exec sp_calonlineweb 'Y','210','2','5','A','','2500','21','A',476649.0575,526822.6425,'0',0

29/5/2014  16:45 >> Application_Name >> getDataPremium
exec sp_calonlineweb 'Y','210','3','5','A','','2500','21','A',0,0,'0',0

29/5/2014  16:46 >> Application_Name >> getDataPremium
exec sp_calonlineweb 'Y','210','1','5','A','','2500','21','A',476649.0575,526822.6425,'0',0

29/5/2014  16:46 >> Application_Name >> getDataPremium
exec sp_calonlineweb 'Y','210','2','5','A','','2500','21','A',476649.0575,526822.6425,'0',0

29/5/2014  16:46 >> Application_Name >> getDataPremium
exec sp_calonlineweb 'Y','210','3','5','A','','2500','21','A',0,0,'0',0

29/5/2014  16:47 >> Application_Name >> getDataPremium
exec sp_calonlineweb 'Y','210','1','5','A','','2500','21','A',476649.0575,526822.6425,'0',0

29/5/2014  16:47 >> Application_Name >> getDataPremium
exec sp_calonlineweb 'Y','210','2','5','A','','2500','21','A',476649.0575,526822.6425,'0',0

29/5/2014  16:47 >> Application_Name >> getDataPremium
exec sp_calonlineweb 'Y','210','3','5','A','','2500','21','A',0,0,'0',0

29/5/2014  16:54 >> Application_Name >> getDataCarMarkByCarMarkCode
SELECT * 
 FROM online_carmark 
 WHERE carmakcod = '' 
 ORDER BY desc_t, carmakcod 

29/5/2014  16:54 >> Application_Name >> getDataCarMarkByCarMarkCode
SELECT * 
 FROM online_carmark 
 WHERE carmakcod = '' 
 ORDER BY desc_t, carmakcod 

29/5/2014  16:54 >> Application_Name >> getDataCarMarkByCarMarkCode
SELECT * 
 FROM online_carmark 
 WHERE carmakcod = '' 
 ORDER BY desc_t, carmakcod 

29/5/2014  16:55 >> Application_Name >> getDataCarMarkByCarMarkCode
SELECT * 
 FROM online_carmark 
 WHERE carmakcod = 'JP-TO043' 
 ORDER BY desc_t, carmakcod 

29/5/2014  16:58 >> Application_Name >> getDataPremium
exec sp_calonlineweb 'Y','210','1','8','A','','2500','21','A',356124.087515969,393610.833570281,'0',0

29/5/2014  16:58 >> Application_Name >> getDataPremium
exec sp_calonlineweb 'Y','210','2','8','A','','2500','21','A',356124.087515969,393610.833570281,'0',0

29/5/2014  16:58 >> Application_Name >> getDataPremium
exec sp_calonlineweb 'Y','210','3','8','A','','2500','21','A',0,0,'0',0

29/5/2014  17:17 >> Application_Name >> getDataCarMarkByCarMarkCode
SELECT * 
 FROM online_carmark 
 WHERE carmakcod = '' 
 ORDER BY desc_t, carmakcod 

29/5/2014  17:17 >> Application_Name >> getDataCarMarkByCarMarkCode
SELECT * 
 FROM online_carmark 
 WHERE carmakcod = 'JK-TO242' 
 ORDER BY desc_t, carmakcod 

29/5/2014  17:18 >> Application_Name >> getDataPremium
exec sp_calonlineweb 'N','110','1','3','5 ','JK-TO242','2000','A','A',454860,555940,'0',0

29/5/2014  17:18 >> Application_Name >> getDataPremium
exec sp_calonlineweb 'N','110','2','3','5 ','JK-TO242','2000','A','A',454860,555940,'0',0

29/5/2014  17:18 >> Application_Name >> getDataPremium
exec sp_calonlineweb 'N','110','3','3','5 ','JK-TO242','2000','A','A',0,0,'0',0

29/5/2014  17:45 >> Application_Name >> getDataCarMarkByCarMarkCode
SELECT * 
 FROM online_carmark 
 WHERE carmakcod = '' 
 ORDER BY desc_t, carmakcod 

29/5/2014  17:45 >> Application_Name >> getDataCarMarkByCarMarkCode
SELECT * 
 FROM online_carmark 
 WHERE carmakcod = 'JK-MI080' 
 ORDER BY desc_t, carmakcod 

29/5/2014  17:47 >> Application_Name >> getDataPremium
exec sp_calonlineweb 'N','110','1','3','5 ','JK-MI080','2000','A','A',357390,436810,'25',30

29/5/2014  17:47 >> Application_Name >> getDataPremium
exec sp_calonlineweb 'N','110','2','3','5 ','JK-MI080','2000','A','A',357390,436810,'25',30

29/5/2014  17:47 >> Application_Name >> getDataPremium
exec sp_calonlineweb 'N','110','3','3','5 ','JK-MI080','2000','A','A',0,0,'25',30

29/5/2014  17:49 >> Application_Name >> getDataPremium
exec sp_calonlineweb 'Y','110','1','3','5 ','JK-MI080','2000','A','A',357390,436810,'25',0

29/5/2014  17:49 >> Application_Name >> getDataPremium
exec sp_calonlineweb 'Y','110','2','3','5 ','JK-MI080','2000','A','A',357390,436810,'25',0

29/5/2014  17:49 >> Application_Name >> getDataPremium
exec sp_calonlineweb 'Y','110','3','3','5 ','JK-MI080','2000','A','A',0,0,'25',0

29/5/2014  17:49 >> Application_Name >> getDataPremium
exec sp_calonlineweb 'Y','110','1','3','5 ','JK-MI080','2000','A','A',357390,436810,'25',20

29/5/2014  17:49 >> Application_Name >> getDataPremium
exec sp_calonlineweb 'Y','110','2','3','5 ','JK-MI080','2000','A','A',357390,436810,'25',20

29/5/2014  17:49 >> Application_Name >> getDataPremium
exec sp_calonlineweb 'Y','110','3','3','5 ','JK-MI080','2000','A','A',0,0,'25',20

29/5/2014  18:7 >> Application_Name >> getDataCarMarkByCarMarkCode
SELECT * 
 FROM online_carmark 
 WHERE carmakcod = '' 
 ORDER BY desc_t, carmakcod 

29/5/2014  18:8 >> Application_Name >> getDataCarMarkByCarMarkCode
SELECT * 
 FROM online_carmark 
 WHERE carmakcod = 'JK-TO242' 
 ORDER BY desc_t, carmakcod 

29/5/2014  18:10 >> Application_Name >> getDataPremium
exec sp_calonlineweb 'Y','110','1','2','5 ','JK-TO242','2000','A','A',478800,585200,'0',0

29/5/2014  18:10 >> Application_Name >> getDataPremium
exec sp_calonlineweb 'Y','110','2','2','5 ','JK-TO242','2000','A','A',478800,585200,'0',0

29/5/2014  18:10 >> Application_Name >> getDataPremium
exec sp_calonlineweb 'Y','110','3','2','5 ','JK-TO242','2000','A','A',0,0,'0',0

29/5/2014  18:23 >> Application_Name >> getDataCarMarkByCarMarkCode
SELECT * 
 FROM online_carmark 
 WHERE carmakcod = '' 
 ORDER BY desc_t, carmakcod 

29/5/2014  18:24 >> Application_Name >> getDataCarMarkByCarMarkCode
SELECT * 
 FROM online_carmark 
 WHERE carmakcod = 'JK-HO001' 
 ORDER BY desc_t, carmakcod 

29/5/2014  18:24 >> Application_Name >> getDataPremium
exec sp_calonlineweb 'Y','110','1','2','5 ','JK-HO001','2000','A','A',470250,574750,'0',20

29/5/2014  18:24 >> Application_Name >> getDataPremium
exec sp_calonlineweb 'Y','110','2','2','5 ','JK-HO001','2000','A','A',470250,574750,'0',20

29/5/2014  18:24 >> Application_Name >> getDataPremium
exec sp_calonlineweb 'Y','110','3','2','5 ','JK-HO001','2000','A','A',0,0,'0',20

29/5/2014  18:26 >> Application_Name >> getDataCarMarkByCarMarkCode
SELECT * 
 FROM online_carmark 
 WHERE carmakcod = '' 
 ORDER BY desc_t, carmakcod 

29/5/2014  18:26 >> Application_Name >> getDataCarMarkByCarMarkCode
SELECT * 
 FROM online_carmark 
 WHERE carmakcod = '' 
 ORDER BY desc_t, carmakcod 

29/5/2014  18:26 >> Application_Name >> SMK :: BuyVoluntary_step2-docToUI
Combine

29/5/2014  18:26 >> Application_Name >> SMK :: BuyVoluntary_step2-docToUI
rg_prmm-014026.4

29/5/2014  18:26 >> Application_Name >> SMK :: BuyVoluntary_step2-docToUI
rg_prmm14026.4

29/5/2014  18:26 >> Application_Name >> SMK :: BuyVoluntary_step2-docToUI
cp_comp_prmm600.00

29/5/2014  18:26 >> Application_Name >> getDataCarMarkByCarMarkCode
SELECT * 
 FROM online_carmark 
 WHERE carmakcod = '' 
 ORDER BY desc_t, carmakcod 

29/5/2014  18:26 >> Application_Name >> getDataCarMarkByCarMarkCode
SELECT * 
 FROM online_carmark 
 WHERE carmakcod = 'JK-TO019' 
 ORDER BY desc_t, carmakcod 

29/5/2014  18:28 >> Application_Name >> getDataPremium
exec sp_calonlineweb 'N','110','1','2','4 ','JK-TO019','2000','A','A',666900,815100,'0',20

29/5/2014  18:28 >> Application_Name >> getDataPremium
exec sp_calonlineweb 'N','110','2','2','4 ','JK-TO019','2000','A','A',666900,815100,'0',20

29/5/2014  18:28 >> Application_Name >> getDataPremium
exec sp_calonlineweb 'N','110','3','2','4 ','JK-TO019','2000','A','A',0,0,'0',20

29/5/2014  18:31 >> Application_Name >> getDataCarMarkByCarMarkCode
SELECT * 
 FROM online_carmark 
 WHERE carmakcod = '' 
 ORDER BY desc_t, carmakcod 

29/5/2014  18:31 >> Application_Name >> getDataCarMarkByCarMarkCode
SELECT * 
 FROM online_carmark 
 WHERE carmakcod = 'EK-BE017' 
 ORDER BY desc_t, carmakcod 

29/5/2014  18:32 >> Application_Name >> getDataPremium
exec sp_calonlineweb 'N','110','1','2','2 ','EK-BE017','9999','A','A',2479500,3030500,'0',20

29/5/2014  18:32 >> Application_Name >> getDataPremium
exec sp_calonlineweb 'N','110','2','2','2 ','EK-BE017','9999','A','A',2479500,3030500,'0',20

29/5/2014  18:32 >> Application_Name >> getDataPremium
exec sp_calonlineweb 'N','110','3','2','2 ','EK-BE017','9999','A','A',0,0,'0',20

29/5/2014  18:32 >> Application_Name >> getDataCarMarkByCarMarkCode
SELECT * 
 FROM online_carmark 
 WHERE carmakcod = '' 
 ORDER BY desc_t, carmakcod 

29/5/2014  18:32 >> Application_Name >> getDataCarMarkByCarMarkCode
SELECT * 
 FROM online_carmark 
 WHERE carmakcod = 'EK-BM089' 
 ORDER BY desc_t, carmakcod 

29/5/2014  18:32 >> Application_Name >> getDataCarMarkByCarMarkCode
SELECT * 
 FROM online_carmark 
 WHERE carmakcod = 'EK-BM017' 
 ORDER BY desc_t, carmakcod 

29/5/2014  18:33 >> Application_Name >> getDataCarMarkByCarMarkCode
SELECT * 
 FROM online_carmark 
 WHERE carmakcod = 'EK-BM032' 
 ORDER BY desc_t, carmakcod 

29/5/2014  18:33 >> Application_Name >> getDataCarMarkByCarMarkCode
SELECT * 
 FROM online_carmark 
 WHERE carmakcod = 'EK-BM066' 
 ORDER BY desc_t, carmakcod 

29/5/2014  18:33 >> Application_Name >> getDataCarMarkByCarMarkCode
SELECT * 
 FROM online_carmark 
 WHERE carmakcod = 'EK-BM004' 
 ORDER BY desc_t, carmakcod 

29/5/2014  18:33 >> Application_Name >> getDataCarMarkByCarMarkCode
SELECT * 
 FROM online_carmark 
 WHERE carmakcod = '' 
 ORDER BY desc_t, carmakcod 

29/5/2014  18:33 >> Application_Name >> getDataCarMarkByCarMarkCode
SELECT * 
 FROM online_carmark 
 WHERE carmakcod = 'JK-HO002' 
 ORDER BY desc_t, carmakcod 

29/5/2014  18:34 >> Application_Name >> getDataPremium
exec sp_calonlineweb 'N','110','1','2','3 ','JK-HO002','2000','A','A',743850,909150,'0',0

29/5/2014  18:34 >> Application_Name >> getDataPremium
exec sp_calonlineweb 'N','110','2','2','3 ','JK-HO002','2000','A','A',743850,909150,'0',0

29/5/2014  18:34 >> Application_Name >> getDataPremium
exec sp_calonlineweb 'N','110','3','2','3 ','JK-HO002','2000','A','A',0,0,'0',0

29/5/2014  18:36 >> Application_Name >> getDataCarMarkByCarMarkCode
SELECT * 
 FROM online_carmark 
 WHERE carmakcod = '' 
 ORDER BY desc_t, carmakcod 

29/5/2014  18:36 >> Application_Name >> getDataCarMarkByCarMarkCode
SELECT * 
 FROM online_carmark 
 WHERE carmakcod = '' 
 ORDER BY desc_t, carmakcod 

29/5/2014  18:36 >> Application_Name >> getDataCarMarkByCarMarkCode
SELECT * 
 FROM online_carmark 
 WHERE carmakcod = '' 
 ORDER BY desc_t, carmakcod 

29/5/2014  18:36 >> Application_Name >> getDataCarMarkByCarMarkCode
SELECT * 
 FROM online_carmark 
 WHERE carmakcod = '' 
 ORDER BY desc_t, carmakcod 

29/5/2014  18:36 >> Application_Name >> getDataCarMarkByCarMarkCode
SELECT * 
 FROM online_carmark 
 WHERE carmakcod = '' 
 ORDER BY desc_t, carmakcod 

29/5/2014  18:36 >> Application_Name >> getDataCarMarkByCarMarkCode
SELECT * 
 FROM online_carmark 
 WHERE carmakcod = '' 
 ORDER BY desc_t, carmakcod 

29/5/2014  18:36 >> Application_Name >> getDataCarMarkByCarMarkCode
SELECT * 
 FROM online_carmark 
 WHERE carmakcod = '' 
 ORDER BY desc_t, carmakcod 

29/5/2014  18:36 >> Application_Name >> getDataCarMarkByCarMarkCode
SELECT * 
 FROM online_carmark 
 WHERE carmakcod = '' 
 ORDER BY desc_t, carmakcod 

29/5/2014  18:37 >> Application_Name >> getDataCarMarkByCarMarkCode
SELECT * 
 FROM online_carmark 
 WHERE carmakcod = 'JP-TO104' 
 ORDER BY desc_t, carmakcod 

29/5/2014  18:37 >> Application_Name >> getDataCarMarkByCarMarkCode
SELECT * 
 FROM online_carmark 
 WHERE carmakcod = 'JP-TO100' 
 ORDER BY desc_t, carmakcod 

29/5/2014  18:37 >> Application_Name >> getDataCarMarkByCarMarkCode
SELECT * 
 FROM online_carmark 
 WHERE carmakcod = 'JP-TO104' 
 ORDER BY desc_t, carmakcod 

29/5/2014  18:37 >> Application_Name >> getDataCarMarkByCarMarkCode
SELECT * 
 FROM online_carmark 
 WHERE carmakcod = '' 
 ORDER BY desc_t, carmakcod 

29/5/2014  18:38 >> Application_Name >> getDataCarMarkByCarMarkCode
SELECT * 
 FROM online_carmark 
 WHERE carmakcod = '' 
 ORDER BY desc_t, carmakcod 

29/5/2014  18:52 >> Application_Name >> getDataCarMarkByCarMarkCode
SELECT * 
 FROM online_carmark 
 WHERE carmakcod = '' 
 ORDER BY desc_t, carmakcod 

29/5/2014  18:52 >> Application_Name >> getDataCarMarkByCarMarkCode
SELECT * 
 FROM online_carmark 
 WHERE carmakcod = '' 
 ORDER BY desc_t, carmakcod 

29/5/2014  18:52 >> Application_Name >> getDataCarMarkByCarMarkCode
SELECT * 
 FROM online_carmark 
 WHERE carmakcod = 'JK-MI080' 
 ORDER BY desc_t, carmakcod 

29/5/2014  18:52 >> Application_Name >> getDataCarMarkByCarMarkCode
SELECT * 
 FROM online_carmark 
 WHERE carmakcod = '' 
 ORDER BY desc_t, carmakcod 

29/5/2014  18:52 >> Application_Name >> getDataCarMarkByCarMarkCode
SELECT * 
 FROM online_carmark 
 WHERE carmakcod = '' 
 ORDER BY desc_t, carmakcod 

29/5/2014  18:52 >> Application_Name >> getDataCarMarkByCarMarkCode
SELECT * 
 FROM online_carmark 
 WHERE carmakcod = '' 
 ORDER BY desc_t, carmakcod 

29/5/2014  18:54 >> Application_Name >> getDataPremium
exec sp_calonlineweb 'Y','110','1','3','5 ','JK-MI080','2000','A','A',357390,436810,'36',20

29/5/2014  18:54 >> Application_Name >> getDataPremium
exec sp_calonlineweb 'Y','110','2','3','5 ','JK-MI080','2000','A','A',357390,436810,'36',20

29/5/2014  18:54 >> Application_Name >> getDataPremium
exec sp_calonlineweb 'Y','110','3','3','5 ','JK-MI080','2000','A','A',0,0,'36',20

29/5/2014  18:59 >> Application_Name >> getDataPremium
exec sp_calonlineweb 'Y','110','1','3','5 ','JK-MI080','2000','A','A',357390,436810,'36',30

29/5/2014  18:59 >> Application_Name >> getDataPremium
exec sp_calonlineweb 'Y','110','2','3','5 ','JK-MI080','2000','A','A',357390,436810,'36',30

29/5/2014  18:59 >> Application_Name >> getDataPremium
exec sp_calonlineweb 'Y','110','3','3','5 ','JK-MI080','2000','A','A',0,0,'36',30

29/5/2014  18:59 >> Application_Name >> getDataPremium
exec sp_calonlineweb 'Y','110','1','3','5 ','JK-MI080','2000','A','A',357390,436810,'36',30

29/5/2014  18:59 >> Application_Name >> getDataPremium
exec sp_calonlineweb 'Y','110','2','3','5 ','JK-MI080','2000','A','A',357390,436810,'36',30

29/5/2014  18:59 >> Application_Name >> getDataPremium
exec sp_calonlineweb 'Y','110','3','3','5 ','JK-MI080','2000','A','A',0,0,'36',30

29/5/2014  19:5 >> Application_Name >> getDataCarMarkByCarMarkCode
SELECT * 
 FROM online_carmark 
 WHERE carmakcod = '' 
 ORDER BY desc_t, carmakcod 

29/5/2014  19:5 >> Application_Name >> getDataCarMarkByCarMarkCode
SELECT * 
 FROM online_carmark 
 WHERE carmakcod = 'JK-MI080' 
 ORDER BY desc_t, carmakcod 

29/5/2014  19:19 >> Application_Name >> getDataPremium
exec sp_calonlineweb 'Y','110','1','3','5 ','JK-MI080','2000','A','A',357390,436810,'0',30

29/5/2014  19:19 >> Application_Name >> getDataPremium
exec sp_calonlineweb 'Y','110','2','3','5 ','JK-MI080','2000','A','A',357390,436810,'0',30

29/5/2014  19:19 >> Application_Name >> getDataPremium
exec sp_calonlineweb 'Y','110','3','3','5 ','JK-MI080','2000','A','A',0,0,'0',30

29/5/2014  19:20 >> Application_Name >> getDataCarMarkByCarMarkCode
SELECT * 
 FROM online_carmark 
 WHERE carmakcod = '' 
 ORDER BY desc_t, carmakcod 

29/5/2014  19:20 >> Application_Name >> getDataCarMarkByCarMarkCode
SELECT * 
 FROM online_carmark 
 WHERE carmakcod = 'JK-MI080' 
 ORDER BY desc_t, carmakcod 

29/5/2014  19:20 >> Application_Name >> getDataPremium
exec sp_calonlineweb 'Y','110','1','3','5 ','JK-MI080','2000','A','A',357390,436810,'36',30

29/5/2014  19:20 >> Application_Name >> getDataPremium
exec sp_calonlineweb 'Y','110','2','3','5 ','JK-MI080','2000','A','A',357390,436810,'36',30

29/5/2014  19:20 >> Application_Name >> getDataPremium
exec sp_calonlineweb 'Y','110','3','3','5 ','JK-MI080','2000','A','A',0,0,'36',30

29/5/2014  19:23 >> Application_Name >> getDataCarMarkByCarMarkCode
SELECT * 
 FROM online_carmark 
 WHERE carmakcod = '' 
 ORDER BY desc_t, carmakcod 

29/5/2014  19:23 >> Application_Name >> getDataCarMarkByCarMarkCode
SELECT * 
 FROM online_carmark 
 WHERE carmakcod = 'EK-FO083' 
 ORDER BY desc_t, carmakcod 

29/5/2014  19:24 >> Application_Name >> getDataCarMarkByCarMarkCode
SELECT * 
 FROM online_carmark 
 WHERE carmakcod = '' 
 ORDER BY desc_t, carmakcod 

29/5/2014  19:24 >> Application_Name >> getDataCarMarkByCarMarkCode
SELECT * 
 FROM online_carmark 
 WHERE carmakcod = 'JK-HO001' 
 ORDER BY desc_t, carmakcod 

29/5/2014  19:25 >> Application_Name >> getDataPremium
exec sp_calonlineweb 'N','110','1','4','5 ','EK-FO083','2000','A','A',432117,528143,'0',20

29/5/2014  19:25 >> Application_Name >> getDataPremium
exec sp_calonlineweb 'N','110','2','4','5 ','EK-FO083','2000','A','A',432117,528143,'0',20

29/5/2014  19:25 >> Application_Name >> getDataPremium
exec sp_calonlineweb 'N','110','3','4','5 ','EK-FO083','2000','A','A',0,0,'0',20

29/5/2014  19:28 >> Application_Name >> getDataPremium
exec sp_calonlineweb 'Y','110','1','3','5 ','JK-HO001','2000','A','A',446737.5,546012.5,'0',20

29/5/2014  19:28 >> Application_Name >> getDataPremium
exec sp_calonlineweb 'Y','110','2','3','5 ','JK-HO001','2000','A','A',446737.5,546012.5,'0',20

29/5/2014  19:28 >> Application_Name >> getDataPremium
exec sp_calonlineweb 'Y','110','3','3','5 ','JK-HO001','2000','A','A',0,0,'0',20

29/5/2014  19:30 >> Application_Name >> getDataCarMarkByCarMarkCode
SELECT * 
 FROM online_carmark 
 WHERE carmakcod = 'JK-MI047' 
 ORDER BY desc_t, carmakcod 

29/5/2014  19:30 >> Application_Name >> getDataPremium
exec sp_calonlineweb 'Y','110','1','3','3 ','JK-MI047','9999','A','A',763515,933185,'36',30

29/5/2014  19:30 >> Application_Name >> getDataPremium
exec sp_calonlineweb 'Y','110','2','3','3 ','JK-MI047','9999','A','A',763515,933185,'36',30

29/5/2014  19:30 >> Application_Name >> getDataPremium
exec sp_calonlineweb 'Y','110','3','3','3 ','JK-MI047','9999','A','A',0,0,'36',30

29/5/2014  19:30 >> Application_Name >> getDataCarMarkByCarMarkCode
SELECT * 
 FROM online_carmark 
 WHERE carmakcod = 'JK-MI080' 
 ORDER BY desc_t, carmakcod 

29/5/2014  19:32 >> Application_Name >> getDataCarMarkByCarMarkCode
SELECT * 
 FROM online_carmark 
 WHERE carmakcod = '' 
 ORDER BY desc_t, carmakcod 

29/5/2014  19:32 >> Application_Name >> getDataCarMarkByCarMarkCode
SELECT * 
 FROM online_carmark 
 WHERE carmakcod = 'JK-MI080' 
 ORDER BY desc_t, carmakcod 

29/5/2014  19:33 >> Application_Name >> getDataPremium
exec sp_calonlineweb 'Y','110','1','3','5 ','JK-MI080','2000','A','A',357390,436810,'36',30

29/5/2014  19:33 >> Application_Name >> getDataPremium
exec sp_calonlineweb 'Y','110','2','3','5 ','JK-MI080','2000','A','A',357390,436810,'36',30

29/5/2014  19:33 >> Application_Name >> getDataPremium
exec sp_calonlineweb 'Y','110','3','3','5 ','JK-MI080','2000','A','A',0,0,'36',30

29/5/2014  20:7 >> Application_Name >> getDataCarMarkByCarMarkCode
SELECT * 
 FROM online_carmark 
 WHERE carmakcod = '' 
 ORDER BY desc_t, carmakcod 

29/5/2014  20:8 >> Application_Name >> getDataCarMarkByCarMarkCode
SELECT * 
 FROM online_carmark 
 WHERE carmakcod = 'JK-NI100' 
 ORDER BY desc_t, carmakcod 

29/5/2014  20:9 >> Application_Name >> getDataPremium
exec sp_calonlineweb 'Y','110','1','3','5 ','JK-NI100','2000','A','A',361000,397100,'0',0

29/5/2014  20:9 >> Application_Name >> getDataPremium
exec sp_calonlineweb 'Y','110','2','3','5 ','JK-NI100','2000','A','A',361000,397100,'0',0

29/5/2014  20:9 >> Application_Name >> getDataPremium
exec sp_calonlineweb 'Y','110','3','3','5 ','JK-NI100','2000','A','A',0,0,'0',0

29/5/2014  20:11 >> Application_Name >> getDataCarMarkByCarMarkCode
SELECT * 
 FROM online_carmark 
 WHERE carmakcod = '' 
 ORDER BY desc_t, carmakcod 

29/5/2014  20:11 >> Application_Name >> getDataCarMarkByCarMarkCode
SELECT * 
 FROM online_carmark 
 WHERE carmakcod = '' 
 ORDER BY desc_t, carmakcod 

29/5/2014  20:11 >> Application_Name >> getDataCarMarkByCarMarkCode
SELECT * 
 FROM online_carmark 
 WHERE carmakcod = 'JK-IS021' 
 ORDER BY desc_t, carmakcod 

29/5/2014  20:11 >> Application_Name >> getDataCarMarkByCarMarkCode
SELECT * 
 FROM online_carmark 
 WHERE carmakcod = 'JK-NI100' 
 ORDER BY desc_t, carmakcod 

29/5/2014  20:12 >> Application_Name >> getDataPremium
exec sp_calonlineweb 'Y','110','1','3','5 ','JK-NI100','2000','A','A',361000,397100,'0',0

29/5/2014  20:12 >> Application_Name >> getDataPremium
exec sp_calonlineweb 'Y','110','2','3','5 ','JK-NI100','2000','A','A',361000,397100,'0',0

29/5/2014  20:12 >> Application_Name >> getDataPremium
exec sp_calonlineweb 'Y','110','3','3','5 ','JK-NI100','2000','A','A',0,0,'0',0

29/5/2014  20:14 >> Application_Name >> getDataPremium
exec sp_calonlineweb 'N','110','1','3','3 ','JK-IS021','9999','A','A',471105,575795,'0',0

29/5/2014  20:14 >> Application_Name >> getDataPremium
exec sp_calonlineweb 'N','110','2','3','3 ','JK-IS021','9999','A','A',471105,575795,'0',0

29/5/2014  20:14 >> Application_Name >> getDataPremium
exec sp_calonlineweb 'N','110','3','3','3 ','JK-IS021','9999','A','A',0,0,'0',0

29/5/2014  20:15 >> Application_Name >> SMK :: BuyVoluntary_step2-docToUI
Combine

29/5/2014  20:15 >> Application_Name >> SMK :: BuyVoluntary_step2-docToUI
rg_prmm-014018

29/5/2014  20:15 >> Application_Name >> SMK :: BuyVoluntary_step2-docToUI
rg_prmm14018

29/5/2014  20:15 >> Application_Name >> SMK :: BuyVoluntary_step2-docToUI
cp_comp_prmm600.00

29/5/2014  20:15 >> Application_Name >> getDataPremium
exec sp_calonlineweb 'Y','110','1','3','5 ','JK-NI100','2000','A','A',361000,397100,'0',0

29/5/2014  20:15 >> Application_Name >> getDataPremium
exec sp_calonlineweb 'Y','110','2','3','5 ','JK-NI100','2000','A','A',361000,397100,'0',0

29/5/2014  20:15 >> Application_Name >> getDataPremium
exec sp_calonlineweb 'Y','110','3','3','5 ','JK-NI100','2000','A','A',0,0,'0',0

29/5/2014  20:15 >> Application_Name >> SMK :: BuyVoluntary_step2-docToUI
Combine

29/5/2014  20:15 >> Application_Name >> SMK :: BuyVoluntary_step2-docToUI
rg_prmm-014018

29/5/2014  20:15 >> Application_Name >> SMK :: BuyVoluntary_step2-docToUI
rg_prmm14018

29/5/2014  20:15 >> Application_Name >> SMK :: BuyVoluntary_step2-docToUI
cp_comp_prmm600.00

29/5/2014  20:17 >> Application_Name >> getDataCarMarkByCarMarkCode
SELECT * 
 FROM online_carmark 
 WHERE carmakcod = '' 
 ORDER BY desc_t, carmakcod 

29/5/2014  20:17 >> Application_Name >> getDataCarMarkByCarMarkCode
SELECT * 
 FROM online_carmark 
 WHERE carmakcod = 'JK-TO242' 
 ORDER BY desc_t, carmakcod 

29/5/2014  20:21 >> Application_Name >> getCategoryCompByBrand
SELECT mdc_minor_cd , mdc_desc_t as mdc_desc FROM mtdesc_comp  WHERE mdc_minor_cd <> '0000' AND mdc_major_cd = 'A001' ORDER BY mdc_desc 

29/5/2014  20:21 >> Application_Name >> getCategoryCompByBrand
SELECT mdc_minor_cd , mdc_desc_t as mdc_desc FROM mtdesc_comp  WHERE mdc_minor_cd <> '0000' AND mdc_major_cd = 'H002' ORDER BY mdc_desc 

29/5/2014  20:23 >> Application_Name >> getNewPremium - compprmm
SELECT cp_com_prmm, cp_stamp, cp_tax FROM comprmm WHERE cp_veh_cd = '1.40A  '

29/5/2014  20:24 >> Application_Name >> getNewPremium - compprmm
SELECT cp_com_prmm, cp_stamp, cp_tax FROM comprmm WHERE cp_veh_cd = '1.20A  '

29/5/2014  20:24 >> Application_Name >> getCategoryCompByBrand
SELECT mdc_minor_cd , mdc_desc_t as mdc_desc FROM mtdesc_comp  WHERE mdc_minor_cd <> '0000' AND mdc_major_cd = 'M001' ORDER BY mdc_desc 

29/5/2014  20:24 >> Application_Name >> getNewPremium - compprmm
SELECT cp_com_prmm, cp_stamp, cp_tax FROM comprmm WHERE cp_veh_cd = '1.10   '

29/5/2014  20:24 >> Application_Name >> getCategoryCompByCode
SELECT mdc_minor_cd , mdc_desc_t as mdc_desc FROM mtdesc_comp  WHERE mdc_minor_cd <> '0000' AND mdc_major_cd = 'M001'     AND mdc_minor_cd = '0004    '  ORDER BY mdc_desc 

29/5/2014  20:25 >> Application_Name >> getCategoryCompByCode
SELECT mdc_minor_cd , mdc_desc_t as mdc_desc FROM mtdesc_comp  WHERE mdc_minor_cd <> '0000' AND mdc_major_cd = 'M001'     AND mdc_minor_cd = '0004    '  ORDER BY mdc_desc 

29/5/2014  20:25 >> Application_Name >> getDataPremium
exec sp_calonlineweb 'N','110','1','4','5 ','EK-FO083','2000','A','A',432117,528143,'0',20

29/5/2014  20:25 >> Application_Name >> getDataPremium
exec sp_calonlineweb 'N','110','2','4','5 ','EK-FO083','2000','A','A',432117,528143,'0',20

29/5/2014  20:25 >> Application_Name >> getDataPremium
exec sp_calonlineweb 'N','110','3','4','5 ','EK-FO083','2000','A','A',0,0,'0',20

29/5/2014  20:26 >> Application_Name >> getDataPremium
exec sp_calonlineweb 'N','110','1','4','5 ','EK-FO083','2000','A','A',432117,528143,'0',20

29/5/2014  20:26 >> Application_Name >> getDataPremium
exec sp_calonlineweb 'N','110','2','4','5 ','EK-FO083','2000','A','A',432117,528143,'0',20

29/5/2014  20:26 >> Application_Name >> getDataPremium
exec sp_calonlineweb 'N','110','3','4','5 ','EK-FO083','2000','A','A',0,0,'0',20

29/5/2014  20:29 >> Application_Name >> getDataCarMarkByCarMarkCode
SELECT * 
 FROM online_carmark 
 WHERE carmakcod = '' 
 ORDER BY desc_t, carmakcod 

29/5/2014  20:29 >> Application_Name >> getDataCarMarkByCarMarkCode
SELECT * 
 FROM online_carmark 
 WHERE carmakcod = 'JK-TO242' 
 ORDER BY desc_t, carmakcod 

29/5/2014  20:31 >> Application_Name >> getDataPremium
exec sp_calonlineweb 'Y','110','1','3','5 ','JK-TO242','2000','A','A',454860,555940,'25',0

29/5/2014  20:31 >> Application_Name >> getDataPremium
exec sp_calonlineweb 'Y','110','2','3','5 ','JK-TO242','2000','A','A',454860,555940,'25',0

29/5/2014  20:31 >> Application_Name >> getDataPremium
exec sp_calonlineweb 'Y','110','3','3','5 ','JK-TO242','2000','A','A',0,0,'25',0

29/5/2014  20:31 >> Application_Name >> getDataPremium
exec sp_calonlineweb 'Y','110','1','3','5 ','JK-TO242','2000','A','A',454860,555940,'25',30

29/5/2014  20:31 >> Application_Name >> getDataPremium
exec sp_calonlineweb 'Y','110','2','3','5 ','JK-TO242','2000','A','A',454860,555940,'25',30

29/5/2014  20:31 >> Application_Name >> getDataPremium
exec sp_calonlineweb 'Y','110','3','3','5 ','JK-TO242','2000','A','A',0,0,'25',30

29/5/2014  20:33 >> Application_Name >> getDataCarMarkByCarMarkCode
SELECT * 
 FROM online_carmark 
 WHERE carmakcod = '' 
 ORDER BY desc_t, carmakcod 

29/5/2014  20:33 >> Application_Name >> getDataCarMarkByCarMarkCode
SELECT * 
 FROM online_carmark 
 WHERE carmakcod = '' 
 ORDER BY desc_t, carmakcod 

29/5/2014  20:33 >> Application_Name >> getDataCarMarkByCarMarkCode
SELECT * 
 FROM online_carmark 
 WHERE carmakcod = '' 
 ORDER BY desc_t, carmakcod 

29/5/2014  20:33 >> Application_Name >> getDataCarMarkByCarMarkCode
SELECT * 
 FROM online_carmark 
 WHERE carmakcod = '' 
 ORDER BY desc_t, carmakcod 

29/5/2014  20:34 >> Application_Name >> getDataCarMarkByCarMarkCode
SELECT * 
 FROM online_carmark 
 WHERE carmakcod = 'JK-HO061' 
 ORDER BY desc_t, carmakcod 

29/5/2014  20:34 >> Application_Name >> getDataPremium
exec sp_calonlineweb 'N','110','1','7','3 ','JK-HO061','9999','A','A',542497.81528125,663052.88534375,'0',0

29/5/2014  20:34 >> Application_Name >> getDataPremium
exec sp_calonlineweb 'N','110','2','7','3 ','JK-HO061','9999','A','A',542497.81528125,663052.88534375,'0',0

29/5/2014  20:34 >> Application_Name >> getDataPremium
exec sp_calonlineweb 'N','110','3','7','3 ','JK-HO061','9999','A','A',0,0,'0',0

29/5/2014  20:34 >> Application_Name >> getDataPremium
exec sp_calonlineweb 'N','110','1','7','3 ','JK-HO061','9999','A','A',542497.81528125,663052.88534375,'0',0

29/5/2014  20:35 >> Application_Name >> getDataPremium
exec sp_calonlineweb 'N','110','2','7','3 ','JK-HO061','9999','A','A',542497.81528125,663052.88534375,'0',0

29/5/2014  20:35 >> Application_Name >> getDataPremium
exec sp_calonlineweb 'N','110','3','7','3 ','JK-HO061','9999','A','A',0,0,'0',0

29/5/2014  20:35 >> Application_Name >> getDataPremium
exec sp_calonlineweb 'N','110','1','7','3 ','JK-HO061','9999','A','A',542497.81528125,663052.88534375,'0',20

29/5/2014  20:35 >> Application_Name >> getDataPremium
exec sp_calonlineweb 'N','110','2','7','3 ','JK-HO061','9999','A','A',542497.81528125,663052.88534375,'0',20

29/5/2014  20:35 >> Application_Name >> getDataPremium
exec sp_calonlineweb 'N','110','3','7','3 ','JK-HO061','9999','A','A',0,0,'0',20

29/5/2014  20:44 >> Application_Name >> getDataCarMarkByCarMarkCode
SELECT * 
 FROM online_carmark 
 WHERE carmakcod = '' 
 ORDER BY desc_t, carmakcod 

29/5/2014  20:44 >> Application_Name >> getDataCarMarkByCarMarkCode
SELECT * 
 FROM online_carmark 
 WHERE carmakcod = 'JK-HO055' 
 ORDER BY desc_t, carmakcod 

29/5/2014  20:45 >> Application_Name >> getDataPremium
exec sp_calonlineweb 'Y','110','1','7','3 ','JK-HO055','9999','A','A',476339.545125,582192.777375,'0',20

29/5/2014  20:45 >> Application_Name >> getDataPremium
exec sp_calonlineweb 'Y','110','2','7','3 ','JK-HO055','9999','A','A',476339.545125,582192.777375,'0',20

29/5/2014  20:45 >> Application_Name >> getDataPremium
exec sp_calonlineweb 'Y','110','3','7','3 ','JK-HO055','9999','A','A',0,0,'0',20

29/5/2014  20:45 >> Application_Name >> SMK :: BuyVoluntary_step2-docToUI
Combine

29/5/2014  20:45 >> Application_Name >> SMK :: BuyVoluntary_step2-docToUI
rg_prmm-015380.8

29/5/2014  20:45 >> Application_Name >> SMK :: BuyVoluntary_step2-docToUI
rg_prmm15380.8

29/5/2014  20:45 >> Application_Name >> SMK :: BuyVoluntary_step2-docToUI
cp_comp_prmm600.00

29/5/2014  20:47 >> Application_Name >> getDataCarMarkByCarMarkCode
SELECT * 
 FROM online_carmark 
 WHERE carmakcod = '' 
 ORDER BY desc_t, carmakcod 

29/5/2014  20:47 >> Application_Name >> getDataCarMarkByCarMarkCode
SELECT * 
 FROM online_carmark 
 WHERE carmakcod = 'JK-NI100' 
 ORDER BY desc_t, carmakcod 

29/5/2014  20:48 >> Application_Name >> getDataPremium
exec sp_calonlineweb 'Y','110','1','3','5 ','JK-NI100','2000','A','A',361000,397100,'0',20

29/5/2014  20:48 >> Application_Name >> getDataPremium
exec sp_calonlineweb 'Y','110','2','3','5 ','JK-NI100','2000','A','A',361000,397100,'0',20

29/5/2014  20:48 >> Application_Name >> getDataPremium
exec sp_calonlineweb 'Y','110','3','3','5 ','JK-NI100','2000','A','A',0,0,'0',20

29/5/2014  20:49 >> Application_Name >> getDataCarMarkByCarMarkCode
SELECT * 
 FROM online_carmark 
 WHERE carmakcod = '' 
 ORDER BY desc_t, carmakcod 

29/5/2014  20:49 >> Application_Name >> getDataCarMarkByCarMarkCode
SELECT * 
 FROM online_carmark 
 WHERE carmakcod = 'JK-MI047' 
 ORDER BY desc_t, carmakcod 

29/5/2014  20:49 >> Application_Name >> SMK :: BuyVoluntary_step2-docToUI
Combine

29/5/2014  20:49 >> Application_Name >> SMK :: BuyVoluntary_step2-docToUI
rg_prmm-011214.4

29/5/2014  20:49 >> Application_Name >> SMK :: BuyVoluntary_step2-docToUI
rg_prmm11214.4

29/5/2014  20:49 >> Application_Name >> SMK :: BuyVoluntary_step2-docToUI
cp_comp_prmm600.00

29/5/2014  20:49 >> Application_Name >> getDataPremium
exec sp_calonlineweb 'Y','110','1','3','5 ','JK-NI100','2000','A','A',361000,397100,'0',20

29/5/2014  20:49 >> Application_Name >> getDataPremium
exec sp_calonlineweb 'Y','110','2','3','5 ','JK-NI100','2000','A','A',361000,397100,'0',20

29/5/2014  20:49 >> Application_Name >> getDataPremium
exec sp_calonlineweb 'Y','110','3','3','5 ','JK-NI100','2000','A','A',0,0,'0',20

29/5/2014  20:55 >> Application_Name >> getDataCarMarkByCarMarkCode
SELECT * 
 FROM online_carmark 
 WHERE carmakcod = '' 
 ORDER BY desc_t, carmakcod 

29/5/2014  20:55 >> Application_Name >> getDataCarMarkByCarMarkCode
SELECT * 
 FROM online_carmark 
 WHERE carmakcod = '' 
 ORDER BY desc_t, carmakcod 

29/5/2014  20:55 >> Application_Name >> getDataCarMarkByCarMarkCode
SELECT * 
 FROM online_carmark 
 WHERE carmakcod = '' 
 ORDER BY desc_t, carmakcod 

29/5/2014  20:55 >> Application_Name >> getDataCarMarkByCarMarkCode
SELECT * 
 FROM online_carmark 
 WHERE carmakcod = '' 
 ORDER BY desc_t, carmakcod 

29/5/2014  20:56 >> Application_Name >> getDataCarMarkByCarMarkCode
SELECT * 
 FROM online_carmark 
 WHERE carmakcod = 'JP-IS052' 
 ORDER BY desc_t, carmakcod 

29/5/2014  20:59 >> Application_Name >> getDataPremium
exec sp_calonlineweb 'Y','210','1','2','A','','2500','21','A',555940,614460,'25',0

29/5/2014  20:59 >> Application_Name >> getDataPremium
exec sp_calonlineweb 'Y','210','2','2','A','','2500','21','A',555940,614460,'25',0

29/5/2014  20:59 >> Application_Name >> getDataPremium
exec sp_calonlineweb 'Y','210','3','2','A','','2500','21','A',0,0,'25',0

29/5/2014  20:59 >> Application_Name >> getDataPremium
exec sp_calonlineweb 'Y','210','1','2','A','','2500','21','A',555940,614460,'25',0

29/5/2014  20:59 >> Application_Name >> getDataPremium
exec sp_calonlineweb 'Y','210','2','2','A','','2500','21','A',555940,614460,'25',0

29/5/2014  20:59 >> Application_Name >> getDataPremium
exec sp_calonlineweb 'Y','210','3','2','A','','2500','21','A',0,0,'25',0

29/5/2014  21:0 >> Application_Name >> getDataPremium
exec sp_calonlineweb 'Y','210','1','2','A','','2500','21','A',555940,614460,'25',0

29/5/2014  21:0 >> Application_Name >> getDataPremium
exec sp_calonlineweb 'Y','210','2','2','A','','2500','21','A',555940,614460,'25',0

29/5/2014  21:0 >> Application_Name >> getDataPremium
exec sp_calonlineweb 'Y','210','3','2','A','','2500','21','A',0,0,'25',0

29/5/2014  21:0 >> Application_Name >> getDataPremium
exec sp_calonlineweb 'Y','210','1','2','A','','2500','21','A',555940,614460,'25',0

29/5/2014  21:0 >> Application_Name >> getDataPremium
exec sp_calonlineweb 'Y','210','2','2','A','','2500','21','A',555940,614460,'25',0

29/5/2014  21:0 >> Application_Name >> getDataPremium
exec sp_calonlineweb 'Y','210','3','2','A','','2500','21','A',0,0,'25',0

29/5/2014  21:0 >> Application_Name >> getDataPremium
exec sp_calonlineweb 'Y','210','1','2','A','','2500','21','A',555940,614460,'25',0

29/5/2014  21:0 >> Application_Name >> getDataPremium
exec sp_calonlineweb 'Y','210','2','2','A','','2500','21','A',555940,614460,'25',0

29/5/2014  21:0 >> Application_Name >> getDataPremium
exec sp_calonlineweb 'Y','210','3','2','A','','2500','21','A',0,0,'25',0

29/5/2014  21:1 >> Application_Name >> getDataCarMarkByCarMarkCode
SELECT * 
 FROM online_carmark 
 WHERE carmakcod = 'JK-NI100' 
 ORDER BY desc_t, carmakcod 

29/5/2014  21:3 >> Application_Name >> getDataCarMarkByCarMarkCode
SELECT * 
 FROM online_carmark 
 WHERE carmakcod = '' 
 ORDER BY desc_t, carmakcod 

29/5/2014  21:3 >> Application_Name >> getDataPremium
exec sp_calonlineweb 'Y','110','1','3','5 ','JK-NI100','2000','A','A',361000,397100,'0',20

29/5/2014  21:3 >> Application_Name >> getDataPremium
exec sp_calonlineweb 'Y','110','2','3','5 ','JK-NI100','2000','A','A',361000,397100,'0',20

29/5/2014  21:3 >> Application_Name >> getDataPremium
exec sp_calonlineweb 'Y','110','3','3','5 ','JK-NI100','2000','A','A',0,0,'0',20

29/5/2014  21:4 >> Application_Name >> getDataCarMarkByCarMarkCode
SELECT * 
 FROM online_carmark 
 WHERE carmakcod = '' 
 ORDER BY desc_t, carmakcod 

29/5/2014  21:4 >> Application_Name >> getDataCarMarkByCarMarkCode
SELECT * 
 FROM online_carmark 
 WHERE carmakcod = '' 
 ORDER BY desc_t, carmakcod 

29/5/2014  21:4 >> Application_Name >> getDataCarMarkByCarMarkCode
SELECT * 
 FROM online_carmark 
 WHERE carmakcod = 'JK-TO242' 
 ORDER BY desc_t, carmakcod 

29/5/2014  21:4 >> Application_Name >> SMK :: BuyVoluntary_step2-docToUI
Combine

29/5/2014  21:4 >> Application_Name >> SMK :: BuyVoluntary_step2-docToUI
rg_prmm-011214.4

29/5/2014  21:4 >> Application_Name >> SMK :: BuyVoluntary_step2-docToUI
rg_prmm11214.4

29/5/2014  21:4 >> Application_Name >> SMK :: BuyVoluntary_step2-docToUI
cp_comp_prmm600.00

29/5/2014  21:7 >> Application_Name >> getDataPremium
exec sp_calonlineweb 'N','110','1','3','5 ','JK-TO242','2000','A','A',454860,555940,'0',0

29/5/2014  21:7 >> Application_Name >> getDataPremium
exec sp_calonlineweb 'N','110','2','3','5 ','JK-TO242','2000','A','A',454860,555940,'0',0

29/5/2014  21:7 >> Application_Name >> getDataPremium
exec sp_calonlineweb 'N','110','3','3','5 ','JK-TO242','2000','A','A',0,0,'0',0

29/5/2014  21:12 >> Application_Name >> SMK :: BuyVoluntary_step2-docToUI
Combine

29/5/2014  21:12 >> Application_Name >> SMK :: BuyVoluntary_step2-docToUI
rg_prmm-011214.4

29/5/2014  21:12 >> Application_Name >> SMK :: BuyVoluntary_step2-docToUI
rg_prmm11214.4

29/5/2014  21:12 >> Application_Name >> SMK :: BuyVoluntary_step2-docToUI
cp_comp_prmm600.00

29/5/2014  21:32 >> Application_Name >> SMK :: BuyVoluntary_step2-docToUI
Combine

29/5/2014  21:32 >> Application_Name >> SMK :: BuyVoluntary_step2-docToUI
rg_prmm-011214.4

29/5/2014  21:32 >> Application_Name >> SMK :: BuyVoluntary_step2-docToUI
rg_prmm11214.4

29/5/2014  21:32 >> Application_Name >> SMK :: BuyVoluntary_step2-docToUI
cp_comp_prmm600.00

29/5/2014  21:32 >> Application_Name >> getDataPremium
exec sp_calonlineweb 'Y','110','1','3','5 ','JK-NI100','2000','A','A',361000,397100,'0',20

29/5/2014  21:32 >> Application_Name >> getDataPremium
exec sp_calonlineweb 'Y','110','2','3','5 ','JK-NI100','2000','A','A',361000,397100,'0',20

29/5/2014  21:32 >> Application_Name >> getDataPremium
exec sp_calonlineweb 'Y','110','3','3','5 ','JK-NI100','2000','A','A',0,0,'0',20

29/5/2014  21:32 >> Application_Name >> SMK :: BuyVoluntary_step2-docToUI
Combine

29/5/2014  21:32 >> Application_Name >> SMK :: BuyVoluntary_step2-docToUI
rg_prmm-011214.4

29/5/2014  21:32 >> Application_Name >> SMK :: BuyVoluntary_step2-docToUI
rg_prmm11214.4

29/5/2014  21:32 >> Application_Name >> SMK :: BuyVoluntary_step2-docToUI
cp_comp_prmm600.00

29/5/2014  21:44 >> Application_Name >> getDataCarMarkByCarMarkCode
SELECT * 
 FROM online_carmark 
 WHERE carmakcod = '' 
 ORDER BY desc_t, carmakcod 

29/5/2014  21:44 >> Application_Name >> getDataCarMarkByCarMarkCode
SELECT * 
 FROM online_carmark 
 WHERE carmakcod = '' 
 ORDER BY desc_t, carmakcod 

29/5/2014  21:44 >> Application_Name >> getDataCarMarkByCarMarkCode
SELECT * 
 FROM online_carmark 
 WHERE carmakcod = 'JP-TO044' 
 ORDER BY desc_t, carmakcod 

29/5/2014  21:46 >> Application_Name >> getDataPremium
exec sp_calonlineweb 'N','320','1','4','A','','4','N','A',476323.255,526462.545,'0',30

29/5/2014  21:46 >> Application_Name >> getDataPremium
exec sp_calonlineweb 'N','320','2','4','A','','4','N','A',476323.255,526462.545,'0',30

29/5/2014  21:46 >> Application_Name >> getDataPremium
exec sp_calonlineweb 'N','320','3','4','A','','4','N','A',0,0,'0',30

29/5/2014  22:55 >> Application_Name >> getDataCarMarkByCarMarkCode
SELECT * 
 FROM online_carmark 
 WHERE carmakcod = '' 
 ORDER BY desc_t, carmakcod 

29/5/2014  22:55 >> Application_Name >> getDataCarMarkByCarMarkCode
SELECT * 
 FROM online_carmark 
 WHERE carmakcod = 'JK-NI100' 
 ORDER BY desc_t, carmakcod 

29/5/2014  22:58 >> Application_Name >> getDataPremium
exec sp_calonlineweb 'Y','110','1','3','5 ','JK-NI100','2000','A','A',361000,397100,'0',0

29/5/2014  22:58 >> Application_Name >> getDataPremium
exec sp_calonlineweb 'Y','110','2','3','5 ','JK-NI100','2000','A','A',361000,397100,'0',0

29/5/2014  22:58 >> Application_Name >> getDataPremium
exec sp_calonlineweb 'Y','110','3','3','5 ','JK-NI100','2000','A','A',0,0,'0',0

29/5/2014  23:10 >> Application_Name >> getDataCarMarkByCarMarkCode
SELECT * 
 FROM online_carmark 
 WHERE carmakcod = '' 
 ORDER BY desc_t, carmakcod 

29/5/2014  23:11 >> Application_Name >> getDataCarMarkByCarMarkCode
SELECT * 
 FROM online_carmark 
 WHERE carmakcod = 'JK-TO178' 
 ORDER BY desc_t, carmakcod 

