18/1/2014  0:55 >> Application_Name >> getDataCarMarkByCarMarkCode
SELECT * 
 FROM online_carmark 
 WHERE carmakcod = '' 
 ORDER BY desc_t, carmakcod 

18/1/2014  0:55 >> Application_Name >> getDataCarMarkByCarMarkCode
SELECT * 
 FROM online_carmark 
 WHERE carmakcod = 'JK-TO242' 
 ORDER BY desc_t, carmakcod 

18/1/2014  0:56 >> Application_Name >> getDataPremium
exec sp_calonlineweb 'Y','110','1','6','5 ','JK-TO242','2000','A','A',389985.5925,476649.0575,'0',20

18/1/2014  0:56 >> Application_Name >> getDataPremium
exec sp_calonlineweb 'Y','110','2','6','5 ','JK-TO242','2000','A','A',389985.5925,476649.0575,'0',20

18/1/2014  0:56 >> Application_Name >> getDataPremium
exec sp_calonlineweb 'Y','110','3','6','5 ','JK-TO242','2000','A','A',0,0,'0',20

18/1/2014  0:57 >> Application_Name >> getDataPremium
exec sp_calonlineweb 'Y','110','1','8','5 ','JK-TO242','2000','A','A',351961.99723125,430175.77439375,'0',20

18/1/2014  0:57 >> Application_Name >> getDataPremium
exec sp_calonlineweb 'Y','110','2','8','5 ','JK-TO242','2000','A','A',351961.99723125,430175.77439375,'0',20

18/1/2014  0:57 >> Application_Name >> getDataPremium
exec sp_calonlineweb 'Y','110','3','8','5 ','JK-TO242','2000','A','A',0,0,'0',20

18/1/2014  0:57 >> Application_Name >> getDataPremium
exec sp_calonlineweb 'Y','110','1','9','5 ','JK-TO242','2000','A','A',334363.897369688,408666.985674063,'0',20

18/1/2014  0:57 >> Application_Name >> getDataPremium
exec sp_calonlineweb 'Y','110','2','9','5 ','JK-TO242','2000','A','A',334363.897369688,408666.985674063,'0',20

18/1/2014  0:57 >> Application_Name >> getDataPremium
exec sp_calonlineweb 'Y','110','3','9','5 ','JK-TO242','2000','A','A',0,0,'0',20

18/1/2014  0:57 >> Application_Name >> getDataPremium
exec sp_calonlineweb 'Y','110','1','10','5 ','JK-TO242','2000','A','A',317645.702501204,388233.63639036,'0',20

18/1/2014  0:57 >> Application_Name >> getDataPremium
exec sp_calonlineweb 'Y','110','2','10','5 ','JK-TO242','2000','A','A',317645.702501204,388233.63639036,'0',20

18/1/2014  0:57 >> Application_Name >> getDataPremium
exec sp_calonlineweb 'Y','110','3','10','5 ','JK-TO242','2000','A','A',0,0,'0',20

18/1/2014  0:58 >> Application_Name >> getDataPremium
exec sp_calonlineweb 'Y','110','1','11','5 ','JK-TO242','2000','A','A',301763.417376144,368821.954570842,'0',20

18/1/2014  0:58 >> Application_Name >> getDataPremium
exec sp_calonlineweb 'Y','110','2','11','5 ','JK-TO242','2000','A','A',301763.417376144,368821.954570842,'0',20

18/1/2014  0:58 >> Application_Name >> getDataPremium
exec sp_calonlineweb 'Y','110','3','11','5 ','JK-TO242','2000','A','A',0,0,'0',20

18/1/2014  0:58 >> Application_Name >> getDataPremium
exec sp_calonlineweb 'Y','110','1','12','5 ','JK-TO242','2000','A','A',286675.246507337,350380.8568423,'0',20

18/1/2014  0:58 >> Application_Name >> getDataPremium
exec sp_calonlineweb 'Y','110','2','12','5 ','JK-TO242','2000','A','A',286675.246507337,350380.8568423,'0',20

18/1/2014  0:58 >> Application_Name >> getDataPremium
exec sp_calonlineweb 'Y','110','3','12','5 ','JK-TO242','2000','A','A',0,0,'0',20

18/1/2014  0:59 >> Application_Name >> getDataPremium
exec sp_calonlineweb 'Y','110','1','11','5 ','JK-TO242','2000','A','A',301763.417376144,368821.954570842,'0',20

18/1/2014  0:59 >> Application_Name >> getDataPremium
exec sp_calonlineweb 'Y','110','2','11','5 ','JK-TO242','2000','A','A',301763.417376144,368821.954570842,'0',20

18/1/2014  0:59 >> Application_Name >> getDataPremium
exec sp_calonlineweb 'Y','110','3','11','5 ','JK-TO242','2000','A','A',0,0,'0',20

18/1/2014  0:59 >> Application_Name >> getDataPremium
exec sp_calonlineweb 'Y','110','1','13','5 ','JK-TO242','2000','A','A',272341.48418197,332861.814000185,'0',20

18/1/2014  0:59 >> Application_Name >> getDataPremium
exec sp_calonlineweb 'Y','110','2','13','5 ','JK-TO242','2000','A','A',272341.48418197,332861.814000185,'0',20

18/1/2014  0:59 >> Application_Name >> getDataPremium
exec sp_calonlineweb 'Y','110','3','13','5 ','JK-TO242','2000','A','A',0,0,'0',20

18/1/2014  0:59 >> Application_Name >> getDataPremium
exec sp_calonlineweb 'Y','110','1','14','5 ','JK-TO242','2000','A','A',258724.409972872,316218.723300176,'0',20

18/1/2014  0:59 >> Application_Name >> getDataPremium
exec sp_calonlineweb 'Y','110','2','14','5 ','JK-TO242','2000','A','A',258724.409972872,316218.723300176,'0',20

18/1/2014  0:59 >> Application_Name >> getDataPremium
exec sp_calonlineweb 'Y','110','3','14','5 ','JK-TO242','2000','A','A',0,0,'0',20

18/1/2014  1:0 >> Application_Name >> getDataCarMarkByCarMarkCode
SELECT * 
 FROM online_carmark 
 WHERE carmakcod = '' 
 ORDER BY desc_t, carmakcod 

18/1/2014  1:0 >> Application_Name >> getDataCarMarkByCarMarkCode
SELECT * 
 FROM online_carmark 
 WHERE carmakcod = '' 
 ORDER BY desc_t, carmakcod 

18/1/2014  1:42 >> Application_Name >> getDataCarMarkByCarMarkCode
SELECT * 
 FROM online_carmark 
 WHERE carmakcod = '' 
 ORDER BY desc_t, carmakcod 

18/1/2014  1:42 >> Application_Name >> getDataCarMarkByCarMarkCode
SELECT * 
 FROM online_carmark 
 WHERE carmakcod = 'JK-TO242' 
 ORDER BY desc_t, carmakcod 

18/1/2014  1:43 >> Application_Name >> getDataPremium
exec sp_calonlineweb 'Y','110','1','6','5 ','JK-TO242','2000','A','A',389985.5925,476649.0575,'0',20

18/1/2014  1:43 >> Application_Name >> getDataPremium
exec sp_calonlineweb 'Y','110','2','6','5 ','JK-TO242','2000','A','A',389985.5925,476649.0575,'0',20

18/1/2014  1:43 >> Application_Name >> getDataPremium
exec sp_calonlineweb 'Y','110','3','6','5 ','JK-TO242','2000','A','A',0,0,'0',20

18/1/2014  1:43 >> Application_Name >> SMK :: BuyVoluntary_step2-docToUI
Combine

18/1/2014  1:43 >> Application_Name >> SMK :: BuyVoluntary_step2-docToUI
rg_prmm-013192.8

18/1/2014  1:43 >> Application_Name >> SMK :: BuyVoluntary_step2-docToUI
rg_prmm13192.8

18/1/2014  1:43 >> Application_Name >> SMK :: BuyVoluntary_step2-docToUI
cp_comp_prmm600.00

18/1/2014  5:0 >> Application_Name >> getDataCarMarkByCarMarkCode
SELECT * 
 FROM online_carmark 
 WHERE carmakcod = '' 
 ORDER BY desc_t, carmakcod 

18/1/2014  5:0 >> Application_Name >> getDataCarMarkByCarMarkCode
SELECT * 
 FROM online_carmark 
 WHERE carmakcod = 'JK-HO084' 
 ORDER BY desc_t, carmakcod 

18/1/2014  5:24 >> Application_Name >> getDataCarMarkByCarMarkCode
SELECT * 
 FROM online_carmark 
 WHERE carmakcod = '' 
 ORDER BY desc_t, carmakcod 

18/1/2014  5:24 >> Application_Name >> getDataCarMarkByCarMarkCode
SELECT * 
 FROM online_carmark 
 WHERE carmakcod = 'JK-HO084' 
 ORDER BY desc_t, carmakcod 

18/1/2014  5:25 >> Application_Name >> getDataPremium
exec sp_calonlineweb 'Y','110','1','5','5 ','JK-HO084','2000','A','A',417841.70625,510695.41875,'0',30

18/1/2014  5:25 >> Application_Name >> getDataPremium
exec sp_calonlineweb 'Y','110','2','5','5 ','JK-HO084','2000','A','A',417841.70625,510695.41875,'0',30

18/1/2014  5:25 >> Application_Name >> getDataPremium
exec sp_calonlineweb 'Y','110','3','5','5 ','JK-HO084','2000','A','A',0,0,'0',30

18/1/2014  5:28 >> Application_Name >> getDataPremium
exec sp_calonlineweb 'Y','110','1','5','5 ','JK-HO084','2000','A','A',417841.70625,510695.41875,'0',30

18/1/2014  5:28 >> Application_Name >> getDataPremium
exec sp_calonlineweb 'Y','110','2','5','5 ','JK-HO084','2000','A','A',417841.70625,510695.41875,'0',30

18/1/2014  5:28 >> Application_Name >> getDataPremium
exec sp_calonlineweb 'Y','110','3','5','5 ','JK-HO084','2000','A','A',0,0,'0',30

18/1/2014  6:40 >> Application_Name >> getDataCarMarkByCarMarkCode
SELECT * 
 FROM online_carmark 
 WHERE carmakcod = '' 
 ORDER BY desc_t, carmakcod 

18/1/2014  6:40 >> Application_Name >> getDataCarMarkByCarMarkCode
SELECT * 
 FROM online_carmark 
 WHERE carmakcod = 'EK-BE019' 
 ORDER BY desc_t, carmakcod 

18/1/2014  6:40 >> Application_Name >> getDataPremium
exec sp_calonlineweb 'Y','110','1','1','2 ','EK-BE019','2000','A','A',2340000,2860000,'0',20

18/1/2014  6:40 >> Application_Name >> getDataPremium
exec sp_calonlineweb 'Y','110','2','1','2 ','EK-BE019','2000','A','A',2340000,2860000,'0',20

18/1/2014  6:40 >> Application_Name >> getDataPremium
exec sp_calonlineweb 'Y','110','3','1','2 ','EK-BE019','2000','A','A',0,0,'0',20

18/1/2014  6:41 >> Application_Name >> getDataPremium
exec sp_calonlineweb 'Y','110','1','1','2 ','EK-BE019','2000','A','A',2340000,2860000,'0',20

18/1/2014  6:41 >> Application_Name >> getDataPremium
exec sp_calonlineweb 'Y','110','2','1','2 ','EK-BE019','2000','A','A',2340000,2860000,'0',20

18/1/2014  6:41 >> Application_Name >> getDataPremium
exec sp_calonlineweb 'Y','110','3','1','2 ','EK-BE019','2000','A','A',0,0,'0',20

18/1/2014  6:41 >> Application_Name >> getDataPremium
exec sp_calonlineweb 'Y','110','1','1','2 ','EK-BE019','2000','A','A',2340000,2860000,'0',20

18/1/2014  6:41 >> Application_Name >> getDataPremium
exec sp_calonlineweb 'Y','110','2','1','2 ','EK-BE019','2000','A','A',2340000,2860000,'0',20

18/1/2014  6:41 >> Application_Name >> getDataPremium
exec sp_calonlineweb 'Y','110','3','1','2 ','EK-BE019','2000','A','A',0,0,'0',20

18/1/2014  6:41 >> Application_Name >> getDataPremium
exec sp_calonlineweb 'Y','110','1','2','2 ','EK-BE019','2000','A','A',2223000,2717000,'0',20

18/1/2014  6:41 >> Application_Name >> getDataPremium
exec sp_calonlineweb 'Y','110','2','2','2 ','EK-BE019','2000','A','A',2223000,2717000,'0',20

18/1/2014  6:41 >> Application_Name >> getDataPremium
exec sp_calonlineweb 'Y','110','3','2','2 ','EK-BE019','2000','A','A',0,0,'0',20

18/1/2014  7:51 >> Application_Name >> getDataCarMarkByCarMarkCode
SELECT * 
 FROM online_carmark 
 WHERE carmakcod = '' 
 ORDER BY desc_t, carmakcod 

18/1/2014  7:51 >> Application_Name >> getDataCarMarkByCarMarkCode
SELECT * 
 FROM online_carmark 
 WHERE carmakcod = 'EK-FO078' 
 ORDER BY desc_t, carmakcod 

18/1/2014  7:52 >> Application_Name >> getDataCarMarkByCarMarkCode
SELECT * 
 FROM online_carmark 
 WHERE carmakcod = 'EK-FO013' 
 ORDER BY desc_t, carmakcod 

18/1/2014  7:54 >> Application_Name >> getDataPremium
exec sp_calonlineweb 'N','110','1','3','3 ','EK-FO013','2000','A','A',568575,694925,'0',0

18/1/2014  7:54 >> Application_Name >> getDataPremium
exec sp_calonlineweb 'N','110','2','3','3 ','EK-FO013','2000','A','A',568575,694925,'0',0

18/1/2014  7:54 >> Application_Name >> getDataPremium
exec sp_calonlineweb 'N','110','3','3','3 ','EK-FO013','2000','A','A',0,0,'0',0

18/1/2014  8:56 >> Application_Name >> getDataCarMarkByCarMarkCode
SELECT * 
 FROM online_carmark 
 WHERE carmakcod = '' 
 ORDER BY desc_t, carmakcod 

18/1/2014  8:56 >> Application_Name >> getDataCarMarkByCarMarkCode
SELECT * 
 FROM online_carmark 
 WHERE carmakcod = 'JK-NI100' 
 ORDER BY desc_t, carmakcod 

18/1/2014  9:0 >> Application_Name >> getDataPremium
exec sp_calonlineweb 'Y','110','1','2','5 ','JK-NI100','2000','A','A',380000,418000,'0',0

18/1/2014  9:0 >> Application_Name >> getDataPremium
exec sp_calonlineweb 'Y','110','2','2','5 ','JK-NI100','2000','A','A',380000,418000,'0',0

18/1/2014  9:0 >> Application_Name >> getDataPremium
exec sp_calonlineweb 'Y','110','3','2','5 ','JK-NI100','2000','A','A',0,0,'0',0

18/1/2014  9:2 >> Application_Name >> getDataPremium
exec sp_calonlineweb 'Y','110','1','2','5 ','JK-NI100','2000','A','A',380000,418000,'25',0

18/1/2014  9:2 >> Application_Name >> getDataPremium
exec sp_calonlineweb 'Y','110','2','2','5 ','JK-NI100','2000','A','A',380000,418000,'25',0

18/1/2014  9:2 >> Application_Name >> getDataPremium
exec sp_calonlineweb 'Y','110','3','2','5 ','JK-NI100','2000','A','A',0,0,'25',0

18/1/2014  9:8 >> Application_Name >> getDataPremium
exec sp_calonlineweb 'Y','110','1','2','5 ','JK-NI100','2000','A','A',380000,418000,'25',0

18/1/2014  9:8 >> Application_Name >> getDataPremium
exec sp_calonlineweb 'Y','110','2','2','5 ','JK-NI100','2000','A','A',380000,418000,'25',0

18/1/2014  9:8 >> Application_Name >> getDataPremium
exec sp_calonlineweb 'Y','110','3','2','5 ','JK-NI100','2000','A','A',0,0,'25',0

18/1/2014  9:8 >> Application_Name >> getDataPremium
exec sp_calonlineweb 'Y','110','1','2','5 ','JK-NI100','2000','A','A',380000,418000,'25',0

18/1/2014  9:8 >> Application_Name >> getDataPremium
exec sp_calonlineweb 'Y','110','2','2','5 ','JK-NI100','2000','A','A',380000,418000,'25',0

18/1/2014  9:8 >> Application_Name >> getDataPremium
exec sp_calonlineweb 'Y','110','3','2','5 ','JK-NI100','2000','A','A',0,0,'25',0

18/1/2014  9:8 >> Application_Name >> getDataCarMarkByCarMarkCode
SELECT * 
 FROM online_carmark 
 WHERE carmakcod = '' 
 ORDER BY desc_t, carmakcod 

18/1/2014  9:9 >> Application_Name >> getDataCarMarkByCarMarkCode
SELECT * 
 FROM online_carmark 
 WHERE carmakcod = 'JK-NI100' 
 ORDER BY desc_t, carmakcod 

18/1/2014  9:10 >> Application_Name >> getDataPremium
exec sp_calonlineweb 'Y','110','1','2','5 ','JK-NI100','2000','A','A',380000,418000,'0',20

18/1/2014  9:10 >> Application_Name >> getDataPremium
exec sp_calonlineweb 'Y','110','2','2','5 ','JK-NI100','2000','A','A',380000,418000,'0',20

18/1/2014  9:10 >> Application_Name >> getDataPremium
exec sp_calonlineweb 'Y','110','3','2','5 ','JK-NI100','2000','A','A',0,0,'0',20

18/1/2014  9:10 >> Application_Name >> getDataPremium
exec sp_calonlineweb 'Y','110','1','2','5 ','JK-NI100','2000','A','A',380000,418000,'0',30

18/1/2014  9:10 >> Application_Name >> getDataPremium
exec sp_calonlineweb 'Y','110','2','2','5 ','JK-NI100','2000','A','A',380000,418000,'0',30

18/1/2014  9:10 >> Application_Name >> getDataPremium
exec sp_calonlineweb 'Y','110','3','2','5 ','JK-NI100','2000','A','A',0,0,'0',30

18/1/2014  9:17 >> Application_Name >> getDataCarMarkByCarMarkCode
SELECT * 
 FROM online_carmark 
 WHERE carmakcod = '' 
 ORDER BY desc_t, carmakcod 

18/1/2014  9:17 >> Application_Name >> getDataCarMarkByCarMarkCode
SELECT * 
 FROM online_carmark 
 WHERE carmakcod = 'JK-NI100' 
 ORDER BY desc_t, carmakcod 

18/1/2014  9:18 >> Application_Name >> getDataPremium
exec sp_calonlineweb 'Y','110','1','2','5 ','JK-NI100','2000','A','A',380000,418000,'0',0

18/1/2014  9:18 >> Application_Name >> getDataPremium
exec sp_calonlineweb 'Y','110','2','2','5 ','JK-NI100','2000','A','A',380000,418000,'0',0

18/1/2014  9:18 >> Application_Name >> getDataPremium
exec sp_calonlineweb 'Y','110','3','2','5 ','JK-NI100','2000','A','A',0,0,'0',0

18/1/2014  9:18 >> Application_Name >> getDataPremium
exec sp_calonlineweb 'Y','110','1','2','5 ','JK-NI100','2000','A','A',380000,418000,'25',0

18/1/2014  9:18 >> Application_Name >> getDataPremium
exec sp_calonlineweb 'Y','110','2','2','5 ','JK-NI100','2000','A','A',380000,418000,'25',0

18/1/2014  9:18 >> Application_Name >> getDataPremium
exec sp_calonlineweb 'Y','110','3','2','5 ','JK-NI100','2000','A','A',0,0,'25',0

18/1/2014  9:19 >> Application_Name >> SMK :: BuyVoluntary_step2-docToUI
Combine

18/1/2014  9:19 >> Application_Name >> SMK :: BuyVoluntary_step2-docToUI
rg_prmm-012167

18/1/2014  9:19 >> Application_Name >> SMK :: BuyVoluntary_step2-docToUI
rg_prmm12167

18/1/2014  9:19 >> Application_Name >> SMK :: BuyVoluntary_step2-docToUI
cp_comp_prmm600.00

18/1/2014  9:33 >> Application_Name >> getDataPremium
exec sp_calonlineweb 'Y','110','1','2','5 ','JK-NI100','2000','A','A',380000,418000,'25',20

18/1/2014  9:33 >> Application_Name >> getDataPremium
exec sp_calonlineweb 'Y','110','2','2','5 ','JK-NI100','2000','A','A',380000,418000,'25',20

18/1/2014  9:33 >> Application_Name >> getDataPremium
exec sp_calonlineweb 'Y','110','3','2','5 ','JK-NI100','2000','A','A',0,0,'25',20

18/1/2014  9:33 >> Application_Name >> SMK :: BuyVoluntary_step2-docToUI
Combine

18/1/2014  9:33 >> Application_Name >> SMK :: BuyVoluntary_step2-docToUI
rg_prmm-09733.6

18/1/2014  9:33 >> Application_Name >> SMK :: BuyVoluntary_step2-docToUI
rg_prmm9733.6

18/1/2014  9:33 >> Application_Name >> SMK :: BuyVoluntary_step2-docToUI
cp_comp_prmm600.00

18/1/2014  10:19 >> Application_Name >> getDataCarMarkByCarMarkCode
SELECT * 
 FROM online_carmark 
 WHERE carmakcod = '' 
 ORDER BY desc_t, carmakcod 

18/1/2014  10:19 >> Application_Name >> getDataCarMarkByCarMarkCode
SELECT * 
 FROM online_carmark 
 WHERE carmakcod = 'JK-HO001' 
 ORDER BY desc_t, carmakcod 

18/1/2014  10:23 >> Application_Name >> getDataPremium
exec sp_calonlineweb 'N','110','1','11','5 ','JK-HO001','2000','A','A',296374.784922998,362235.84823922,'18',0

18/1/2014  10:23 >> Application_Name >> getDataPremium
exec sp_calonlineweb 'N','110','2','11','5 ','JK-HO001','2000','A','A',296374.784922998,362235.84823922,'18',0

18/1/2014  10:23 >> Application_Name >> getDataPremium
exec sp_calonlineweb 'N','110','3','11','5 ','JK-HO001','2000','A','A',0,0,'18',0

18/1/2014  10:31 >> Application_Name >> getDataCarMarkByCarMarkCode
SELECT * 
 FROM online_carmark 
 WHERE carmakcod = '' 
 ORDER BY desc_t, carmakcod 

18/1/2014  10:31 >> Application_Name >> getDataCarMarkByCarMarkCode
SELECT * 
 FROM online_carmark 
 WHERE carmakcod = 'EK-FO078' 
 ORDER BY desc_t, carmakcod 

18/1/2014  10:35 >> Application_Name >> getDataPremium
exec sp_calonlineweb 'N','110','1','3','3 ','EK-FO078','2000','A','A',609187.5,744562.5,'36',0

18/1/2014  10:35 >> Application_Name >> getDataPremium
exec sp_calonlineweb 'N','110','2','3','3 ','EK-FO078','2000','A','A',609187.5,744562.5,'36',0

18/1/2014  10:35 >> Application_Name >> getDataPremium
exec sp_calonlineweb 'N','110','3','3','3 ','EK-FO078','2000','A','A',0,0,'36',0

18/1/2014  10:41 >> Application_Name >> getCategoryCompByBrand
SELECT mdc_minor_cd , mdc_desc_t as mdc_desc FROM mtdesc_comp  WHERE mdc_minor_cd <> '0000' AND mdc_major_cd = 'M002' ORDER BY mdc_desc 

18/1/2014  10:56 >> Application_Name >> getDataCarMarkByCarMarkCode
SELECT * 
 FROM online_carmark 
 WHERE carmakcod = '' 
 ORDER BY desc_t, carmakcod 

18/1/2014  10:56 >> Application_Name >> getDataCarMarkByCarMarkCode
SELECT * 
 FROM online_carmark 
 WHERE carmakcod = 'JK-NI100' 
 ORDER BY desc_t, carmakcod 

18/1/2014  10:59 >> Application_Name >> getDataPremium
exec sp_calonlineweb 'Y','110','1','2','5 ','JK-NI100','2000','A','A',380000,418000,'0',20

18/1/2014  10:59 >> Application_Name >> getDataPremium
exec sp_calonlineweb 'Y','110','2','2','5 ','JK-NI100','2000','A','A',380000,418000,'0',20

18/1/2014  10:59 >> Application_Name >> getDataPremium
exec sp_calonlineweb 'Y','110','3','2','5 ','JK-NI100','2000','A','A',0,0,'0',20

18/1/2014  10:59 >> Application_Name >> SMK :: BuyVoluntary_step2-docToUI
Combine

18/1/2014  10:59 >> Application_Name >> SMK :: BuyVoluntary_step2-docToUI
rg_prmm-011562.4

18/1/2014  10:59 >> Application_Name >> SMK :: BuyVoluntary_step2-docToUI
rg_prmm11562.4

18/1/2014  10:59 >> Application_Name >> SMK :: BuyVoluntary_step2-docToUI
cp_comp_prmm600.00

18/1/2014  11:3 >> Application_Name >> getDataPremium
exec sp_calonlineweb 'Y','110','1','2','5 ','JK-NI015','2000','A','A',380000,418000,'0',20

18/1/2014  11:3 >> Application_Name >> getDataPremium
exec sp_calonlineweb 'Y','110','2','2','5 ','JK-NI015','2000','A','A',380000,418000,'0',20

18/1/2014  11:3 >> Application_Name >> getDataPremium
exec sp_calonlineweb 'Y','110','3','2','5 ','JK-NI015','2000','A','A',0,0,'0',20

18/1/2014  11:3 >> Application_Name >> SMK :: BuyVoluntary_step2-docToUI
Combine

18/1/2014  11:3 >> Application_Name >> SMK :: BuyVoluntary_step2-docToUI
rg_prmm-011562.4

18/1/2014  11:3 >> Application_Name >> SMK :: BuyVoluntary_step2-docToUI
rg_prmm11562.4

18/1/2014  11:3 >> Application_Name >> SMK :: BuyVoluntary_step2-docToUI
cp_comp_prmm600.00

18/1/2014  11:13 >> Application_Name >> getDataCarMarkByCarMarkCode
SELECT * 
 FROM online_carmark 
 WHERE carmakcod = '' 
 ORDER BY desc_t, carmakcod 

18/1/2014  11:13 >> Application_Name >> getDataCarMarkByCarMarkCode
SELECT * 
 FROM online_carmark 
 WHERE carmakcod = '' 
 ORDER BY desc_t, carmakcod 

18/1/2014  11:13 >> Application_Name >> getDataCarMarkByCarMarkCode
SELECT * 
 FROM online_carmark 
 WHERE carmakcod = 'JK-MI080' 
 ORDER BY desc_t, carmakcod 

18/1/2014  11:16 >> Application_Name >> getDataPremium
exec sp_calonlineweb 'Y','110','1','2','5 ','JK-MI080','2000','A','A',376200,459800,'0',0

18/1/2014  11:16 >> Application_Name >> getDataPremium
exec sp_calonlineweb 'Y','110','2','2','5 ','JK-MI080','2000','A','A',376200,459800,'0',0

18/1/2014  11:16 >> Application_Name >> getDataPremium
exec sp_calonlineweb 'Y','110','3','2','5 ','JK-MI080','2000','A','A',0,0,'0',0

18/1/2014  11:18 >> Application_Name >> getDataCarMarkByCarMarkCode
SELECT * 
 FROM online_carmark 
 WHERE carmakcod = '' 
 ORDER BY desc_t, carmakcod 

18/1/2014  11:18 >> Application_Name >> getDataCarMarkByCarMarkCode
SELECT * 
 FROM online_carmark 
 WHERE carmakcod = 'JK-TO178' 
 ORDER BY desc_t, carmakcod 

18/1/2014  11:19 >> Application_Name >> getDataPremium
exec sp_calonlineweb 'Y','110','1','2','5 ','JK-MI080','2000','A','A',376200,459800,'0',20

18/1/2014  11:19 >> Application_Name >> getDataPremium
exec sp_calonlineweb 'Y','110','2','2','5 ','JK-MI080','2000','A','A',376200,459800,'0',20

18/1/2014  11:19 >> Application_Name >> getDataPremium
exec sp_calonlineweb 'Y','110','3','2','5 ','JK-MI080','2000','A','A',0,0,'0',20

18/1/2014  11:20 >> Application_Name >> getDataCarMarkByCarMarkCode
SELECT * 
 FROM online_carmark 
 WHERE carmakcod = '' 
 ORDER BY desc_t, carmakcod 

18/1/2014  11:20 >> Application_Name >> getDataCarMarkByCarMarkCode
SELECT * 
 FROM online_carmark 
 WHERE carmakcod = 'JP-TO043' 
 ORDER BY desc_t, carmakcod 

18/1/2014  11:24 >> Application_Name >> getDataPremium
exec sp_calonlineweb 'Y','210','1','3','A','','2500','21','A',460238.9,508685.1,'0',20

18/1/2014  11:24 >> Application_Name >> getDataPremium
exec sp_calonlineweb 'Y','210','2','3','A','','2500','21','A',460238.9,508685.1,'0',20

18/1/2014  11:24 >> Application_Name >> getDataPremium
exec sp_calonlineweb 'Y','210','3','3','A','','2500','21','A',0,0,'0',20

18/1/2014  11:25 >> Application_Name >> getDataCarMarkByCarMarkCode
SELECT * 
 FROM online_carmark 
 WHERE carmakcod = '' 
 ORDER BY desc_t, carmakcod 

18/1/2014  11:25 >> Application_Name >> getDataCarMarkByCarMarkCode
SELECT * 
 FROM online_carmark 
 WHERE carmakcod = '' 
 ORDER BY desc_t, carmakcod 

18/1/2014  11:25 >> Application_Name >> getDataPremium
exec sp_calonlineweb 'Y','210','1','3','A','','2494','21','A',460238.9,508685.1,'0',20

18/1/2014  11:25 >> Application_Name >> getDataPremium
exec sp_calonlineweb 'Y','210','2','3','A','','2494','21','A',460238.9,508685.1,'0',20

18/1/2014  11:25 >> Application_Name >> getDataPremium
exec sp_calonlineweb 'Y','210','3','3','A','','2494','21','A',0,0,'0',20

18/1/2014  11:25 >> Application_Name >> getDataCarMarkByCarMarkCode
SELECT * 
 FROM online_carmark 
 WHERE carmakcod = 'JP-TO047' 
 ORDER BY desc_t, carmakcod 

18/1/2014  11:26 >> Application_Name >> getDataPremium
exec sp_calonlineweb 'Y','210','1','3','A','','2494','21','A',460238.9,508685.1,'0',20

18/1/2014  11:26 >> Application_Name >> getDataPremium
exec sp_calonlineweb 'Y','210','2','3','A','','2494','21','A',460238.9,508685.1,'0',20

18/1/2014  11:26 >> Application_Name >> getDataPremium
exec sp_calonlineweb 'Y','210','3','3','A','','2494','21','A',0,0,'0',20

18/1/2014  11:26 >> Application_Name >> getDataPremium
exec sp_calonlineweb 'Y','210','1','3','A','','2494','21','A',460238.9,508685.1,'0',20

18/1/2014  11:26 >> Application_Name >> getDataPremium
exec sp_calonlineweb 'Y','210','2','3','A','','2494','21','A',460238.9,508685.1,'0',20

18/1/2014  11:26 >> Application_Name >> getDataPremium
exec sp_calonlineweb 'Y','210','3','3','A','','2494','21','A',0,0,'0',20

18/1/2014  11:27 >> Application_Name >> getDataCarMarkByCarMarkCode
SELECT * 
 FROM online_carmark 
 WHERE carmakcod = '' 
 ORDER BY desc_t, carmakcod 

18/1/2014  11:30 >> Application_Name >> getDataPremium
exec sp_calonlineweb 'Y','110','1','2','5 ','JK-MI080','2000','A','A',376200,459800,'25',0

18/1/2014  11:30 >> Application_Name >> getDataPremium
exec sp_calonlineweb 'Y','110','2','2','5 ','JK-MI080','2000','A','A',376200,459800,'25',0

18/1/2014  11:30 >> Application_Name >> getDataPremium
exec sp_calonlineweb 'Y','110','3','2','5 ','JK-MI080','2000','A','A',0,0,'25',0

18/1/2014  11:30 >> Application_Name >> getDataCarMarkByCarMarkCode
SELECT * 
 FROM online_carmark 
 WHERE carmakcod = '' 
 ORDER BY desc_t, carmakcod 

18/1/2014  11:31 >> Application_Name >> getDataCarMarkByCarMarkCode
SELECT * 
 FROM online_carmark 
 WHERE carmakcod = 'JK-SZ004' 
 ORDER BY desc_t, carmakcod 

18/1/2014  11:32 >> Application_Name >> getDataPremium
exec sp_calonlineweb 'Y','110','1','3','5 ','JK-MI080','2000','A','A',357390,436810,'25',0

18/1/2014  11:32 >> Application_Name >> getDataPremium
exec sp_calonlineweb 'Y','110','2','3','5 ','JK-MI080','2000','A','A',357390,436810,'25',0

18/1/2014  11:32 >> Application_Name >> getDataPremium
exec sp_calonlineweb 'Y','110','3','3','5 ','JK-MI080','2000','A','A',0,0,'25',0

18/1/2014  11:32 >> Application_Name >> getDataPremium
exec sp_calonlineweb 'Y','110','1','2','5 ','JK-MI080','2000','A','A',376200,459800,'25',0

18/1/2014  11:32 >> Application_Name >> getDataPremium
exec sp_calonlineweb 'Y','110','2','2','5 ','JK-MI080','2000','A','A',376200,459800,'25',0

18/1/2014  11:32 >> Application_Name >> getDataPremium
exec sp_calonlineweb 'Y','110','3','2','5 ','JK-MI080','2000','A','A',0,0,'25',0

18/1/2014  11:34 >> Application_Name >> getDataPremium
exec sp_calonlineweb 'Y','110','1','2','5 ','JK-MI080','2000','A','A',376200,459800,'25',0

18/1/2014  11:34 >> Application_Name >> getDataPremium
exec sp_calonlineweb 'Y','110','2','2','5 ','JK-MI080','2000','A','A',376200,459800,'25',0

18/1/2014  11:34 >> Application_Name >> getDataPremium
exec sp_calonlineweb 'Y','110','3','2','5 ','JK-MI080','2000','A','A',0,0,'25',0

18/1/2014  11:35 >> Application_Name >> getDataPremium
exec sp_calonlineweb 'Y','110','1','2','5 ','JK-MI080','2000','A','A',376200,459800,'25',0

18/1/2014  11:35 >> Application_Name >> getDataPremium
exec sp_calonlineweb 'Y','110','2','2','5 ','JK-MI080','2000','A','A',376200,459800,'25',0

18/1/2014  11:35 >> Application_Name >> getDataPremium
exec sp_calonlineweb 'Y','110','3','2','5 ','JK-MI080','2000','A','A',0,0,'25',0

18/1/2014  11:35 >> Application_Name >> SMK :: BuyVoluntary_step2-docToUI
Combine

18/1/2014  11:35 >> Application_Name >> SMK :: BuyVoluntary_step2-docToUI
rg_prmm-012167

18/1/2014  11:35 >> Application_Name >> SMK :: BuyVoluntary_step2-docToUI
rg_prmm12167

18/1/2014  11:35 >> Application_Name >> SMK :: BuyVoluntary_step2-docToUI
cp_comp_prmm600.00

18/1/2014  11:38 >> Application_Name >> getDataPremium
exec sp_calonlineweb 'Y','110','1','2','5 ','JK-MI080','2000','A','A',376200,459800,'0',0

18/1/2014  11:38 >> Application_Name >> getDataPremium
exec sp_calonlineweb 'Y','110','2','2','5 ','JK-MI080','2000','A','A',376200,459800,'0',0

18/1/2014  11:38 >> Application_Name >> getDataPremium
exec sp_calonlineweb 'Y','110','3','2','5 ','JK-MI080','2000','A','A',0,0,'0',0

18/1/2014  11:38 >> Application_Name >> getDataPremium
exec sp_calonlineweb 'Y','110','1','2','5 ','JK-MI080','2000','A','A',376200,459800,'0',20

18/1/2014  11:38 >> Application_Name >> getDataPremium
exec sp_calonlineweb 'Y','110','2','2','5 ','JK-MI080','2000','A','A',376200,459800,'0',20

18/1/2014  11:38 >> Application_Name >> getDataPremium
exec sp_calonlineweb 'Y','110','3','2','5 ','JK-MI080','2000','A','A',0,0,'0',20

18/1/2014  11:38 >> Application_Name >> SMK :: BuyVoluntary_step2-docToUI
Combine

18/1/2014  11:38 >> Application_Name >> SMK :: BuyVoluntary_step2-docToUI
rg_prmm-011933.6

18/1/2014  11:38 >> Application_Name >> SMK :: BuyVoluntary_step2-docToUI
rg_prmm11933.6

18/1/2014  11:38 >> Application_Name >> SMK :: BuyVoluntary_step2-docToUI
cp_comp_prmm600.00

18/1/2014  11:40 >> Application_Name >> getDataPremium
exec sp_calonlineweb 'Y','110','1','2','5 ','JK-MI080','2000','A','A',376200,459800,'0',20

18/1/2014  11:40 >> Application_Name >> getDataPremium
exec sp_calonlineweb 'Y','110','2','2','5 ','JK-MI080','2000','A','A',376200,459800,'0',20

18/1/2014  11:40 >> Application_Name >> getDataPremium
exec sp_calonlineweb 'Y','110','3','2','5 ','JK-MI080','2000','A','A',0,0,'0',20

18/1/2014  11:40 >> Application_Name >> SMK :: BuyVoluntary_step2-docToUI
Combine

18/1/2014  11:40 >> Application_Name >> SMK :: BuyVoluntary_step2-docToUI
rg_prmm-010814.4

18/1/2014  11:40 >> Application_Name >> SMK :: BuyVoluntary_step2-docToUI
rg_prmm10814.4

18/1/2014  11:40 >> Application_Name >> SMK :: BuyVoluntary_step2-docToUI
cp_comp_prmm600.00

18/1/2014  11:40 >> Application_Name >> getDataPremium
exec sp_calonlineweb 'Y','110','1','2','5 ','JK-MI080','2000','A','A',376200,459800,'0',20

18/1/2014  11:40 >> Application_Name >> getDataPremium
exec sp_calonlineweb 'Y','110','2','2','5 ','JK-MI080','2000','A','A',376200,459800,'0',20

18/1/2014  11:40 >> Application_Name >> getDataPremium
exec sp_calonlineweb 'Y','110','3','2','5 ','JK-MI080','2000','A','A',0,0,'0',20

18/1/2014  11:41 >> Application_Name >> SMK :: BuyVoluntary_step2-docToUI
Combine

18/1/2014  11:41 >> Application_Name >> SMK :: BuyVoluntary_step2-docToUI
rg_prmm-010994.4

18/1/2014  11:41 >> Application_Name >> SMK :: BuyVoluntary_step2-docToUI
rg_prmm10994.4

18/1/2014  11:41 >> Application_Name >> SMK :: BuyVoluntary_step2-docToUI
cp_comp_prmm600.00

18/1/2014  11:47 >> Application_Name >> getDataCarMarkByCarMarkCode
SELECT * 
 FROM online_carmark 
 WHERE carmakcod = '' 
 ORDER BY desc_t, carmakcod 

18/1/2014  11:47 >> Application_Name >> getDataCarMarkByCarMarkCode
SELECT * 
 FROM online_carmark 
 WHERE carmakcod = 'JK-NI100' 
 ORDER BY desc_t, carmakcod 

18/1/2014  11:51 >> Application_Name >> getDataPremium
exec sp_calonlineweb 'Y','110','1','2','5 ','JK-NI100','2000','A','A',380000,418000,'36',30

18/1/2014  11:51 >> Application_Name >> getDataPremium
exec sp_calonlineweb 'Y','110','2','2','5 ','JK-NI100','2000','A','A',380000,418000,'36',30

18/1/2014  11:51 >> Application_Name >> getDataPremium
exec sp_calonlineweb 'Y','110','3','2','5 ','JK-NI100','2000','A','A',0,0,'36',30

18/1/2014  11:58 >> Application_Name >> getCategoryCompByBrand
SELECT mdc_minor_cd , mdc_desc_t as mdc_desc FROM mtdesc_comp  WHERE mdc_minor_cd <> '0000' AND mdc_major_cd = 'T001' ORDER BY mdc_desc 

18/1/2014  11:58 >> Application_Name >> getDataCarMarkByCarMarkCode
SELECT * 
 FROM online_carmark 
 WHERE carmakcod = '' 
 ORDER BY desc_t, carmakcod 

18/1/2014  11:58 >> Application_Name >> getDataCarMarkByCarMarkCode
SELECT * 
 FROM online_carmark 
 WHERE carmakcod = 'JK-TO004' 
 ORDER BY desc_t, carmakcod 

18/1/2014  12:1 >> Application_Name >> getDataPremium
exec sp_calonlineweb 'Y','110','1','4','3 ','JK-TO004','2000','A','A',846434.895,935533.305,'25',0

18/1/2014  12:1 >> Application_Name >> getDataPremium
exec sp_calonlineweb 'Y','110','2','4','3 ','JK-TO004','2000','A','A',846434.895,935533.305,'25',0

18/1/2014  12:1 >> Application_Name >> getDataPremium
exec sp_calonlineweb 'Y','110','3','4','3 ','JK-TO004','2000','A','A',0,0,'25',0

18/1/2014  12:6 >> Application_Name >> getDataPremium
exec sp_calonlineweb 'Y','110','1','2','5 ','JK-NI100','2000','A','A',380000,418000,'36',20

18/1/2014  12:6 >> Application_Name >> getDataPremium
exec sp_calonlineweb 'Y','110','2','2','5 ','JK-NI100','2000','A','A',380000,418000,'36',20

18/1/2014  12:6 >> Application_Name >> getDataPremium
exec sp_calonlineweb 'Y','110','3','2','5 ','JK-NI100','2000','A','A',0,0,'36',20

18/1/2014  12:6 >> Application_Name >> getDataPremium
exec sp_calonlineweb 'Y','110','1','2','5 ','JK-NI100','2000','A','A',380000,418000,'36',30

18/1/2014  12:6 >> Application_Name >> getDataPremium
exec sp_calonlineweb 'Y','110','2','2','5 ','JK-NI100','2000','A','A',380000,418000,'36',30

18/1/2014  12:6 >> Application_Name >> getDataPremium
exec sp_calonlineweb 'Y','110','3','2','5 ','JK-NI100','2000','A','A',0,0,'36',30

18/1/2014  12:7 >> Application_Name >> SMK :: BuyVoluntary_step2-docToUI
Combine

18/1/2014  12:7 >> Application_Name >> SMK :: BuyVoluntary_step2-docToUI
rg_prmm-010994.4

18/1/2014  12:7 >> Application_Name >> SMK :: BuyVoluntary_step2-docToUI
rg_prmm10994.4

18/1/2014  12:7 >> Application_Name >> SMK :: BuyVoluntary_step2-docToUI
cp_comp_prmm600.00

18/1/2014  12:10 >> Application_Name >> SMK :: BuyVoluntary_step2-docToUI
Combine

18/1/2014  12:10 >> Application_Name >> SMK :: BuyVoluntary_step2-docToUI
rg_prmm-09345.6

18/1/2014  12:10 >> Application_Name >> SMK :: BuyVoluntary_step2-docToUI
rg_prmm9345.6

18/1/2014  12:10 >> Application_Name >> SMK :: BuyVoluntary_step2-docToUI
cp_comp_prmm600.00

18/1/2014  12:10 >> Application_Name >> getDataPremium
exec sp_calonlineweb 'Y','110','1','2','5 ','JK-MI080','2000','A','A',376200,459800,'0',20

18/1/2014  12:10 >> Application_Name >> getDataPremium
exec sp_calonlineweb 'Y','110','2','2','5 ','JK-MI080','2000','A','A',376200,459800,'0',20

18/1/2014  12:10 >> Application_Name >> getDataPremium
exec sp_calonlineweb 'Y','110','3','2','5 ','JK-MI080','2000','A','A',0,0,'0',20

18/1/2014  12:10 >> Application_Name >> getDataPremium
exec sp_calonlineweb 'Y','110','1','2','5 ','JK-NI100','2000','A','A',380000,418000,'36',30

18/1/2014  12:10 >> Application_Name >> getDataPremium
exec sp_calonlineweb 'Y','110','2','2','5 ','JK-NI100','2000','A','A',380000,418000,'36',30

18/1/2014  12:10 >> Application_Name >> getDataPremium
exec sp_calonlineweb 'Y','110','3','2','5 ','JK-NI100','2000','A','A',0,0,'36',30

18/1/2014  12:10 >> Application_Name >> SMK :: BuyVoluntary_step2-docToUI
Combine

18/1/2014  12:10 >> Application_Name >> SMK :: BuyVoluntary_step2-docToUI
rg_prmm-010994.4

18/1/2014  12:10 >> Application_Name >> SMK :: BuyVoluntary_step2-docToUI
rg_prmm10994.4

18/1/2014  12:10 >> Application_Name >> SMK :: BuyVoluntary_step2-docToUI
cp_comp_prmm600.00

18/1/2014  12:14 >> Application_Name >> getDataCarMarkByCarMarkCode
SELECT * 
 FROM online_carmark 
 WHERE carmakcod = '' 
 ORDER BY desc_t, carmakcod 

18/1/2014  12:14 >> Application_Name >> getDataCarMarkByCarMarkCode
SELECT * 
 FROM online_carmark 
 WHERE carmakcod = 'JK-NI100' 
 ORDER BY desc_t, carmakcod 

18/1/2014  12:15 >> Application_Name >> getDataPremium
exec sp_calonlineweb 'Y','110','1','2','5 ','JK-NI100','2000','A','A',380000,418000,'36',30

18/1/2014  12:15 >> Application_Name >> getDataPremium
exec sp_calonlineweb 'Y','110','2','2','5 ','JK-NI100','2000','A','A',380000,418000,'36',30

18/1/2014  12:15 >> Application_Name >> getDataPremium
exec sp_calonlineweb 'Y','110','3','2','5 ','JK-NI100','2000','A','A',0,0,'36',30

18/1/2014  12:16 >> Application_Name >> SMK :: BuyVoluntary_step2-docToUI
Combine

18/1/2014  12:16 >> Application_Name >> SMK :: BuyVoluntary_step2-docToUI
rg_prmm-09345.6

18/1/2014  12:16 >> Application_Name >> SMK :: BuyVoluntary_step2-docToUI
rg_prmm9345.6

18/1/2014  12:16 >> Application_Name >> SMK :: BuyVoluntary_step2-docToUI
cp_comp_prmm600.00

18/1/2014  12:46 >> Application_Name >> getDataCarMarkByCarMarkCode
SELECT * 
 FROM online_carmark 
 WHERE carmakcod = '' 
 ORDER BY desc_t, carmakcod 

18/1/2014  12:46 >> Application_Name >> getDataCarMarkByCarMarkCode
SELECT * 
 FROM online_carmark 
 WHERE carmakcod = 'JK-MA065' 
 ORDER BY desc_t, carmakcod 

18/1/2014  12:47 >> Application_Name >> getDataPremium
exec sp_calonlineweb 'Y','110','1','2','5 ','JK-MA065','2000','A','A',478800,585200,'0',0

18/1/2014  12:47 >> Application_Name >> getDataPremium
exec sp_calonlineweb 'Y','110','2','2','5 ','JK-MA065','2000','A','A',478800,585200,'0',0

18/1/2014  12:47 >> Application_Name >> getDataPremium
exec sp_calonlineweb 'Y','110','3','2','5 ','JK-MA065','2000','A','A',0,0,'0',0

18/1/2014  12:54 >> Application_Name >> getDataCarMarkByCarMarkCode
SELECT * 
 FROM online_carmark 
 WHERE carmakcod = '' 
 ORDER BY desc_t, carmakcod 

18/1/2014  12:55 >> Application_Name >> getDataCarMarkByCarMarkCode
SELECT * 
 FROM online_carmark 
 WHERE carmakcod = 'JK-TO067' 
 ORDER BY desc_t, carmakcod 

18/1/2014  12:56 >> Application_Name >> getDataPremium
exec sp_calonlineweb 'Y','110','1','3','5 ','JK-TO067','2000','A','A',452423.25,552961.75,'0',20

18/1/2014  12:56 >> Application_Name >> getDataPremium
exec sp_calonlineweb 'Y','110','2','3','5 ','JK-TO067','2000','A','A',452423.25,552961.75,'0',20

18/1/2014  12:56 >> Application_Name >> getDataPremium
exec sp_calonlineweb 'Y','110','3','3','5 ','JK-TO067','2000','A','A',0,0,'0',20

18/1/2014  12:57 >> Application_Name >> SMK :: BuyVoluntary_step2-docToUI
Combine

18/1/2014  12:57 >> Application_Name >> SMK :: BuyVoluntary_step2-docToUI
rg_prmm-012954.4

18/1/2014  12:57 >> Application_Name >> SMK :: BuyVoluntary_step2-docToUI
rg_prmm12954.4

18/1/2014  12:57 >> Application_Name >> SMK :: BuyVoluntary_step2-docToUI
cp_comp_prmm600.00

18/1/2014  13:2 >> Application_Name >> getDataCarMarkByCarMarkCode
SELECT * 
 FROM online_carmark 
 WHERE carmakcod = '' 
 ORDER BY desc_t, carmakcod 

18/1/2014  13:3 >> Application_Name >> getDataCarMarkByCarMarkCode
SELECT * 
 FROM online_carmark 
 WHERE carmakcod = 'JK-NI100' 
 ORDER BY desc_t, carmakcod 

18/1/2014  13:3 >> Application_Name >> getDataPremium
exec sp_calonlineweb 'Y','110','1','2','5 ','JK-NI100','2000','A','A',380000,418000,'25',20

18/1/2014  13:3 >> Application_Name >> getDataPremium
exec sp_calonlineweb 'Y','110','2','2','5 ','JK-NI100','2000','A','A',380000,418000,'25',20

18/1/2014  13:3 >> Application_Name >> getDataPremium
exec sp_calonlineweb 'Y','110','3','2','5 ','JK-NI100','2000','A','A',0,0,'25',20

18/1/2014  13:4 >> Application_Name >> getDataPremium
exec sp_calonlineweb 'Y','110','1','2','5 ','JK-NI100','2000','A','A',380000,418000,'25',20

18/1/2014  13:4 >> Application_Name >> getDataPremium
exec sp_calonlineweb 'Y','110','2','2','5 ','JK-NI100','2000','A','A',380000,418000,'25',20

18/1/2014  13:4 >> Application_Name >> getDataPremium
exec sp_calonlineweb 'Y','110','3','2','5 ','JK-NI100','2000','A','A',0,0,'25',20

18/1/2014  13:4 >> Application_Name >> getDataPremium
exec sp_calonlineweb 'Y','110','1','2','5 ','JK-NI100','2000','A','A',380000,418000,'25',20

18/1/2014  13:4 >> Application_Name >> getDataPremium
exec sp_calonlineweb 'Y','110','2','2','5 ','JK-NI100','2000','A','A',380000,418000,'25',20

18/1/2014  13:4 >> Application_Name >> getDataPremium
exec sp_calonlineweb 'Y','110','3','2','5 ','JK-NI100','2000','A','A',0,0,'25',20

18/1/2014  13:4 >> Application_Name >> getDataPremium
exec sp_calonlineweb 'Y','110','1','2','5 ','JK-NI100','2000','A','A',380000,418000,'25',20

18/1/2014  13:4 >> Application_Name >> getDataPremium
exec sp_calonlineweb 'Y','110','2','2','5 ','JK-NI100','2000','A','A',380000,418000,'25',20

18/1/2014  13:4 >> Application_Name >> getDataPremium
exec sp_calonlineweb 'Y','110','3','2','5 ','JK-NI100','2000','A','A',0,0,'25',20

18/1/2014  13:5 >> Application_Name >> SMK :: BuyVoluntary_step2-docToUI
Combine

18/1/2014  13:5 >> Application_Name >> SMK :: BuyVoluntary_step2-docToUI
rg_prmm-010236.8

18/1/2014  13:5 >> Application_Name >> SMK :: BuyVoluntary_step2-docToUI
rg_prmm10236.8

18/1/2014  13:5 >> Application_Name >> SMK :: BuyVoluntary_step2-docToUI
cp_comp_prmm600.00

18/1/2014  13:12 >> Application_Name >> getDataCarMarkByCarMarkCode
SELECT * 
 FROM online_carmark 
 WHERE carmakcod = '' 
 ORDER BY desc_t, carmakcod 

18/1/2014  13:12 >> Application_Name >> getDataCarMarkByCarMarkCode
SELECT * 
 FROM online_carmark 
 WHERE carmakcod = 'JK-TO067' 
 ORDER BY desc_t, carmakcod 

18/1/2014  13:14 >> Application_Name >> getDataCarMarkByCarMarkCode
SELECT * 
 FROM online_carmark 
 WHERE carmakcod = '' 
 ORDER BY desc_t, carmakcod 

18/1/2014  13:14 >> Application_Name >> getDataCarMarkByCarMarkCode
SELECT * 
 FROM online_carmark 
 WHERE carmakcod = '' 
 ORDER BY desc_t, carmakcod 

18/1/2014  13:14 >> Application_Name >> getDataCarMarkByCarMarkCode
SELECT * 
 FROM online_carmark 
 WHERE carmakcod = 'JP-MI034' 
 ORDER BY desc_t, carmakcod 

18/1/2014  13:14 >> Application_Name >> getDataPremium
exec sp_calonlineweb 'Y','110','1','3','5 ','JK-TO067','2000','A','A',452423.25,552961.75,'0',20

18/1/2014  13:14 >> Application_Name >> getDataPremium
exec sp_calonlineweb 'Y','110','2','3','5 ','JK-TO067','2000','A','A',452423.25,552961.75,'0',20

18/1/2014  13:14 >> Application_Name >> getDataPremium
exec sp_calonlineweb 'Y','110','3','3','5 ','JK-TO067','2000','A','A',0,0,'0',20

18/1/2014  13:15 >> Application_Name >> getDataPremium
exec sp_calonlineweb 'Y','110','1','3','5 ','JK-TO067','2000','A','A',452423.25,552961.75,'0',20

18/1/2014  13:15 >> Application_Name >> getDataPremium
exec sp_calonlineweb 'Y','110','2','3','5 ','JK-TO067','2000','A','A',452423.25,552961.75,'0',20

18/1/2014  13:15 >> Application_Name >> getDataPremium
exec sp_calonlineweb 'Y','110','3','3','5 ','JK-TO067','2000','A','A',0,0,'0',20

18/1/2014  13:17 >> Application_Name >> getDataPremium
exec sp_calonlineweb 'N','210','1','4','A','','2500','21','A',376627.69,416272.71,'51',0

18/1/2014  13:17 >> Application_Name >> getDataPremium
exec sp_calonlineweb 'N','210','2','4','A','','2500','21','A',376627.69,416272.71,'51',0

18/1/2014  13:17 >> Application_Name >> getDataPremium
exec sp_calonlineweb 'N','210','3','4','A','','2500','21','A',0,0,'51',0

18/1/2014  13:18 >> Application_Name >> getDataPremium
exec sp_calonlineweb 'N','210','1','4','A','','2500','21','A',376627.69,416272.71,'51',0

18/1/2014  13:18 >> Application_Name >> getDataPremium
exec sp_calonlineweb 'N','210','2','4','A','','2500','21','A',376627.69,416272.71,'51',0

18/1/2014  13:18 >> Application_Name >> getDataPremium
exec sp_calonlineweb 'N','210','3','4','A','','2500','21','A',0,0,'51',0

18/1/2014  13:21 >> Application_Name >> getDataCarMarkByCarMarkCode
SELECT * 
 FROM online_carmark 
 WHERE carmakcod = '' 
 ORDER BY desc_t, carmakcod 

18/1/2014  13:21 >> Application_Name >> getDataCarMarkByCarMarkCode
SELECT * 
 FROM online_carmark 
 WHERE carmakcod = 'JK-NI100' 
 ORDER BY desc_t, carmakcod 

18/1/2014  13:22 >> Application_Name >> getDataPremium
exec sp_calonlineweb 'Y','110','1','2','5 ','JK-NI100','2000','A','A',380000,418000,'36',30

18/1/2014  13:22 >> Application_Name >> getDataPremium
exec sp_calonlineweb 'Y','110','2','2','5 ','JK-NI100','2000','A','A',380000,418000,'36',30

18/1/2014  13:22 >> Application_Name >> getDataPremium
exec sp_calonlineweb 'Y','110','3','2','5 ','JK-NI100','2000','A','A',0,0,'36',30

18/1/2014  13:26 >> Application_Name >> SMK :: BuyVoluntary_step2-docToUI
Combine

18/1/2014  13:26 >> Application_Name >> SMK :: BuyVoluntary_step2-docToUI
rg_prmm-09345.6

18/1/2014  13:26 >> Application_Name >> SMK :: BuyVoluntary_step2-docToUI
rg_prmm9345.6

18/1/2014  13:26 >> Application_Name >> SMK :: BuyVoluntary_step2-docToUI
cp_comp_prmm600.00

18/1/2014  13:27 >> Application_Name >> BLWorker::executeUpdate
Error converting data type varchar to numeric.

18/1/2014  13:27 >> Application_Name >> BLWorker::SQL
 INSERT INTO tmpcompul(tcp_tmp_cd, tcp_veh_cd,      tcp_comp_prmm, tcp_comp_tax, tcp_comp_stamp) VALUES ('140118-006',      '',      '',      '',      '') 

18/1/2014  13:27 >> Application_Name >> BLWorker::executeUpdate
Error converting data type varchar to numeric.

18/1/2014  13:27 >> Application_Name >> BLWorker::SQL
 INSERT INTO tmpcompul(tcp_tmp_cd, tcp_veh_cd,      tcp_comp_prmm, tcp_comp_tax, tcp_comp_stamp) VALUES ('140118-006',      '',      '',      '',      '') 

18/1/2014  13:27 >> Application_Name >> BLWorker::executeUpdate
Error converting data type varchar to numeric.

18/1/2014  13:27 >> Application_Name >> BLWorker::SQL
 INSERT INTO tmpcompul(tcp_tmp_cd, tcp_veh_cd,      tcp_comp_prmm, tcp_comp_tax, tcp_comp_stamp) VALUES ('140118-006',      '',      '',      '',      '') 

18/1/2014  13:27 >> Application_Name >> BLWorker::executeUpdate
Error converting data type varchar to numeric.

18/1/2014  13:27 >> Application_Name >> BLWorker::SQL
 INSERT INTO tmpcompul(tcp_tmp_cd, tcp_veh_cd,      tcp_comp_prmm, tcp_comp_tax, tcp_comp_stamp) VALUES ('140118-006',      '',      '',      '',      '') 

18/1/2014  13:31 >> Application_Name >> getDataCarMarkByCarMarkCode
SELECT * 
 FROM online_carmark 
 WHERE carmakcod = '' 
 ORDER BY desc_t, carmakcod 

18/1/2014  13:32 >> Application_Name >> getDataCarMarkByCarMarkCode
SELECT * 
 FROM online_carmark 
 WHERE carmakcod = 'JK-TO067' 
 ORDER BY desc_t, carmakcod 

18/1/2014  13:33 >> Application_Name >> getDataPremium
exec sp_calonlineweb 'Y','110','1','3','5 ','JK-TO067','2000','A','A',452423.25,552961.75,'0',20

18/1/2014  13:33 >> Application_Name >> getDataPremium
exec sp_calonlineweb 'Y','110','2','3','5 ','JK-TO067','2000','A','A',452423.25,552961.75,'0',20

18/1/2014  13:33 >> Application_Name >> getDataPremium
exec sp_calonlineweb 'Y','110','3','3','5 ','JK-TO067','2000','A','A',0,0,'0',20

18/1/2014  13:34 >> Application_Name >> getDataCarMarkByCarMarkCode
SELECT * 
 FROM online_carmark 
 WHERE carmakcod = '' 
 ORDER BY desc_t, carmakcod 

18/1/2014  13:34 >> Application_Name >> getDataCarMarkByCarMarkCode
SELECT * 
 FROM online_carmark 
 WHERE carmakcod = 'JK-TO001' 
 ORDER BY desc_t, carmakcod 

18/1/2014  13:35 >> Application_Name >> getDataPremium
exec sp_calonlineweb 'Y','110','1','3','5 ','JK-TO001','2000','A','A',454860,555940,'0',20

18/1/2014  13:35 >> Application_Name >> getDataPremium
exec sp_calonlineweb 'Y','110','2','3','5 ','JK-TO001','2000','A','A',454860,555940,'0',20

18/1/2014  13:35 >> Application_Name >> getDataPremium
exec sp_calonlineweb 'Y','110','3','3','5 ','JK-TO001','2000','A','A',0,0,'0',20

18/1/2014  13:35 >> Application_Name >> SMK :: BuyVoluntary_step2-docToUI
Combine

18/1/2014  13:35 >> Application_Name >> SMK :: BuyVoluntary_step2-docToUI
rg_prmm-012954.4

18/1/2014  13:35 >> Application_Name >> SMK :: BuyVoluntary_step2-docToUI
rg_prmm12954.4

18/1/2014  13:35 >> Application_Name >> SMK :: BuyVoluntary_step2-docToUI
cp_comp_prmm600.00

18/1/2014  14:3 >> Application_Name >> getDataCarMarkByCarMarkCode
SELECT * 
 FROM online_carmark 
 WHERE carmakcod = '' 
 ORDER BY desc_t, carmakcod 

18/1/2014  14:3 >> Application_Name >> getDataCarMarkByCarMarkCode
SELECT * 
 FROM online_carmark 
 WHERE carmakcod = 'JK-TO242' 
 ORDER BY desc_t, carmakcod 

18/1/2014  14:9 >> Application_Name >> getDataCarMarkByCarMarkCode
SELECT * 
 FROM online_carmark 
 WHERE carmakcod = '' 
 ORDER BY desc_t, carmakcod 

18/1/2014  14:9 >> Application_Name >> getDataCarMarkByCarMarkCode
SELECT * 
 FROM online_carmark 
 WHERE carmakcod = 'JK-HO084' 
 ORDER BY desc_t, carmakcod 

18/1/2014  14:11 >> Application_Name >> getDataPremium
exec sp_calonlineweb 'Y','110','1','2','5 ','JK-HO084','2000','A','A',487350,595650,'0',20

18/1/2014  14:11 >> Application_Name >> getDataPremium
exec sp_calonlineweb 'Y','110','2','2','5 ','JK-HO084','2000','A','A',487350,595650,'0',20

18/1/2014  14:11 >> Application_Name >> getDataPremium
exec sp_calonlineweb 'Y','110','3','2','5 ','JK-HO084','2000','A','A',0,0,'0',20

18/1/2014  14:13 >> Application_Name >> SMK :: BuyVoluntary_step2-docToUI
Combine

18/1/2014  14:13 >> Application_Name >> SMK :: BuyVoluntary_step2-docToUI
rg_prmm-013268

18/1/2014  14:13 >> Application_Name >> SMK :: BuyVoluntary_step2-docToUI
rg_prmm13268

18/1/2014  14:13 >> Application_Name >> SMK :: BuyVoluntary_step2-docToUI
cp_comp_prmm600.00

18/1/2014  14:16 >> Application_Name >> getDataPremium
exec sp_calonlineweb 'Y','110','1','2','5 ','JK-HO084','2000','A','A',487350,595650,'0',20

18/1/2014  14:16 >> Application_Name >> getDataPremium
exec sp_calonlineweb 'Y','110','2','2','5 ','JK-HO084','2000','A','A',487350,595650,'0',20

18/1/2014  14:16 >> Application_Name >> getDataPremium
exec sp_calonlineweb 'Y','110','3','2','5 ','JK-HO084','2000','A','A',0,0,'0',20

18/1/2014  14:26 >> Application_Name >> getCategoryCompByBrand
SELECT mdc_minor_cd , mdc_desc_t as mdc_desc FROM mtdesc_comp  WHERE mdc_minor_cd <> '0000' AND mdc_major_cd = 'H004' ORDER BY mdc_desc 

18/1/2014  14:43 >> Application_Name >> getDataCarMarkByCarMarkCode
SELECT * 
 FROM online_carmark 
 WHERE carmakcod = '' 
 ORDER BY desc_t, carmakcod 

18/1/2014  14:49 >> Application_Name >> getDataCarMarkByCarMarkCode
SELECT * 
 FROM online_carmark 
 WHERE carmakcod = '' 
 ORDER BY desc_t, carmakcod 

18/1/2014  14:49 >> Application_Name >> getDataCarMarkByCarMarkCode
SELECT * 
 FROM online_carmark 
 WHERE carmakcod = 'JK-HO002' 
 ORDER BY desc_t, carmakcod 

18/1/2014  14:52 >> Application_Name >> getDataPremium
exec sp_calonlineweb 'N','110','1','5','3 ','JK-HO002','2000','A','A',637758.39375,779482.48125,'25',20

18/1/2014  14:52 >> Application_Name >> getDataPremium
exec sp_calonlineweb 'N','110','2','5','3 ','JK-HO002','2000','A','A',637758.39375,779482.48125,'25',20

18/1/2014  14:52 >> Application_Name >> getDataPremium
exec sp_calonlineweb 'N','110','3','5','3 ','JK-HO002','2000','A','A',0,0,'25',20

18/1/2014  14:53 >> Application_Name >> getDataPremium
exec sp_calonlineweb 'N','110','1','5','3 ','JK-HO002','2000','A','A',637758.39375,779482.48125,'36',20

18/1/2014  14:53 >> Application_Name >> getDataPremium
exec sp_calonlineweb 'N','110','2','5','3 ','JK-HO002','2000','A','A',637758.39375,779482.48125,'36',20

18/1/2014  14:53 >> Application_Name >> getDataPremium
exec sp_calonlineweb 'N','110','3','5','3 ','JK-HO002','2000','A','A',0,0,'36',20

18/1/2014  15:8 >> Application_Name >> getCategoryCompByBrand
SELECT mdc_minor_cd , mdc_desc_t as mdc_desc FROM mtdesc_comp  WHERE mdc_minor_cd <> '0000' AND mdc_major_cd = 'T001' ORDER BY mdc_desc 

18/1/2014  15:11 >> Application_Name >> getDataCarMarkByCarMarkCode
SELECT * 
 FROM online_carmark 
 WHERE carmakcod = '' 
 ORDER BY desc_t, carmakcod 

18/1/2014  15:11 >> Application_Name >> getDataCarMarkByCarMarkCode
SELECT * 
 FROM online_carmark 
 WHERE carmakcod = '' 
 ORDER BY desc_t, carmakcod 

18/1/2014  15:12 >> Application_Name >> getDataCarMarkByCarMarkCode
SELECT * 
 FROM online_carmark 
 WHERE carmakcod = 'JK-TO184' 
 ORDER BY desc_t, carmakcod 

18/1/2014  15:12 >> Application_Name >> getDataCarMarkByCarMarkCode
SELECT * 
 FROM online_carmark 
 WHERE carmakcod = 'JK-TO178' 
 ORDER BY desc_t, carmakcod 

18/1/2014  15:14 >> Application_Name >> getDataPremium
exec sp_calonlineweb 'N','110','1','2','3 ','JK-TO178','9999','A','A',484462,535458,'0',0

18/1/2014  15:14 >> Application_Name >> getDataPremium
exec sp_calonlineweb 'N','110','2','2','3 ','JK-TO178','9999','A','A',484462,535458,'0',0

18/1/2014  15:14 >> Application_Name >> getDataPremium
exec sp_calonlineweb 'N','110','3','2','3 ','JK-TO178','9999','A','A',0,0,'0',0

18/1/2014  15:14 >> Application_Name >> getDataCarMarkByCarMarkCode
SELECT * 
 FROM online_carmark 
 WHERE carmakcod = '' 
 ORDER BY desc_t, carmakcod 

18/1/2014  15:14 >> Application_Name >> getDataCarMarkByCarMarkCode
SELECT * 
 FROM online_carmark 
 WHERE carmakcod = 'JK-NI100' 
 ORDER BY desc_t, carmakcod 

18/1/2014  15:16 >> Application_Name >> getDataCarMarkByCarMarkCode
SELECT * 
 FROM online_carmark 
 WHERE carmakcod = '' 
 ORDER BY desc_t, carmakcod 

18/1/2014  15:16 >> Application_Name >> getDataCarMarkByCarMarkCode
SELECT * 
 FROM online_carmark 
 WHERE carmakcod = 'JK-TO186' 
 ORDER BY desc_t, carmakcod 

18/1/2014  15:17 >> Application_Name >> getDataCarMarkByCarMarkCode
SELECT * 
 FROM online_carmark 
 WHERE carmakcod = '' 
 ORDER BY desc_t, carmakcod 

18/1/2014  15:17 >> Application_Name >> getDataCarMarkByCarMarkCode
SELECT * 
 FROM online_carmark 
 WHERE carmakcod = 'JP-TO047' 
 ORDER BY desc_t, carmakcod 

18/1/2014  15:17 >> Application_Name >> getDataPremium
exec sp_calonlineweb 'Y','110','1','2','5 ','JK-NI100','2000','A','A',380000,418000,'36',30

18/1/2014  15:17 >> Application_Name >> getDataPremium
exec sp_calonlineweb 'Y','110','2','2','5 ','JK-NI100','2000','A','A',380000,418000,'36',30

18/1/2014  15:17 >> Application_Name >> getDataPremium
exec sp_calonlineweb 'Y','110','3','2','5 ','JK-NI100','2000','A','A',0,0,'36',30

18/1/2014  15:18 >> Application_Name >> SMK :: BuyVoluntary_step2-docToUI
Combine

18/1/2014  15:18 >> Application_Name >> SMK :: BuyVoluntary_step2-docToUI
rg_prmm-09345.6

18/1/2014  15:18 >> Application_Name >> SMK :: BuyVoluntary_step2-docToUI
rg_prmm9345.6

18/1/2014  15:18 >> Application_Name >> SMK :: BuyVoluntary_step2-docToUI
cp_comp_prmm600.00

18/1/2014  15:18 >> Application_Name >> getDataCarMarkByCarMarkCode
SELECT * 
 FROM online_carmark 
 WHERE carmakcod = '' 
 ORDER BY desc_t, carmakcod 

18/1/2014  15:18 >> Application_Name >> getDataCarMarkByCarMarkCode
SELECT * 
 FROM online_carmark 
 WHERE carmakcod = '' 
 ORDER BY desc_t, carmakcod 

18/1/2014  15:19 >> Application_Name >> getDataCarMarkByCarMarkCode
SELECT * 
 FROM online_carmark 
 WHERE carmakcod = 'JP-TO047' 
 ORDER BY desc_t, carmakcod 

18/1/2014  15:19 >> Application_Name >> getDataPremium
exec sp_calonlineweb 'Y','210','1','2','A','','2700','21','A',418760,462840,'0',0

18/1/2014  15:19 >> Application_Name >> getDataPremium
exec sp_calonlineweb 'Y','210','2','2','A','','2700','21','A',418760,462840,'0',0

18/1/2014  15:19 >> Application_Name >> getDataPremium
exec sp_calonlineweb 'Y','210','3','2','A','','2700','21','A',0,0,'0',0

18/1/2014  15:20 >> Application_Name >> getDataPremium
exec sp_calonlineweb 'Y','210','1','2','A','','2700','21','A',418760,462840,'0',0

18/1/2014  15:20 >> Application_Name >> getDataPremium
exec sp_calonlineweb 'Y','210','2','2','A','','2700','21','A',418760,462840,'0',0

18/1/2014  15:20 >> Application_Name >> getDataPremium
exec sp_calonlineweb 'Y','210','3','2','A','','2700','21','A',0,0,'0',0

18/1/2014  15:20 >> Application_Name >> getDataPremium
exec sp_calonlineweb 'Y','210','1','2','A','','2700','21','A',418760,462840,'0',0

18/1/2014  15:20 >> Application_Name >> getDataPremium
exec sp_calonlineweb 'Y','210','2','2','A','','2700','21','A',418760,462840,'0',0

18/1/2014  15:20 >> Application_Name >> getDataPremium
exec sp_calonlineweb 'Y','210','3','2','A','','2700','21','A',0,0,'0',0

18/1/2014  15:21 >> Application_Name >> getDataPremium
exec sp_calonlineweb 'Y','210','1','2','A','','2700','21','A',418760,462840,'0',0

18/1/2014  15:21 >> Application_Name >> getDataPremium
exec sp_calonlineweb 'Y','210','2','2','A','','2700','21','A',418760,462840,'0',0

18/1/2014  15:21 >> Application_Name >> getDataPremium
exec sp_calonlineweb 'Y','210','3','2','A','','2700','21','A',0,0,'0',0

18/1/2014  15:24 >> Application_Name >> getDataCarMarkByCarMarkCode
SELECT * 
 FROM online_carmark 
 WHERE carmakcod = '' 
 ORDER BY desc_t, carmakcod 

18/1/2014  15:24 >> Application_Name >> getDataCarMarkByCarMarkCode
SELECT * 
 FROM online_carmark 
 WHERE carmakcod = 'JK-NI100' 
 ORDER BY desc_t, carmakcod 

18/1/2014  15:24 >> Application_Name >> getDataCarMarkByCarMarkCode
SELECT * 
 FROM online_carmark 
 WHERE carmakcod = '' 
 ORDER BY desc_t, carmakcod 

18/1/2014  15:24 >> Application_Name >> getDataPremium
exec sp_calonlineweb 'Y','110','1','2','5 ','JK-NI100','2000','A','A',380000,418000,'0',20

18/1/2014  15:24 >> Application_Name >> getDataPremium
exec sp_calonlineweb 'Y','110','2','2','5 ','JK-NI100','2000','A','A',380000,418000,'0',20

18/1/2014  15:24 >> Application_Name >> getDataPremium
exec sp_calonlineweb 'Y','110','3','2','5 ','JK-NI100','2000','A','A',0,0,'0',20

18/1/2014  15:24 >> Application_Name >> getDataCarMarkByCarMarkCode
SELECT * 
 FROM online_carmark 
 WHERE carmakcod = '' 
 ORDER BY desc_t, carmakcod 

18/1/2014  15:24 >> Application_Name >> getDataCarMarkByCarMarkCode
SELECT * 
 FROM online_carmark 
 WHERE carmakcod = '' 
 ORDER BY desc_t, carmakcod 

18/1/2014  15:25 >> Application_Name >> getDataCarMarkByCarMarkCode
SELECT * 
 FROM online_carmark 
 WHERE carmakcod = '' 
 ORDER BY desc_t, carmakcod 

18/1/2014  15:25 >> Application_Name >> getDataCarMarkByCarMarkCode
SELECT * 
 FROM online_carmark 
 WHERE carmakcod = 'JP-TO047' 
 ORDER BY desc_t, carmakcod 

18/1/2014  15:25 >> Application_Name >> getDataPremium
exec sp_calonlineweb 'Y','110','1','2','5 ','JK-NI100','2000','A','A',380000,418000,'25',20

18/1/2014  15:25 >> Application_Name >> getDataPremium
exec sp_calonlineweb 'Y','110','2','2','5 ','JK-NI100','2000','A','A',380000,418000,'25',20

18/1/2014  15:25 >> Application_Name >> getDataPremium
exec sp_calonlineweb 'Y','110','3','2','5 ','JK-NI100','2000','A','A',0,0,'25',20

18/1/2014  15:26 >> Application_Name >> getDataPremium
exec sp_calonlineweb 'N','210','1','3','A','','2700','21','A',397822,439698,'0',0

18/1/2014  15:26 >> Application_Name >> getDataPremium
exec sp_calonlineweb 'N','210','2','3','A','','2700','21','A',397822,439698,'0',0

18/1/2014  15:26 >> Application_Name >> getDataPremium
exec sp_calonlineweb 'N','210','3','3','A','','2700','21','A',0,0,'0',0

18/1/2014  15:26 >> Application_Name >> getDataPremium
exec sp_calonlineweb 'N','210','1','3','A','','2700','21','A',397822,439698,'0',0

18/1/2014  15:26 >> Application_Name >> getDataPremium
exec sp_calonlineweb 'N','210','2','3','A','','2700','21','A',397822,439698,'0',0

18/1/2014  15:26 >> Application_Name >> getDataPremium
exec sp_calonlineweb 'N','210','3','3','A','','2700','21','A',0,0,'0',0

18/1/2014  15:26 >> Application_Name >> getDataCarMarkByCarMarkCode
SELECT * 
 FROM online_carmark 
 WHERE carmakcod = '' 
 ORDER BY desc_t, carmakcod 

18/1/2014  15:27 >> Application_Name >> getDataCarMarkByCarMarkCode
SELECT * 
 FROM online_carmark 
 WHERE carmakcod = 'JK-TO234' 
 ORDER BY desc_t, carmakcod 

18/1/2014  15:28 >> Application_Name >> getDataCarMarkByCarMarkCode
SELECT * 
 FROM online_carmark 
 WHERE carmakcod = '' 
 ORDER BY desc_t, carmakcod 

18/1/2014  15:28 >> Application_Name >> getDataCarMarkByCarMarkCode
SELECT * 
 FROM online_carmark 
 WHERE carmakcod = '' 
 ORDER BY desc_t, carmakcod 

18/1/2014  15:28 >> Application_Name >> getDataCarMarkByCarMarkCode
SELECT * 
 FROM online_carmark 
 WHERE carmakcod = 'JP-TO047' 
 ORDER BY desc_t, carmakcod 

18/1/2014  15:29 >> Application_Name >> getDataPremium
exec sp_calonlineweb 'N','210','1','2','A','','2700','21','A',418760,462840,'0',0

18/1/2014  15:29 >> Application_Name >> getDataPremium
exec sp_calonlineweb 'N','210','2','2','A','','2700','21','A',418760,462840,'0',0

18/1/2014  15:29 >> Application_Name >> getDataPremium
exec sp_calonlineweb 'N','210','3','2','A','','2700','21','A',0,0,'0',0

18/1/2014  16:27 >> Application_Name >> getDataCarMarkByCarMarkCode
SELECT * 
 FROM online_carmark 
 WHERE carmakcod = '' 
 ORDER BY desc_t, carmakcod 

18/1/2014  16:27 >> Application_Name >> getDataCarMarkByCarMarkCode
SELECT * 
 FROM online_carmark 
 WHERE carmakcod = '' 
 ORDER BY desc_t, carmakcod 

18/1/2014  16:28 >> Application_Name >> getDataCarMarkByCarMarkCode
SELECT * 
 FROM online_carmark 
 WHERE carmakcod = 'JP-TO047' 
 ORDER BY desc_t, carmakcod 

18/1/2014  16:30 >> Application_Name >> getDataCarMarkByCarMarkCode
SELECT * 
 FROM online_carmark 
 WHERE carmakcod = '' 
 ORDER BY desc_t, carmakcod 

18/1/2014  16:30 >> Application_Name >> getDataCarMarkByCarMarkCode
SELECT * 
 FROM online_carmark 
 WHERE carmakcod = '' 
 ORDER BY desc_t, carmakcod 

18/1/2014  16:30 >> Application_Name >> getDataCarMarkByCarMarkCode
SELECT * 
 FROM online_carmark 
 WHERE carmakcod = 'JP-TO047' 
 ORDER BY desc_t, carmakcod 

18/1/2014  16:32 >> Application_Name >> getDataPremium
exec sp_calonlineweb 'Y','210','1','2','A','','3000','21','A',418760,462840,'0',0

18/1/2014  16:32 >> Application_Name >> getDataPremium
exec sp_calonlineweb 'Y','210','2','2','A','','3000','21','A',418760,462840,'0',0

18/1/2014  16:32 >> Application_Name >> getDataPremium
exec sp_calonlineweb 'Y','210','3','2','A','','3000','21','A',0,0,'0',0

18/1/2014  16:37 >> Application_Name >> getDataCarMarkByCarMarkCode
SELECT * 
 FROM online_carmark 
 WHERE carmakcod = '' 
 ORDER BY desc_t, carmakcod 

18/1/2014  16:37 >> Application_Name >> getDataCarMarkByCarMarkCode
SELECT * 
 FROM online_carmark 
 WHERE carmakcod = '' 
 ORDER BY desc_t, carmakcod 

18/1/2014  16:37 >> Application_Name >> getDataCarMarkByCarMarkCode
SELECT * 
 FROM online_carmark 
 WHERE carmakcod = 'JP-TO047' 
 ORDER BY desc_t, carmakcod 

18/1/2014  16:40 >> Application_Name >> getDataPremium
exec sp_calonlineweb 'N','210','1','2','A','','3000','21','A',418760,462840,'0',0

18/1/2014  16:40 >> Application_Name >> getDataPremium
exec sp_calonlineweb 'N','210','2','2','A','','3000','21','A',418760,462840,'0',0

18/1/2014  16:40 >> Application_Name >> getDataPremium
exec sp_calonlineweb 'N','210','3','2','A','','3000','21','A',0,0,'0',0

18/1/2014  16:51 >> Application_Name >> getDataCarMarkByCarMarkCode
SELECT * 
 FROM online_carmark 
 WHERE carmakcod = '' 
 ORDER BY desc_t, carmakcod 

18/1/2014  16:51 >> Application_Name >> getDataCarMarkByCarMarkCode
SELECT * 
 FROM online_carmark 
 WHERE carmakcod = 'JK-KI021' 
 ORDER BY desc_t, carmakcod 

18/1/2014  16:55 >> Application_Name >> getDataCarMarkByCarMarkCode
SELECT * 
 FROM online_carmark 
 WHERE carmakcod = '' 
 ORDER BY desc_t, carmakcod 

18/1/2014  16:56 >> Application_Name >> getDataCarMarkByCarMarkCode
SELECT * 
 FROM online_carmark 
 WHERE carmakcod = 'JK-TO067' 
 ORDER BY desc_t, carmakcod 

18/1/2014  17:0 >> Application_Name >> getDataPremium
exec sp_calonlineweb 'Y','110','1','2','3 ','JK-MA065','2000','A','A',418950,512050,'0',20

18/1/2014  17:0 >> Application_Name >> getDataPremium
exec sp_calonlineweb 'Y','110','2','2','3 ','JK-MA065','2000','A','A',418950,512050,'0',20

18/1/2014  17:0 >> Application_Name >> getDataPremium
exec sp_calonlineweb 'Y','110','3','2','3 ','JK-MA065','2000','A','A',0,0,'0',20

18/1/2014  17:4 >> Application_Name >> SMK :: BuyVoluntary_step2-docToUI
Combine

18/1/2014  17:4 >> Application_Name >> SMK :: BuyVoluntary_step2-docToUI
rg_prmm-014869.6

18/1/2014  17:4 >> Application_Name >> SMK :: BuyVoluntary_step2-docToUI
rg_prmm14869.6

18/1/2014  17:4 >> Application_Name >> SMK :: BuyVoluntary_step2-docToUI
cp_comp_prmm600.00

18/1/2014  19:44 >> Application_Name >> getDataCarMarkByCarMarkCode
SELECT * 
 FROM online_carmark 
 WHERE carmakcod = '' 
 ORDER BY desc_t, carmakcod 

18/1/2014  19:44 >> Application_Name >> getDataCarMarkByCarMarkCode
SELECT * 
 FROM online_carmark 
 WHERE carmakcod = '' 
 ORDER BY desc_t, carmakcod 

18/1/2014  19:44 >> Application_Name >> getDataCarMarkByCarMarkCode
SELECT * 
 FROM online_carmark 
 WHERE carmakcod = 'JP-TO043' 
 ORDER BY desc_t, carmakcod 

18/1/2014  19:47 >> Application_Name >> getDataPremium
exec sp_calonlineweb 'Y','210','1','4','A','','2500','21','A',437226.955,483250.845,'0',30

18/1/2014  19:47 >> Application_Name >> getDataPremium
exec sp_calonlineweb 'Y','210','2','4','A','','2500','21','A',437226.955,483250.845,'0',30

18/1/2014  19:47 >> Application_Name >> getDataPremium
exec sp_calonlineweb 'Y','210','3','4','A','','2500','21','A',0,0,'0',30

18/1/2014  19:47 >> Application_Name >> getDataPremium
exec sp_calonlineweb 'Y','210','1','4','A','','2500','21','A',437226.955,483250.845,'0',30

18/1/2014  19:47 >> Application_Name >> getDataPremium
exec sp_calonlineweb 'Y','210','2','4','A','','2500','21','A',437226.955,483250.845,'0',30

18/1/2014  19:47 >> Application_Name >> getDataPremium
exec sp_calonlineweb 'Y','210','3','4','A','','2500','21','A',0,0,'0',30

18/1/2014  19:47 >> Application_Name >> getDataPremium
exec sp_calonlineweb 'Y','210','1','4','A','','2500','21','A',437226.955,483250.845,'0',30

18/1/2014  19:47 >> Application_Name >> getDataPremium
exec sp_calonlineweb 'Y','210','2','4','A','','2500','21','A',437226.955,483250.845,'0',30

18/1/2014  19:47 >> Application_Name >> getDataPremium
exec sp_calonlineweb 'Y','210','3','4','A','','2500','21','A',0,0,'0',30

18/1/2014  19:48 >> Application_Name >> getDataCarMarkByCarMarkCode
SELECT * 
 FROM online_carmark 
 WHERE carmakcod = '' 
 ORDER BY desc_t, carmakcod 

18/1/2014  19:48 >> Application_Name >> getDataCarMarkByCarMarkCode
SELECT * 
 FROM online_carmark 
 WHERE carmakcod = 'JP-TO072' 
 ORDER BY desc_t, carmakcod 

18/1/2014  19:49 >> Application_Name >> getDataPremium
exec sp_calonlineweb 'Y','210','1','4','A','','2500','21','A',411162.755,454443.045,'0',20

18/1/2014  19:49 >> Application_Name >> getDataPremium
exec sp_calonlineweb 'Y','210','2','4','A','','2500','21','A',411162.755,454443.045,'0',20

18/1/2014  19:49 >> Application_Name >> getDataPremium
exec sp_calonlineweb 'Y','210','3','4','A','','2500','21','A',0,0,'0',20

18/1/2014  19:49 >> Application_Name >> getDataCarMarkByCarMarkCode
SELECT * 
 FROM online_carmark 
 WHERE carmakcod = '' 
 ORDER BY desc_t, carmakcod 

18/1/2014  19:49 >> Application_Name >> getDataCarMarkByCarMarkCode
SELECT * 
 FROM online_carmark 
 WHERE carmakcod = 'JP-TO072' 
 ORDER BY desc_t, carmakcod 

18/1/2014  19:49 >> Application_Name >> getDataPremium
exec sp_calonlineweb 'Y','210','1','4','A','','12','21','A',411162.755,454443.045,'0',20

18/1/2014  19:49 >> Application_Name >> getDataPremium
exec sp_calonlineweb 'Y','210','2','4','A','','12','21','A',411162.755,454443.045,'0',20

18/1/2014  19:49 >> Application_Name >> getDataPremium
exec sp_calonlineweb 'Y','210','3','4','A','','12','21','A',0,0,'0',20

18/1/2014  19:51 >> Application_Name >> getDataPremium
exec sp_calonlineweb 'Y','210','1','4','A','','12','21','A',411162.755,454443.045,'0',30

18/1/2014  19:51 >> Application_Name >> getDataPremium
exec sp_calonlineweb 'Y','210','2','4','A','','12','21','A',411162.755,454443.045,'0',30

18/1/2014  19:51 >> Application_Name >> getDataPremium
exec sp_calonlineweb 'Y','210','3','4','A','','12','21','A',0,0,'0',30

18/1/2014  19:51 >> Application_Name >> getDataPremium
exec sp_calonlineweb 'Y','210','1','4','A','','12','21','A',411162.755,454443.045,'0',20

18/1/2014  19:51 >> Application_Name >> getDataPremium
exec sp_calonlineweb 'Y','210','2','4','A','','12','21','A',411162.755,454443.045,'0',20

18/1/2014  19:51 >> Application_Name >> getDataPremium
exec sp_calonlineweb 'Y','210','3','4','A','','12','21','A',0,0,'0',20

18/1/2014  19:52 >> Application_Name >> SMK :: BuyVoluntary_step2-docToUI
Combine

18/1/2014  19:52 >> Application_Name >> SMK :: BuyVoluntary_step2-docToUI
rg_prmm-014668

18/1/2014  19:52 >> Application_Name >> SMK :: BuyVoluntary_step2-docToUI
rg_prmm14668

18/1/2014  19:52 >> Application_Name >> SMK :: BuyVoluntary_step2-docToUI
cp_comp_prmm900.00

18/1/2014  19:54 >> Application_Name >> getDataCarMarkByCarMarkCode
SELECT * 
 FROM online_carmark 
 WHERE carmakcod = 'JK-TO184' 
 ORDER BY desc_t, carmakcod 

18/1/2014  19:54 >> Application_Name >> getDataPremium
exec sp_calonlineweb 'Y','210','1','4','A','JK-TO184','2494','21','A',347236.875,424400.625,'0',20

18/1/2014  19:54 >> Application_Name >> getDataPremium
exec sp_calonlineweb 'Y','210','2','4','A','JK-TO184','2494','21','A',347236.875,424400.625,'0',20

18/1/2014  19:54 >> Application_Name >> getDataPremium
exec sp_calonlineweb 'Y','210','3','4','A','JK-TO184','2494','21','A',0,0,'0',20

18/1/2014  19:55 >> Application_Name >> getDataPremium
exec sp_calonlineweb 'Y','210','1','4','A','JK-TO184','2494','21','A',347236.875,424400.625,'0',20

18/1/2014  19:55 >> Application_Name >> getDataPremium
exec sp_calonlineweb 'Y','210','2','4','A','JK-TO184','2494','21','A',347236.875,424400.625,'0',20

18/1/2014  19:55 >> Application_Name >> getDataPremium
exec sp_calonlineweb 'Y','210','3','4','A','JK-TO184','2494','21','A',0,0,'0',20

18/1/2014  19:55 >> Application_Name >> getDataCarMarkByCarMarkCode
SELECT * 
 FROM online_carmark 
 WHERE carmakcod = '' 
 ORDER BY desc_t, carmakcod 

18/1/2014  19:55 >> Application_Name >> getDataCarMarkByCarMarkCode
SELECT * 
 FROM online_carmark 
 WHERE carmakcod = '' 
 ORDER BY desc_t, carmakcod 

18/1/2014  19:55 >> Application_Name >> getDataCarMarkByCarMarkCode
SELECT * 
 FROM online_carmark 
 WHERE carmakcod = 'JP-TO072' 
 ORDER BY desc_t, carmakcod 

18/1/2014  19:56 >> Application_Name >> getDataPremium
exec sp_calonlineweb 'Y','210','1','4','A','','12','21','A',411162.755,454443.045,'0',0

18/1/2014  19:56 >> Application_Name >> getDataPremium
exec sp_calonlineweb 'Y','210','2','4','A','','12','21','A',411162.755,454443.045,'0',0

18/1/2014  19:56 >> Application_Name >> getDataPremium
exec sp_calonlineweb 'Y','210','3','4','A','','12','21','A',0,0,'0',0

18/1/2014  19:57 >> Application_Name >> getDataPremium
exec sp_calonlineweb 'Y','210','1','4','A','','12','21','A',411162.755,454443.045,'0',20

18/1/2014  19:57 >> Application_Name >> getDataPremium
exec sp_calonlineweb 'Y','210','2','4','A','','12','21','A',411162.755,454443.045,'0',20

18/1/2014  19:57 >> Application_Name >> getDataPremium
exec sp_calonlineweb 'Y','210','3','4','A','','12','21','A',0,0,'0',20

18/1/2014  19:57 >> Application_Name >> getDataPremium
exec sp_calonlineweb 'Y','210','1','4','A','','12','21','A',411162.755,454443.045,'0',30

18/1/2014  19:57 >> Application_Name >> getDataPremium
exec sp_calonlineweb 'Y','210','2','4','A','','12','21','A',411162.755,454443.045,'0',30

18/1/2014  19:57 >> Application_Name >> getDataPremium
exec sp_calonlineweb 'Y','210','3','4','A','','12','21','A',0,0,'0',30

18/1/2014  19:59 >> Application_Name >> SMK :: BuyVoluntary_step2-docToUI
Combine

18/1/2014  19:59 >> Application_Name >> SMK :: BuyVoluntary_step2-docToUI
rg_prmm-014668

18/1/2014  19:59 >> Application_Name >> SMK :: BuyVoluntary_step2-docToUI
rg_prmm14668

18/1/2014  19:59 >> Application_Name >> SMK :: BuyVoluntary_step2-docToUI
cp_comp_prmm900.00

18/1/2014  19:59 >> Application_Name >> getDataPremium
exec sp_calonlineweb 'Y','210','1','4','A','EK-BE051','12','21','A',411162.755,454443.045,'0',30

18/1/2014  19:59 >> Application_Name >> getDataPremium
exec sp_calonlineweb 'Y','210','2','4','A','EK-BE051','12','21','A',411162.755,454443.045,'0',30

18/1/2014  19:59 >> Application_Name >> getDataPremium
exec sp_calonlineweb 'Y','210','3','4','A','EK-BE051','12','21','A',0,0,'0',30

18/1/2014  20:0 >> Application_Name >> SMK :: BuyVoluntary_step2-docToUI
Combine

18/1/2014  20:0 >> Application_Name >> SMK :: BuyVoluntary_step2-docToUI
rg_prmm-014668

18/1/2014  20:0 >> Application_Name >> SMK :: BuyVoluntary_step2-docToUI
rg_prmm14668

18/1/2014  20:0 >> Application_Name >> SMK :: BuyVoluntary_step2-docToUI
cp_comp_prmm900.00

18/1/2014  20:11 >> Application_Name >> getDataCarMarkByCarMarkCode
SELECT * 
 FROM online_carmark 
 WHERE carmakcod = '' 
 ORDER BY desc_t, carmakcod 

18/1/2014  20:11 >> Application_Name >> getDataCarMarkByCarMarkCode
SELECT * 
 FROM online_carmark 
 WHERE carmakcod = 'JP-TO072' 
 ORDER BY desc_t, carmakcod 

18/1/2014  20:12 >> Application_Name >> getDataPremium
exec sp_calonlineweb 'Y','320','1','4','A','','4','N','A',411162.755,454443.045,'0',30

18/1/2014  20:12 >> Application_Name >> getDataPremium
exec sp_calonlineweb 'Y','320','2','4','A','','4','N','A',411162.755,454443.045,'0',30

18/1/2014  20:12 >> Application_Name >> getDataPremium
exec sp_calonlineweb 'Y','320','3','4','A','','4','N','A',0,0,'0',30

18/1/2014  20:12 >> Application_Name >> getDataCarMarkByCarMarkCode
SELECT * 
 FROM online_carmark 
 WHERE carmakcod = '' 
 ORDER BY desc_t, carmakcod 

18/1/2014  20:12 >> Application_Name >> getDataCarMarkByCarMarkCode
SELECT * 
 FROM online_carmark 
 WHERE carmakcod = 'JP-TO072' 
 ORDER BY desc_t, carmakcod 

18/1/2014  20:12 >> Application_Name >> getDataPremium
exec sp_calonlineweb 'Y','210','1','4','A','','12','21','A',411162.755,454443.045,'0',30

18/1/2014  20:12 >> Application_Name >> getDataPremium
exec sp_calonlineweb 'Y','210','2','4','A','','12','21','A',411162.755,454443.045,'0',30

18/1/2014  20:12 >> Application_Name >> getDataPremium
exec sp_calonlineweb 'Y','210','3','4','A','','12','21','A',0,0,'0',30

18/1/2014  20:13 >> Application_Name >> getDataPremium
exec sp_calonlineweb 'Y','210','1','4','A','','2494','21','A',411162.755,454443.045,'0',30

18/1/2014  20:13 >> Application_Name >> getDataPremium
exec sp_calonlineweb 'Y','210','2','4','A','','2494','21','A',411162.755,454443.045,'0',30

18/1/2014  20:13 >> Application_Name >> getDataPremium
exec sp_calonlineweb 'Y','210','3','4','A','','2494','21','A',0,0,'0',30

18/1/2014  20:13 >> Application_Name >> getDataPremium
exec sp_calonlineweb 'Y','210','1','4','A','','2494','21','A',411162.755,454443.045,'0',30

18/1/2014  20:13 >> Application_Name >> getDataPremium
exec sp_calonlineweb 'Y','210','2','4','A','','2494','21','A',411162.755,454443.045,'0',30

18/1/2014  20:13 >> Application_Name >> getDataPremium
exec sp_calonlineweb 'Y','210','3','4','A','','2494','21','A',0,0,'0',30

18/1/2014  20:13 >> Application_Name >> getDataPremium
exec sp_calonlineweb 'Y','210','1','4','A','','2494','21','A',411162.755,454443.045,'0',30

18/1/2014  20:13 >> Application_Name >> getDataPremium
exec sp_calonlineweb 'Y','210','2','4','A','','2494','21','A',411162.755,454443.045,'0',30

18/1/2014  20:13 >> Application_Name >> getDataPremium
exec sp_calonlineweb 'Y','210','3','4','A','','2494','21','A',0,0,'0',30

18/1/2014  20:14 >> Application_Name >> getDataPremium
exec sp_calonlineweb 'Y','210','1','4','A','','12','21','A',411162.755,454443.045,'0',30

18/1/2014  20:14 >> Application_Name >> getDataPremium
exec sp_calonlineweb 'Y','210','2','4','A','','12','21','A',411162.755,454443.045,'0',30

18/1/2014  20:14 >> Application_Name >> getDataPremium
exec sp_calonlineweb 'Y','210','3','4','A','','12','21','A',0,0,'0',30

18/1/2014  20:14 >> Application_Name >> getDataPremium
exec sp_calonlineweb 'Y','210','1','4','A','','12','21','A',411162.755,454443.045,'0',30

18/1/2014  20:14 >> Application_Name >> getDataPremium
exec sp_calonlineweb 'Y','210','2','4','A','','12','21','A',411162.755,454443.045,'0',30

18/1/2014  20:14 >> Application_Name >> getDataPremium
exec sp_calonlineweb 'Y','210','3','4','A','','12','21','A',0,0,'0',30

18/1/2014  20:14 >> Application_Name >> SMK :: BuyVoluntary_step2-docToUI
Combine

18/1/2014  20:14 >> Application_Name >> SMK :: BuyVoluntary_step2-docToUI
rg_prmm-014668

18/1/2014  20:14 >> Application_Name >> SMK :: BuyVoluntary_step2-docToUI
rg_prmm14668

18/1/2014  20:14 >> Application_Name >> SMK :: BuyVoluntary_step2-docToUI
cp_comp_prmm900.00

18/1/2014  20:31 >> Application_Name >> getDataCarMarkByCarMarkCode
SELECT * 
 FROM online_carmark 
 WHERE carmakcod = '' 
 ORDER BY desc_t, carmakcod 

18/1/2014  20:31 >> Application_Name >> getDataCarMarkByCarMarkCode
SELECT * 
 FROM online_carmark 
 WHERE carmakcod = 'JK-TO178' 
 ORDER BY desc_t, carmakcod 

18/1/2014  20:32 >> Application_Name >> getDataCarMarkByCarMarkCode
SELECT * 
 FROM online_carmark 
 WHERE carmakcod = '' 
 ORDER BY desc_t, carmakcod 

18/1/2014  20:32 >> Application_Name >> getDataCarMarkByCarMarkCode
SELECT * 
 FROM online_carmark 
 WHERE carmakcod = 'JP-TO072' 
 ORDER BY desc_t, carmakcod 

18/1/2014  20:32 >> Application_Name >> getDataPremium
exec sp_calonlineweb 'Y','210','1','4','A','','12','21','A',411162.755,454443.045,'0',30

18/1/2014  20:32 >> Application_Name >> getDataPremium
exec sp_calonlineweb 'Y','210','2','4','A','','12','21','A',411162.755,454443.045,'0',30

18/1/2014  20:32 >> Application_Name >> getDataPremium
exec sp_calonlineweb 'Y','210','3','4','A','','12','21','A',0,0,'0',30

18/1/2014  20:33 >> Application_Name >> SMK :: BuyVoluntary_step2-docToUI
Combine

18/1/2014  20:33 >> Application_Name >> SMK :: BuyVoluntary_step2-docToUI
rg_prmm-014668

18/1/2014  20:33 >> Application_Name >> SMK :: BuyVoluntary_step2-docToUI
rg_prmm14668

18/1/2014  20:33 >> Application_Name >> SMK :: BuyVoluntary_step2-docToUI
cp_comp_prmm900.00

18/1/2014  20:35 >> Application_Name >> getDataCarMarkByCarMarkCode
SELECT * 
 FROM online_carmark 
 WHERE carmakcod = '' 
 ORDER BY desc_t, carmakcod 

18/1/2014  20:35 >> Application_Name >> getDataCarMarkByCarMarkCode
SELECT * 
 FROM online_carmark 
 WHERE carmakcod = 'JK-HO001' 
 ORDER BY desc_t, carmakcod 

18/1/2014  20:41 >> Application_Name >> getDataCarMarkByCarMarkCode
SELECT * 
 FROM online_carmark 
 WHERE carmakcod = '' 
 ORDER BY desc_t, carmakcod 

18/1/2014  20:41 >> Application_Name >> getDataCarMarkByCarMarkCode
SELECT * 
 FROM online_carmark 
 WHERE carmakcod = '' 
 ORDER BY desc_t, carmakcod 

18/1/2014  20:41 >> Application_Name >> getDataCarMarkByCarMarkCode
SELECT * 
 FROM online_carmark 
 WHERE carmakcod = '' 
 ORDER BY desc_t, carmakcod 

18/1/2014  20:41 >> Application_Name >> getDataCarMarkByCarMarkCode
SELECT * 
 FROM online_carmark 
 WHERE carmakcod = 'JP-NI043' 
 ORDER BY desc_t, carmakcod 

18/1/2014  20:45 >> Application_Name >> getDataPremium
exec sp_calonlineweb 'Y','210','1','3','A','','2500','21','A',424572.1,469263.9,'0',20

18/1/2014  20:45 >> Application_Name >> getDataPremium
exec sp_calonlineweb 'Y','210','2','3','A','','2500','21','A',424572.1,469263.9,'0',20

18/1/2014  20:45 >> Application_Name >> getDataPremium
exec sp_calonlineweb 'Y','210','3','3','A','','2500','21','A',0,0,'0',20

18/1/2014  20:45 >> Application_Name >> getDataPremium
exec sp_calonlineweb 'Y','210','1','3','A','','2500','21','A',424572.1,469263.9,'0',20

18/1/2014  20:45 >> Application_Name >> getDataPremium
exec sp_calonlineweb 'Y','210','2','3','A','','2500','21','A',424572.1,469263.9,'0',20

18/1/2014  20:45 >> Application_Name >> getDataPremium
exec sp_calonlineweb 'Y','210','3','3','A','','2500','21','A',0,0,'0',20

18/1/2014  20:47 >> Application_Name >> getDataCarMarkByCarMarkCode
SELECT * 
 FROM online_carmark 
 WHERE carmakcod = '' 
 ORDER BY desc_t, carmakcod 

18/1/2014  20:47 >> Application_Name >> getDataCarMarkByCarMarkCode
SELECT * 
 FROM online_carmark 
 WHERE carmakcod = '' 
 ORDER BY desc_t, carmakcod 

18/1/2014  20:47 >> Application_Name >> getDataCarMarkByCarMarkCode
SELECT * 
 FROM online_carmark 
 WHERE carmakcod = '' 
 ORDER BY desc_t, carmakcod 

18/1/2014  20:47 >> Application_Name >> getDataCarMarkByCarMarkCode
SELECT * 
 FROM online_carmark 
 WHERE carmakcod = '' 
 ORDER BY desc_t, carmakcod 

18/1/2014  20:47 >> Application_Name >> getDataCarMarkByCarMarkCode
SELECT * 
 FROM online_carmark 
 WHERE carmakcod = 'JP-NI043' 
 ORDER BY desc_t, carmakcod 

18/1/2014  20:58 >> Application_Name >> getDataCarMarkByCarMarkCode
SELECT * 
 FROM online_carmark 
 WHERE carmakcod = '' 
 ORDER BY desc_t, carmakcod 

18/1/2014  20:58 >> Application_Name >> getDataCarMarkByCarMarkCode
SELECT * 
 FROM online_carmark 
 WHERE carmakcod = 'JK-HO084' 
 ORDER BY desc_t, carmakcod 

18/1/2014  20:59 >> Application_Name >> getDataCarMarkByCarMarkCode
SELECT * 
 FROM online_carmark 
 WHERE carmakcod = '' 
 ORDER BY desc_t, carmakcod 

18/1/2014  20:59 >> Application_Name >> getDataCarMarkByCarMarkCode
SELECT * 
 FROM online_carmark 
 WHERE carmakcod = '' 
 ORDER BY desc_t, carmakcod 

18/1/2014  20:59 >> Application_Name >> getDataCarMarkByCarMarkCode
SELECT * 
 FROM online_carmark 
 WHERE carmakcod = 'JP-IS052' 
 ORDER BY desc_t, carmakcod 

18/1/2014  20:59 >> Application_Name >> getDataPremium
exec sp_calonlineweb 'Y','210','1','4','A','EK-BE051','12','21','A',411162.755,454443.045,'0',30

18/1/2014  20:59 >> Application_Name >> getDataPremium
exec sp_calonlineweb 'Y','210','2','4','A','EK-BE051','12','21','A',411162.755,454443.045,'0',30

18/1/2014  20:59 >> Application_Name >> getDataPremium
exec sp_calonlineweb 'Y','210','3','4','A','EK-BE051','12','21','A',0,0,'0',30

18/1/2014  20:59 >> Application_Name >> SMK :: BuyVoluntary_step2-docToUI
Combine

18/1/2014  20:59 >> Application_Name >> SMK :: BuyVoluntary_step2-docToUI
rg_prmm-014668

18/1/2014  20:59 >> Application_Name >> SMK :: BuyVoluntary_step2-docToUI
rg_prmm14668

18/1/2014  20:59 >> Application_Name >> SMK :: BuyVoluntary_step2-docToUI
cp_comp_prmm900.00

18/1/2014  21:0 >> Application_Name >> getDataPremium
exec sp_calonlineweb 'Y','110','1','4','5 ','JK-HO084','2000','A','A',439833.375,537574.125,'0',20

18/1/2014  21:0 >> Application_Name >> getDataPremium
exec sp_calonlineweb 'Y','110','2','4','5 ','JK-HO084','2000','A','A',439833.375,537574.125,'0',20

18/1/2014  21:0 >> Application_Name >> getDataPremium
exec sp_calonlineweb 'Y','110','3','4','5 ','JK-HO084','2000','A','A',0,0,'0',20

18/1/2014  21:1 >> Application_Name >> getDataPremium
exec sp_calonlineweb 'Y','320','1','3','A','','4','N','A',528143,583737,'0',30

18/1/2014  21:1 >> Application_Name >> getDataPremium
exec sp_calonlineweb 'Y','320','2','3','A','','4','N','A',528143,583737,'0',30

18/1/2014  21:1 >> Application_Name >> getDataPremium
exec sp_calonlineweb 'Y','320','3','3','A','','4','N','A',0,0,'0',30

18/1/2014  21:2 >> Application_Name >> getDataCarMarkByCarMarkCode
SELECT * 
 FROM online_carmark 
 WHERE carmakcod = '' 
 ORDER BY desc_t, carmakcod 

18/1/2014  21:2 >> Application_Name >> getDataCarMarkByCarMarkCode
SELECT * 
 FROM online_carmark 
 WHERE carmakcod = '' 
 ORDER BY desc_t, carmakcod 

18/1/2014  21:2 >> Application_Name >> getDataCarMarkByCarMarkCode
SELECT * 
 FROM online_carmark 
 WHERE carmakcod = 'JP-IS052' 
 ORDER BY desc_t, carmakcod 

18/1/2014  21:3 >> Application_Name >> getDataPremium
exec sp_calonlineweb 'Y','320','1','3','A','','4','N','A',528143,583737,'0',0

18/1/2014  21:3 >> Application_Name >> getDataPremium
exec sp_calonlineweb 'Y','320','2','3','A','','4','N','A',528143,583737,'0',0

18/1/2014  21:3 >> Application_Name >> getDataPremium
exec sp_calonlineweb 'Y','320','3','3','A','','4','N','A',0,0,'0',0

18/1/2014  21:5 >> Application_Name >> getDataCarMarkByCarMarkCode
SELECT * 
 FROM online_carmark 
 WHERE carmakcod = '' 
 ORDER BY desc_t, carmakcod 

18/1/2014  21:5 >> Application_Name >> getDataCarMarkByCarMarkCode
SELECT * 
 FROM online_carmark 
 WHERE carmakcod = '' 
 ORDER BY desc_t, carmakcod 

18/1/2014  21:5 >> Application_Name >> getDataCarMarkByCarMarkCode
SELECT * 
 FROM online_carmark 
 WHERE carmakcod = '' 
 ORDER BY desc_t, carmakcod 

18/1/2014  21:26 >> Application_Name >> getDataCarMarkByCarMarkCode
SELECT * 
 FROM online_carmark 
 WHERE carmakcod = '' 
 ORDER BY desc_t, carmakcod 

18/1/2014  21:26 >> Application_Name >> getDataCarMarkByCarMarkCode
SELECT * 
 FROM online_carmark 
 WHERE carmakcod = '' 
 ORDER BY desc_t, carmakcod 

18/1/2014  21:27 >> Application_Name >> getDataCarMarkByCarMarkCode
SELECT * 
 FROM online_carmark 
 WHERE carmakcod = 'JP-IS052' 
 ORDER BY desc_t, carmakcod 

18/1/2014  21:28 >> Application_Name >> getDataCarMarkByCarMarkCode
SELECT * 
 FROM online_carmark 
 WHERE carmakcod = '' 
 ORDER BY desc_t, carmakcod 

18/1/2014  21:29 >> Application_Name >> getDataCarMarkByCarMarkCode
SELECT * 
 FROM online_carmark 
 WHERE carmakcod = 'JK-TO067' 
 ORDER BY desc_t, carmakcod 

18/1/2014  21:30 >> Application_Name >> getDataPremium
exec sp_calonlineweb 'N','110','1','2','5 ','JK-TO067','2000','A','A',476235,582065,'0',0

18/1/2014  21:30 >> Application_Name >> getDataPremium
exec sp_calonlineweb 'N','110','2','2','5 ','JK-TO067','2000','A','A',476235,582065,'0',0

18/1/2014  21:30 >> Application_Name >> getDataPremium
exec sp_calonlineweb 'N','110','3','2','5 ','JK-TO067','2000','A','A',0,0,'0',0

18/1/2014  21:31 >> Application_Name >> getDataPremium
exec sp_calonlineweb 'Y','210','1','3','A','','2500','21','A',528143,583737,'0',0

18/1/2014  21:31 >> Application_Name >> getDataPremium
exec sp_calonlineweb 'Y','210','2','3','A','','2500','21','A',528143,583737,'0',0

18/1/2014  21:31 >> Application_Name >> getDataPremium
exec sp_calonlineweb 'Y','210','3','3','A','','2500','21','A',0,0,'0',0

18/1/2014  21:31 >> Application_Name >> getDataPremium
exec sp_calonlineweb 'Y','210','1','3','A','','2500','21','A',528143,583737,'0',0

18/1/2014  21:31 >> Application_Name >> getDataPremium
exec sp_calonlineweb 'Y','210','2','3','A','','2500','21','A',528143,583737,'0',0

18/1/2014  21:31 >> Application_Name >> getDataPremium
exec sp_calonlineweb 'Y','210','3','3','A','','2500','21','A',0,0,'0',0

18/1/2014  21:32 >> Application_Name >> getDataCarMarkByCarMarkCode
SELECT * 
 FROM online_carmark 
 WHERE carmakcod = '' 
 ORDER BY desc_t, carmakcod 

18/1/2014  21:32 >> Application_Name >> getDataCarMarkByCarMarkCode
SELECT * 
 FROM online_carmark 
 WHERE carmakcod = '' 
 ORDER BY desc_t, carmakcod 

18/1/2014  21:32 >> Application_Name >> getDataCarMarkByCarMarkCode
SELECT * 
 FROM online_carmark 
 WHERE carmakcod = '' 
 ORDER BY desc_t, carmakcod 

18/1/2014  21:32 >> Application_Name >> getDataCarMarkByCarMarkCode
SELECT * 
 FROM online_carmark 
 WHERE carmakcod = 'JP-IS052' 
 ORDER BY desc_t, carmakcod 

18/1/2014  21:32 >> Application_Name >> getDataPremium
exec sp_calonlineweb 'Y','210','1','3','A','','2500','21','A',528143,583737,'0',0

18/1/2014  21:32 >> Application_Name >> getDataPremium
exec sp_calonlineweb 'Y','210','2','3','A','','2500','21','A',528143,583737,'0',0

18/1/2014  21:32 >> Application_Name >> getDataPremium
exec sp_calonlineweb 'Y','210','3','3','A','','2500','21','A',0,0,'0',0

18/1/2014  21:33 >> Application_Name >> getDataPremium
exec sp_calonlineweb 'Y','320','1','3','A','','4','N','A',528143,583737,'0',30

18/1/2014  21:33 >> Application_Name >> getDataPremium
exec sp_calonlineweb 'Y','320','2','3','A','','4','N','A',528143,583737,'0',30

18/1/2014  21:33 >> Application_Name >> getDataPremium
exec sp_calonlineweb 'Y','320','3','3','A','','4','N','A',0,0,'0',30

18/1/2014  21:34 >> Application_Name >> getDataCarMarkByCarMarkCode
SELECT * 
 FROM online_carmark 
 WHERE carmakcod = '' 
 ORDER BY desc_t, carmakcod 

18/1/2014  21:34 >> Application_Name >> getDataCarMarkByCarMarkCode
SELECT * 
 FROM online_carmark 
 WHERE carmakcod = 'JK-TO186' 
 ORDER BY desc_t, carmakcod 

18/1/2014  21:34 >> Application_Name >> getDataPremium
exec sp_calonlineweb 'N','110','1','2','3 ','JK-TO186','9999','A','A',436050,532950,'0',0

18/1/2014  21:34 >> Application_Name >> getDataPremium
exec sp_calonlineweb 'N','110','2','2','3 ','JK-TO186','9999','A','A',436050,532950,'0',0

18/1/2014  21:34 >> Application_Name >> getDataPremium
exec sp_calonlineweb 'N','110','3','2','3 ','JK-TO186','9999','A','A',0,0,'0',0

18/1/2014  21:35 >> Application_Name >> getDataCarMarkByCarMarkCode
SELECT * 
 FROM online_carmark 
 WHERE carmakcod = '' 
 ORDER BY desc_t, carmakcod 

18/1/2014  21:35 >> Application_Name >> getDataCarMarkByCarMarkCode
SELECT * 
 FROM online_carmark 
 WHERE carmakcod = '' 
 ORDER BY desc_t, carmakcod 

18/1/2014  21:35 >> Application_Name >> getDataCarMarkByCarMarkCode
SELECT * 
 FROM online_carmark 
 WHERE carmakcod = 'JP-IS052' 
 ORDER BY desc_t, carmakcod 

18/1/2014  21:35 >> Application_Name >> getDataPremium
exec sp_calonlineweb 'Y','320','1','3','A','','4','N','A',528143,583737,'0',30

18/1/2014  21:35 >> Application_Name >> getDataPremium
exec sp_calonlineweb 'Y','320','2','3','A','','4','N','A',528143,583737,'0',30

18/1/2014  21:35 >> Application_Name >> getDataPremium
exec sp_calonlineweb 'Y','320','3','3','A','','4','N','A',0,0,'0',30

18/1/2014  21:37 >> Application_Name >> getDataPremium
exec sp_calonlineweb 'N','110','1','3','3 ','JK-TO186','9999','A','A',414247.5,506302.5,'0',0

18/1/2014  21:37 >> Application_Name >> getDataPremium
exec sp_calonlineweb 'N','110','2','3','3 ','JK-TO186','9999','A','A',414247.5,506302.5,'0',0

18/1/2014  21:37 >> Application_Name >> getDataPremium
exec sp_calonlineweb 'N','110','3','3','3 ','JK-TO186','9999','A','A',0,0,'0',0

18/1/2014  21:48 >> Application_Name >> getDataCarMarkByCarMarkCode
SELECT * 
 FROM online_carmark 
 WHERE carmakcod = '' 
 ORDER BY desc_t, carmakcod 

18/1/2014  21:48 >> Application_Name >> getDataCarMarkByCarMarkCode
SELECT * 
 FROM online_carmark 
 WHERE carmakcod = '' 
 ORDER BY desc_t, carmakcod 

18/1/2014  21:48 >> Application_Name >> getDataCarMarkByCarMarkCode
SELECT * 
 FROM online_carmark 
 WHERE carmakcod = '' 
 ORDER BY desc_t, carmakcod 

18/1/2014  21:48 >> Application_Name >> getDataCarMarkByCarMarkCode
SELECT * 
 FROM online_carmark 
 WHERE carmakcod = 'JP-NI043' 
 ORDER BY desc_t, carmakcod 

18/1/2014  21:50 >> Application_Name >> getDataCarMarkByCarMarkCode
SELECT * 
 FROM online_carmark 
 WHERE carmakcod = '' 
 ORDER BY desc_t, carmakcod 

18/1/2014  21:50 >> Application_Name >> getDataCarMarkByCarMarkCode
SELECT * 
 FROM online_carmark 
 WHERE carmakcod = '' 
 ORDER BY desc_t, carmakcod 

18/1/2014  21:50 >> Application_Name >> getDataCarMarkByCarMarkCode
SELECT * 
 FROM online_carmark 
 WHERE carmakcod = 'JP-NI043' 
 ORDER BY desc_t, carmakcod 

18/1/2014  21:52 >> Application_Name >> getDataCarMarkByCarMarkCode
SELECT * 
 FROM online_carmark 
 WHERE carmakcod = '' 
 ORDER BY desc_t, carmakcod 

18/1/2014  21:52 >> Application_Name >> getDataCarMarkByCarMarkCode
SELECT * 
 FROM online_carmark 
 WHERE carmakcod = '' 
 ORDER BY desc_t, carmakcod 

18/1/2014  21:52 >> Application_Name >> getDataCarMarkByCarMarkCode
SELECT * 
 FROM online_carmark 
 WHERE carmakcod = '' 
 ORDER BY desc_t, carmakcod 

18/1/2014  21:52 >> Application_Name >> getDataCarMarkByCarMarkCode
SELECT * 
 FROM online_carmark 
 WHERE carmakcod = '' 
 ORDER BY desc_t, carmakcod 

18/1/2014  21:52 >> Application_Name >> getDataCarMarkByCarMarkCode
SELECT * 
 FROM online_carmark 
 WHERE carmakcod = '' 
 ORDER BY desc_t, carmakcod 

18/1/2014  22:2 >> Application_Name >> getDataCarMarkByCarMarkCode
SELECT * 
 FROM online_carmark 
 WHERE carmakcod = '' 
 ORDER BY desc_t, carmakcod 

18/1/2014  22:2 >> Application_Name >> getDataCarMarkByCarMarkCode
SELECT * 
 FROM online_carmark 
 WHERE carmakcod = 'JP-IS052' 
 ORDER BY desc_t, carmakcod 

18/1/2014  22:3 >> Application_Name >> getDataPremium
exec sp_calonlineweb 'Y','210','1','3','A','','2500','21','A',528143,583737,'0',0

18/1/2014  22:3 >> Application_Name >> getDataPremium
exec sp_calonlineweb 'Y','210','2','3','A','','2500','21','A',528143,583737,'0',0

18/1/2014  22:3 >> Application_Name >> getDataPremium
exec sp_calonlineweb 'Y','210','3','3','A','','2500','21','A',0,0,'0',0

18/1/2014  22:21 >> Application_Name >> getDataCarMarkByCarMarkCode
SELECT * 
 FROM online_carmark 
 WHERE carmakcod = '' 
 ORDER BY desc_t, carmakcod 

18/1/2014  22:21 >> Application_Name >> getDataCarMarkByCarMarkCode
SELECT * 
 FROM online_carmark 
 WHERE carmakcod = 'JK-HO001' 
 ORDER BY desc_t, carmakcod 

18/1/2014  22:23 >> Application_Name >> getDataPremium
exec sp_calonlineweb 'Y','110','1','2','5 ','JK-HO001','2000','A','A',470250,574750,'0',30

18/1/2014  22:23 >> Application_Name >> getDataPremium
exec sp_calonlineweb 'Y','110','2','2','5 ','JK-HO001','2000','A','A',470250,574750,'0',30

18/1/2014  22:23 >> Application_Name >> getDataPremium
exec sp_calonlineweb 'Y','110','3','2','5 ','JK-HO001','2000','A','A',0,0,'0',30

18/1/2014  22:24 >> Application_Name >> getDataPremium
exec sp_calonlineweb 'Y','110','1','2','5 ','JK-HO001','2000','A','A',470250,574750,'0',0

18/1/2014  22:24 >> Application_Name >> getDataPremium
exec sp_calonlineweb 'Y','110','2','2','5 ','JK-HO001','2000','A','A',470250,574750,'0',0

18/1/2014  22:24 >> Application_Name >> getDataPremium
exec sp_calonlineweb 'Y','110','3','2','5 ','JK-HO001','2000','A','A',0,0,'0',0

18/1/2014  22:29 >> Application_Name >> getDataPremium
exec sp_calonlineweb 'Y','110','1','2','5 ','JK-HO001','2000','A','A',470250,574750,'0',0

18/1/2014  22:29 >> Application_Name >> getDataPremium
exec sp_calonlineweb 'Y','110','2','2','5 ','JK-HO001','2000','A','A',470250,574750,'0',0

18/1/2014  22:29 >> Application_Name >> getDataPremium
exec sp_calonlineweb 'Y','110','3','2','5 ','JK-HO001','2000','A','A',0,0,'0',0

18/1/2014  22:29 >> Application_Name >> getDataPremium
exec sp_calonlineweb 'Y','110','1','2','5 ','JK-HO001','2000','A','A',470250,574750,'0',0

18/1/2014  22:29 >> Application_Name >> getDataPremium
exec sp_calonlineweb 'Y','110','2','2','5 ','JK-HO001','2000','A','A',470250,574750,'0',0

18/1/2014  22:29 >> Application_Name >> getDataPremium
exec sp_calonlineweb 'Y','110','3','2','5 ','JK-HO001','2000','A','A',0,0,'0',0

18/1/2014  22:49 >> Application_Name >> getDataCarMarkByCarMarkCode
SELECT * 
 FROM online_carmark 
 WHERE carmakcod = '' 
 ORDER BY desc_t, carmakcod 

18/1/2014  22:49 >> Application_Name >> getDataCarMarkByCarMarkCode
SELECT * 
 FROM online_carmark 
 WHERE carmakcod = 'JK-TO175' 
 ORDER BY desc_t, carmakcod 

18/1/2014  22:52 >> Application_Name >> getDataPremium
exec sp_calonlineweb 'Y','110','1','2','5 ','JK-TO175','2000','A','A',427500,522500,'0',20

18/1/2014  22:52 >> Application_Name >> getDataPremium
exec sp_calonlineweb 'Y','110','2','2','5 ','JK-TO175','2000','A','A',427500,522500,'0',20

18/1/2014  22:52 >> Application_Name >> getDataPremium
exec sp_calonlineweb 'Y','110','3','2','5 ','JK-TO175','2000','A','A',0,0,'0',20

18/1/2014  23:4 >> Application_Name >> getDataCarMarkByCarMarkCode
SELECT * 
 FROM online_carmark 
 WHERE carmakcod = '' 
 ORDER BY desc_t, carmakcod 

18/1/2014  23:4 >> Application_Name >> getDataCarMarkByCarMarkCode
SELECT * 
 FROM online_carmark 
 WHERE carmakcod = '' 
 ORDER BY desc_t, carmakcod 

18/1/2014  23:5 >> Application_Name >> getDataCarMarkByCarMarkCode
SELECT * 
 FROM online_carmark 
 WHERE carmakcod = 'JK-TO234' 
 ORDER BY desc_t, carmakcod 

18/1/2014  23:5 >> Application_Name >> getDataCarMarkByCarMarkCode
SELECT * 
 FROM online_carmark 
 WHERE carmakcod = 'JK-TO234' 
 ORDER BY desc_t, carmakcod 

18/1/2014  23:6 >> Application_Name >> getCategoryCompByBrand
SELECT mdc_minor_cd , mdc_desc_t as mdc_desc FROM mtdesc_comp  WHERE mdc_minor_cd <> '0000' AND mdc_major_cd = 'M002' ORDER BY mdc_desc 

18/1/2014  23:10 >> Application_Name >> getDataPremium
exec sp_calonlineweb 'N','110','1','7','5 ','JK-TO234','2000','A','A',396949.6209375,485160.6478125,'0',30

18/1/2014  23:10 >> Application_Name >> getDataPremium
exec sp_calonlineweb 'N','110','2','7','5 ','JK-TO234','2000','A','A',396949.6209375,485160.6478125,'0',30

18/1/2014  23:10 >> Application_Name >> getDataPremium
exec sp_calonlineweb 'N','110','3','7','5 ','JK-TO234','2000','A','A',0,0,'0',30

18/1/2014  23:10 >> Application_Name >> getDataPremium
exec sp_calonlineweb 'N','110','1','7','5 ','JK-TO234','2000','A','A',396949.6209375,485160.6478125,'0',30

18/1/2014  23:10 >> Application_Name >> getDataPremium
exec sp_calonlineweb 'N','110','2','7','5 ','JK-TO234','2000','A','A',396949.6209375,485160.6478125,'0',30

18/1/2014  23:10 >> Application_Name >> getDataPremium
exec sp_calonlineweb 'N','110','3','7','5 ','JK-TO234','2000','A','A',0,0,'0',30

18/1/2014  23:11 >> Application_Name >> getDataPremium
exec sp_calonlineweb 'N','110','1','7','5 ','JK-TO234','2000','A','A',396949.6209375,485160.6478125,'0',30

18/1/2014  23:11 >> Application_Name >> getDataPremium
exec sp_calonlineweb 'N','110','2','7','5 ','JK-TO234','2000','A','A',396949.6209375,485160.6478125,'0',30

18/1/2014  23:11 >> Application_Name >> getDataPremium
exec sp_calonlineweb 'N','110','3','7','5 ','JK-TO234','2000','A','A',0,0,'0',30

18/1/2014  23:14 >> Application_Name >> getDataCarMarkByCarMarkCode
SELECT * 
 FROM online_carmark 
 WHERE carmakcod = '' 
 ORDER BY desc_t, carmakcod 

18/1/2014  23:14 >> Application_Name >> getDataCarMarkByCarMarkCode
SELECT * 
 FROM online_carmark 
 WHERE carmakcod = 'JK-SZ004' 
 ORDER BY desc_t, carmakcod 

18/1/2014  23:19 >> Application_Name >> getDataCarMarkByCarMarkCode
SELECT * 
 FROM online_carmark 
 WHERE carmakcod = '' 
 ORDER BY desc_t, carmakcod 

18/1/2014  23:19 >> Application_Name >> getDataCarMarkByCarMarkCode
SELECT * 
 FROM online_carmark 
 WHERE carmakcod = 'JK-TO175' 
 ORDER BY desc_t, carmakcod 

18/1/2014  23:21 >> Application_Name >> getDataCarMarkByCarMarkCode
SELECT * 
 FROM online_carmark 
 WHERE carmakcod = '' 
 ORDER BY desc_t, carmakcod 

18/1/2014  23:21 >> Application_Name >> getDataCarMarkByCarMarkCode
SELECT * 
 FROM online_carmark 
 WHERE carmakcod = 'JK-TO175' 
 ORDER BY desc_t, carmakcod 

18/1/2014  23:25 >> Application_Name >> getDataCarMarkByCarMarkCode
SELECT * 
 FROM online_carmark 
 WHERE carmakcod = '' 
 ORDER BY desc_t, carmakcod 

18/1/2014  23:25 >> Application_Name >> getDataCarMarkByCarMarkCode
SELECT * 
 FROM online_carmark 
 WHERE carmakcod = 'JK-NI100' 
 ORDER BY desc_t, carmakcod 

18/1/2014  23:26 >> Application_Name >> getDataPremium
exec sp_calonlineweb 'Y','110','1','2','5 ','JK-NI100','2000','A','A',380000,418000,'0',30

18/1/2014  23:26 >> Application_Name >> getDataPremium
exec sp_calonlineweb 'Y','110','2','2','5 ','JK-NI100','2000','A','A',380000,418000,'0',30

18/1/2014  23:26 >> Application_Name >> getDataPremium
exec sp_calonlineweb 'Y','110','3','2','5 ','JK-NI100','2000','A','A',0,0,'0',30

18/1/2014  23:26 >> Application_Name >> SMK :: BuyVoluntary_step2-docToUI
Combine

18/1/2014  23:26 >> Application_Name >> SMK :: BuyVoluntary_step2-docToUI
rg_prmm-010994.4

18/1/2014  23:26 >> Application_Name >> SMK :: BuyVoluntary_step2-docToUI
rg_prmm10994.4

18/1/2014  23:26 >> Application_Name >> SMK :: BuyVoluntary_step2-docToUI
cp_comp_prmm600.00

18/1/2014  23:27 >> Application_Name >> SMK :: BuyVoluntary_step2-docToUI
Combine

18/1/2014  23:27 >> Application_Name >> SMK :: BuyVoluntary_step2-docToUI
rg_prmm-011562.4

18/1/2014  23:27 >> Application_Name >> SMK :: BuyVoluntary_step2-docToUI
rg_prmm11562.4

18/1/2014  23:27 >> Application_Name >> SMK :: BuyVoluntary_step2-docToUI
cp_comp_prmm600.00

18/1/2014  23:27 >> Application_Name >> SMK :: BuyVoluntary_step2-docToUI
Combine

18/1/2014  23:27 >> Application_Name >> SMK :: BuyVoluntary_step2-docToUI
rg_prmm-016229.6

18/1/2014  23:27 >> Application_Name >> SMK :: BuyVoluntary_step2-docToUI
rg_prmm16229.6

18/1/2014  23:27 >> Application_Name >> SMK :: BuyVoluntary_step2-docToUI
cp_comp_prmm600.00

