20/3/2014  1:44 >> Application_Name >> getDataCarMarkByCarMarkCode
SELECT * 
 FROM online_carmark 
 WHERE carmakcod = '' 
 ORDER BY desc_t, carmakcod 

20/3/2014  1:44 >> Application_Name >> getDataCarMarkByCarMarkCode
SELECT * 
 FROM online_carmark 
 WHERE carmakcod = 'JK-NI100' 
 ORDER BY desc_t, carmakcod 

20/3/2014  1:45 >> Application_Name >> getDataPremium
exec sp_calonlineweb 'N','110','1','2','5 ','JK-NI100','2000','A','A',380000,418000,'0',20

20/3/2014  1:45 >> Application_Name >> getDataPremium
exec sp_calonlineweb 'N','110','2','2','5 ','JK-NI100','2000','A','A',380000,418000,'0',20

20/3/2014  1:45 >> Application_Name >> getDataPremium
exec sp_calonlineweb 'N','110','3','2','5 ','JK-NI100','2000','A','A',0,0,'0',20

20/3/2014  1:47 >> Application_Name >> getDataCarMarkByCarMarkCode
SELECT * 
 FROM online_carmark 
 WHERE carmakcod = '' 
 ORDER BY desc_t, carmakcod 

20/3/2014  1:47 >> Application_Name >> getDataCarMarkByCarMarkCode
SELECT * 
 FROM online_carmark 
 WHERE carmakcod = '' 
 ORDER BY desc_t, carmakcod 

20/3/2014  1:47 >> Application_Name >> getDataCarMarkByCarMarkCode
SELECT * 
 FROM online_carmark 
 WHERE carmakcod = 'JP-IS052' 
 ORDER BY desc_t, carmakcod 

20/3/2014  1:48 >> Application_Name >> getDataPremium
exec sp_calonlineweb 'N','210','1','6','A','','2500','21','A',452816.604625,500481.510375,'0',20

20/3/2014  1:48 >> Application_Name >> getDataPremium
exec sp_calonlineweb 'N','210','2','6','A','','2500','21','A',452816.604625,500481.510375,'0',20

20/3/2014  1:48 >> Application_Name >> getDataPremium
exec sp_calonlineweb 'N','210','3','6','A','','2500','21','A',0,0,'0',20

20/3/2014  1:48 >> Application_Name >> getDataPremium
exec sp_calonlineweb 'N','210','1','6','A','','2500','21','A',452816.604625,500481.510375,'0',20

20/3/2014  1:48 >> Application_Name >> getDataPremium
exec sp_calonlineweb 'N','210','2','6','A','','2500','21','A',452816.604625,500481.510375,'0',20

20/3/2014  1:48 >> Application_Name >> getDataPremium
exec sp_calonlineweb 'N','210','3','6','A','','2500','21','A',0,0,'0',20

20/3/2014  1:48 >> Application_Name >> getDataPremium
exec sp_calonlineweb 'N','210','1','5','A','','2500','21','A',476649.0575,526822.6425,'0',20

20/3/2014  1:48 >> Application_Name >> getDataPremium
exec sp_calonlineweb 'N','210','2','5','A','','2500','21','A',476649.0575,526822.6425,'0',20

20/3/2014  1:48 >> Application_Name >> getDataPremium
exec sp_calonlineweb 'N','210','3','5','A','','2500','21','A',0,0,'0',20

20/3/2014  1:49 >> Application_Name >> getDataPremium
exec sp_calonlineweb 'N','210','1','4','A','','2500','21','A',501735.85,554550.15,'0',20

20/3/2014  1:49 >> Application_Name >> getDataPremium
exec sp_calonlineweb 'N','210','2','4','A','','2500','21','A',501735.85,554550.15,'0',20

20/3/2014  1:49 >> Application_Name >> getDataPremium
exec sp_calonlineweb 'N','210','3','4','A','','2500','21','A',0,0,'0',20

20/3/2014  1:49 >> Application_Name >> getDataCarMarkByCarMarkCode
SELECT * 
 FROM online_carmark 
 WHERE carmakcod = 'JP-IS030' 
 ORDER BY desc_t, carmakcod 

20/3/2014  1:49 >> Application_Name >> getDataPremium
exec sp_calonlineweb 'N','210','1','4','A','','12','21','A',356427.935,393946.665,'0',20

20/3/2014  1:49 >> Application_Name >> getDataPremium
exec sp_calonlineweb 'N','210','2','4','A','','12','21','A',356427.935,393946.665,'0',20

20/3/2014  1:49 >> Application_Name >> getDataPremium
exec sp_calonlineweb 'N','210','3','4','A','','12','21','A',0,0,'0',20

20/3/2014  1:49 >> Application_Name >> getDataPremium
exec sp_calonlineweb 'N','210','1','6','A','','12','21','A',321676.2113375,355536.8651625,'0',20

20/3/2014  1:49 >> Application_Name >> getDataPremium
exec sp_calonlineweb 'N','210','2','6','A','','12','21','A',321676.2113375,355536.8651625,'0',20

20/3/2014  1:49 >> Application_Name >> getDataPremium
exec sp_calonlineweb 'N','210','3','6','A','','12','21','A',0,0,'0',20

20/3/2014  1:49 >> Application_Name >> getDataPremium
exec sp_calonlineweb 'N','210','1','6','A','','12','21','A',321676.2113375,355536.8651625,'0',20

20/3/2014  1:49 >> Application_Name >> getDataPremium
exec sp_calonlineweb 'N','210','2','6','A','','12','21','A',321676.2113375,355536.8651625,'0',20

20/3/2014  1:49 >> Application_Name >> getDataPremium
exec sp_calonlineweb 'N','210','3','6','A','','12','21','A',0,0,'0',20

20/3/2014  7:52 >> Application_Name >> getCategoryCompByBrand
SELECT mdc_minor_cd , mdc_desc_t as mdc_desc FROM mtdesc_comp  WHERE mdc_minor_cd <> '0000' AND mdc_major_cd = 'T001' ORDER BY mdc_desc 

20/3/2014  7:53 >> Application_Name >> getDataCarMarkByCarMarkCode
SELECT * 
 FROM online_carmark 
 WHERE carmakcod = '' 
 ORDER BY desc_t, carmakcod 

20/3/2014  7:53 >> Application_Name >> getDataCarMarkByCarMarkCode
SELECT * 
 FROM online_carmark 
 WHERE carmakcod = 'JK-TO206' 
 ORDER BY desc_t, carmakcod 

20/3/2014  7:55 >> Application_Name >> getDataPremium
exec sp_calonlineweb 'Y','110','1','2','4 ','JK-TO206','2000','A','A',530100,647900,'0',0

20/3/2014  7:55 >> Application_Name >> getDataPremium
exec sp_calonlineweb 'Y','110','2','2','4 ','JK-TO206','2000','A','A',530100,647900,'0',0

20/3/2014  7:55 >> Application_Name >> getDataPremium
exec sp_calonlineweb 'Y','110','3','2','4 ','JK-TO206','2000','A','A',0,0,'0',0

20/3/2014  9:36 >> Application_Name >> getDataCarMarkByCarMarkCode
SELECT * 
 FROM online_carmark 
 WHERE carmakcod = '' 
 ORDER BY desc_t, carmakcod 

20/3/2014  9:36 >> Application_Name >> getDataCarMarkByCarMarkCode
SELECT * 
 FROM online_carmark 
 WHERE carmakcod = 'JK-HO084' 
 ORDER BY desc_t, carmakcod 

20/3/2014  9:38 >> Application_Name >> getDataCarMarkByCarMarkCode
SELECT * 
 FROM online_carmark 
 WHERE carmakcod = '' 
 ORDER BY desc_t, carmakcod 

20/3/2014  9:38 >> Application_Name >> getDataCarMarkByCarMarkCode
SELECT * 
 FROM online_carmark 
 WHERE carmakcod = 'JK-HO084' 
 ORDER BY desc_t, carmakcod 

20/3/2014  9:52 >> Application_Name >> getDataPremium
exec sp_calonlineweb 'Y','110','1','3','5 ','JK-HO084','2000','A','A',462982.5,565867.5,'25',0

20/3/2014  9:52 >> Application_Name >> getDataPremium
exec sp_calonlineweb 'Y','110','2','3','5 ','JK-HO084','2000','A','A',462982.5,565867.5,'25',0

20/3/2014  9:52 >> Application_Name >> getDataPremium
exec sp_calonlineweb 'Y','110','3','3','5 ','JK-HO084','2000','A','A',0,0,'25',0

20/3/2014  9:57 >> Application_Name >> getDataCarMarkByCarMarkCode
SELECT * 
 FROM online_carmark 
 WHERE carmakcod = '' 
 ORDER BY desc_t, carmakcod 

20/3/2014  9:57 >> Application_Name >> getDataCarMarkByCarMarkCode
SELECT * 
 FROM online_carmark 
 WHERE carmakcod = 'JK-HO122' 
 ORDER BY desc_t, carmakcod 

20/3/2014  9:58 >> Application_Name >> getDataPremium
exec sp_calonlineweb 'Y','110','1','2','5 ','JK-HO122','2000','A','A',427500,522500,'0',0

20/3/2014  9:58 >> Application_Name >> getDataPremium
exec sp_calonlineweb 'Y','110','2','2','5 ','JK-HO122','2000','A','A',427500,522500,'0',0

20/3/2014  9:58 >> Application_Name >> getDataPremium
exec sp_calonlineweb 'Y','110','3','2','5 ','JK-HO122','2000','A','A',0,0,'0',0

20/3/2014  9:59 >> Application_Name >> SMK :: BuyVoluntary_step2-docToUI
Combine

20/3/2014  9:59 >> Application_Name >> SMK :: BuyVoluntary_step2-docToUI
rg_prmm-010770

20/3/2014  9:59 >> Application_Name >> SMK :: BuyVoluntary_step2-docToUI
rg_prmm10770

20/3/2014  9:59 >> Application_Name >> SMK :: BuyVoluntary_step2-docToUI
cp_comp_prmm600.00

20/3/2014  9:59 >> Application_Name >> SMK :: BuyVoluntary_step2-docToUI
Combine

20/3/2014  9:59 >> Application_Name >> SMK :: BuyVoluntary_step2-docToUI
rg_prmm-015164

20/3/2014  9:59 >> Application_Name >> SMK :: BuyVoluntary_step2-docToUI
rg_prmm15164

20/3/2014  9:59 >> Application_Name >> SMK :: BuyVoluntary_step2-docToUI
cp_comp_prmm600.00

20/3/2014  10:6 >> Application_Name >> getDataCarMarkByCarMarkCode
SELECT * 
 FROM online_carmark 
 WHERE carmakcod = '' 
 ORDER BY desc_t, carmakcod 

20/3/2014  10:6 >> Application_Name >> getDataCarMarkByCarMarkCode
SELECT * 
 FROM online_carmark 
 WHERE carmakcod = 'JK-HO001' 
 ORDER BY desc_t, carmakcod 

20/3/2014  10:7 >> Application_Name >> getDataPremium
exec sp_calonlineweb 'Y','110','1','2','5 ','JK-HO001','2000','A','A',470250,574750,'0',0

20/3/2014  10:7 >> Application_Name >> getDataPremium
exec sp_calonlineweb 'Y','110','2','2','5 ','JK-HO001','2000','A','A',470250,574750,'0',0

20/3/2014  10:7 >> Application_Name >> getDataPremium
exec sp_calonlineweb 'Y','110','3','2','5 ','JK-HO001','2000','A','A',0,0,'0',0

20/3/2014  10:11 >> Application_Name >> getDataCarMarkByCarMarkCode
SELECT * 
 FROM online_carmark 
 WHERE carmakcod = '' 
 ORDER BY desc_t, carmakcod 

20/3/2014  10:11 >> Application_Name >> getDataCarMarkByCarMarkCode
SELECT * 
 FROM online_carmark 
 WHERE carmakcod = 'JK-TO242' 
 ORDER BY desc_t, carmakcod 

20/3/2014  10:12 >> Application_Name >> getDataPremium
exec sp_calonlineweb 'Y','110','1','4','5 ','JK-TO242','2000','A','A',432117,528143,'25',20

20/3/2014  10:12 >> Application_Name >> getDataPremium
exec sp_calonlineweb 'Y','110','2','4','5 ','JK-TO242','2000','A','A',432117,528143,'25',20

20/3/2014  10:12 >> Application_Name >> getDataPremium
exec sp_calonlineweb 'Y','110','3','4','5 ','JK-TO242','2000','A','A',0,0,'25',20

20/3/2014  10:23 >> Application_Name >> getDataCarMarkByCarMarkCode
SELECT * 
 FROM online_carmark 
 WHERE carmakcod = '' 
 ORDER BY desc_t, carmakcod 

20/3/2014  10:23 >> Application_Name >> getDataCarMarkByCarMarkCode
SELECT * 
 FROM online_carmark 
 WHERE carmakcod = 'JK-HO122' 
 ORDER BY desc_t, carmakcod 

20/3/2014  10:24 >> Application_Name >> getDataPremium
exec sp_calonlineweb 'Y','110','1','2','5 ','JK-HO122','2000','A','A',427500,522500,'0',0

20/3/2014  10:24 >> Application_Name >> getDataPremium
exec sp_calonlineweb 'Y','110','2','2','5 ','JK-HO122','2000','A','A',427500,522500,'0',0

20/3/2014  10:24 >> Application_Name >> getDataPremium
exec sp_calonlineweb 'Y','110','3','2','5 ','JK-HO122','2000','A','A',0,0,'0',0

20/3/2014  10:37 >> Application_Name >> getDataCarMarkByCarMarkCode
SELECT * 
 FROM online_carmark 
 WHERE carmakcod = '' 
 ORDER BY desc_t, carmakcod 

20/3/2014  10:37 >> Application_Name >> getDataCarMarkByCarMarkCode
SELECT * 
 FROM online_carmark 
 WHERE carmakcod = 'JK-TO067' 
 ORDER BY desc_t, carmakcod 

20/3/2014  10:38 >> Application_Name >> getDataPremium
exec sp_calonlineweb 'Y','110','1','1','5 ','JK-TO067','2000','A','A',501300,612700,'0',0

20/3/2014  10:38 >> Application_Name >> getDataPremium
exec sp_calonlineweb 'Y','110','2','1','5 ','JK-TO067','2000','A','A',501300,612700,'0',0

20/3/2014  10:38 >> Application_Name >> getDataPremium
exec sp_calonlineweb 'Y','110','3','1','5 ','JK-TO067','2000','A','A',0,0,'0',0

20/3/2014  10:39 >> Application_Name >> getDataCarMarkByCarMarkCode
SELECT * 
 FROM online_carmark 
 WHERE carmakcod = '' 
 ORDER BY desc_t, carmakcod 

20/3/2014  10:39 >> Application_Name >> getDataCarMarkByCarMarkCode
SELECT * 
 FROM online_carmark 
 WHERE carmakcod = 'JK-TO067' 
 ORDER BY desc_t, carmakcod 

20/3/2014  10:39 >> Application_Name >> getDataPremium
exec sp_calonlineweb 'Y','110','1','2','5 ','JK-TO067','2000','A','A',476235,582065,'0',0

20/3/2014  10:39 >> Application_Name >> getDataPremium
exec sp_calonlineweb 'Y','110','2','2','5 ','JK-TO067','2000','A','A',476235,582065,'0',0

20/3/2014  10:39 >> Application_Name >> getDataPremium
exec sp_calonlineweb 'Y','110','3','2','5 ','JK-TO067','2000','A','A',0,0,'0',0

20/3/2014  10:58 >> Application_Name >> getDataCarMarkByCarMarkCode
SELECT * 
 FROM online_carmark 
 WHERE carmakcod = '' 
 ORDER BY desc_t, carmakcod 

20/3/2014  10:59 >> Application_Name >> getDataCarMarkByCarMarkCode
SELECT * 
 FROM online_carmark 
 WHERE carmakcod = 'JK-HO001' 
 ORDER BY desc_t, carmakcod 

20/3/2014  11:0 >> Application_Name >> getDataPremium
exec sp_calonlineweb 'Y','110','1','2','5 ','JK-HO001','2000','A','A',470250,574750,'0',0

20/3/2014  11:0 >> Application_Name >> getDataPremium
exec sp_calonlineweb 'Y','110','2','2','5 ','JK-HO001','2000','A','A',470250,574750,'0',0

20/3/2014  11:0 >> Application_Name >> getDataPremium
exec sp_calonlineweb 'Y','110','3','2','5 ','JK-HO001','2000','A','A',0,0,'0',0

20/3/2014  11:1 >> Application_Name >> SMK :: BuyVoluntary_step2-docToUI
Combine

20/3/2014  11:1 >> Application_Name >> SMK :: BuyVoluntary_step2-docToUI
rg_prmm-017059

20/3/2014  11:1 >> Application_Name >> SMK :: BuyVoluntary_step2-docToUI
rg_prmm17059

20/3/2014  11:1 >> Application_Name >> SMK :: BuyVoluntary_step2-docToUI
cp_comp_prmm600.00

20/3/2014  11:6 >> Application_Name >> getDataCarMarkByCarMarkCode
SELECT * 
 FROM online_carmark 
 WHERE carmakcod = '' 
 ORDER BY desc_t, carmakcod 

20/3/2014  11:6 >> Application_Name >> getDataCarMarkByCarMarkCode
SELECT * 
 FROM online_carmark 
 WHERE carmakcod = 'JK-MI080' 
 ORDER BY desc_t, carmakcod 

20/3/2014  11:7 >> Application_Name >> getDataPremium
exec sp_calonlineweb 'Y','110','1','2','5 ','JK-MI080','2000','A','A',376200,459800,'0',20

20/3/2014  11:7 >> Application_Name >> getDataPremium
exec sp_calonlineweb 'Y','110','2','2','5 ','JK-MI080','2000','A','A',376200,459800,'0',20

20/3/2014  11:7 >> Application_Name >> getDataPremium
exec sp_calonlineweb 'Y','110','3','2','5 ','JK-MI080','2000','A','A',0,0,'0',20

20/3/2014  11:8 >> Application_Name >> getDataCarMarkByCarMarkCode
SELECT * 
 FROM online_carmark 
 WHERE carmakcod = '' 
 ORDER BY desc_t, carmakcod 

20/3/2014  11:8 >> Application_Name >> getDataCarMarkByCarMarkCode
SELECT * 
 FROM online_carmark 
 WHERE carmakcod = 'JK-TO206' 
 ORDER BY desc_t, carmakcod 

20/3/2014  11:9 >> Application_Name >> getDataPremium
exec sp_calonlineweb 'N','110','1','5','4 ','JK-TO206','2000','A','A',454494.4875,555493.2625,'0',0

20/3/2014  11:9 >> Application_Name >> getDataPremium
exec sp_calonlineweb 'N','110','2','5','4 ','JK-TO206','2000','A','A',454494.4875,555493.2625,'0',0

20/3/2014  11:9 >> Application_Name >> getDataPremium
exec sp_calonlineweb 'N','110','3','5','4 ','JK-TO206','2000','A','A',0,0,'0',0

20/3/2014  11:11 >> Application_Name >> getDataPremium
exec sp_calonlineweb 'N','110','1','5','4 ','JK-TO206','2000','A','A',454494.4875,555493.2625,'0',20

20/3/2014  11:11 >> Application_Name >> getDataPremium
exec sp_calonlineweb 'N','110','2','5','4 ','JK-TO206','2000','A','A',454494.4875,555493.2625,'0',20

20/3/2014  11:11 >> Application_Name >> getDataPremium
exec sp_calonlineweb 'N','110','3','5','4 ','JK-TO206','2000','A','A',0,0,'0',20

20/3/2014  11:12 >> Application_Name >> getDataCarMarkByCarMarkCode
SELECT * 
 FROM online_carmark 
 WHERE carmakcod = '' 
 ORDER BY desc_t, carmakcod 

20/3/2014  11:12 >> Application_Name >> getDataCarMarkByCarMarkCode
SELECT * 
 FROM online_carmark 
 WHERE carmakcod = 'JK-HO002' 
 ORDER BY desc_t, carmakcod 

20/3/2014  11:15 >> Application_Name >> getDataPremium
exec sp_calonlineweb 'Y','110','1','2','3 ','JK-HO002','2000','A','A',743850,909150,'25',20

20/3/2014  11:15 >> Application_Name >> getDataPremium
exec sp_calonlineweb 'Y','110','2','2','3 ','JK-HO002','2000','A','A',743850,909150,'25',20

20/3/2014  11:15 >> Application_Name >> getDataPremium
exec sp_calonlineweb 'Y','110','3','2','3 ','JK-HO002','2000','A','A',0,0,'25',20

20/3/2014  11:16 >> Application_Name >> getDataPremium
exec sp_calonlineweb 'Y','110','1','2','3 ','JK-HO002','2000','A','A',743850,909150,'25',20

20/3/2014  11:16 >> Application_Name >> getDataPremium
exec sp_calonlineweb 'Y','110','2','2','3 ','JK-HO002','2000','A','A',743850,909150,'25',20

20/3/2014  11:16 >> Application_Name >> getDataPremium
exec sp_calonlineweb 'Y','110','3','2','3 ','JK-HO002','2000','A','A',0,0,'25',20

20/3/2014  11:16 >> Application_Name >> getDataPremium
exec sp_calonlineweb 'Y','110','1','2','3 ','JK-HO002','2000','A','A',743850,909150,'0',20

20/3/2014  11:16 >> Application_Name >> getDataPremium
exec sp_calonlineweb 'Y','110','2','2','3 ','JK-HO002','2000','A','A',743850,909150,'0',20

20/3/2014  11:16 >> Application_Name >> getDataPremium
exec sp_calonlineweb 'Y','110','3','2','3 ','JK-HO002','2000','A','A',0,0,'0',20

20/3/2014  11:17 >> Application_Name >> getDataPremium
exec sp_calonlineweb 'Y','110','1','2','3 ','JK-HO002','2000','A','A',743850,909150,'25',20

20/3/2014  11:17 >> Application_Name >> getDataPremium
exec sp_calonlineweb 'Y','110','2','2','3 ','JK-HO002','2000','A','A',743850,909150,'25',20

20/3/2014  11:17 >> Application_Name >> getDataPremium
exec sp_calonlineweb 'Y','110','3','2','3 ','JK-HO002','2000','A','A',0,0,'25',20

20/3/2014  11:24 >> Application_Name >> getCategoryCompByBrand
SELECT mdc_minor_cd , mdc_desc_t as mdc_desc FROM mtdesc_comp  WHERE mdc_minor_cd <> '0000' AND mdc_major_cd = 'H004' ORDER BY mdc_desc 

20/3/2014  11:26 >> Application_Name >> getDataCarMarkByCarMarkCode
SELECT * 
 FROM online_carmark 
 WHERE carmakcod = '' 
 ORDER BY desc_t, carmakcod 

20/3/2014  11:26 >> Application_Name >> getDataCarMarkByCarMarkCode
SELECT * 
 FROM online_carmark 
 WHERE carmakcod = '' 
 ORDER BY desc_t, carmakcod 

20/3/2014  11:26 >> Application_Name >> getDataCarMarkByCarMarkCode
SELECT * 
 FROM online_carmark 
 WHERE carmakcod = '' 
 ORDER BY desc_t, carmakcod 

20/3/2014  11:26 >> Application_Name >> getDataCarMarkByCarMarkCode
SELECT * 
 FROM online_carmark 
 WHERE carmakcod = 'JP-TO008' 
 ORDER BY desc_t, carmakcod 

20/3/2014  11:30 >> Application_Name >> getDataPremium
exec sp_calonlineweb 'Y','210','1','8','A','','2500','22','A',512160.572955156,566072.212213594,'0',0

20/3/2014  11:30 >> Application_Name >> getDataPremium
exec sp_calonlineweb 'Y','210','2','8','A','','2500','22','A',512160.572955156,566072.212213594,'0',0

20/3/2014  11:30 >> Application_Name >> getDataPremium
exec sp_calonlineweb 'Y','210','3','8','A','','2500','22','A',0,0,'0',0

20/3/2014  11:30 >> Application_Name >> getDataCarMarkByCarMarkCode
SELECT * 
 FROM online_carmark 
 WHERE carmakcod = '' 
 ORDER BY desc_t, carmakcod 

20/3/2014  11:30 >> Application_Name >> getDataCarMarkByCarMarkCode
SELECT * 
 FROM online_carmark 
 WHERE carmakcod = 'JK-TO242' 
 ORDER BY desc_t, carmakcod 

20/3/2014  11:30 >> Application_Name >> getDataCarMarkByCarMarkCode
SELECT * 
 FROM online_carmark 
 WHERE carmakcod = '' 
 ORDER BY desc_t, carmakcod 

20/3/2014  11:30 >> Application_Name >> getDataCarMarkByCarMarkCode
SELECT * 
 FROM online_carmark 
 WHERE carmakcod = '' 
 ORDER BY desc_t, carmakcod 

20/3/2014  11:30 >> Application_Name >> getDataCarMarkByCarMarkCode
SELECT * 
 FROM online_carmark 
 WHERE carmakcod = '' 
 ORDER BY desc_t, carmakcod 

20/3/2014  11:30 >> Application_Name >> getDataCarMarkByCarMarkCode
SELECT * 
 FROM online_carmark 
 WHERE carmakcod = 'JP-TO008' 
 ORDER BY desc_t, carmakcod 

20/3/2014  11:31 >> Application_Name >> getDataPremium
exec sp_calonlineweb 'Y','210','1','9','A','','2500','22','A',486552.544307398,537768.601602914,'0',0

20/3/2014  11:31 >> Application_Name >> getDataPremium
exec sp_calonlineweb 'Y','210','2','9','A','','2500','22','A',486552.544307398,537768.601602914,'0',0

20/3/2014  11:31 >> Application_Name >> getDataPremium
exec sp_calonlineweb 'Y','210','3','9','A','','2500','22','A',0,0,'0',0

20/3/2014  11:39 >> Application_Name >> getNewPremium - compprmm
SELECT cp_com_prmm, cp_stamp, cp_tax FROM comprmm WHERE cp_veh_cd = '1.10   '

20/3/2014  11:43 >> Application_Name >> getCategoryCompByBrand
SELECT mdc_minor_cd , mdc_desc_t as mdc_desc FROM mtdesc_comp  WHERE mdc_minor_cd <> '0000' AND mdc_major_cd = 'H004' ORDER BY mdc_desc 

20/3/2014  11:45 >> Application_Name >> getNewPremium - compprmm
SELECT cp_com_prmm, cp_stamp, cp_tax FROM comprmm WHERE cp_veh_cd = '1.10   '

20/3/2014  11:48 >> Application_Name >> getCategoryCompByCode
SELECT mdc_minor_cd , mdc_desc_t as mdc_desc FROM mtdesc_comp  WHERE mdc_minor_cd <> '0000' AND mdc_major_cd = 'H004'     AND mdc_minor_cd = '0004    '  ORDER BY mdc_desc 

20/3/2014  11:49 >> Application_Name >> getCategoryCompByCode
SELECT mdc_minor_cd , mdc_desc_t as mdc_desc FROM mtdesc_comp  WHERE mdc_minor_cd <> '0000' AND mdc_major_cd = 'H004'     AND mdc_minor_cd = '0004    '  ORDER BY mdc_desc 

20/3/2014  11:49 >> Application_Name >> getCategoryCompByCode
SELECT mdc_minor_cd , mdc_desc_t as mdc_desc FROM mtdesc_comp  WHERE mdc_minor_cd <> '0000' AND mdc_major_cd = 'H004'     AND mdc_minor_cd = '0004    '  ORDER BY mdc_desc 

20/3/2014  12:17 >> Application_Name >> getCategoryCompByBrand
SELECT mdc_minor_cd , mdc_desc_t as mdc_desc FROM mtdesc_comp  WHERE mdc_minor_cd <> '0000' AND mdc_major_cd = 'T001' ORDER BY mdc_desc 

20/3/2014  12:35 >> Application_Name >> getDataCarMarkByCarMarkCode
SELECT * 
 FROM online_carmark 
 WHERE carmakcod = '' 
 ORDER BY desc_t, carmakcod 

20/3/2014  12:35 >> Application_Name >> getDataCarMarkByCarMarkCode
SELECT * 
 FROM online_carmark 
 WHERE carmakcod = 'JK-HO004' 
 ORDER BY desc_t, carmakcod 

20/3/2014  12:37 >> Application_Name >> getDataPremium
exec sp_calonlineweb 'Y','110','1','2','3 ','JK-HO004','2000','A','A',851960,941640,'36',0

20/3/2014  12:37 >> Application_Name >> getDataPremium
exec sp_calonlineweb 'Y','110','2','2','3 ','JK-HO004','2000','A','A',851960,941640,'36',0

20/3/2014  12:37 >> Application_Name >> getDataPremium
exec sp_calonlineweb 'Y','110','3','2','3 ','JK-HO004','2000','A','A',0,0,'36',0

20/3/2014  12:41 >> Application_Name >> getDataCarMarkByCarMarkCode
SELECT * 
 FROM online_carmark 
 WHERE carmakcod = '' 
 ORDER BY desc_t, carmakcod 

20/3/2014  12:41 >> Application_Name >> getDataCarMarkByCarMarkCode
SELECT * 
 FROM online_carmark 
 WHERE carmakcod = 'JK-TO240' 
 ORDER BY desc_t, carmakcod 

20/3/2014  12:43 >> Application_Name >> getDataPremium
exec sp_calonlineweb 'Y','110','1','5','3 ','JK-TO240','9999','A','A',652419.50625,797401.61875,'0',30

20/3/2014  12:43 >> Application_Name >> getDataPremium
exec sp_calonlineweb 'Y','110','2','5','3 ','JK-TO240','9999','A','A',652419.50625,797401.61875,'0',30

20/3/2014  12:43 >> Application_Name >> getDataPremium
exec sp_calonlineweb 'Y','110','3','5','3 ','JK-TO240','9999','A','A',0,0,'0',30

20/3/2014  12:44 >> Application_Name >> getDataPremium
exec sp_calonlineweb 'Y','110','1','5','3 ','JK-TO240','9999','A','A',652419.50625,797401.61875,'0',30

20/3/2014  12:44 >> Application_Name >> getDataPremium
exec sp_calonlineweb 'Y','110','2','5','3 ','JK-TO240','9999','A','A',652419.50625,797401.61875,'0',30

20/3/2014  12:44 >> Application_Name >> getDataPremium
exec sp_calonlineweb 'Y','110','3','5','3 ','JK-TO240','9999','A','A',0,0,'0',30

20/3/2014  12:46 >> Application_Name >> getDataPremium
exec sp_calonlineweb 'Y','110','1','5','3 ','JK-TO240','9999','A','A',652419.50625,797401.61875,'0',30

20/3/2014  12:46 >> Application_Name >> getDataPremium
exec sp_calonlineweb 'Y','110','2','5','3 ','JK-TO240','9999','A','A',652419.50625,797401.61875,'0',30

20/3/2014  12:46 >> Application_Name >> getDataPremium
exec sp_calonlineweb 'Y','110','3','5','3 ','JK-TO240','9999','A','A',0,0,'0',30

20/3/2014  12:46 >> Application_Name >> getDataPremium
exec sp_calonlineweb 'Y','110','1','5','3 ','JK-TO240','9999','A','A',652419.50625,797401.61875,'0',30

20/3/2014  12:46 >> Application_Name >> getDataPremium
exec sp_calonlineweb 'Y','110','2','5','3 ','JK-TO240','9999','A','A',652419.50625,797401.61875,'0',30

20/3/2014  12:46 >> Application_Name >> getDataPremium
exec sp_calonlineweb 'Y','110','3','5','3 ','JK-TO240','9999','A','A',0,0,'0',30

20/3/2014  12:46 >> Application_Name >> SMK :: BuyVoluntary_step2-docToUI
Combine

20/3/2014  12:46 >> Application_Name >> SMK :: BuyVoluntary_step2-docToUI
rg_prmm-019572.8

20/3/2014  12:46 >> Application_Name >> SMK :: BuyVoluntary_step2-docToUI
rg_prmm19572.8

20/3/2014  12:46 >> Application_Name >> SMK :: BuyVoluntary_step2-docToUI
cp_comp_prmm600.00

20/3/2014  12:47 >> Application_Name >> getDataCarMarkByCarMarkCode
SELECT * 
 FROM online_carmark 
 WHERE carmakcod = 'JK-TO240' 
 ORDER BY desc_t, carmakcod 

20/3/2014  12:47 >> Application_Name >> getDataPremium
exec sp_calonlineweb 'Y','110','1','5','3 ','JK-TO240','9999','A','A',652419.50625,797401.61875,'0',30

20/3/2014  12:47 >> Application_Name >> getDataPremium
exec sp_calonlineweb 'Y','110','2','5','3 ','JK-TO240','9999','A','A',652419.50625,797401.61875,'0',30

20/3/2014  12:47 >> Application_Name >> getDataPremium
exec sp_calonlineweb 'Y','110','3','5','3 ','JK-TO240','9999','A','A',0,0,'0',30

20/3/2014  12:48 >> Application_Name >> getDataPremium
exec sp_calonlineweb 'Y','110','1','4','3 ','JK-TO240','9999','A','A',686757.375,839370.125,'0',30

20/3/2014  12:48 >> Application_Name >> getDataPremium
exec sp_calonlineweb 'Y','110','2','4','3 ','JK-TO240','9999','A','A',686757.375,839370.125,'0',30

20/3/2014  12:48 >> Application_Name >> getDataPremium
exec sp_calonlineweb 'Y','110','3','4','3 ','JK-TO240','9999','A','A',0,0,'0',30

20/3/2014  12:55 >> Application_Name >> getDataCarMarkByCarMarkCode
SELECT * 
 FROM online_carmark 
 WHERE carmakcod = '' 
 ORDER BY desc_t, carmakcod 

20/3/2014  12:56 >> Application_Name >> getDataCarMarkByCarMarkCode
SELECT * 
 FROM online_carmark 
 WHERE carmakcod = '' 
 ORDER BY desc_t, carmakcod 

20/3/2014  12:56 >> Application_Name >> getDataCarMarkByCarMarkCode
SELECT * 
 FROM online_carmark 
 WHERE carmakcod = 'JK-HO001' 
 ORDER BY desc_t, carmakcod 

20/3/2014  12:58 >> Application_Name >> getDataPremium
exec sp_calonlineweb 'Y','110','1','3','5 ','JK-HO001','2000','A','A',446737.5,546012.5,'25',20

20/3/2014  12:58 >> Application_Name >> getDataPremium
exec sp_calonlineweb 'Y','110','2','3','5 ','JK-HO001','2000','A','A',446737.5,546012.5,'25',20

20/3/2014  12:58 >> Application_Name >> getDataPremium
exec sp_calonlineweb 'Y','110','3','3','5 ','JK-HO001','2000','A','A',0,0,'25',20

20/3/2014  13:10 >> Application_Name >> getDataCarMarkByCarMarkCode
SELECT * 
 FROM online_carmark 
 WHERE carmakcod = '' 
 ORDER BY desc_t, carmakcod 

20/3/2014  13:10 >> Application_Name >> getDataCarMarkByCarMarkCode
SELECT * 
 FROM online_carmark 
 WHERE carmakcod = '' 
 ORDER BY desc_t, carmakcod 

20/3/2014  13:10 >> Application_Name >> getDataCarMarkByCarMarkCode
SELECT * 
 FROM online_carmark 
 WHERE carmakcod = '' 
 ORDER BY desc_t, carmakcod 

20/3/2014  13:10 >> Application_Name >> getDataCarMarkByCarMarkCode
SELECT * 
 FROM online_carmark 
 WHERE carmakcod = 'JK-NI100' 
 ORDER BY desc_t, carmakcod 

20/3/2014  13:11 >> Application_Name >> getDataPremium
exec sp_calonlineweb 'Y','110','1','2','5 ','JK-NI100','2000','A','A',380000,418000,'0',20

20/3/2014  13:11 >> Application_Name >> getDataPremium
exec sp_calonlineweb 'Y','110','2','2','5 ','JK-NI100','2000','A','A',380000,418000,'0',20

20/3/2014  13:11 >> Application_Name >> getDataPremium
exec sp_calonlineweb 'Y','110','3','2','5 ','JK-NI100','2000','A','A',0,0,'0',20

20/3/2014  13:42 >> Application_Name >> getDataCarMarkByCarMarkCode
SELECT * 
 FROM online_carmark 
 WHERE carmakcod = '' 
 ORDER BY desc_t, carmakcod 

20/3/2014  13:49 >> Application_Name >> getCategoryCompByBrand
SELECT mdc_minor_cd , mdc_desc_t as mdc_desc FROM mtdesc_comp  WHERE mdc_minor_cd <> '0000' AND mdc_major_cd = 'M002' ORDER BY mdc_desc 

20/3/2014  13:52 >> Application_Name >> getDataCarMarkByCarMarkCode
SELECT * 
 FROM online_carmark 
 WHERE carmakcod = '' 
 ORDER BY desc_t, carmakcod 

20/3/2014  13:52 >> Application_Name >> getDataCarMarkByCarMarkCode
SELECT * 
 FROM online_carmark 
 WHERE carmakcod = 'JK-HO001' 
 ORDER BY desc_t, carmakcod 

20/3/2014  13:53 >> Application_Name >> getDataPremium
exec sp_calonlineweb 'Y','110','1','2','5 ','JK-HO001','2000','A','A',470250,574750,'0',20

20/3/2014  13:53 >> Application_Name >> getDataPremium
exec sp_calonlineweb 'Y','110','2','2','5 ','JK-HO001','2000','A','A',470250,574750,'0',20

20/3/2014  13:53 >> Application_Name >> getDataPremium
exec sp_calonlineweb 'Y','110','3','2','5 ','JK-HO001','2000','A','A',0,0,'0',20

20/3/2014  14:3 >> Application_Name >> getDataCarMarkByCarMarkCode
SELECT * 
 FROM online_carmark 
 WHERE carmakcod = '' 
 ORDER BY desc_t, carmakcod 

20/3/2014  14:3 >> Application_Name >> getDataCarMarkByCarMarkCode
SELECT * 
 FROM online_carmark 
 WHERE carmakcod = '' 
 ORDER BY desc_t, carmakcod 

20/3/2014  14:4 >> Application_Name >> getDataCarMarkByCarMarkCode
SELECT * 
 FROM online_carmark 
 WHERE carmakcod = 'JP-IS052' 
 ORDER BY desc_t, carmakcod 

20/3/2014  14:6 >> Application_Name >> getDataPremium
exec sp_calonlineweb 'N','210','1','5','A','','3000','21','A',476649.0575,526822.6425,'0',20

20/3/2014  14:6 >> Application_Name >> getDataPremium
exec sp_calonlineweb 'N','210','2','5','A','','3000','21','A',476649.0575,526822.6425,'0',20

20/3/2014  14:6 >> Application_Name >> getDataPremium
exec sp_calonlineweb 'N','210','3','5','A','','3000','21','A',0,0,'0',20

20/3/2014  14:6 >> Application_Name >> getDataPremium
exec sp_calonlineweb 'N','210','1','4','A','','3000','21','A',501735.85,554550.15,'0',20

20/3/2014  14:6 >> Application_Name >> getDataPremium
exec sp_calonlineweb 'N','210','2','4','A','','3000','21','A',501735.85,554550.15,'0',20

20/3/2014  14:6 >> Application_Name >> getDataPremium
exec sp_calonlineweb 'N','210','3','4','A','','3000','21','A',0,0,'0',20

20/3/2014  14:7 >> Application_Name >> getDataPremium
exec sp_calonlineweb 'Y','210','1','4','A','','3000','21','A',501735.85,554550.15,'0',20

20/3/2014  14:7 >> Application_Name >> getDataPremium
exec sp_calonlineweb 'Y','210','2','4','A','','3000','21','A',501735.85,554550.15,'0',20

20/3/2014  14:7 >> Application_Name >> getDataPremium
exec sp_calonlineweb 'Y','210','3','4','A','','3000','21','A',0,0,'0',20

20/3/2014  14:7 >> Application_Name >> getDataCarMarkByCarMarkCode
SELECT * 
 FROM online_carmark 
 WHERE carmakcod = 'JP-IS030' 
 ORDER BY desc_t, carmakcod 

20/3/2014  14:7 >> Application_Name >> getDataPremium
exec sp_calonlineweb 'Y','210','1','4','A','','12','21','A',356427.935,393946.665,'0',20

20/3/2014  14:7 >> Application_Name >> getDataPremium
exec sp_calonlineweb 'Y','210','2','4','A','','12','21','A',356427.935,393946.665,'0',20

20/3/2014  14:7 >> Application_Name >> getDataPremium
exec sp_calonlineweb 'Y','210','3','4','A','','12','21','A',0,0,'0',20

20/3/2014  14:7 >> Application_Name >> getDataPremium
exec sp_calonlineweb 'Y','210','1','5','A','','12','21','A',338606.53825,374249.33175,'0',20

20/3/2014  14:7 >> Application_Name >> getDataPremium
exec sp_calonlineweb 'Y','210','2','5','A','','12','21','A',338606.53825,374249.33175,'0',20

20/3/2014  14:7 >> Application_Name >> getDataPremium
exec sp_calonlineweb 'Y','210','3','5','A','','12','21','A',0,0,'0',20

20/3/2014  14:8 >> Application_Name >> getDataPremium
exec sp_calonlineweb 'Y','210','1','5','A','','3000','21','A',338606.53825,374249.33175,'0',20

20/3/2014  14:8 >> Application_Name >> getDataPremium
exec sp_calonlineweb 'Y','210','2','5','A','','3000','21','A',338606.53825,374249.33175,'0',20

20/3/2014  14:8 >> Application_Name >> getDataPremium
exec sp_calonlineweb 'Y','210','3','5','A','','3000','21','A',0,0,'0',20

20/3/2014  14:55 >> Application_Name >> getDataCarMarkByCarMarkCode
SELECT * 
 FROM online_carmark 
 WHERE carmakcod = '' 
 ORDER BY desc_t, carmakcod 

20/3/2014  14:55 >> Application_Name >> getDataCarMarkByCarMarkCode
SELECT * 
 FROM online_carmark 
 WHERE carmakcod = 'JK-HO001' 
 ORDER BY desc_t, carmakcod 

20/3/2014  14:56 >> Application_Name >> getDataPremium
exec sp_calonlineweb 'Y','110','1','2','5 ','JK-HO001','2000','A','A',470250,574750,'0',30

20/3/2014  14:56 >> Application_Name >> getDataPremium
exec sp_calonlineweb 'Y','110','2','2','5 ','JK-HO001','2000','A','A',470250,574750,'0',30

20/3/2014  14:56 >> Application_Name >> getDataPremium
exec sp_calonlineweb 'Y','110','3','2','5 ','JK-HO001','2000','A','A',0,0,'0',30

20/3/2014  15:31 >> Application_Name >> getCategoryCompByBrand
SELECT mdc_minor_cd , mdc_desc_t as mdc_desc FROM mtdesc_comp  WHERE mdc_minor_cd <> '0000' AND mdc_major_cd = 'H004' ORDER BY mdc_desc 

20/3/2014  15:39 >> Application_Name >> getDataCarMarkByCarMarkCode
SELECT * 
 FROM online_carmark 
 WHERE carmakcod = '' 
 ORDER BY desc_t, carmakcod 

20/3/2014  15:39 >> Application_Name >> getDataCarMarkByCarMarkCode
SELECT * 
 FROM online_carmark 
 WHERE carmakcod = 'JK-HO001' 
 ORDER BY desc_t, carmakcod 

20/3/2014  15:40 >> Application_Name >> getDataPremium
exec sp_calonlineweb 'Y','110','1','4','5 ','JK-HO001','2000','A','A',424400.625,518711.875,'0',20

20/3/2014  15:40 >> Application_Name >> getDataPremium
exec sp_calonlineweb 'Y','110','2','4','5 ','JK-HO001','2000','A','A',424400.625,518711.875,'0',20

20/3/2014  15:40 >> Application_Name >> getDataPremium
exec sp_calonlineweb 'Y','110','3','4','5 ','JK-HO001','2000','A','A',0,0,'0',20

20/3/2014  15:49 >> Application_Name >> getDataCarMarkByCarMarkCode
SELECT * 
 FROM online_carmark 
 WHERE carmakcod = '' 
 ORDER BY desc_t, carmakcod 

20/3/2014  15:49 >> Application_Name >> getDataCarMarkByCarMarkCode
SELECT * 
 FROM online_carmark 
 WHERE carmakcod = 'JK-HO055' 
 ORDER BY desc_t, carmakcod 

20/3/2014  15:53 >> Application_Name >> getDataPremium
exec sp_calonlineweb 'Y','110','1','9','3 ','JK-HO055','9999','A','A',429896.439475313,525428.981580938,'0',0

20/3/2014  15:53 >> Application_Name >> getDataPremium
exec sp_calonlineweb 'Y','110','2','9','3 ','JK-HO055','9999','A','A',429896.439475313,525428.981580938,'0',0

20/3/2014  15:53 >> Application_Name >> getDataPremium
exec sp_calonlineweb 'Y','110','3','9','3 ','JK-HO055','9999','A','A',0,0,'0',0

20/3/2014  15:57 >> Application_Name >> getDataCarMarkByCarMarkCode
SELECT * 
 FROM online_carmark 
 WHERE carmakcod = '' 
 ORDER BY desc_t, carmakcod 

20/3/2014  16:5 >> Application_Name >> getCategoryCompByBrand
SELECT mdc_minor_cd , mdc_desc_t as mdc_desc FROM mtdesc_comp  WHERE mdc_minor_cd <> '0000' AND mdc_major_cd = 'C002' ORDER BY mdc_desc 

20/3/2014  16:7 >> Application_Name >> getDataCarMarkByCarMarkCode
SELECT * 
 FROM online_carmark 
 WHERE carmakcod = '' 
 ORDER BY desc_t, carmakcod 

20/3/2014  16:7 >> Application_Name >> getDataCarMarkByCarMarkCode
SELECT * 
 FROM online_carmark 
 WHERE carmakcod = 'JK-HO084' 
 ORDER BY desc_t, carmakcod 

20/3/2014  16:8 >> Application_Name >> getDataPremium
exec sp_calonlineweb 'N','110','1','2','5 ','JK-HO084','2000','A','A',487350,595650,'0',20

20/3/2014  16:8 >> Application_Name >> getDataPremium
exec sp_calonlineweb 'N','110','2','2','5 ','JK-HO084','2000','A','A',487350,595650,'0',20

20/3/2014  16:8 >> Application_Name >> getDataPremium
exec sp_calonlineweb 'N','110','3','2','5 ','JK-HO084','2000','A','A',0,0,'0',20

20/3/2014  16:9 >> Application_Name >> getDataCarMarkByCarMarkCode
SELECT * 
 FROM online_carmark 
 WHERE carmakcod = '' 
 ORDER BY desc_t, carmakcod 

20/3/2014  16:9 >> Application_Name >> getDataCarMarkByCarMarkCode
SELECT * 
 FROM online_carmark 
 WHERE carmakcod = 'JK-HO084' 
 ORDER BY desc_t, carmakcod 

20/3/2014  16:10 >> Application_Name >> getDataPremium
exec sp_calonlineweb 'N','110','1','2','5 ','JK-HO084','2000','A','A',487350,595650,'0',20

20/3/2014  16:10 >> Application_Name >> getDataPremium
exec sp_calonlineweb 'N','110','2','2','5 ','JK-HO084','2000','A','A',487350,595650,'0',20

20/3/2014  16:10 >> Application_Name >> getDataPremium
exec sp_calonlineweb 'N','110','3','2','5 ','JK-HO084','2000','A','A',0,0,'0',20

20/3/2014  16:19 >> Application_Name >> getDataCarMarkByCarMarkCode
SELECT * 
 FROM online_carmark 
 WHERE carmakcod = '' 
 ORDER BY desc_t, carmakcod 

20/3/2014  16:19 >> Application_Name >> getDataCarMarkByCarMarkCode
SELECT * 
 FROM online_carmark 
 WHERE carmakcod = 'JK-SZ004' 
 ORDER BY desc_t, carmakcod 

20/3/2014  16:21 >> Application_Name >> getDataPremium
exec sp_calonlineweb 'N','110','1','2','5 ','JK-SZ004','2000','A','A',342000,380000,'0',0

20/3/2014  16:21 >> Application_Name >> getDataPremium
exec sp_calonlineweb 'N','110','2','2','5 ','JK-SZ004','2000','A','A',342000,380000,'0',0

20/3/2014  16:21 >> Application_Name >> getDataPremium
exec sp_calonlineweb 'N','110','3','2','5 ','JK-SZ004','2000','A','A',0,0,'0',0

20/3/2014  16:26 >> Application_Name >> getDataCarMarkByCarMarkCode
SELECT * 
 FROM online_carmark 
 WHERE carmakcod = '' 
 ORDER BY desc_t, carmakcod 

20/3/2014  16:26 >> Application_Name >> getDataCarMarkByCarMarkCode
SELECT * 
 FROM online_carmark 
 WHERE carmakcod = 'JK-SZ004' 
 ORDER BY desc_t, carmakcod 

20/3/2014  16:27 >> Application_Name >> getDataPremium
exec sp_calonlineweb 'N','110','1','2','5 ','JK-SZ004','2000','A','A',342000,380000,'0',0

20/3/2014  16:27 >> Application_Name >> getDataPremium
exec sp_calonlineweb 'N','110','2','2','5 ','JK-SZ004','2000','A','A',342000,380000,'0',0

20/3/2014  16:27 >> Application_Name >> getDataPremium
exec sp_calonlineweb 'N','110','3','2','5 ','JK-SZ004','2000','A','A',0,0,'0',0

20/3/2014  16:29 >> Application_Name >> getDataCarMarkByCarMarkCode
SELECT * 
 FROM online_carmark 
 WHERE carmakcod = '' 
 ORDER BY desc_t, carmakcod 

20/3/2014  16:29 >> Application_Name >> getDataCarMarkByCarMarkCode
SELECT * 
 FROM online_carmark 
 WHERE carmakcod = 'JK-IS021' 
 ORDER BY desc_t, carmakcod 

20/3/2014  17:47 >> Application_Name >> getDataCarMarkByCarMarkCode
SELECT * 
 FROM online_carmark 
 WHERE carmakcod = '' 
 ORDER BY desc_t, carmakcod 

20/3/2014  17:47 >> Application_Name >> getDataCarMarkByCarMarkCode
SELECT * 
 FROM online_carmark 
 WHERE carmakcod = 'JK-HO084' 
 ORDER BY desc_t, carmakcod 

20/3/2014  17:48 >> Application_Name >> getDataCarMarkByCarMarkCode
SELECT * 
 FROM online_carmark 
 WHERE carmakcod = '' 
 ORDER BY desc_t, carmakcod 

20/3/2014  17:48 >> Application_Name >> getDataCarMarkByCarMarkCode
SELECT * 
 FROM online_carmark 
 WHERE carmakcod = 'JK-HO084' 
 ORDER BY desc_t, carmakcod 

20/3/2014  18:1 >> Application_Name >> getDataCarMarkByCarMarkCode
SELECT * 
 FROM online_carmark 
 WHERE carmakcod = '' 
 ORDER BY desc_t, carmakcod 

20/3/2014  18:1 >> Application_Name >> getDataCarMarkByCarMarkCode
SELECT * 
 FROM online_carmark 
 WHERE carmakcod = 'JK-NI028' 
 ORDER BY desc_t, carmakcod 

20/3/2014  18:9 >> Application_Name >> getDataCarMarkByCarMarkCode
SELECT * 
 FROM online_carmark 
 WHERE carmakcod = '' 
 ORDER BY desc_t, carmakcod 

20/3/2014  18:9 >> Application_Name >> getDataCarMarkByCarMarkCode
SELECT * 
 FROM online_carmark 
 WHERE carmakcod = 'JK-NI028' 
 ORDER BY desc_t, carmakcod 

20/3/2014  18:10 >> Application_Name >> getDataPremium
exec sp_calonlineweb 'N','110','1','4','5 ','JK-NI028','2000','A','A',331804.125,405538.375,'0',0

20/3/2014  18:10 >> Application_Name >> getDataPremium
exec sp_calonlineweb 'N','110','2','4','5 ','JK-NI028','2000','A','A',331804.125,405538.375,'0',0

20/3/2014  18:10 >> Application_Name >> getDataPremium
exec sp_calonlineweb 'N','110','3','4','5 ','JK-NI028','2000','A','A',0,0,'0',0

20/3/2014  18:14 >> Application_Name >> getDataPremium
exec sp_calonlineweb 'N','110','1','4','5 ','JK-NI028','2000','A','A',331804.125,405538.375,'0',0

20/3/2014  18:14 >> Application_Name >> getDataPremium
exec sp_calonlineweb 'N','110','2','4','5 ','JK-NI028','2000','A','A',331804.125,405538.375,'0',0

20/3/2014  18:14 >> Application_Name >> getDataPremium
exec sp_calonlineweb 'N','110','3','4','5 ','JK-NI028','2000','A','A',0,0,'0',0

20/3/2014  18:15 >> Application_Name >> getDataPremium
exec sp_calonlineweb 'N','110','1','4','5 ','EK-BE051','2000','A','A',331804.125,405538.375,'0',0

20/3/2014  18:15 >> Application_Name >> getDataPremium
exec sp_calonlineweb 'N','110','2','4','5 ','EK-BE051','2000','A','A',331804.125,405538.375,'0',0

20/3/2014  18:15 >> Application_Name >> getDataPremium
exec sp_calonlineweb 'N','110','3','4','5 ','EK-BE051','2000','A','A',0,0,'0',0

20/3/2014  18:45 >> Application_Name >> getDataCarMarkByCarMarkCode
SELECT * 
 FROM online_carmark 
 WHERE carmakcod = '' 
 ORDER BY desc_t, carmakcod 

20/3/2014  18:45 >> Application_Name >> getDataCarMarkByCarMarkCode
SELECT * 
 FROM online_carmark 
 WHERE carmakcod = 'JK-NI100' 
 ORDER BY desc_t, carmakcod 

20/3/2014  18:45 >> Application_Name >> getDataCarMarkByCarMarkCode
SELECT * 
 FROM online_carmark 
 WHERE carmakcod = '' 
 ORDER BY desc_t, carmakcod 

20/3/2014  18:45 >> Application_Name >> getDataCarMarkByCarMarkCode
SELECT * 
 FROM online_carmark 
 WHERE carmakcod = 'JK-HO002' 
 ORDER BY desc_t, carmakcod 

20/3/2014  18:48 >> Application_Name >> getDataPremium
exec sp_calonlineweb 'Y','110','1','2','5 ','JK-NI100','2000','A','A',380000,418000,'0',30

20/3/2014  18:48 >> Application_Name >> getDataPremium
exec sp_calonlineweb 'Y','110','2','2','5 ','JK-NI100','2000','A','A',380000,418000,'0',30

20/3/2014  18:48 >> Application_Name >> getDataPremium
exec sp_calonlineweb 'Y','110','3','2','5 ','JK-NI100','2000','A','A',0,0,'0',30

20/3/2014  18:49 >> Application_Name >> getDataCarMarkByCarMarkCode
SELECT * 
 FROM online_carmark 
 WHERE carmakcod = '' 
 ORDER BY desc_t, carmakcod 

20/3/2014  18:49 >> Application_Name >> getDataCarMarkByCarMarkCode
SELECT * 
 FROM online_carmark 
 WHERE carmakcod = 'JK-NI100' 
 ORDER BY desc_t, carmakcod 

20/3/2014  18:51 >> Application_Name >> getDataPremium
exec sp_calonlineweb 'Y','110','1','2','5 ','JK-NI100','2000','A','A',380000,418000,'36',0

20/3/2014  18:51 >> Application_Name >> getDataPremium
exec sp_calonlineweb 'Y','110','2','2','5 ','JK-NI100','2000','A','A',380000,418000,'36',0

20/3/2014  18:51 >> Application_Name >> getDataPremium
exec sp_calonlineweb 'Y','110','3','2','5 ','JK-NI100','2000','A','A',0,0,'36',0

20/3/2014  18:51 >> Application_Name >> getDataPremium
exec sp_calonlineweb 'Y','110','1','2','5 ','JK-NI100','2000','A','A',380000,418000,'36',30

20/3/2014  18:51 >> Application_Name >> getDataPremium
exec sp_calonlineweb 'Y','110','2','2','5 ','JK-NI100','2000','A','A',380000,418000,'36',30

20/3/2014  18:51 >> Application_Name >> getDataPremium
exec sp_calonlineweb 'Y','110','3','2','5 ','JK-NI100','2000','A','A',0,0,'36',30

20/3/2014  18:58 >> Application_Name >> getDataCarMarkByCarMarkCode
SELECT * 
 FROM online_carmark 
 WHERE carmakcod = '' 
 ORDER BY desc_t, carmakcod 

20/3/2014  18:58 >> Application_Name >> getDataCarMarkByCarMarkCode
SELECT * 
 FROM online_carmark 
 WHERE carmakcod = 'JK-HO084' 
 ORDER BY desc_t, carmakcod 

20/3/2014  18:58 >> Application_Name >> getDataPremium
exec sp_calonlineweb 'N','110','1','2','5 ','JK-HO084','2000','A','A',487350,595650,'0',0

20/3/2014  18:58 >> Application_Name >> getDataPremium
exec sp_calonlineweb 'N','110','2','2','5 ','JK-HO084','2000','A','A',487350,595650,'0',0

20/3/2014  18:58 >> Application_Name >> getDataPremium
exec sp_calonlineweb 'N','110','3','2','5 ','JK-HO084','2000','A','A',0,0,'0',0

20/3/2014  19:10 >> Application_Name >> getDataCarMarkByCarMarkCode
SELECT * 
 FROM online_carmark 
 WHERE carmakcod = '' 
 ORDER BY desc_t, carmakcod 

20/3/2014  19:10 >> Application_Name >> getDataCarMarkByCarMarkCode
SELECT * 
 FROM online_carmark 
 WHERE carmakcod = 'JK-TO067' 
 ORDER BY desc_t, carmakcod 

20/3/2014  19:42 >> Application_Name >> getDataCarMarkByCarMarkCode
SELECT * 
 FROM online_carmark 
 WHERE carmakcod = '' 
 ORDER BY desc_t, carmakcod 

20/3/2014  19:42 >> Application_Name >> getDataCarMarkByCarMarkCode
SELECT * 
 FROM online_carmark 
 WHERE carmakcod = 'JK-TO242' 
 ORDER BY desc_t, carmakcod 

20/3/2014  19:45 >> Application_Name >> getDataPremium
exec sp_calonlineweb 'N','110','1','2','5 ','JK-TO242','2000','A','A',478800,585200,'0',0

20/3/2014  19:45 >> Application_Name >> getDataPremium
exec sp_calonlineweb 'N','110','2','2','5 ','JK-TO242','2000','A','A',478800,585200,'0',0

20/3/2014  19:45 >> Application_Name >> getDataPremium
exec sp_calonlineweb 'N','110','3','2','5 ','JK-TO242','2000','A','A',0,0,'0',0

20/3/2014  19:51 >> Application_Name >> getDataCarMarkByCarMarkCode
SELECT * 
 FROM online_carmark 
 WHERE carmakcod = '' 
 ORDER BY desc_t, carmakcod 

20/3/2014  19:51 >> Application_Name >> getDataCarMarkByCarMarkCode
SELECT * 
 FROM online_carmark 
 WHERE carmakcod = 'JK-TO240' 
 ORDER BY desc_t, carmakcod 

20/3/2014  19:54 >> Application_Name >> getDataPremium
exec sp_calonlineweb 'Y','110','1','5','3 ','JK-TO240','9999','A','A',652419.50625,797401.61875,'25',30

20/3/2014  19:54 >> Application_Name >> getDataPremium
exec sp_calonlineweb 'Y','110','2','5','3 ','JK-TO240','9999','A','A',652419.50625,797401.61875,'25',30

20/3/2014  19:54 >> Application_Name >> getDataPremium
exec sp_calonlineweb 'Y','110','3','5','3 ','JK-TO240','9999','A','A',0,0,'25',30

20/3/2014  19:59 >> Application_Name >> getDataCarMarkByCarMarkCode
SELECT * 
 FROM online_carmark 
 WHERE carmakcod = '' 
 ORDER BY desc_t, carmakcod 

20/3/2014  19:59 >> Application_Name >> getDataCarMarkByCarMarkCode
SELECT * 
 FROM online_carmark 
 WHERE carmakcod = 'JK-TO240' 
 ORDER BY desc_t, carmakcod 

20/3/2014  20:0 >> Application_Name >> getDataPremium
exec sp_calonlineweb 'Y','110','1','5','3 ','JK-TO240','9999','A','A',652419.50625,797401.61875,'0',30

20/3/2014  20:0 >> Application_Name >> getDataPremium
exec sp_calonlineweb 'Y','110','2','5','3 ','JK-TO240','9999','A','A',652419.50625,797401.61875,'0',30

20/3/2014  20:0 >> Application_Name >> getDataPremium
exec sp_calonlineweb 'Y','110','3','5','3 ','JK-TO240','9999','A','A',0,0,'0',30

20/3/2014  20:0 >> Application_Name >> getDataPremium
exec sp_calonlineweb 'Y','110','1','5','3 ','JK-TO240','9999','A','A',652419.50625,797401.61875,'0',30

20/3/2014  20:0 >> Application_Name >> getDataPremium
exec sp_calonlineweb 'Y','110','2','5','3 ','JK-TO240','9999','A','A',652419.50625,797401.61875,'0',30

20/3/2014  20:0 >> Application_Name >> getDataPremium
exec sp_calonlineweb 'Y','110','3','5','3 ','JK-TO240','9999','A','A',0,0,'0',30

20/3/2014  20:1 >> Application_Name >> getDataPremium
exec sp_calonlineweb 'Y','110','1','5','3 ','JK-TO240','9999','A','A',652419.50625,797401.61875,'0',30

20/3/2014  20:1 >> Application_Name >> getDataPremium
exec sp_calonlineweb 'Y','110','2','5','3 ','JK-TO240','9999','A','A',652419.50625,797401.61875,'0',30

20/3/2014  20:1 >> Application_Name >> getDataPremium
exec sp_calonlineweb 'Y','110','3','5','3 ','JK-TO240','9999','A','A',0,0,'0',30

20/3/2014  20:1 >> Application_Name >> getDataPremium
exec sp_calonlineweb 'Y','110','1','5','3 ','JK-TO240','9999','A','A',652419.50625,797401.61875,'25',30

20/3/2014  20:1 >> Application_Name >> getDataPremium
exec sp_calonlineweb 'Y','110','2','5','3 ','JK-TO240','9999','A','A',652419.50625,797401.61875,'25',30

20/3/2014  20:1 >> Application_Name >> getDataPremium
exec sp_calonlineweb 'Y','110','3','5','3 ','JK-TO240','9999','A','A',0,0,'25',30

20/3/2014  20:3 >> Application_Name >> SMK :: BuyVoluntary_step2-docToUI
Combine

20/3/2014  20:3 >> Application_Name >> SMK :: BuyVoluntary_step2-docToUI
rg_prmm-013006.7

20/3/2014  20:3 >> Application_Name >> SMK :: BuyVoluntary_step2-docToUI
rg_prmm13006.7

20/3/2014  20:3 >> Application_Name >> SMK :: BuyVoluntary_step2-docToUI
cp_comp_prmm600.00

20/3/2014  20:3 >> Application_Name >> getDataCarMarkByCarMarkCode
SELECT * 
 FROM online_carmark 
 WHERE carmakcod = '' 
 ORDER BY desc_t, carmakcod 

20/3/2014  20:3 >> Application_Name >> getDataCarMarkByCarMarkCode
SELECT * 
 FROM online_carmark 
 WHERE carmakcod = 'JK-MA065' 
 ORDER BY desc_t, carmakcod 

20/3/2014  20:4 >> Application_Name >> getDataPremium
exec sp_calonlineweb 'Y','110','1','5','3 ','EK-BE150','9999','A','A',652419.50625,797401.61875,'25',30

20/3/2014  20:4 >> Application_Name >> getDataPremium
exec sp_calonlineweb 'Y','110','2','5','3 ','EK-BE150','9999','A','A',652419.50625,797401.61875,'25',30

20/3/2014  20:4 >> Application_Name >> getDataPremium
exec sp_calonlineweb 'Y','110','3','5','3 ','EK-BE150','9999','A','A',0,0,'25',30

20/3/2014  20:4 >> Application_Name >> getDataPremium
exec sp_calonlineweb 'Y','110','1','5','3 ','EK-BE150','9999','A','A',652419.50625,797401.61875,'25',30

20/3/2014  20:4 >> Application_Name >> getDataPremium
exec sp_calonlineweb 'Y','110','2','5','3 ','EK-BE150','9999','A','A',652419.50625,797401.61875,'25',30

20/3/2014  20:4 >> Application_Name >> getDataPremium
exec sp_calonlineweb 'Y','110','3','5','3 ','EK-BE150','9999','A','A',0,0,'25',30

20/3/2014  20:5 >> Application_Name >> getDataPremium
exec sp_calonlineweb 'Y','110','1','2','5 ','JK-MA065','2000','A','A',478800,585200,'25',0

20/3/2014  20:5 >> Application_Name >> getDataPremium
exec sp_calonlineweb 'Y','110','2','2','5 ','JK-MA065','2000','A','A',478800,585200,'25',0

20/3/2014  20:5 >> Application_Name >> getDataPremium
exec sp_calonlineweb 'Y','110','3','2','5 ','JK-MA065','2000','A','A',0,0,'25',0

20/3/2014  20:6 >> Application_Name >> getDataPremium
exec sp_calonlineweb 'Y','110','1','2','5 ','JK-MA065','2000','A','A',478800,585200,'0',0

20/3/2014  20:6 >> Application_Name >> getDataPremium
exec sp_calonlineweb 'Y','110','2','2','5 ','JK-MA065','2000','A','A',478800,585200,'0',0

20/3/2014  20:6 >> Application_Name >> getDataPremium
exec sp_calonlineweb 'Y','110','3','2','5 ','JK-MA065','2000','A','A',0,0,'0',0

20/3/2014  20:33 >> Application_Name >> getDataCarMarkByCarMarkCode
SELECT * 
 FROM online_carmark 
 WHERE carmakcod = '' 
 ORDER BY desc_t, carmakcod 

20/3/2014  20:33 >> Application_Name >> getDataCarMarkByCarMarkCode
SELECT * 
 FROM online_carmark 
 WHERE carmakcod = 'JK-HO001' 
 ORDER BY desc_t, carmakcod 

20/3/2014  20:35 >> Application_Name >> getDataPremium
exec sp_calonlineweb 'Y','110','1','2','5 ','JK-HO001','2000','A','A',470250,574750,'25',0

20/3/2014  20:35 >> Application_Name >> getDataPremium
exec sp_calonlineweb 'Y','110','2','2','5 ','JK-HO001','2000','A','A',470250,574750,'25',0

20/3/2014  20:35 >> Application_Name >> getDataPremium
exec sp_calonlineweb 'Y','110','3','2','5 ','JK-HO001','2000','A','A',0,0,'25',0

20/3/2014  20:39 >> Application_Name >> SMK :: BuyVoluntary_step2-docToUI
Combine

20/3/2014  20:39 >> Application_Name >> SMK :: BuyVoluntary_step2-docToUI
rg_prmm-015780

20/3/2014  20:39 >> Application_Name >> SMK :: BuyVoluntary_step2-docToUI
rg_prmm15780

20/3/2014  20:39 >> Application_Name >> SMK :: BuyVoluntary_step2-docToUI
cp_comp_prmm600.00

20/3/2014  20:41 >> Application_Name >> getDataPremium
exec sp_calonlineweb 'Y','110','1','2','5 ','JK-HO001','2000','A','A',470250,574750,'0',0

20/3/2014  20:41 >> Application_Name >> getDataPremium
exec sp_calonlineweb 'Y','110','2','2','5 ','JK-HO001','2000','A','A',470250,574750,'0',0

20/3/2014  20:41 >> Application_Name >> getDataPremium
exec sp_calonlineweb 'Y','110','3','2','5 ','JK-HO001','2000','A','A',0,0,'0',0

20/3/2014  20:42 >> Application_Name >> SMK :: BuyVoluntary_step2-docToUI
Combine

20/3/2014  20:42 >> Application_Name >> SMK :: BuyVoluntary_step2-docToUI
rg_prmm-017059

20/3/2014  20:42 >> Application_Name >> SMK :: BuyVoluntary_step2-docToUI
rg_prmm17059

20/3/2014  20:42 >> Application_Name >> SMK :: BuyVoluntary_step2-docToUI
cp_comp_prmm600.00

20/3/2014  20:57 >> Application_Name >> getDataCarMarkByCarMarkCode
SELECT * 
 FROM online_carmark 
 WHERE carmakcod = '' 
 ORDER BY desc_t, carmakcod 

20/3/2014  20:58 >> Application_Name >> getDataCarMarkByCarMarkCode
SELECT * 
 FROM online_carmark 
 WHERE carmakcod = 'JK-HO084' 
 ORDER BY desc_t, carmakcod 

20/3/2014  20:59 >> Application_Name >> getDataPremium
exec sp_calonlineweb 'Y','110','1','5','5 ','JK-HO084','2000','A','A',417841.70625,510695.41875,'0',30

20/3/2014  20:59 >> Application_Name >> getDataPremium
exec sp_calonlineweb 'Y','110','2','5','5 ','JK-HO084','2000','A','A',417841.70625,510695.41875,'0',30

20/3/2014  20:59 >> Application_Name >> getDataPremium
exec sp_calonlineweb 'Y','110','3','5','5 ','JK-HO084','2000','A','A',0,0,'0',30

20/3/2014  23:23 >> Application_Name >> getDataCarMarkByCarMarkCode
SELECT * 
 FROM online_carmark 
 WHERE carmakcod = '' 
 ORDER BY desc_t, carmakcod 

20/3/2014  23:23 >> Application_Name >> getDataCarMarkByCarMarkCode
SELECT * 
 FROM online_carmark 
 WHERE carmakcod = 'JK-TO001' 
 ORDER BY desc_t, carmakcod 

20/3/2014  23:26 >> Application_Name >> getDataCarMarkByCarMarkCode
SELECT * 
 FROM online_carmark 
 WHERE carmakcod = '' 
 ORDER BY desc_t, carmakcod 

20/3/2014  23:26 >> Application_Name >> getDataCarMarkByCarMarkCode
SELECT * 
 FROM online_carmark 
 WHERE carmakcod = 'JK-NI100' 
 ORDER BY desc_t, carmakcod 

20/3/2014  23:26 >> Application_Name >> getDataPremium
exec sp_calonlineweb 'N','110','1','2','5 ','JK-NI100','2000','A','A',380000,418000,'0',30

20/3/2014  23:26 >> Application_Name >> getDataPremium
exec sp_calonlineweb 'N','110','2','2','5 ','JK-NI100','2000','A','A',380000,418000,'0',30

20/3/2014  23:26 >> Application_Name >> getDataPremium
exec sp_calonlineweb 'N','110','3','2','5 ','JK-NI100','2000','A','A',0,0,'0',30

20/3/2014  23:28 >> Application_Name >> getDataCarMarkByCarMarkCode
SELECT * 
 FROM online_carmark 
 WHERE carmakcod = '' 
 ORDER BY desc_t, carmakcod 

20/3/2014  23:28 >> Application_Name >> getDataCarMarkByCarMarkCode
SELECT * 
 FROM online_carmark 
 WHERE carmakcod = 'JK-HO002' 
 ORDER BY desc_t, carmakcod 

20/3/2014  23:29 >> Application_Name >> getDataPremium
exec sp_calonlineweb 'N','110','1','10','3 ','JK-HO002','2000','A','A',493485.287814369,603148.685106451,'0',30

20/3/2014  23:29 >> Application_Name >> getDataPremium
exec sp_calonlineweb 'N','110','2','10','3 ','JK-HO002','2000','A','A',493485.287814369,603148.685106451,'0',30

20/3/2014  23:29 >> Application_Name >> getDataPremium
exec sp_calonlineweb 'N','110','3','10','3 ','JK-HO002','2000','A','A',0,0,'0',30

20/3/2014  23:31 >> Application_Name >> getDataCarMarkByCarMarkCode
SELECT * 
 FROM online_carmark 
 WHERE carmakcod = '' 
 ORDER BY desc_t, carmakcod 

20/3/2014  23:31 >> Application_Name >> getDataCarMarkByCarMarkCode
SELECT * 
 FROM online_carmark 
 WHERE carmakcod = 'JK-TO242' 
 ORDER BY desc_t, carmakcod 

20/3/2014  23:31 >> Application_Name >> getDataPremium
exec sp_calonlineweb 'N','110','1','8','5 ','JK-TO242','2000','A','A',351961.99723125,430175.77439375,'0',30

20/3/2014  23:31 >> Application_Name >> getDataPremium
exec sp_calonlineweb 'N','110','2','8','5 ','JK-TO242','2000','A','A',351961.99723125,430175.77439375,'0',30

20/3/2014  23:31 >> Application_Name >> getDataPremium
exec sp_calonlineweb 'N','110','3','8','5 ','JK-TO242','2000','A','A',0,0,'0',30

20/3/2014  23:48 >> Application_Name >> getDataCarMarkByCarMarkCode
SELECT * 
 FROM online_carmark 
 WHERE carmakcod = '' 
 ORDER BY desc_t, carmakcod 

20/3/2014  23:48 >> Application_Name >> getDataCarMarkByCarMarkCode
SELECT * 
 FROM online_carmark 
 WHERE carmakcod = 'JK-TO023' 
 ORDER BY desc_t, carmakcod 

20/3/2014  23:50 >> Application_Name >> getDataPremium
exec sp_calonlineweb 'N','110','1','2','3 ','JK-TO023','9999','A','A',854145,1043955,'0',30

20/3/2014  23:50 >> Application_Name >> getDataPremium
exec sp_calonlineweb 'N','110','2','2','3 ','JK-TO023','9999','A','A',854145,1043955,'0',30

20/3/2014  23:50 >> Application_Name >> getDataPremium
exec sp_calonlineweb 'N','110','3','2','3 ','JK-TO023','9999','A','A',0,0,'0',30

20/3/2014  23:53 >> Application_Name >> getDataCarMarkByCarMarkCode
SELECT * 
 FROM online_carmark 
 WHERE carmakcod = 'JK-TO254' 
 ORDER BY desc_t, carmakcod 

20/3/2014  23:53 >> Application_Name >> getDataPremium
exec sp_calonlineweb 'N','110','1','2','3 ','JK-TO254','9999','A','A',551608,609672,'0',30

20/3/2014  23:53 >> Application_Name >> getDataPremium
exec sp_calonlineweb 'N','110','2','2','3 ','JK-TO254','9999','A','A',551608,609672,'0',30

20/3/2014  23:53 >> Application_Name >> getDataPremium
exec sp_calonlineweb 'N','110','3','2','3 ','JK-TO254','9999','A','A',0,0,'0',30

20/3/2014  23:56 >> Application_Name >> getDataPremium
exec sp_calonlineweb 'N','110','1','2','3 ','JK-TO254','9999','A','A',551608,609672,'0',30

20/3/2014  23:56 >> Application_Name >> getDataPremium
exec sp_calonlineweb 'N','110','2','2','3 ','JK-TO254','9999','A','A',551608,609672,'0',30

20/3/2014  23:56 >> Application_Name >> getDataPremium
exec sp_calonlineweb 'N','110','3','2','3 ','JK-TO254','9999','A','A',0,0,'0',30

20/3/2014  23:57 >> Application_Name >> getDataPremium
exec sp_calonlineweb 'N','110','1','2','3 ','JK-TO254','9999','A','A',551608,609672,'36',30

20/3/2014  23:57 >> Application_Name >> getDataPremium
exec sp_calonlineweb 'N','110','2','2','3 ','JK-TO254','9999','A','A',551608,609672,'36',30

20/3/2014  23:57 >> Application_Name >> getDataPremium
exec sp_calonlineweb 'N','110','3','2','3 ','JK-TO254','9999','A','A',0,0,'36',30

20/3/2014  23:59 >> Application_Name >> getDataCarMarkByCarMarkCode
SELECT * 
 FROM online_carmark 
 WHERE carmakcod = '' 
 ORDER BY desc_t, carmakcod 

20/3/2014  23:59 >> Application_Name >> getDataPremium
exec sp_calonlineweb 'N','110','1','2','3 ','JK-TO254','9999','A','A',551608,609672,'0',30

20/3/2014  23:59 >> Application_Name >> getDataPremium
exec sp_calonlineweb 'N','110','2','2','3 ','JK-TO254','9999','A','A',551608,609672,'0',30

20/3/2014  23:59 >> Application_Name >> getDataPremium
exec sp_calonlineweb 'N','110','3','2','3 ','JK-TO254','9999','A','A',0,0,'0',30

20/3/2014  23:59 >> Application_Name >> getDataCarMarkByCarMarkCode
SELECT * 
 FROM online_carmark 
 WHERE carmakcod = 'JK-TO002' 
 ORDER BY desc_t, carmakcod 

20/3/2014  23:59 >> Application_Name >> getDataPremium
exec sp_calonlineweb 'N','110','1','2','3 ','JK-TO254','9999','A','A',551608,609672,'36',30

20/3/2014  23:59 >> Application_Name >> getDataPremium
exec sp_calonlineweb 'N','110','2','2','3 ','JK-TO254','9999','A','A',551608,609672,'36',30

20/3/2014  23:59 >> Application_Name >> getDataPremium
exec sp_calonlineweb 'N','110','3','2','3 ','JK-TO254','9999','A','A',0,0,'36',30

