25/6/2014  0:19 >> Application_Name >> getDataCarMarkByCarMarkCode
SELECT * 
 FROM online_carmark 
 WHERE carmakcod = '' 
 ORDER BY desc_t, carmakcod 

25/6/2014  0:19 >> Application_Name >> getDataCarMarkByCarMarkCode
SELECT * 
 FROM online_carmark 
 WHERE carmakcod = 'EK-VV071' 
 ORDER BY desc_t, carmakcod 

25/6/2014  0:45 >> Application_Name >> getDataCarMarkByCarMarkCode
SELECT * 
 FROM online_carmark 
 WHERE carmakcod = '' 
 ORDER BY desc_t, carmakcod 

25/6/2014  0:45 >> Application_Name >> getDataCarMarkByCarMarkCode
SELECT * 
 FROM online_carmark 
 WHERE carmakcod = '' 
 ORDER BY desc_t, carmakcod 

25/6/2014  0:45 >> Application_Name >> getDataCarMarkByCarMarkCode
SELECT * 
 FROM online_carmark 
 WHERE carmakcod = 'JK-TO175' 
 ORDER BY desc_t, carmakcod 

25/6/2014  0:49 >> Application_Name >> getDataPremium
exec sp_calonlineweb 'N','110','1','3','5 ','JK-TO175','2000','A','A',406125,496375,'0',30

25/6/2014  0:49 >> Application_Name >> getDataPremium
exec sp_calonlineweb 'N','110','2','3','5 ','JK-TO175','2000','A','A',406125,496375,'0',30

25/6/2014  0:49 >> Application_Name >> getDataPremium
exec sp_calonlineweb 'N','110','3','3','5 ','JK-TO175','2000','A','A',0,0,'0',30

25/6/2014  0:52 >> Application_Name >> getDataPremium
exec sp_calonlineweb 'N','110','1','3','5 ','JK-TO175','2000','A','A',406125,496375,'0',20

25/6/2014  0:52 >> Application_Name >> getDataPremium
exec sp_calonlineweb 'N','110','2','3','5 ','JK-TO175','2000','A','A',406125,496375,'0',20

25/6/2014  0:52 >> Application_Name >> getDataPremium
exec sp_calonlineweb 'N','110','3','3','5 ','JK-TO175','2000','A','A',0,0,'0',20

25/6/2014  2:46 >> Application_Name >> getDataCarMarkByCarMarkCode
SELECT * 
 FROM online_carmark 
 WHERE carmakcod = '' 
 ORDER BY desc_t, carmakcod 

25/6/2014  2:46 >> Application_Name >> getDataCarMarkByCarMarkCode
SELECT * 
 FROM online_carmark 
 WHERE carmakcod = 'JK-NI028' 
 ORDER BY desc_t, carmakcod 

25/6/2014  3:26 >> Application_Name >> getDataCarMarkByCarMarkCode
SELECT * 
 FROM online_carmark 
 WHERE carmakcod = '' 
 ORDER BY desc_t, carmakcod 

25/6/2014  3:26 >> Application_Name >> getDataCarMarkByCarMarkCode
SELECT * 
 FROM online_carmark 
 WHERE carmakcod = 'JK-HO084' 
 ORDER BY desc_t, carmakcod 

25/6/2014  3:27 >> Application_Name >> getDataPremium
exec sp_calonlineweb 'Y','110','1','2','5 ','JK-HO084','2000','A','A',487350,595650,'0',0

25/6/2014  3:27 >> Application_Name >> getDataPremium
exec sp_calonlineweb 'Y','110','2','2','5 ','JK-HO084','2000','A','A',487350,595650,'0',0

25/6/2014  3:27 >> Application_Name >> getDataPremium
exec sp_calonlineweb 'Y','110','3','2','5 ','JK-HO084','2000','A','A',0,0,'0',0

25/6/2014  8:39 >> Application_Name >> getDataCarMarkByCarMarkCode
SELECT * 
 FROM online_carmark 
 WHERE carmakcod = '' 
 ORDER BY desc_t, carmakcod 

25/6/2014  8:39 >> Application_Name >> getDataCarMarkByCarMarkCode
SELECT * 
 FROM online_carmark 
 WHERE carmakcod = 'JK-TO242' 
 ORDER BY desc_t, carmakcod 

25/6/2014  8:46 >> Application_Name >> getDataCarMarkByCarMarkCode
SELECT * 
 FROM online_carmark 
 WHERE carmakcod = '' 
 ORDER BY desc_t, carmakcod 

25/6/2014  8:46 >> Application_Name >> getDataCarMarkByCarMarkCode
SELECT * 
 FROM online_carmark 
 WHERE carmakcod = 'JK-TO242' 
 ORDER BY desc_t, carmakcod 

25/6/2014  8:51 >> Application_Name >> getDataCarMarkByCarMarkCode
SELECT * 
 FROM online_carmark 
 WHERE carmakcod = '' 
 ORDER BY desc_t, carmakcod 

25/6/2014  8:51 >> Application_Name >> getDataCarMarkByCarMarkCode
SELECT * 
 FROM online_carmark 
 WHERE carmakcod = 'JK-HO001' 
 ORDER BY desc_t, carmakcod 

25/6/2014  8:55 >> Application_Name >> getDataPremium
exec sp_calonlineweb 'Y','110','1','2','5 ','JK-HO001','2000','A','A',470250,574750,'25',0

25/6/2014  8:55 >> Application_Name >> getDataPremium
exec sp_calonlineweb 'Y','110','2','2','5 ','JK-HO001','2000','A','A',470250,574750,'25',0

25/6/2014  8:55 >> Application_Name >> getDataPremium
exec sp_calonlineweb 'Y','110','3','2','5 ','JK-HO001','2000','A','A',0,0,'25',0

25/6/2014  8:57 >> Application_Name >> getDataCarMarkByCarMarkCode
SELECT * 
 FROM online_carmark 
 WHERE carmakcod = '' 
 ORDER BY desc_t, carmakcod 

25/6/2014  8:58 >> Application_Name >> getDataCarMarkByCarMarkCode
SELECT * 
 FROM online_carmark 
 WHERE carmakcod = 'JK-HO001' 
 ORDER BY desc_t, carmakcod 

25/6/2014  8:59 >> Application_Name >> getDataPremium
exec sp_calonlineweb 'Y','110','1','2','5 ','JK-HO001','2000','A','A',470250,574750,'0',0

25/6/2014  8:59 >> Application_Name >> getDataPremium
exec sp_calonlineweb 'Y','110','2','2','5 ','JK-HO001','2000','A','A',470250,574750,'0',0

25/6/2014  8:59 >> Application_Name >> getDataPremium
exec sp_calonlineweb 'Y','110','3','2','5 ','JK-HO001','2000','A','A',0,0,'0',0

25/6/2014  9:1 >> Application_Name >> SMK :: BuyVoluntary_step2-docToUI
Combine

25/6/2014  9:1 >> Application_Name >> SMK :: BuyVoluntary_step2-docToUI
rg_prmm-06030

25/6/2014  9:1 >> Application_Name >> SMK :: BuyVoluntary_step2-docToUI
rg_prmm6030

25/6/2014  9:1 >> Application_Name >> SMK :: BuyVoluntary_step2-docToUI
cp_comp_prmm600.00

25/6/2014  9:20 >> Application_Name >> getDataCarMarkByCarMarkCode
SELECT * 
 FROM online_carmark 
 WHERE carmakcod = '' 
 ORDER BY desc_t, carmakcod 

25/6/2014  9:20 >> Application_Name >> getDataCarMarkByCarMarkCode
SELECT * 
 FROM online_carmark 
 WHERE carmakcod = 'JK-TO019' 
 ORDER BY desc_t, carmakcod 

25/6/2014  9:22 >> Application_Name >> getDataPremium
exec sp_calonlineweb 'Y','110','1','5','4 ','JK-TO019','2000','A','A',571783.3875,698846.3625,'0',0

25/6/2014  9:22 >> Application_Name >> getDataPremium
exec sp_calonlineweb 'Y','110','2','5','4 ','JK-TO019','2000','A','A',571783.3875,698846.3625,'0',0

25/6/2014  9:22 >> Application_Name >> getDataPremium
exec sp_calonlineweb 'Y','110','3','5','4 ','JK-TO019','2000','A','A',0,0,'0',0

25/6/2014  9:22 >> Application_Name >> getDataPremium
exec sp_calonlineweb 'Y','110','1','6','4 ','JK-TO019','2000','A','A',543194.218125,663904.044375,'0',0

25/6/2014  9:22 >> Application_Name >> getDataPremium
exec sp_calonlineweb 'Y','110','2','6','4 ','JK-TO019','2000','A','A',543194.218125,663904.044375,'0',0

25/6/2014  9:22 >> Application_Name >> getDataPremium
exec sp_calonlineweb 'Y','110','3','6','4 ','JK-TO019','2000','A','A',0,0,'0',0

25/6/2014  9:27 >> Application_Name >> getDataCarMarkByCarMarkCode
SELECT * 
 FROM online_carmark 
 WHERE carmakcod = '' 
 ORDER BY desc_t, carmakcod 

25/6/2014  9:27 >> Application_Name >> getDataCarMarkByCarMarkCode
SELECT * 
 FROM online_carmark 
 WHERE carmakcod = '' 
 ORDER BY desc_t, carmakcod 

25/6/2014  9:38 >> Application_Name >> getDataCarMarkByCarMarkCode
SELECT * 
 FROM online_carmark 
 WHERE carmakcod = '' 
 ORDER BY desc_t, carmakcod 

25/6/2014  9:39 >> Application_Name >> getDataCarMarkByCarMarkCode
SELECT * 
 FROM online_carmark 
 WHERE carmakcod = 'JK-TO242' 
 ORDER BY desc_t, carmakcod 

25/6/2014  9:43 >> Application_Name >> getDataCarMarkByCarMarkCode
SELECT * 
 FROM online_carmark 
 WHERE carmakcod = '' 
 ORDER BY desc_t, carmakcod 

25/6/2014  9:43 >> Application_Name >> getDataCarMarkByCarMarkCode
SELECT * 
 FROM online_carmark 
 WHERE carmakcod = 'EK-FO083' 
 ORDER BY desc_t, carmakcod 

25/6/2014  9:45 >> Application_Name >> getDataPremium
exec sp_calonlineweb 'Y','110','1','2','5 ','EK-FO083','2000','A','A',478800,585200,'0',0

25/6/2014  9:45 >> Application_Name >> getDataPremium
exec sp_calonlineweb 'Y','110','2','2','5 ','EK-FO083','2000','A','A',478800,585200,'0',0

25/6/2014  9:45 >> Application_Name >> getDataPremium
exec sp_calonlineweb 'Y','110','3','2','5 ','EK-FO083','2000','A','A',0,0,'0',0

25/6/2014  9:45 >> Application_Name >> getDataCarMarkByCarMarkCode
SELECT * 
 FROM online_carmark 
 WHERE carmakcod = '' 
 ORDER BY desc_t, carmakcod 

25/6/2014  9:45 >> Application_Name >> getDataCarMarkByCarMarkCode
SELECT * 
 FROM online_carmark 
 WHERE carmakcod = 'EK-FO083' 
 ORDER BY desc_t, carmakcod 

25/6/2014  9:45 >> Application_Name >> getDataPremium
exec sp_calonlineweb 'Y','110','1','2','5 ','EK-FO083','2000','A','A',478800,585200,'0',0

25/6/2014  9:45 >> Application_Name >> getDataPremium
exec sp_calonlineweb 'Y','110','2','2','5 ','EK-FO083','2000','A','A',478800,585200,'0',0

25/6/2014  9:45 >> Application_Name >> getDataPremium
exec sp_calonlineweb 'Y','110','3','2','5 ','EK-FO083','2000','A','A',0,0,'0',0

25/6/2014  9:47 >> Application_Name >> getDataCarMarkByCarMarkCode
SELECT * 
 FROM online_carmark 
 WHERE carmakcod = '' 
 ORDER BY desc_t, carmakcod 

25/6/2014  9:47 >> Application_Name >> getDataCarMarkByCarMarkCode
SELECT * 
 FROM online_carmark 
 WHERE carmakcod = 'JK-MI081' 
 ORDER BY desc_t, carmakcod 

25/6/2014  9:51 >> Application_Name >> getDataCarMarkByCarMarkCode
SELECT * 
 FROM online_carmark 
 WHERE carmakcod = '' 
 ORDER BY desc_t, carmakcod 

25/6/2014  9:51 >> Application_Name >> getDataCarMarkByCarMarkCode
SELECT * 
 FROM online_carmark 
 WHERE carmakcod = 'JK-TO234' 
 ORDER BY desc_t, carmakcod 

25/6/2014  9:54 >> Application_Name >> getDataPremium
exec sp_calonlineweb 'N','110','1','1','5 ','JK-TO234','2000','A','A',540000,660000,'0',0

25/6/2014  9:54 >> Application_Name >> getDataPremium
exec sp_calonlineweb 'N','110','2','1','5 ','JK-TO234','2000','A','A',540000,660000,'0',0

25/6/2014  9:54 >> Application_Name >> getDataPremium
exec sp_calonlineweb 'N','110','3','1','5 ','JK-TO234','2000','A','A',0,0,'0',0

25/6/2014  10:3 >> Application_Name >> getDataCarMarkByCarMarkCode
SELECT * 
 FROM online_carmark 
 WHERE carmakcod = '' 
 ORDER BY desc_t, carmakcod 

25/6/2014  10:4 >> Application_Name >> getDataCarMarkByCarMarkCode
SELECT * 
 FROM online_carmark 
 WHERE carmakcod = 'JK-MI047' 
 ORDER BY desc_t, carmakcod 

25/6/2014  10:5 >> Application_Name >> getDataPremium
exec sp_calonlineweb 'Y','110','1','3','3 ','JK-MI047','9999','A','A',763515,933185,'0',0

25/6/2014  10:5 >> Application_Name >> getDataPremium
exec sp_calonlineweb 'Y','110','2','3','3 ','JK-MI047','9999','A','A',763515,933185,'0',0

25/6/2014  10:5 >> Application_Name >> getDataPremium
exec sp_calonlineweb 'Y','110','3','3','3 ','JK-MI047','9999','A','A',0,0,'0',0

25/6/2014  10:8 >> Application_Name >> getDataCarMarkByCarMarkCode
SELECT * 
 FROM online_carmark 
 WHERE carmakcod = '' 
 ORDER BY desc_t, carmakcod 

25/6/2014  10:8 >> Application_Name >> getDataCarMarkByCarMarkCode
SELECT * 
 FROM online_carmark 
 WHERE carmakcod = '' 
 ORDER BY desc_t, carmakcod 

25/6/2014  10:8 >> Application_Name >> getDataCarMarkByCarMarkCode
SELECT * 
 FROM online_carmark 
 WHERE carmakcod = '' 
 ORDER BY desc_t, carmakcod 

25/6/2014  10:8 >> Application_Name >> getDataCarMarkByCarMarkCode
SELECT * 
 FROM online_carmark 
 WHERE carmakcod = '' 
 ORDER BY desc_t, carmakcod 

25/6/2014  10:8 >> Application_Name >> getDataCarMarkByCarMarkCode
SELECT * 
 FROM online_carmark 
 WHERE carmakcod = '' 
 ORDER BY desc_t, carmakcod 

25/6/2014  10:8 >> Application_Name >> getDataCarMarkByCarMarkCode
SELECT * 
 FROM online_carmark 
 WHERE carmakcod = '' 
 ORDER BY desc_t, carmakcod 

25/6/2014  10:8 >> Application_Name >> getDataCarMarkByCarMarkCode
SELECT * 
 FROM online_carmark 
 WHERE carmakcod = '' 
 ORDER BY desc_t, carmakcod 

25/6/2014  10:8 >> Application_Name >> getDataCarMarkByCarMarkCode
SELECT * 
 FROM online_carmark 
 WHERE carmakcod = '' 
 ORDER BY desc_t, carmakcod 

25/6/2014  10:8 >> Application_Name >> getDataCarMarkByCarMarkCode
SELECT * 
 FROM online_carmark 
 WHERE carmakcod = 'JK-MA065' 
 ORDER BY desc_t, carmakcod 

25/6/2014  10:10 >> Application_Name >> getDataPremium
exec sp_calonlineweb 'Y','110','1','3','5 ','JK-MA065','2000','A','A',454860,555940,'36',0

25/6/2014  10:10 >> Application_Name >> getDataPremium
exec sp_calonlineweb 'Y','110','2','3','5 ','JK-MA065','2000','A','A',454860,555940,'36',0

25/6/2014  10:10 >> Application_Name >> getDataPremium
exec sp_calonlineweb 'Y','110','3','3','5 ','JK-MA065','2000','A','A',0,0,'36',0

25/6/2014  10:10 >> Application_Name >> getDataCarMarkByCarMarkCode
SELECT * 
 FROM online_carmark 
 WHERE carmakcod = '' 
 ORDER BY desc_t, carmakcod 

25/6/2014  10:10 >> Application_Name >> getDataCarMarkByCarMarkCode
SELECT * 
 FROM online_carmark 
 WHERE carmakcod = '' 
 ORDER BY desc_t, carmakcod 

25/6/2014  10:10 >> Application_Name >> getDataCarMarkByCarMarkCode
SELECT * 
 FROM online_carmark 
 WHERE carmakcod = '' 
 ORDER BY desc_t, carmakcod 

25/6/2014  10:11 >> Application_Name >> getDataPremium
exec sp_calonlineweb 'Y','110','1','3','5 ','JK-MA065','2000','A','A',454860,555940,'36',30

25/6/2014  10:11 >> Application_Name >> getDataPremium
exec sp_calonlineweb 'Y','110','2','3','5 ','JK-MA065','2000','A','A',454860,555940,'36',30

25/6/2014  10:11 >> Application_Name >> getDataPremium
exec sp_calonlineweb 'Y','110','3','3','5 ','JK-MA065','2000','A','A',0,0,'36',30

25/6/2014  10:12 >> Application_Name >> getDataCarMarkByCarMarkCode
SELECT * 
 FROM online_carmark 
 WHERE carmakcod = 'JK-MI080' 
 ORDER BY desc_t, carmakcod 

25/6/2014  10:14 >> Application_Name >> getDataPremium
exec sp_calonlineweb 'N','110','1','3','5 ','JK-MI080','2000','A','A',357390,436810,'25',0

25/6/2014  10:14 >> Application_Name >> getDataPremium
exec sp_calonlineweb 'N','110','2','3','5 ','JK-MI080','2000','A','A',357390,436810,'25',0

25/6/2014  10:14 >> Application_Name >> getDataPremium
exec sp_calonlineweb 'N','110','3','3','5 ','JK-MI080','2000','A','A',0,0,'25',0

25/6/2014  10:18 >> Application_Name >> getDataCarMarkByCarMarkCode
SELECT * 
 FROM online_carmark 
 WHERE carmakcod = '' 
 ORDER BY desc_t, carmakcod 

25/6/2014  10:19 >> Application_Name >> getDataCarMarkByCarMarkCode
SELECT * 
 FROM online_carmark 
 WHERE carmakcod = 'JK-TO242' 
 ORDER BY desc_t, carmakcod 

25/6/2014  10:36 >> Application_Name >> getDataCarMarkByCarMarkCode
SELECT * 
 FROM online_carmark 
 WHERE carmakcod = '' 
 ORDER BY desc_t, carmakcod 

25/6/2014  10:38 >> Application_Name >> getDataCarMarkByCarMarkCode
SELECT * 
 FROM online_carmark 
 WHERE carmakcod = '' 
 ORDER BY desc_t, carmakcod 

25/6/2014  10:38 >> Application_Name >> getDataCarMarkByCarMarkCode
SELECT * 
 FROM online_carmark 
 WHERE carmakcod = '' 
 ORDER BY desc_t, carmakcod 

25/6/2014  10:38 >> Application_Name >> getDataCarMarkByCarMarkCode
SELECT * 
 FROM online_carmark 
 WHERE carmakcod = '' 
 ORDER BY desc_t, carmakcod 

25/6/2014  10:39 >> Application_Name >> getDataCarMarkByCarMarkCode
SELECT * 
 FROM online_carmark 
 WHERE carmakcod = '' 
 ORDER BY desc_t, carmakcod 

25/6/2014  10:39 >> Application_Name >> getDataCarMarkByCarMarkCode
SELECT * 
 FROM online_carmark 
 WHERE carmakcod = '' 
 ORDER BY desc_t, carmakcod 

25/6/2014  10:39 >> Application_Name >> getDataCarMarkByCarMarkCode
SELECT * 
 FROM online_carmark 
 WHERE carmakcod = '' 
 ORDER BY desc_t, carmakcod 

25/6/2014  10:39 >> Application_Name >> getDataCarMarkByCarMarkCode
SELECT * 
 FROM online_carmark 
 WHERE carmakcod = '' 
 ORDER BY desc_t, carmakcod 

25/6/2014  10:39 >> Application_Name >> getDataCarMarkByCarMarkCode
SELECT * 
 FROM online_carmark 
 WHERE carmakcod = '' 
 ORDER BY desc_t, carmakcod 

25/6/2014  11:3 >> Application_Name >> getDataCarMarkByCarMarkCode
SELECT * 
 FROM online_carmark 
 WHERE carmakcod = '' 
 ORDER BY desc_t, carmakcod 

25/6/2014  11:3 >> Application_Name >> getDataCarMarkByCarMarkCode
SELECT * 
 FROM online_carmark 
 WHERE carmakcod = 'JK-HO001' 
 ORDER BY desc_t, carmakcod 

25/6/2014  11:5 >> Application_Name >> getDataCarMarkByCarMarkCode
SELECT * 
 FROM online_carmark 
 WHERE carmakcod = '' 
 ORDER BY desc_t, carmakcod 

25/6/2014  11:5 >> Application_Name >> getDataCarMarkByCarMarkCode
SELECT * 
 FROM online_carmark 
 WHERE carmakcod = '' 
 ORDER BY desc_t, carmakcod 

25/6/2014  11:14 >> Application_Name >> getDataCarMarkByCarMarkCode
SELECT * 
 FROM online_carmark 
 WHERE carmakcod = '' 
 ORDER BY desc_t, carmakcod 

25/6/2014  11:14 >> Application_Name >> getDataCarMarkByCarMarkCode
SELECT * 
 FROM online_carmark 
 WHERE carmakcod = 'JK-HO001' 
 ORDER BY desc_t, carmakcod 

25/6/2014  11:16 >> Application_Name >> getDataCarMarkByCarMarkCode
SELECT * 
 FROM online_carmark 
 WHERE carmakcod = '' 
 ORDER BY desc_t, carmakcod 

25/6/2014  11:16 >> Application_Name >> getDataCarMarkByCarMarkCode
SELECT * 
 FROM online_carmark 
 WHERE carmakcod = 'JK-HO084' 
 ORDER BY desc_t, carmakcod 

25/6/2014  11:17 >> Application_Name >> getDataPremium
exec sp_calonlineweb 'Y','110','1','3','5 ','JK-HO084','2000','A','A',462982.5,565867.5,'0',0

25/6/2014  11:17 >> Application_Name >> getDataPremium
exec sp_calonlineweb 'Y','110','2','3','5 ','JK-HO084','2000','A','A',462982.5,565867.5,'0',0

25/6/2014  11:17 >> Application_Name >> getDataPremium
exec sp_calonlineweb 'Y','110','3','3','5 ','JK-HO084','2000','A','A',0,0,'0',0

25/6/2014  11:18 >> Application_Name >> getDataPremium
exec sp_calonlineweb 'Y','110','1','3','5 ','JK-HO084','2000','A','A',462982.5,565867.5,'0',30

25/6/2014  11:18 >> Application_Name >> getDataPremium
exec sp_calonlineweb 'Y','110','2','3','5 ','JK-HO084','2000','A','A',462982.5,565867.5,'0',30

25/6/2014  11:18 >> Application_Name >> getDataPremium
exec sp_calonlineweb 'Y','110','3','3','5 ','JK-HO084','2000','A','A',0,0,'0',30

25/6/2014  11:19 >> Application_Name >> getCategoryCompByBrand
SELECT mdc_minor_cd , mdc_desc_t as mdc_desc FROM mtdesc_comp  WHERE mdc_minor_cd <> '0000' AND mdc_major_cd = 'H004' ORDER BY mdc_desc 

25/6/2014  11:20 >> Application_Name >> getDataCarMarkByCarMarkCode
SELECT * 
 FROM online_carmark 
 WHERE carmakcod = '' 
 ORDER BY desc_t, carmakcod 

25/6/2014  11:20 >> Application_Name >> getDataCarMarkByCarMarkCode
SELECT * 
 FROM online_carmark 
 WHERE carmakcod = '' 
 ORDER BY desc_t, carmakcod 

25/6/2014  11:22 >> Application_Name >> getNewPremium - compprmm
SELECT cp_com_prmm, cp_stamp, cp_tax FROM comprmm WHERE cp_veh_cd = '1.10   '

25/6/2014  11:26 >> Application_Name >> getDataCarMarkByCarMarkCode
SELECT * 
 FROM online_carmark 
 WHERE carmakcod = '' 
 ORDER BY desc_t, carmakcod 

25/6/2014  11:26 >> Application_Name >> getDataCarMarkByCarMarkCode
SELECT * 
 FROM online_carmark 
 WHERE carmakcod = 'JK-NI028' 
 ORDER BY desc_t, carmakcod 

25/6/2014  11:30 >> Application_Name >> getDataCarMarkByCarMarkCode
SELECT * 
 FROM online_carmark 
 WHERE carmakcod = '' 
 ORDER BY desc_t, carmakcod 

25/6/2014  11:30 >> Application_Name >> getDataCarMarkByCarMarkCode
SELECT * 
 FROM online_carmark 
 WHERE carmakcod = 'JK-HO001' 
 ORDER BY desc_t, carmakcod 

25/6/2014  11:33 >> Application_Name >> getDataPremium
exec sp_calonlineweb 'Y','110','1','2','5 ','JK-HO001','2000','A','A',470250,574750,'0',20

25/6/2014  11:33 >> Application_Name >> getDataPremium
exec sp_calonlineweb 'Y','110','2','2','5 ','JK-HO001','2000','A','A',470250,574750,'0',20

25/6/2014  11:33 >> Application_Name >> getDataPremium
exec sp_calonlineweb 'Y','110','3','2','5 ','JK-HO001','2000','A','A',0,0,'0',20

25/6/2014  11:36 >> Application_Name >> getDataCarMarkByCarMarkCode
SELECT * 
 FROM online_carmark 
 WHERE carmakcod = '' 
 ORDER BY desc_t, carmakcod 

25/6/2014  11:36 >> Application_Name >> getDataCarMarkByCarMarkCode
SELECT * 
 FROM online_carmark 
 WHERE carmakcod = 'JK-NI028' 
 ORDER BY desc_t, carmakcod 

25/6/2014  11:39 >> Application_Name >> getDataPremium
exec sp_calonlineweb 'Y','110','1','6','5 ','JK-NI028','2000','A','A',299453.2228125,365998.3834375,'36',0

25/6/2014  11:39 >> Application_Name >> getDataPremium
exec sp_calonlineweb 'Y','110','2','6','5 ','JK-NI028','2000','A','A',299453.2228125,365998.3834375,'36',0

25/6/2014  11:39 >> Application_Name >> getDataPremium
exec sp_calonlineweb 'Y','110','3','6','5 ','JK-NI028','2000','A','A',0,0,'36',0

25/6/2014  11:55 >> Application_Name >> getDataCarMarkByCarMarkCode
SELECT * 
 FROM online_carmark 
 WHERE carmakcod = '' 
 ORDER BY desc_t, carmakcod 

25/6/2014  11:56 >> Application_Name >> getDataCarMarkByCarMarkCode
SELECT * 
 FROM online_carmark 
 WHERE carmakcod = 'JK-HO001' 
 ORDER BY desc_t, carmakcod 

25/6/2014  11:58 >> Application_Name >> getDataPremium
exec sp_calonlineweb 'Y','110','1','2','5 ','JK-HO001','2000','A','A',470250,574750,'0',30

25/6/2014  11:58 >> Application_Name >> getDataPremium
exec sp_calonlineweb 'Y','110','2','2','5 ','JK-HO001','2000','A','A',470250,574750,'0',30

25/6/2014  11:58 >> Application_Name >> getDataPremium
exec sp_calonlineweb 'Y','110','3','2','5 ','JK-HO001','2000','A','A',0,0,'0',30

25/6/2014  11:59 >> Application_Name >> getDataPremium
exec sp_calonlineweb 'Y','110','1','2','5 ','JK-HO001','2000','A','A',470250,574750,'0',30

25/6/2014  11:59 >> Application_Name >> getDataPremium
exec sp_calonlineweb 'Y','110','2','2','5 ','JK-HO001','2000','A','A',470250,574750,'0',30

25/6/2014  11:59 >> Application_Name >> getDataPremium
exec sp_calonlineweb 'Y','110','3','2','5 ','JK-HO001','2000','A','A',0,0,'0',30

25/6/2014  11:59 >> Application_Name >> getDataPremium
exec sp_calonlineweb 'Y','110','1','2','5 ','JK-HO001','2000','A','A',470250,574750,'0',30

25/6/2014  11:59 >> Application_Name >> getDataPremium
exec sp_calonlineweb 'Y','110','2','2','5 ','JK-HO001','2000','A','A',470250,574750,'0',30

25/6/2014  11:59 >> Application_Name >> getDataPremium
exec sp_calonlineweb 'Y','110','3','2','5 ','JK-HO001','2000','A','A',0,0,'0',30

25/6/2014  11:59 >> Application_Name >> SMK :: BuyVoluntary_step2-docToUI
Combine

25/6/2014  11:59 >> Application_Name >> SMK :: BuyVoluntary_step2-docToUI
rg_prmm-011419.8

25/6/2014  11:59 >> Application_Name >> SMK :: BuyVoluntary_step2-docToUI
rg_prmm11419.8

25/6/2014  11:59 >> Application_Name >> SMK :: BuyVoluntary_step2-docToUI
cp_comp_prmm600.00

25/6/2014  12:0 >> Application_Name >> getDataCarMarkByCarMarkCode
SELECT * 
 FROM online_carmark 
 WHERE carmakcod = '' 
 ORDER BY desc_t, carmakcod 

25/6/2014  12:0 >> Application_Name >> getDataCarMarkByCarMarkCode
SELECT * 
 FROM online_carmark 
 WHERE carmakcod = 'JK-HO001' 
 ORDER BY desc_t, carmakcod 

25/6/2014  12:20 >> Application_Name >> getDataCarMarkByCarMarkCode
SELECT * 
 FROM online_carmark 
 WHERE carmakcod = '' 
 ORDER BY desc_t, carmakcod 

25/6/2014  12:20 >> Application_Name >> getDataCarMarkByCarMarkCode
SELECT * 
 FROM online_carmark 
 WHERE carmakcod = 'JK-HO061' 
 ORDER BY desc_t, carmakcod 

25/6/2014  13:9 >> Application_Name >> getDataCarMarkByCarMarkCode
SELECT * 
 FROM online_carmark 
 WHERE carmakcod = '' 
 ORDER BY desc_t, carmakcod 

25/6/2014  13:10 >> Application_Name >> getDataCarMarkByCarMarkCode
SELECT * 
 FROM online_carmark 
 WHERE carmakcod = 'JK-IS021' 
 ORDER BY desc_t, carmakcod 

25/6/2014  13:12 >> Application_Name >> getDataPremium
exec sp_calonlineweb 'N','110','1','2','3 ','JK-IS021','9999','A','A',495900,606100,'0',0

25/6/2014  13:12 >> Application_Name >> getDataPremium
exec sp_calonlineweb 'N','110','2','2','3 ','JK-IS021','9999','A','A',495900,606100,'0',0

25/6/2014  13:12 >> Application_Name >> getDataPremium
exec sp_calonlineweb 'N','110','3','2','3 ','JK-IS021','9999','A','A',0,0,'0',0

25/6/2014  13:20 >> Application_Name >> getDataPremium
exec sp_calonlineweb 'N','110','1','2','5 ','JK-HO001','2000','A','A',470250,574750,'0',30

25/6/2014  13:20 >> Application_Name >> getDataPremium
exec sp_calonlineweb 'N','110','2','2','5 ','JK-HO001','2000','A','A',470250,574750,'0',30

25/6/2014  13:20 >> Application_Name >> getDataPremium
exec sp_calonlineweb 'N','110','3','2','5 ','JK-HO001','2000','A','A',0,0,'0',30

25/6/2014  13:24 >> Application_Name >> getDataPremium
exec sp_calonlineweb 'N','110','1','2','5 ','JK-HO001','2000','A','A',470250,574750,'0',30

25/6/2014  13:24 >> Application_Name >> getDataPremium
exec sp_calonlineweb 'N','110','2','2','5 ','JK-HO001','2000','A','A',470250,574750,'0',30

25/6/2014  13:24 >> Application_Name >> getDataPremium
exec sp_calonlineweb 'N','110','3','2','5 ','JK-HO001','2000','A','A',0,0,'0',30

25/6/2014  13:31 >> Application_Name >> getDataCarMarkByCarMarkCode
SELECT * 
 FROM online_carmark 
 WHERE carmakcod = '' 
 ORDER BY desc_t, carmakcod 

25/6/2014  13:31 >> Application_Name >> getDataCarMarkByCarMarkCode
SELECT * 
 FROM online_carmark 
 WHERE carmakcod = '' 
 ORDER BY desc_t, carmakcod 

25/6/2014  13:31 >> Application_Name >> getDataCarMarkByCarMarkCode
SELECT * 
 FROM online_carmark 
 WHERE carmakcod = '' 
 ORDER BY desc_t, carmakcod 

25/6/2014  13:32 >> Application_Name >> getDataCarMarkByCarMarkCode
SELECT * 
 FROM online_carmark 
 WHERE carmakcod = '' 
 ORDER BY desc_t, carmakcod 

25/6/2014  13:37 >> Application_Name >> getDataCarMarkByCarMarkCode
SELECT * 
 FROM online_carmark 
 WHERE carmakcod = '' 
 ORDER BY desc_t, carmakcod 

25/6/2014  13:37 >> Application_Name >> getDataCarMarkByCarMarkCode
SELECT * 
 FROM online_carmark 
 WHERE carmakcod = 'JK-SZ023' 
 ORDER BY desc_t, carmakcod 

25/6/2014  13:38 >> Application_Name >> getDataPremium
exec sp_calonlineweb 'N','110','1','2','5 ','JK-SZ023','2000','A','A',470250,574750,'25',0

25/6/2014  13:38 >> Application_Name >> getDataPremium
exec sp_calonlineweb 'N','110','2','2','5 ','JK-SZ023','2000','A','A',470250,574750,'25',0

25/6/2014  13:38 >> Application_Name >> getDataPremium
exec sp_calonlineweb 'N','110','3','2','5 ','JK-SZ023','2000','A','A',0,0,'25',0

25/6/2014  13:42 >> Application_Name >> getDataCarMarkByCarMarkCode
SELECT * 
 FROM online_carmark 
 WHERE carmakcod = '' 
 ORDER BY desc_t, carmakcod 

25/6/2014  13:42 >> Application_Name >> getDataCarMarkByCarMarkCode
SELECT * 
 FROM online_carmark 
 WHERE carmakcod = 'JK-HO001' 
 ORDER BY desc_t, carmakcod 

25/6/2014  13:48 >> Application_Name >> getDataPremium
exec sp_calonlineweb 'N','110','1','2','5 ','JK-SZ023','2000','A','A',470250,574750,'25',0

25/6/2014  13:48 >> Application_Name >> getDataPremium
exec sp_calonlineweb 'N','110','2','2','5 ','JK-SZ023','2000','A','A',470250,574750,'25',0

25/6/2014  13:48 >> Application_Name >> getDataPremium
exec sp_calonlineweb 'N','110','3','2','5 ','JK-SZ023','2000','A','A',0,0,'25',0

25/6/2014  13:49 >> Application_Name >> getDataCarMarkByCarMarkCode
SELECT * 
 FROM online_carmark 
 WHERE carmakcod = '' 
 ORDER BY desc_t, carmakcod 

25/6/2014  13:49 >> Application_Name >> getDataPremium
exec sp_calonlineweb 'N','110','1','2','5 ','JK-SZ023','2000','A','A',470250,574750,'25',0

25/6/2014  13:49 >> Application_Name >> getDataPremium
exec sp_calonlineweb 'N','110','2','2','5 ','JK-SZ023','2000','A','A',470250,574750,'25',0

25/6/2014  13:49 >> Application_Name >> getDataPremium
exec sp_calonlineweb 'N','110','3','2','5 ','JK-SZ023','2000','A','A',0,0,'25',0

25/6/2014  13:49 >> Application_Name >> getDataCarMarkByCarMarkCode
SELECT * 
 FROM online_carmark 
 WHERE carmakcod = 'JK-TO240' 
 ORDER BY desc_t, carmakcod 

25/6/2014  13:49 >> Application_Name >> getDataPremium
exec sp_calonlineweb 'N','110','1','2','5 ','JK-SZ023','2000','A','A',470250,574750,'25',0

25/6/2014  13:49 >> Application_Name >> getDataPremium
exec sp_calonlineweb 'N','110','2','2','5 ','JK-SZ023','2000','A','A',470250,574750,'25',0

25/6/2014  13:49 >> Application_Name >> getDataPremium
exec sp_calonlineweb 'N','110','3','2','5 ','JK-SZ023','2000','A','A',0,0,'25',0

25/6/2014  13:49 >> Application_Name >> getDataPremium
exec sp_calonlineweb 'N','110','1','2','5 ','JK-SZ023','2000','A','A',470250,574750,'25',0

25/6/2014  13:49 >> Application_Name >> getDataPremium
exec sp_calonlineweb 'N','110','2','2','5 ','JK-SZ023','2000','A','A',470250,574750,'25',0

25/6/2014  13:49 >> Application_Name >> getDataPremium
exec sp_calonlineweb 'N','110','3','2','5 ','JK-SZ023','2000','A','A',0,0,'25',0

25/6/2014  13:50 >> Application_Name >> getDataPremium
exec sp_calonlineweb 'N','110','1','2','5 ','JK-SZ023','2000','A','A',470250,574750,'25',0

25/6/2014  13:50 >> Application_Name >> getDataPremium
exec sp_calonlineweb 'N','110','2','2','5 ','JK-SZ023','2000','A','A',470250,574750,'25',0

25/6/2014  13:50 >> Application_Name >> getDataPremium
exec sp_calonlineweb 'N','110','3','2','5 ','JK-SZ023','2000','A','A',0,0,'25',0

25/6/2014  13:51 >> Application_Name >> getDataPremium
exec sp_calonlineweb 'N','110','1','2','5 ','JK-SZ023','2000','A','A',470250,574750,'25',0

25/6/2014  13:51 >> Application_Name >> getDataPremium
exec sp_calonlineweb 'N','110','2','2','5 ','JK-SZ023','2000','A','A',470250,574750,'25',0

25/6/2014  13:51 >> Application_Name >> getDataPremium
exec sp_calonlineweb 'N','110','3','2','5 ','JK-SZ023','2000','A','A',0,0,'25',0

25/6/2014  13:58 >> Application_Name >> getDataCarMarkByCarMarkCode
SELECT * 
 FROM online_carmark 
 WHERE carmakcod = '' 
 ORDER BY desc_t, carmakcod 

25/6/2014  13:58 >> Application_Name >> getDataCarMarkByCarMarkCode
SELECT * 
 FROM online_carmark 
 WHERE carmakcod = 'JK-NI028' 
 ORDER BY desc_t, carmakcod 

25/6/2014  13:59 >> Application_Name >> getDataCarMarkByCarMarkCode
SELECT * 
 FROM online_carmark 
 WHERE carmakcod = '' 
 ORDER BY desc_t, carmakcod 

25/6/2014  13:59 >> Application_Name >> getDataCarMarkByCarMarkCode
SELECT * 
 FROM online_carmark 
 WHERE carmakcod = 'JK-MA065' 
 ORDER BY desc_t, carmakcod 

25/6/2014  13:59 >> Application_Name >> getDataCarMarkByCarMarkCode
SELECT * 
 FROM online_carmark 
 WHERE carmakcod = 'JK-SZ004' 
 ORDER BY desc_t, carmakcod 

25/6/2014  13:59 >> Application_Name >> getDataPremium
exec sp_calonlineweb 'Y','110','1','2','5 ','JK-NI028','2000','A','A',367650,449350,'0',0

25/6/2014  13:59 >> Application_Name >> getDataPremium
exec sp_calonlineweb 'Y','110','2','2','5 ','JK-NI028','2000','A','A',367650,449350,'0',0

25/6/2014  13:59 >> Application_Name >> getDataPremium
exec sp_calonlineweb 'Y','110','3','2','5 ','JK-NI028','2000','A','A',0,0,'0',0

25/6/2014  14:4 >> Application_Name >> getDataCarMarkByCarMarkCode
SELECT * 
 FROM online_carmark 
 WHERE carmakcod = '' 
 ORDER BY desc_t, carmakcod 

25/6/2014  14:4 >> Application_Name >> getDataCarMarkByCarMarkCode
SELECT * 
 FROM online_carmark 
 WHERE carmakcod = '' 
 ORDER BY desc_t, carmakcod 

25/6/2014  14:10 >> Application_Name >> getDataCarMarkByCarMarkCode
SELECT * 
 FROM online_carmark 
 WHERE carmakcod = '' 
 ORDER BY desc_t, carmakcod 

25/6/2014  14:10 >> Application_Name >> getDataCarMarkByCarMarkCode
SELECT * 
 FROM online_carmark 
 WHERE carmakcod = 'JK-TO242' 
 ORDER BY desc_t, carmakcod 

25/6/2014  14:12 >> Application_Name >> getDataCarMarkByCarMarkCode
SELECT * 
 FROM online_carmark 
 WHERE carmakcod = '' 
 ORDER BY desc_t, carmakcod 

25/6/2014  14:12 >> Application_Name >> getDataCarMarkByCarMarkCode
SELECT * 
 FROM online_carmark 
 WHERE carmakcod = 'JK-SZ023' 
 ORDER BY desc_t, carmakcod 

25/6/2014  14:13 >> Application_Name >> getDataPremium
exec sp_calonlineweb 'N','110','1','2','5 ','JK-SZ023','2000','A','A',470250,574750,'25',0

25/6/2014  14:13 >> Application_Name >> getDataPremium
exec sp_calonlineweb 'N','110','2','2','5 ','JK-SZ023','2000','A','A',470250,574750,'25',0

25/6/2014  14:13 >> Application_Name >> getDataPremium
exec sp_calonlineweb 'N','110','3','2','5 ','JK-SZ023','2000','A','A',0,0,'25',0

25/6/2014  14:26 >> Application_Name >> getDataCarMarkByCarMarkCode
SELECT * 
 FROM online_carmark 
 WHERE carmakcod = '' 
 ORDER BY desc_t, carmakcod 

25/6/2014  14:27 >> Application_Name >> getDataCarMarkByCarMarkCode
SELECT * 
 FROM online_carmark 
 WHERE carmakcod = '' 
 ORDER BY desc_t, carmakcod 

25/6/2014  14:27 >> Application_Name >> getDataCarMarkByCarMarkCode
SELECT * 
 FROM online_carmark 
 WHERE carmakcod = '' 
 ORDER BY desc_t, carmakcod 

25/6/2014  14:27 >> Application_Name >> getDataCarMarkByCarMarkCode
SELECT * 
 FROM online_carmark 
 WHERE carmakcod = '' 
 ORDER BY desc_t, carmakcod 

25/6/2014  14:27 >> Application_Name >> getDataCarMarkByCarMarkCode
SELECT * 
 FROM online_carmark 
 WHERE carmakcod = 'JP-IS052' 
 ORDER BY desc_t, carmakcod 

25/6/2014  14:31 >> Application_Name >> getDataCarMarkByCarMarkCode
SELECT * 
 FROM online_carmark 
 WHERE carmakcod = '' 
 ORDER BY desc_t, carmakcod 

25/6/2014  14:32 >> Application_Name >> getDataCarMarkByCarMarkCode
SELECT * 
 FROM online_carmark 
 WHERE carmakcod = 'JK-HO084' 
 ORDER BY desc_t, carmakcod 

25/6/2014  14:33 >> Application_Name >> getDataPremium
exec sp_calonlineweb 'Y','110','1','3','5 ','JK-HO084','2000','A','A',462982.5,565867.5,'0',0

25/6/2014  14:33 >> Application_Name >> getDataPremium
exec sp_calonlineweb 'Y','110','2','3','5 ','JK-HO084','2000','A','A',462982.5,565867.5,'0',0

25/6/2014  14:33 >> Application_Name >> getDataPremium
exec sp_calonlineweb 'Y','110','3','3','5 ','JK-HO084','2000','A','A',0,0,'0',0

25/6/2014  14:46 >> Application_Name >> getDataCarMarkByCarMarkCode
SELECT * 
 FROM online_carmark 
 WHERE carmakcod = '' 
 ORDER BY desc_t, carmakcod 

25/6/2014  14:47 >> Application_Name >> getDataCarMarkByCarMarkCode
SELECT * 
 FROM online_carmark 
 WHERE carmakcod = 'JK-SZ004' 
 ORDER BY desc_t, carmakcod 

25/6/2014  14:47 >> Application_Name >> getDataCarMarkByCarMarkCode
SELECT * 
 FROM online_carmark 
 WHERE carmakcod = '' 
 ORDER BY desc_t, carmakcod 

25/6/2014  14:47 >> Application_Name >> getDataCarMarkByCarMarkCode
SELECT * 
 FROM online_carmark 
 WHERE carmakcod = '' 
 ORDER BY desc_t, carmakcod 

25/6/2014  14:47 >> Application_Name >> getDataCarMarkByCarMarkCode
SELECT * 
 FROM online_carmark 
 WHERE carmakcod = '' 
 ORDER BY desc_t, carmakcod 

25/6/2014  14:47 >> Application_Name >> getDataCarMarkByCarMarkCode
SELECT * 
 FROM online_carmark 
 WHERE carmakcod = '' 
 ORDER BY desc_t, carmakcod 

25/6/2014  14:47 >> Application_Name >> getDataCarMarkByCarMarkCode
SELECT * 
 FROM online_carmark 
 WHERE carmakcod = 'JK-MI081' 
 ORDER BY desc_t, carmakcod 

25/6/2014  14:47 >> Application_Name >> getDataCarMarkByCarMarkCode
SELECT * 
 FROM online_carmark 
 WHERE carmakcod = 'JP-IS030' 
 ORDER BY desc_t, carmakcod 

25/6/2014  14:49 >> Application_Name >> getDataPremium
exec sp_calonlineweb 'Y','110','1','2','5 ','JK-MI081','2000','A','A',367650,449350,'0',0

25/6/2014  14:49 >> Application_Name >> getDataPremium
exec sp_calonlineweb 'Y','110','2','2','5 ','JK-MI081','2000','A','A',367650,449350,'0',0

25/6/2014  14:49 >> Application_Name >> getDataPremium
exec sp_calonlineweb 'Y','110','3','2','5 ','JK-MI081','2000','A','A',0,0,'0',0

25/6/2014  14:49 >> Application_Name >> getDataPremium
exec sp_calonlineweb 'Y','110','1','2','5 ','JK-MI081','2000','A','A',367650,449350,'0',0

25/6/2014  14:49 >> Application_Name >> getDataPremium
exec sp_calonlineweb 'Y','110','2','2','5 ','JK-MI081','2000','A','A',367650,449350,'0',0

25/6/2014  14:49 >> Application_Name >> getDataPremium
exec sp_calonlineweb 'Y','110','3','2','5 ','JK-MI081','2000','A','A',0,0,'0',0

25/6/2014  14:50 >> Application_Name >> getDataPremium
exec sp_calonlineweb 'Y','110','1','2','5 ','JK-MI081','2000','A','A',367650,449350,'0',0

25/6/2014  14:50 >> Application_Name >> getDataPremium
exec sp_calonlineweb 'Y','110','2','2','5 ','JK-MI081','2000','A','A',367650,449350,'0',0

25/6/2014  14:50 >> Application_Name >> getDataPremium
exec sp_calonlineweb 'Y','110','3','2','5 ','JK-MI081','2000','A','A',0,0,'0',0

25/6/2014  15:6 >> Application_Name >> getDataCarMarkByCarMarkCode
SELECT * 
 FROM online_carmark 
 WHERE carmakcod = '' 
 ORDER BY desc_t, carmakcod 

25/6/2014  15:6 >> Application_Name >> getDataCarMarkByCarMarkCode
SELECT * 
 FROM online_carmark 
 WHERE carmakcod = '' 
 ORDER BY desc_t, carmakcod 

25/6/2014  15:6 >> Application_Name >> getDataCarMarkByCarMarkCode
SELECT * 
 FROM online_carmark 
 WHERE carmakcod = 'JK-NI100' 
 ORDER BY desc_t, carmakcod 

25/6/2014  15:7 >> Application_Name >> getDataPremium
exec sp_calonlineweb 'Y','110','1','3','5 ','JK-NI100','2000','A','A',361000,397100,'0',30

25/6/2014  15:7 >> Application_Name >> getDataPremium
exec sp_calonlineweb 'Y','110','2','3','5 ','JK-NI100','2000','A','A',361000,397100,'0',30

25/6/2014  15:7 >> Application_Name >> getDataPremium
exec sp_calonlineweb 'Y','110','3','3','5 ','JK-NI100','2000','A','A',0,0,'0',30

25/6/2014  15:9 >> Application_Name >> getDataCarMarkByCarMarkCode
SELECT * 
 FROM online_carmark 
 WHERE carmakcod = '' 
 ORDER BY desc_t, carmakcod 

25/6/2014  15:9 >> Application_Name >> getDataCarMarkByCarMarkCode
SELECT * 
 FROM online_carmark 
 WHERE carmakcod = 'JK-MI081' 
 ORDER BY desc_t, carmakcod 

25/6/2014  15:11 >> Application_Name >> getDataPremium
exec sp_calonlineweb 'Y','110','1','2','5 ','JK-MI081','2000','A','A',367650,449350,'0',0

25/6/2014  15:11 >> Application_Name >> getDataPremium
exec sp_calonlineweb 'Y','110','2','2','5 ','JK-MI081','2000','A','A',367650,449350,'0',0

25/6/2014  15:11 >> Application_Name >> getDataPremium
exec sp_calonlineweb 'Y','110','3','2','5 ','JK-MI081','2000','A','A',0,0,'0',0

25/6/2014  15:11 >> Application_Name >> getDataCarMarkByCarMarkCode
SELECT * 
 FROM online_carmark 
 WHERE carmakcod = '' 
 ORDER BY desc_t, carmakcod 

25/6/2014  15:11 >> Application_Name >> getDataCarMarkByCarMarkCode
SELECT * 
 FROM online_carmark 
 WHERE carmakcod = 'JK-TO242' 
 ORDER BY desc_t, carmakcod 

25/6/2014  15:12 >> Application_Name >> getDataCarMarkByCarMarkCode
SELECT * 
 FROM online_carmark 
 WHERE carmakcod = '' 
 ORDER BY desc_t, carmakcod 

25/6/2014  15:12 >> Application_Name >> getDataCarMarkByCarMarkCode
SELECT * 
 FROM online_carmark 
 WHERE carmakcod = 'JK-HO084' 
 ORDER BY desc_t, carmakcod 

25/6/2014  15:15 >> Application_Name >> getDataPremium
exec sp_calonlineweb 'Y','110','1','3','5 ','JK-HO084','2000','A','A',462982.5,565867.5,'0',20

25/6/2014  15:15 >> Application_Name >> getDataPremium
exec sp_calonlineweb 'Y','110','2','3','5 ','JK-HO084','2000','A','A',462982.5,565867.5,'0',20

25/6/2014  15:15 >> Application_Name >> getDataPremium
exec sp_calonlineweb 'Y','110','3','3','5 ','JK-HO084','2000','A','A',0,0,'0',20

25/6/2014  15:15 >> Application_Name >> getDataCarMarkByCarMarkCode
SELECT * 
 FROM online_carmark 
 WHERE carmakcod = '' 
 ORDER BY desc_t, carmakcod 

25/6/2014  15:16 >> Application_Name >> getDataCarMarkByCarMarkCode
SELECT * 
 FROM online_carmark 
 WHERE carmakcod = 'JK-MI081' 
 ORDER BY desc_t, carmakcod 

25/6/2014  15:19 >> Application_Name >> getDataCarMarkByCarMarkCode
SELECT * 
 FROM online_carmark 
 WHERE carmakcod = '' 
 ORDER BY desc_t, carmakcod 

25/6/2014  15:20 >> Application_Name >> getDataCarMarkByCarMarkCode
SELECT * 
 FROM online_carmark 
 WHERE carmakcod = '' 
 ORDER BY desc_t, carmakcod 

25/6/2014  15:21 >> Application_Name >> getDataCarMarkByCarMarkCode
SELECT * 
 FROM online_carmark 
 WHERE carmakcod = 'JK-MA065' 
 ORDER BY desc_t, carmakcod 

25/6/2014  15:28 >> Application_Name >> getDataCarMarkByCarMarkCode
SELECT * 
 FROM online_carmark 
 WHERE carmakcod = '' 
 ORDER BY desc_t, carmakcod 

25/6/2014  15:28 >> Application_Name >> getDataCarMarkByCarMarkCode
SELECT * 
 FROM online_carmark 
 WHERE carmakcod = '' 
 ORDER BY desc_t, carmakcod 

25/6/2014  15:28 >> Application_Name >> getDataCarMarkByCarMarkCode
SELECT * 
 FROM online_carmark 
 WHERE carmakcod = 'JK-HO001' 
 ORDER BY desc_t, carmakcod 

25/6/2014  15:29 >> Application_Name >> getDataCarMarkByCarMarkCode
SELECT * 
 FROM online_carmark 
 WHERE carmakcod = '' 
 ORDER BY desc_t, carmakcod 

25/6/2014  15:29 >> Application_Name >> getDataCarMarkByCarMarkCode
SELECT * 
 FROM online_carmark 
 WHERE carmakcod = 'JK-HO001' 
 ORDER BY desc_t, carmakcod 

25/6/2014  15:30 >> Application_Name >> getDataPremium
exec sp_calonlineweb 'Y','110','1','2','5 ','JK-HO001','2000','A','A',470250,574750,'0',0

25/6/2014  15:30 >> Application_Name >> getDataPremium
exec sp_calonlineweb 'Y','110','2','2','5 ','JK-HO001','2000','A','A',470250,574750,'0',0

25/6/2014  15:30 >> Application_Name >> getDataPremium
exec sp_calonlineweb 'Y','110','3','2','5 ','JK-HO001','2000','A','A',0,0,'0',0

25/6/2014  15:32 >> Application_Name >> getDataCarMarkByCarMarkCode
SELECT * 
 FROM online_carmark 
 WHERE carmakcod = '' 
 ORDER BY desc_t, carmakcod 

25/6/2014  15:32 >> Application_Name >> getDataCarMarkByCarMarkCode
SELECT * 
 FROM online_carmark 
 WHERE carmakcod = 'JK-HO122' 
 ORDER BY desc_t, carmakcod 

25/6/2014  15:34 >> Application_Name >> getDataPremium
exec sp_calonlineweb 'N','110','1','2','5 ','JK-HO122','2000','A','A',427500,522500,'25',0

25/6/2014  15:34 >> Application_Name >> getDataPremium
exec sp_calonlineweb 'N','110','2','2','5 ','JK-HO122','2000','A','A',427500,522500,'25',0

25/6/2014  15:34 >> Application_Name >> getDataPremium
exec sp_calonlineweb 'N','110','3','2','5 ','JK-HO122','2000','A','A',0,0,'25',0

25/6/2014  15:37 >> Application_Name >> getDataCarMarkByCarMarkCode
SELECT * 
 FROM online_carmark 
 WHERE carmakcod = '' 
 ORDER BY desc_t, carmakcod 

25/6/2014  15:38 >> Application_Name >> getCategoryCompByBrand
SELECT mdc_minor_cd , mdc_desc_t as mdc_desc FROM mtdesc_comp  WHERE mdc_minor_cd <> '0000' AND mdc_major_cd = 'H004' ORDER BY mdc_desc 

25/6/2014  15:39 >> Application_Name >> getDataCarMarkByCarMarkCode
SELECT * 
 FROM online_carmark 
 WHERE carmakcod = '' 
 ORDER BY desc_t, carmakcod 

25/6/2014  15:39 >> Application_Name >> getDataCarMarkByCarMarkCode
SELECT * 
 FROM online_carmark 
 WHERE carmakcod = '' 
 ORDER BY desc_t, carmakcod 

25/6/2014  15:39 >> Application_Name >> getDataCarMarkByCarMarkCode
SELECT * 
 FROM online_carmark 
 WHERE carmakcod = 'JK-HO001' 
 ORDER BY desc_t, carmakcod 

25/6/2014  15:39 >> Application_Name >> getDataCarMarkByCarMarkCode
SELECT * 
 FROM online_carmark 
 WHERE carmakcod = '' 
 ORDER BY desc_t, carmakcod 

25/6/2014  15:39 >> Application_Name >> getDataCarMarkByCarMarkCode
SELECT * 
 FROM online_carmark 
 WHERE carmakcod = 'JK-SZ004' 
 ORDER BY desc_t, carmakcod 

25/6/2014  15:40 >> Application_Name >> getDataPremium
exec sp_calonlineweb 'Y','110','1','2','5 ','JK-HO001','2000','A','A',470250,574750,'0',0

25/6/2014  15:40 >> Application_Name >> getDataPremium
exec sp_calonlineweb 'Y','110','2','2','5 ','JK-HO001','2000','A','A',470250,574750,'0',0

25/6/2014  15:40 >> Application_Name >> getDataPremium
exec sp_calonlineweb 'Y','110','3','2','5 ','JK-HO001','2000','A','A',0,0,'0',0

25/6/2014  15:40 >> Application_Name >> getDataCarMarkByCarMarkCode
SELECT * 
 FROM online_carmark 
 WHERE carmakcod = '' 
 ORDER BY desc_t, carmakcod 

25/6/2014  15:40 >> Application_Name >> getDataPremium
exec sp_calonlineweb 'Y','110','1','3','5 ','JK-HO001','2000','A','A',446737.5,546012.5,'0',0

25/6/2014  15:40 >> Application_Name >> getDataPremium
exec sp_calonlineweb 'Y','110','2','3','5 ','JK-HO001','2000','A','A',446737.5,546012.5,'0',0

25/6/2014  15:40 >> Application_Name >> getDataPremium
exec sp_calonlineweb 'Y','110','3','3','5 ','JK-HO001','2000','A','A',0,0,'0',0

25/6/2014  15:41 >> Application_Name >> getDataPremium
exec sp_calonlineweb 'Y','110','1','2','5 ','JK-SZ004','2000','A','A',342000,380000,'25',0

25/6/2014  15:41 >> Application_Name >> getDataPremium
exec sp_calonlineweb 'Y','110','2','2','5 ','JK-SZ004','2000','A','A',342000,380000,'25',0

25/6/2014  15:41 >> Application_Name >> getDataPremium
exec sp_calonlineweb 'Y','110','3','2','5 ','JK-SZ004','2000','A','A',0,0,'25',0

25/6/2014  15:58 >> Application_Name >> getDataCarMarkByCarMarkCode
SELECT * 
 FROM online_carmark 
 WHERE carmakcod = '' 
 ORDER BY desc_t, carmakcod 

25/6/2014  15:58 >> Application_Name >> getDataCarMarkByCarMarkCode
SELECT * 
 FROM online_carmark 
 WHERE carmakcod = 'JK-HO001' 
 ORDER BY desc_t, carmakcod 

25/6/2014  15:59 >> Application_Name >> getDataPremium
exec sp_calonlineweb 'Y','110','1','1','5 ','JK-HO001','2000','A','A',495000,605000,'0',20

25/6/2014  15:59 >> Application_Name >> getDataPremium
exec sp_calonlineweb 'Y','110','2','1','5 ','JK-HO001','2000','A','A',495000,605000,'0',20

25/6/2014  15:59 >> Application_Name >> getDataPremium
exec sp_calonlineweb 'Y','110','3','1','5 ','JK-HO001','2000','A','A',0,0,'0',20

25/6/2014  16:7 >> Application_Name >> getDataCarMarkByCarMarkCode
SELECT * 
 FROM online_carmark 
 WHERE carmakcod = '' 
 ORDER BY desc_t, carmakcod 

25/6/2014  16:7 >> Application_Name >> getDataCarMarkByCarMarkCode
SELECT * 
 FROM online_carmark 
 WHERE carmakcod = 'JK-HO001' 
 ORDER BY desc_t, carmakcod 

25/6/2014  16:7 >> Application_Name >> getDataCarMarkByCarMarkCode
SELECT * 
 FROM online_carmark 
 WHERE carmakcod = '' 
 ORDER BY desc_t, carmakcod 

25/6/2014  16:7 >> Application_Name >> getDataCarMarkByCarMarkCode
SELECT * 
 FROM online_carmark 
 WHERE carmakcod = 'JK-SZ004' 
 ORDER BY desc_t, carmakcod 

25/6/2014  16:8 >> Application_Name >> getDataPremium
exec sp_calonlineweb 'N','110','1','3','5 ','JK-SZ004','2000','A','A',324900,361000,'25',0

25/6/2014  16:8 >> Application_Name >> getDataPremium
exec sp_calonlineweb 'N','110','2','3','5 ','JK-SZ004','2000','A','A',324900,361000,'25',0

25/6/2014  16:8 >> Application_Name >> getDataPremium
exec sp_calonlineweb 'N','110','3','3','5 ','JK-SZ004','2000','A','A',0,0,'25',0

25/6/2014  16:8 >> Application_Name >> getDataCarMarkByCarMarkCode
SELECT * 
 FROM online_carmark 
 WHERE carmakcod = '' 
 ORDER BY desc_t, carmakcod 

25/6/2014  16:19 >> Application_Name >> getDataCarMarkByCarMarkCode
SELECT * 
 FROM online_carmark 
 WHERE carmakcod = '' 
 ORDER BY desc_t, carmakcod 

25/6/2014  16:19 >> Application_Name >> getDataCarMarkByCarMarkCode
SELECT * 
 FROM online_carmark 
 WHERE carmakcod = 'JK-HO001' 
 ORDER BY desc_t, carmakcod 

25/6/2014  16:20 >> Application_Name >> getDataCarMarkByCarMarkCode
SELECT * 
 FROM online_carmark 
 WHERE carmakcod = '' 
 ORDER BY desc_t, carmakcod 

25/6/2014  16:20 >> Application_Name >> getDataCarMarkByCarMarkCode
SELECT * 
 FROM online_carmark 
 WHERE carmakcod = 'JK-TO242' 
 ORDER BY desc_t, carmakcod 

25/6/2014  16:21 >> Application_Name >> getDataPremium
exec sp_calonlineweb 'N','110','1','6','5 ','JK-HO001','2000','A','A',383021.5640625,468137.4671875,'25',0

25/6/2014  16:21 >> Application_Name >> getDataPremium
exec sp_calonlineweb 'N','110','2','6','5 ','JK-HO001','2000','A','A',383021.5640625,468137.4671875,'25',0

25/6/2014  16:21 >> Application_Name >> getDataPremium
exec sp_calonlineweb 'N','110','3','6','5 ','JK-HO001','2000','A','A',0,0,'25',0

25/6/2014  16:22 >> Application_Name >> getDataPremium
exec sp_calonlineweb 'N','110','1','3','5 ','JK-SZ004','2000','A','A',324900,361000,'25',0

25/6/2014  16:22 >> Application_Name >> getDataPremium
exec sp_calonlineweb 'N','110','2','3','5 ','JK-SZ004','2000','A','A',324900,361000,'25',0

25/6/2014  16:22 >> Application_Name >> getDataPremium
exec sp_calonlineweb 'N','110','3','3','5 ','JK-SZ004','2000','A','A',0,0,'25',0

25/6/2014  16:28 >> Application_Name >> getDataCarMarkByCarMarkCode
SELECT * 
 FROM online_carmark 
 WHERE carmakcod = '' 
 ORDER BY desc_t, carmakcod 

25/6/2014  16:28 >> Application_Name >> getDataCarMarkByCarMarkCode
SELECT * 
 FROM online_carmark 
 WHERE carmakcod = '' 
 ORDER BY desc_t, carmakcod 

25/6/2014  16:29 >> Application_Name >> getDataCarMarkByCarMarkCode
SELECT * 
 FROM online_carmark 
 WHERE carmakcod = 'JK-TO242' 
 ORDER BY desc_t, carmakcod 

25/6/2014  16:30 >> Application_Name >> getDataPremium
exec sp_calonlineweb 'N','110','1','1','5 ','JK-TO242','2000','A','A',504000,616000,'0',0

25/6/2014  16:30 >> Application_Name >> getDataPremium
exec sp_calonlineweb 'N','110','2','1','5 ','JK-TO242','2000','A','A',504000,616000,'0',0

25/6/2014  16:30 >> Application_Name >> getDataPremium
exec sp_calonlineweb 'N','110','3','1','5 ','JK-TO242','2000','A','A',0,0,'0',0

25/6/2014  16:34 >> Application_Name >> getDataCarMarkByCarMarkCode
SELECT * 
 FROM online_carmark 
 WHERE carmakcod = 'JK-TO234' 
 ORDER BY desc_t, carmakcod 

25/6/2014  16:34 >> Application_Name >> getDataPremium
exec sp_calonlineweb 'N','110','1','1','5 ','JK-TO234','2000','A','A',540000,660000,'0',0

25/6/2014  16:34 >> Application_Name >> getDataPremium
exec sp_calonlineweb 'N','110','2','1','5 ','JK-TO234','2000','A','A',540000,660000,'0',0

25/6/2014  16:34 >> Application_Name >> getDataPremium
exec sp_calonlineweb 'N','110','3','1','5 ','JK-TO234','2000','A','A',0,0,'0',0

25/6/2014  16:36 >> Application_Name >> getDataCarMarkByCarMarkCode
SELECT * 
 FROM online_carmark 
 WHERE carmakcod = 'JK-TO246' 
 ORDER BY desc_t, carmakcod 

25/6/2014  16:36 >> Application_Name >> getDataPremium
exec sp_calonlineweb 'N','110','1','1','4 ','JK-TO246','2000','A','A',827100,1010900,'0',0

25/6/2014  16:36 >> Application_Name >> getDataPremium
exec sp_calonlineweb 'N','110','2','1','4 ','JK-TO246','2000','A','A',827100,1010900,'0',0

25/6/2014  16:36 >> Application_Name >> getDataPremium
exec sp_calonlineweb 'N','110','3','1','4 ','JK-TO246','2000','A','A',0,0,'0',0

25/6/2014  16:37 >> Application_Name >> getDataCarMarkByCarMarkCode
SELECT * 
 FROM online_carmark 
 WHERE carmakcod = '' 
 ORDER BY desc_t, carmakcod 

25/6/2014  16:37 >> Application_Name >> getDataCarMarkByCarMarkCode
SELECT * 
 FROM online_carmark 
 WHERE carmakcod = 'JK-MA065' 
 ORDER BY desc_t, carmakcod 

25/6/2014  16:38 >> Application_Name >> getDataPremium
exec sp_calonlineweb 'N','110','1','1','4 ','JK-TO246','2000','A','A',827100,1010900,'0',0

25/6/2014  16:38 >> Application_Name >> getDataPremium
exec sp_calonlineweb 'N','110','2','1','4 ','JK-TO246','2000','A','A',827100,1010900,'0',0

25/6/2014  16:38 >> Application_Name >> getDataPremium
exec sp_calonlineweb 'N','110','3','1','4 ','JK-TO246','2000','A','A',0,0,'0',0

25/6/2014  16:38 >> Application_Name >> getDataPremium
exec sp_calonlineweb 'N','110','1','1','4 ','JK-TO246','2000','A','A',827100,1010900,'0',0

25/6/2014  16:38 >> Application_Name >> getDataPremium
exec sp_calonlineweb 'N','110','2','1','4 ','JK-TO246','2000','A','A',827100,1010900,'0',0

25/6/2014  16:38 >> Application_Name >> getDataPremium
exec sp_calonlineweb 'N','110','3','1','4 ','JK-TO246','2000','A','A',0,0,'0',0

25/6/2014  16:39 >> Application_Name >> getDataPremium
exec sp_calonlineweb 'N','110','1','1','4 ','JK-TO246','2000','A','A',827100,1010900,'0',0

25/6/2014  16:39 >> Application_Name >> getDataPremium
exec sp_calonlineweb 'N','110','2','1','4 ','JK-TO246','2000','A','A',827100,1010900,'0',0

25/6/2014  16:39 >> Application_Name >> getDataPremium
exec sp_calonlineweb 'N','110','3','1','4 ','JK-TO246','2000','A','A',0,0,'0',0

25/6/2014  16:41 >> Application_Name >> getDataCarMarkByCarMarkCode
SELECT * 
 FROM online_carmark 
 WHERE carmakcod = 'JK-TO234' 
 ORDER BY desc_t, carmakcod 

25/6/2014  16:41 >> Application_Name >> getDataPremium
exec sp_calonlineweb 'N','110','1','1','5 ','JK-TO234','2000','A','A',540000,660000,'0',0

25/6/2014  16:41 >> Application_Name >> getDataPremium
exec sp_calonlineweb 'N','110','2','1','5 ','JK-TO234','2000','A','A',540000,660000,'0',0

25/6/2014  16:41 >> Application_Name >> getDataPremium
exec sp_calonlineweb 'N','110','3','1','5 ','JK-TO234','2000','A','A',0,0,'0',0

25/6/2014  16:42 >> Application_Name >> getDataPremium
exec sp_calonlineweb 'N','110','1','1','5 ','JK-TO234','2000','A','A',540000,660000,'0',0

25/6/2014  16:42 >> Application_Name >> getDataPremium
exec sp_calonlineweb 'N','110','2','1','5 ','JK-TO234','2000','A','A',540000,660000,'0',0

25/6/2014  16:42 >> Application_Name >> getDataPremium
exec sp_calonlineweb 'N','110','3','1','5 ','JK-TO234','2000','A','A',0,0,'0',0

25/6/2014  16:43 >> Application_Name >> getDataCarMarkByCarMarkCode
SELECT * 
 FROM online_carmark 
 WHERE carmakcod = 'JK-TO246' 
 ORDER BY desc_t, carmakcod 

25/6/2014  16:43 >> Application_Name >> getDataPremium
exec sp_calonlineweb 'N','110','1','1','4 ','JK-TO246','2000','A','A',827100,1010900,'0',0

25/6/2014  16:43 >> Application_Name >> getDataPremium
exec sp_calonlineweb 'N','110','2','1','4 ','JK-TO246','2000','A','A',827100,1010900,'0',0

25/6/2014  16:43 >> Application_Name >> getDataPremium
exec sp_calonlineweb 'N','110','3','1','4 ','JK-TO246','2000','A','A',0,0,'0',0

25/6/2014  16:46 >> Application_Name >> getDataCarMarkByCarMarkCode
SELECT * 
 FROM online_carmark 
 WHERE carmakcod = 'JK-TO019' 
 ORDER BY desc_t, carmakcod 

25/6/2014  16:46 >> Application_Name >> getDataPremium
exec sp_calonlineweb 'N','110','1','1','4 ','JK-TO019','2000','A','A',702000,858000,'0',0

25/6/2014  16:46 >> Application_Name >> getDataPremium
exec sp_calonlineweb 'N','110','2','1','4 ','JK-TO019','2000','A','A',702000,858000,'0',0

25/6/2014  16:46 >> Application_Name >> getDataPremium
exec sp_calonlineweb 'N','110','3','1','4 ','JK-TO019','2000','A','A',0,0,'0',0

25/6/2014  16:47 >> Application_Name >> getDataCarMarkByCarMarkCode
SELECT * 
 FROM online_carmark 
 WHERE carmakcod = 'JK-TO206' 
 ORDER BY desc_t, carmakcod 

25/6/2014  16:47 >> Application_Name >> getDataPremium
exec sp_calonlineweb 'N','110','1','1','4 ','JK-TO206','2000','A','A',558000,682000,'0',0

25/6/2014  16:47 >> Application_Name >> getDataPremium
exec sp_calonlineweb 'N','110','2','1','4 ','JK-TO206','2000','A','A',558000,682000,'0',0

25/6/2014  16:47 >> Application_Name >> getDataPremium
exec sp_calonlineweb 'N','110','3','1','4 ','JK-TO206','2000','A','A',0,0,'0',0

25/6/2014  16:47 >> Application_Name >> getDataPremium
exec sp_calonlineweb 'N','110','1','1','4 ','JK-TO206','2000','A','A',558000,682000,'0',0

25/6/2014  16:47 >> Application_Name >> getDataPremium
exec sp_calonlineweb 'N','110','2','1','4 ','JK-TO206','2000','A','A',558000,682000,'0',0

25/6/2014  16:47 >> Application_Name >> getDataPremium
exec sp_calonlineweb 'N','110','3','1','4 ','JK-TO206','2000','A','A',0,0,'0',0

25/6/2014  16:48 >> Application_Name >> getDataCarMarkByCarMarkCode
SELECT * 
 FROM online_carmark 
 WHERE carmakcod = '' 
 ORDER BY desc_t, carmakcod 

25/6/2014  16:49 >> Application_Name >> getDataCarMarkByCarMarkCode
SELECT * 
 FROM online_carmark 
 WHERE carmakcod = 'JP-TO047' 
 ORDER BY desc_t, carmakcod 

25/6/2014  16:49 >> Application_Name >> getDataPremium
exec sp_calonlineweb 'N','210','1','1','A','','2.5','21','A',440800,487200,'0',0

25/6/2014  16:49 >> Application_Name >> BLWorker::executeQuery
Conversion failed when converting the varchar value '2.5' to data type int.

25/6/2014  16:49 >> Application_Name >> BLWorker::SQL
exec sp_calonlineweb 'N','210','1','1','A','','2.5','21','A',440800,487200,'0',0

25/6/2014  16:50 >> Application_Name >> getDataCarMarkByCarMarkCode
SELECT * 
 FROM online_carmark 
 WHERE carmakcod = '' 
 ORDER BY desc_t, carmakcod 

25/6/2014  16:50 >> Application_Name >> getDataCarMarkByCarMarkCode
SELECT * 
 FROM online_carmark 
 WHERE carmakcod = 'JK-TO242' 
 ORDER BY desc_t, carmakcod 

25/6/2014  16:51 >> Application_Name >> getDataPremium
exec sp_calonlineweb 'Y','110','1','3','5 ','JK-TO242','2000','A','A',454860,555940,'0',20

25/6/2014  16:51 >> Application_Name >> getDataPremium
exec sp_calonlineweb 'Y','110','2','3','5 ','JK-TO242','2000','A','A',454860,555940,'0',20

25/6/2014  16:51 >> Application_Name >> getDataPremium
exec sp_calonlineweb 'Y','110','3','3','5 ','JK-TO242','2000','A','A',0,0,'0',20

25/6/2014  16:51 >> Application_Name >> getDataPremium
exec sp_calonlineweb 'Y','110','1','3','5 ','JK-TO242','2000','A','A',454860,555940,'0',20

25/6/2014  16:51 >> Application_Name >> getDataPremium
exec sp_calonlineweb 'Y','110','2','3','5 ','JK-TO242','2000','A','A',454860,555940,'0',20

25/6/2014  16:51 >> Application_Name >> getDataPremium
exec sp_calonlineweb 'Y','110','3','3','5 ','JK-TO242','2000','A','A',0,0,'0',20

25/6/2014  16:57 >> Application_Name >> getDataCarMarkByCarMarkCode
SELECT * 
 FROM online_carmark 
 WHERE carmakcod = '' 
 ORDER BY desc_t, carmakcod 

25/6/2014  16:57 >> Application_Name >> getDataCarMarkByCarMarkCode
SELECT * 
 FROM online_carmark 
 WHERE carmakcod = '' 
 ORDER BY desc_t, carmakcod 

25/6/2014  16:57 >> Application_Name >> getDataCarMarkByCarMarkCode
SELECT * 
 FROM online_carmark 
 WHERE carmakcod = '' 
 ORDER BY desc_t, carmakcod 

25/6/2014  16:57 >> Application_Name >> getDataCarMarkByCarMarkCode
SELECT * 
 FROM online_carmark 
 WHERE carmakcod = '' 
 ORDER BY desc_t, carmakcod 

25/6/2014  16:57 >> Application_Name >> getDataCarMarkByCarMarkCode
SELECT * 
 FROM online_carmark 
 WHERE carmakcod = '' 
 ORDER BY desc_t, carmakcod 

25/6/2014  16:57 >> Application_Name >> getDataCarMarkByCarMarkCode
SELECT * 
 FROM online_carmark 
 WHERE carmakcod = '' 
 ORDER BY desc_t, carmakcod 

25/6/2014  16:57 >> Application_Name >> getDataCarMarkByCarMarkCode
SELECT * 
 FROM online_carmark 
 WHERE carmakcod = '' 
 ORDER BY desc_t, carmakcod 

25/6/2014  16:57 >> Application_Name >> getDataCarMarkByCarMarkCode
SELECT * 
 FROM online_carmark 
 WHERE carmakcod = '' 
 ORDER BY desc_t, carmakcod 

25/6/2014  16:57 >> Application_Name >> getDataCarMarkByCarMarkCode
SELECT * 
 FROM online_carmark 
 WHERE carmakcod = '' 
 ORDER BY desc_t, carmakcod 

25/6/2014  16:57 >> Application_Name >> getDataCarMarkByCarMarkCode
SELECT * 
 FROM online_carmark 
 WHERE carmakcod = '' 
 ORDER BY desc_t, carmakcod 

25/6/2014  16:57 >> Application_Name >> getDataCarMarkByCarMarkCode
SELECT * 
 FROM online_carmark 
 WHERE carmakcod = '' 
 ORDER BY desc_t, carmakcod 

25/6/2014  16:57 >> Application_Name >> getDataCarMarkByCarMarkCode
SELECT * 
 FROM online_carmark 
 WHERE carmakcod = 'EK-FO069' 
 ORDER BY desc_t, carmakcod 

25/6/2014  16:57 >> Application_Name >> getDataCarMarkByCarMarkCode
SELECT * 
 FROM online_carmark 
 WHERE carmakcod = '' 
 ORDER BY desc_t, carmakcod 

25/6/2014  16:57 >> Application_Name >> getDataCarMarkByCarMarkCode
SELECT * 
 FROM online_carmark 
 WHERE carmakcod = '' 
 ORDER BY desc_t, carmakcod 

25/6/2014  16:57 >> Application_Name >> getDataCarMarkByCarMarkCode
SELECT * 
 FROM online_carmark 
 WHERE carmakcod = '' 
 ORDER BY desc_t, carmakcod 

25/6/2014  16:57 >> Application_Name >> getDataCarMarkByCarMarkCode
SELECT * 
 FROM online_carmark 
 WHERE carmakcod = '' 
 ORDER BY desc_t, carmakcod 

25/6/2014  16:57 >> Application_Name >> getDataCarMarkByCarMarkCode
SELECT * 
 FROM online_carmark 
 WHERE carmakcod = 'JP-TO047' 
 ORDER BY desc_t, carmakcod 

25/6/2014  16:58 >> Application_Name >> getDataCarMarkByCarMarkCode
SELECT * 
 FROM online_carmark 
 WHERE carmakcod = '' 
 ORDER BY desc_t, carmakcod 

25/6/2014  16:58 >> Application_Name >> getDataCarMarkByCarMarkCode
SELECT * 
 FROM online_carmark 
 WHERE carmakcod = 'EK-FO083' 
 ORDER BY desc_t, carmakcod 

25/6/2014  16:59 >> Application_Name >> getDataPremium
exec sp_calonlineweb 'N','110','1','2','3 ','EK-FO069','9999','A','A',436050,532950,'0',0

25/6/2014  16:59 >> Application_Name >> getDataPremium
exec sp_calonlineweb 'N','110','2','2','3 ','EK-FO069','9999','A','A',436050,532950,'0',0

25/6/2014  16:59 >> Application_Name >> getDataPremium
exec sp_calonlineweb 'N','110','3','2','3 ','EK-FO069','9999','A','A',0,0,'0',0

25/6/2014  16:59 >> Application_Name >> getDataPremium
exec sp_calonlineweb 'N','210','1','1','A','','2.5','21','A',440800,487200,'0',0

25/6/2014  16:59 >> Application_Name >> BLWorker::executeQuery
Conversion failed when converting the varchar value '2.5' to data type int.

25/6/2014  16:59 >> Application_Name >> BLWorker::SQL
exec sp_calonlineweb 'N','210','1','1','A','','2.5','21','A',440800,487200,'0',0

25/6/2014  17:26 >> Application_Name >> getDataCarMarkByCarMarkCode
SELECT * 
 FROM online_carmark 
 WHERE carmakcod = '' 
 ORDER BY desc_t, carmakcod 

25/6/2014  17:26 >> Application_Name >> getDataCarMarkByCarMarkCode
SELECT * 
 FROM online_carmark 
 WHERE carmakcod = 'JK-MI080' 
 ORDER BY desc_t, carmakcod 

25/6/2014  17:27 >> Application_Name >> getDataCarMarkByCarMarkCode
SELECT * 
 FROM online_carmark 
 WHERE carmakcod = '' 
 ORDER BY desc_t, carmakcod 

25/6/2014  17:27 >> Application_Name >> getDataCarMarkByCarMarkCode
SELECT * 
 FROM online_carmark 
 WHERE carmakcod = 'JK-TO184' 
 ORDER BY desc_t, carmakcod 

25/6/2014  17:29 >> Application_Name >> getDataCarMarkByCarMarkCode
SELECT * 
 FROM online_carmark 
 WHERE carmakcod = '' 
 ORDER BY desc_t, carmakcod 

25/6/2014  17:29 >> Application_Name >> getDataCarMarkByCarMarkCode
SELECT * 
 FROM online_carmark 
 WHERE carmakcod = 'JP-TO104' 
 ORDER BY desc_t, carmakcod 

25/6/2014  17:31 >> Application_Name >> getDataPremium
exec sp_calonlineweb 'N','210','1','3','A','','2700','21','A',418399,462441,'0',0

25/6/2014  17:31 >> Application_Name >> getDataPremium
exec sp_calonlineweb 'N','210','2','3','A','','2700','21','A',418399,462441,'0',0

25/6/2014  17:31 >> Application_Name >> getDataPremium
exec sp_calonlineweb 'N','210','3','3','A','','2700','21','A',0,0,'0',0

25/6/2014  17:44 >> Application_Name >> getDataCarMarkByCarMarkCode
SELECT * 
 FROM online_carmark 
 WHERE carmakcod = '' 
 ORDER BY desc_t, carmakcod 

25/6/2014  17:44 >> Application_Name >> getDataCarMarkByCarMarkCode
SELECT * 
 FROM online_carmark 
 WHERE carmakcod = '' 
 ORDER BY desc_t, carmakcod 

25/6/2014  17:44 >> Application_Name >> getDataCarMarkByCarMarkCode
SELECT * 
 FROM online_carmark 
 WHERE carmakcod = '' 
 ORDER BY desc_t, carmakcod 

25/6/2014  17:44 >> Application_Name >> getDataCarMarkByCarMarkCode
SELECT * 
 FROM online_carmark 
 WHERE carmakcod = 'JK-MA065' 
 ORDER BY desc_t, carmakcod 

25/6/2014  17:46 >> Application_Name >> getDataPremium
exec sp_calonlineweb 'Y','110','1','2','5 ','JK-MA065','2000','A','A',478800,585200,'0',20

25/6/2014  17:46 >> Application_Name >> getDataPremium
exec sp_calonlineweb 'Y','110','2','2','5 ','JK-MA065','2000','A','A',478800,585200,'0',20

25/6/2014  17:46 >> Application_Name >> getDataPremium
exec sp_calonlineweb 'Y','110','3','2','5 ','JK-MA065','2000','A','A',0,0,'0',20

25/6/2014  17:54 >> Application_Name >> getDataCarMarkByCarMarkCode
SELECT * 
 FROM online_carmark 
 WHERE carmakcod = '' 
 ORDER BY desc_t, carmakcod 

25/6/2014  17:54 >> Application_Name >> getDataCarMarkByCarMarkCode
SELECT * 
 FROM online_carmark 
 WHERE carmakcod = 'JK-HO001' 
 ORDER BY desc_t, carmakcod 

25/6/2014  17:56 >> Application_Name >> getDataCarMarkByCarMarkCode
SELECT * 
 FROM online_carmark 
 WHERE carmakcod = '' 
 ORDER BY desc_t, carmakcod 

25/6/2014  17:56 >> Application_Name >> getDataCarMarkByCarMarkCode
SELECT * 
 FROM online_carmark 
 WHERE carmakcod = 'JK-TO240' 
 ORDER BY desc_t, carmakcod 

25/6/2014  17:56 >> Application_Name >> getDataCarMarkByCarMarkCode
SELECT * 
 FROM online_carmark 
 WHERE carmakcod = '' 
 ORDER BY desc_t, carmakcod 

25/6/2014  17:56 >> Application_Name >> getDataCarMarkByCarMarkCode
SELECT * 
 FROM online_carmark 
 WHERE carmakcod = 'JK-SZ004' 
 ORDER BY desc_t, carmakcod 

25/6/2014  17:57 >> Application_Name >> getDataPremium
exec sp_calonlineweb 'Y','110','1','2','5 ','JK-HO001','2000','A','A',470250,574750,'25',0

25/6/2014  17:57 >> Application_Name >> getDataPremium
exec sp_calonlineweb 'Y','110','2','2','5 ','JK-HO001','2000','A','A',470250,574750,'25',0

25/6/2014  17:57 >> Application_Name >> getDataPremium
exec sp_calonlineweb 'Y','110','3','2','5 ','JK-HO001','2000','A','A',0,0,'25',0

25/6/2014  17:57 >> Application_Name >> getDataPremium
exec sp_calonlineweb 'N','110','1','2','5 ','JK-SZ004','2000','A','A',342000,380000,'0',0

25/6/2014  17:57 >> Application_Name >> getDataPremium
exec sp_calonlineweb 'N','110','2','2','5 ','JK-SZ004','2000','A','A',342000,380000,'0',0

25/6/2014  17:57 >> Application_Name >> getDataPremium
exec sp_calonlineweb 'N','110','3','2','5 ','JK-SZ004','2000','A','A',0,0,'0',0

25/6/2014  17:58 >> Application_Name >> getDataCarMarkByCarMarkCode
SELECT * 
 FROM online_carmark 
 WHERE carmakcod = '' 
 ORDER BY desc_t, carmakcod 

25/6/2014  17:58 >> Application_Name >> getDataCarMarkByCarMarkCode
SELECT * 
 FROM online_carmark 
 WHERE carmakcod = 'JK-MA065' 
 ORDER BY desc_t, carmakcod 

25/6/2014  17:58 >> Application_Name >> getDataCarMarkByCarMarkCode
SELECT * 
 FROM online_carmark 
 WHERE carmakcod = '' 
 ORDER BY desc_t, carmakcod 

25/6/2014  17:58 >> Application_Name >> getDataCarMarkByCarMarkCode
SELECT * 
 FROM online_carmark 
 WHERE carmakcod = 'JK-TO240' 
 ORDER BY desc_t, carmakcod 

25/6/2014  18:0 >> Application_Name >> getDataPremium
exec sp_calonlineweb 'Y','110','1','4','5 ','JK-MA065','2000','A','A',432117,528143,'0',0

25/6/2014  18:0 >> Application_Name >> getDataPremium
exec sp_calonlineweb 'Y','110','2','4','5 ','JK-MA065','2000','A','A',432117,528143,'0',0

25/6/2014  18:0 >> Application_Name >> getDataPremium
exec sp_calonlineweb 'Y','110','3','4','5 ','JK-MA065','2000','A','A',0,0,'0',0

25/6/2014  18:1 >> Application_Name >> getDataCarMarkByCarMarkCode
SELECT * 
 FROM online_carmark 
 WHERE carmakcod = '' 
 ORDER BY desc_t, carmakcod 

25/6/2014  18:1 >> Application_Name >> getDataCarMarkByCarMarkCode
SELECT * 
 FROM online_carmark 
 WHERE carmakcod = 'JK-HO001' 
 ORDER BY desc_t, carmakcod 

25/6/2014  18:1 >> Application_Name >> getDataPremium
exec sp_calonlineweb 'N','110','1','3','3 ','JK-TO240','9999','A','A',722902.5,883547.5,'36',30

25/6/2014  18:1 >> Application_Name >> getDataPremium
exec sp_calonlineweb 'N','110','2','3','3 ','JK-TO240','9999','A','A',722902.5,883547.5,'36',30

25/6/2014  18:1 >> Application_Name >> getDataPremium
exec sp_calonlineweb 'N','110','3','3','3 ','JK-TO240','9999','A','A',0,0,'36',30

25/6/2014  18:1 >> Application_Name >> getDataPremium
exec sp_calonlineweb 'N','110','1','3','3 ','JK-TO240','9999','A','A',722902.5,883547.5,'36',30

25/6/2014  18:1 >> Application_Name >> getDataPremium
exec sp_calonlineweb 'N','110','2','3','3 ','JK-TO240','9999','A','A',722902.5,883547.5,'36',30

25/6/2014  18:1 >> Application_Name >> getDataPremium
exec sp_calonlineweb 'N','110','3','3','3 ','JK-TO240','9999','A','A',0,0,'36',30

25/6/2014  18:2 >> Application_Name >> SMK :: BuyVoluntary_step2-docToUI
Combine

25/6/2014  18:2 >> Application_Name >> SMK :: BuyVoluntary_step2-docToUI
rg_prmm-06030

25/6/2014  18:2 >> Application_Name >> SMK :: BuyVoluntary_step2-docToUI
rg_prmm6030

25/6/2014  18:2 >> Application_Name >> SMK :: BuyVoluntary_step2-docToUI
cp_comp_prmm600.00

25/6/2014  18:2 >> Application_Name >> getDataPremium
exec sp_calonlineweb 'N','110','1','3','3 ','JK-TO240','9999','A','A',722902.5,883547.5,'36',30

25/6/2014  18:2 >> Application_Name >> getDataPremium
exec sp_calonlineweb 'N','110','2','3','3 ','JK-TO240','9999','A','A',722902.5,883547.5,'36',30

25/6/2014  18:2 >> Application_Name >> getDataPremium
exec sp_calonlineweb 'N','110','3','3','3 ','JK-TO240','9999','A','A',0,0,'36',30

25/6/2014  18:2 >> Application_Name >> getDataPremium
exec sp_calonlineweb 'Y','110','1','3','5 ','JK-HO001','2000','A','A',446737.5,546012.5,'0',0

25/6/2014  18:2 >> Application_Name >> getDataPremium
exec sp_calonlineweb 'Y','110','2','3','5 ','JK-HO001','2000','A','A',446737.5,546012.5,'0',0

25/6/2014  18:2 >> Application_Name >> getDataPremium
exec sp_calonlineweb 'Y','110','3','3','5 ','JK-HO001','2000','A','A',0,0,'0',0

25/6/2014  18:7 >> Application_Name >> getDataPremium
exec sp_calonlineweb 'N','110','1','3','3 ','EK-BM046','9999','A','A',722902.5,883547.5,'36',20

25/6/2014  18:7 >> Application_Name >> getDataPremium
exec sp_calonlineweb 'N','110','2','3','3 ','EK-BM046','9999','A','A',722902.5,883547.5,'36',20

25/6/2014  18:7 >> Application_Name >> getDataPremium
exec sp_calonlineweb 'N','110','3','3','3 ','EK-BM046','9999','A','A',0,0,'36',20

25/6/2014  18:7 >> Application_Name >> getDataPremium
exec sp_calonlineweb 'N','110','1','3','3 ','EK-BM046','9999','A','A',722902.5,883547.5,'36',20

25/6/2014  18:7 >> Application_Name >> getDataPremium
exec sp_calonlineweb 'N','110','2','3','3 ','EK-BM046','9999','A','A',722902.5,883547.5,'36',20

25/6/2014  18:7 >> Application_Name >> getDataPremium
exec sp_calonlineweb 'N','110','3','3','3 ','EK-BM046','9999','A','A',0,0,'36',20

25/6/2014  18:27 >> Application_Name >> getDataCarMarkByCarMarkCode
SELECT * 
 FROM online_carmark 
 WHERE carmakcod = '' 
 ORDER BY desc_t, carmakcod 

25/6/2014  18:27 >> Application_Name >> getDataCarMarkByCarMarkCode
SELECT * 
 FROM online_carmark 
 WHERE carmakcod = 'EK-FO083' 
 ORDER BY desc_t, carmakcod 

25/6/2014  18:31 >> Application_Name >> getDataPremium
exec sp_calonlineweb 'Y','110','1','3','5 ','EK-FO083','2000','A','A',454860,555940,'0',30

25/6/2014  18:31 >> Application_Name >> getDataPremium
exec sp_calonlineweb 'Y','110','2','3','5 ','EK-FO083','2000','A','A',454860,555940,'0',30

25/6/2014  18:31 >> Application_Name >> getDataPremium
exec sp_calonlineweb 'Y','110','3','3','5 ','EK-FO083','2000','A','A',0,0,'0',30

25/6/2014  18:32 >> Application_Name >> getDataCarMarkByCarMarkCode
SELECT * 
 FROM online_carmark 
 WHERE carmakcod = '' 
 ORDER BY desc_t, carmakcod 

25/6/2014  18:32 >> Application_Name >> getDataCarMarkByCarMarkCode
SELECT * 
 FROM online_carmark 
 WHERE carmakcod = 'JK-TO175' 
 ORDER BY desc_t, carmakcod 

25/6/2014  18:37 >> Application_Name >> SMK :: BuyVoluntary_step2-docToUI
Combine

25/6/2014  18:37 >> Application_Name >> SMK :: BuyVoluntary_step2-docToUI
rg_prmm-012954.4

25/6/2014  18:37 >> Application_Name >> SMK :: BuyVoluntary_step2-docToUI
rg_prmm12954.4

25/6/2014  18:37 >> Application_Name >> SMK :: BuyVoluntary_step2-docToUI
cp_comp_prmm600.00

25/6/2014  19:59 >> Application_Name >> getDataCarMarkByCarMarkCode
SELECT * 
 FROM online_carmark 
 WHERE carmakcod = '' 
 ORDER BY desc_t, carmakcod 

25/6/2014  19:59 >> Application_Name >> getDataCarMarkByCarMarkCode
SELECT * 
 FROM online_carmark 
 WHERE carmakcod = 'EK-FO078' 
 ORDER BY desc_t, carmakcod 

25/6/2014  20:3 >> Application_Name >> getDataCarMarkByCarMarkCode
SELECT * 
 FROM online_carmark 
 WHERE carmakcod = '' 
 ORDER BY desc_t, carmakcod 

25/6/2014  20:3 >> Application_Name >> getDataCarMarkByCarMarkCode
SELECT * 
 FROM online_carmark 
 WHERE carmakcod = 'EK-CR031' 
 ORDER BY desc_t, carmakcod 

25/6/2014  20:4 >> Application_Name >> getDataPremium
exec sp_calonlineweb 'N','110','1','4','3 ','EK-CR031','2000','A','A',437261.25,480130,'0',30

25/6/2014  20:4 >> Application_Name >> getDataPremium
exec sp_calonlineweb 'N','110','2','4','3 ','EK-CR031','2000','A','A',437261.25,480130,'0',30

25/6/2014  20:4 >> Application_Name >> getDataPremium
exec sp_calonlineweb 'N','110','3','4','3 ','EK-CR031','2000','A','A',0,0,'0',30

25/6/2014  20:10 >> Application_Name >> getDataCarMarkByCarMarkCode
SELECT * 
 FROM online_carmark 
 WHERE carmakcod = '' 
 ORDER BY desc_t, carmakcod 

25/6/2014  20:10 >> Application_Name >> getDataCarMarkByCarMarkCode
SELECT * 
 FROM online_carmark 
 WHERE carmakcod = 'JK-SZ004' 
 ORDER BY desc_t, carmakcod 

25/6/2014  20:11 >> Application_Name >> getDataPremium
exec sp_calonlineweb 'Y','110','1','3','5 ','JK-SZ004','2000','A','A',324900,361000,'0',0

25/6/2014  20:11 >> Application_Name >> getDataPremium
exec sp_calonlineweb 'Y','110','2','3','5 ','JK-SZ004','2000','A','A',324900,361000,'0',0

25/6/2014  20:11 >> Application_Name >> getDataPremium
exec sp_calonlineweb 'Y','110','3','3','5 ','JK-SZ004','2000','A','A',0,0,'0',0

25/6/2014  21:26 >> Application_Name >> getDataCarMarkByCarMarkCode
SELECT * 
 FROM online_carmark 
 WHERE carmakcod = '' 
 ORDER BY desc_t, carmakcod 

25/6/2014  21:26 >> Application_Name >> getDataCarMarkByCarMarkCode
SELECT * 
 FROM online_carmark 
 WHERE carmakcod = '' 
 ORDER BY desc_t, carmakcod 

25/6/2014  21:26 >> Application_Name >> getDataCarMarkByCarMarkCode
SELECT * 
 FROM online_carmark 
 WHERE carmakcod = 'JK-NI100' 
 ORDER BY desc_t, carmakcod 

25/6/2014  21:26 >> Application_Name >> getDataCarMarkByCarMarkCode
SELECT * 
 FROM online_carmark 
 WHERE carmakcod = 'JK-HO001' 
 ORDER BY desc_t, carmakcod 

25/6/2014  21:27 >> Application_Name >> getDataPremium
exec sp_calonlineweb 'Y','110','1','5','5 ','JK-HO001','2000','A','A',403180.59375,492776.28125,'0',30

25/6/2014  21:27 >> Application_Name >> getDataPremium
exec sp_calonlineweb 'Y','110','2','5','5 ','JK-HO001','2000','A','A',403180.59375,492776.28125,'0',30

25/6/2014  21:27 >> Application_Name >> getDataPremium
exec sp_calonlineweb 'Y','110','3','5','5 ','JK-HO001','2000','A','A',0,0,'0',30

25/6/2014  21:29 >> Application_Name >> getDataCarMarkByCarMarkCode
SELECT * 
 FROM online_carmark 
 WHERE carmakcod = '' 
 ORDER BY desc_t, carmakcod 

25/6/2014  21:29 >> Application_Name >> getDataCarMarkByCarMarkCode
SELECT * 
 FROM online_carmark 
 WHERE carmakcod = 'JK-HO001' 
 ORDER BY desc_t, carmakcod 

25/6/2014  21:29 >> Application_Name >> getDataPremium
exec sp_calonlineweb 'N','110','1','2','5 ','JK-NI100','2000','A','A',380000,418000,'0',0

25/6/2014  21:29 >> Application_Name >> getDataPremium
exec sp_calonlineweb 'N','110','2','2','5 ','JK-NI100','2000','A','A',380000,418000,'0',0

25/6/2014  21:29 >> Application_Name >> getDataPremium
exec sp_calonlineweb 'N','110','3','2','5 ','JK-NI100','2000','A','A',0,0,'0',0

25/6/2014  21:29 >> Application_Name >> getDataPremium
exec sp_calonlineweb 'N','110','1','2','5 ','JK-NI100','2000','A','A',380000,418000,'0',0

25/6/2014  21:29 >> Application_Name >> getDataPremium
exec sp_calonlineweb 'N','110','2','2','5 ','JK-NI100','2000','A','A',380000,418000,'0',0

25/6/2014  21:29 >> Application_Name >> getDataPremium
exec sp_calonlineweb 'N','110','3','2','5 ','JK-NI100','2000','A','A',0,0,'0',0

25/6/2014  21:30 >> Application_Name >> getDataCarMarkByCarMarkCode
SELECT * 
 FROM online_carmark 
 WHERE carmakcod = '' 
 ORDER BY desc_t, carmakcod 

25/6/2014  21:30 >> Application_Name >> getDataCarMarkByCarMarkCode
SELECT * 
 FROM online_carmark 
 WHERE carmakcod = 'JK-HO001' 
 ORDER BY desc_t, carmakcod 

25/6/2014  21:30 >> Application_Name >> getDataPremium
exec sp_calonlineweb 'Y','110','1','5','5 ','JK-HO001','2000','A','A',403180.59375,492776.28125,'0',30

25/6/2014  21:30 >> Application_Name >> getDataPremium
exec sp_calonlineweb 'Y','110','2','5','5 ','JK-HO001','2000','A','A',403180.59375,492776.28125,'0',30

25/6/2014  21:30 >> Application_Name >> getDataPremium
exec sp_calonlineweb 'Y','110','3','5','5 ','JK-HO001','2000','A','A',0,0,'0',30

25/6/2014  21:31 >> Application_Name >> getDataPremium
exec sp_calonlineweb 'Y','110','1','2','5 ','JK-HO001','2000','A','A',470250,574750,'0',0

25/6/2014  21:31 >> Application_Name >> getDataPremium
exec sp_calonlineweb 'Y','110','2','2','5 ','JK-HO001','2000','A','A',470250,574750,'0',0

25/6/2014  21:31 >> Application_Name >> getDataPremium
exec sp_calonlineweb 'Y','110','3','2','5 ','JK-HO001','2000','A','A',0,0,'0',0

25/6/2014  21:32 >> Application_Name >> getDataPremium
exec sp_calonlineweb 'Y','110','1','2','5 ','JK-HO001','2000','A','A',470250,574750,'0',0

25/6/2014  21:32 >> Application_Name >> getDataPremium
exec sp_calonlineweb 'Y','110','2','2','5 ','JK-HO001','2000','A','A',470250,574750,'0',0

25/6/2014  21:32 >> Application_Name >> getDataPremium
exec sp_calonlineweb 'Y','110','3','2','5 ','JK-HO001','2000','A','A',0,0,'0',0

25/6/2014  21:32 >> Application_Name >> getDataPremium
exec sp_calonlineweb 'Y','110','1','2','5 ','JK-HO001','2000','A','A',470250,574750,'0',0

25/6/2014  21:32 >> Application_Name >> getDataPremium
exec sp_calonlineweb 'Y','110','2','2','5 ','JK-HO001','2000','A','A',470250,574750,'0',0

25/6/2014  21:32 >> Application_Name >> getDataPremium
exec sp_calonlineweb 'Y','110','3','2','5 ','JK-HO001','2000','A','A',0,0,'0',0

25/6/2014  21:32 >> Application_Name >> getDataPremium
exec sp_calonlineweb 'Y','110','1','2','5 ','JK-HO001','2000','A','A',470250,574750,'0',20

25/6/2014  21:32 >> Application_Name >> getDataPremium
exec sp_calonlineweb 'Y','110','2','2','5 ','JK-HO001','2000','A','A',470250,574750,'0',20

25/6/2014  21:32 >> Application_Name >> getDataPremium
exec sp_calonlineweb 'Y','110','3','2','5 ','JK-HO001','2000','A','A',0,0,'0',20

25/6/2014  21:32 >> Application_Name >> getDataPremium
exec sp_calonlineweb 'Y','110','1','2','5 ','JK-HO001','2000','A','A',470250,574750,'0',0

25/6/2014  21:32 >> Application_Name >> getDataPremium
exec sp_calonlineweb 'Y','110','2','2','5 ','JK-HO001','2000','A','A',470250,574750,'0',0

25/6/2014  21:32 >> Application_Name >> getDataPremium
exec sp_calonlineweb 'Y','110','3','2','5 ','JK-HO001','2000','A','A',0,0,'0',0

25/6/2014  21:34 >> Application_Name >> getDataCarMarkByCarMarkCode
SELECT * 
 FROM online_carmark 
 WHERE carmakcod = '' 
 ORDER BY desc_t, carmakcod 

25/6/2014  21:34 >> Application_Name >> getDataCarMarkByCarMarkCode
SELECT * 
 FROM online_carmark 
 WHERE carmakcod = 'JK-HO001' 
 ORDER BY desc_t, carmakcod 

25/6/2014  21:36 >> Application_Name >> getDataPremium
exec sp_calonlineweb 'Y','110','1','2','5 ','JK-HO001','2000','A','A',470250,574750,'0',0

25/6/2014  21:36 >> Application_Name >> getDataPremium
exec sp_calonlineweb 'Y','110','2','2','5 ','JK-HO001','2000','A','A',470250,574750,'0',0

25/6/2014  21:36 >> Application_Name >> getDataPremium
exec sp_calonlineweb 'Y','110','3','2','5 ','JK-HO001','2000','A','A',0,0,'0',0

25/6/2014  21:42 >> Application_Name >> getDataCarMarkByCarMarkCode
SELECT * 
 FROM online_carmark 
 WHERE carmakcod = '' 
 ORDER BY desc_t, carmakcod 

25/6/2014  21:42 >> Application_Name >> getDataCarMarkByCarMarkCode
SELECT * 
 FROM online_carmark 
 WHERE carmakcod = 'JK-TO234' 
 ORDER BY desc_t, carmakcod 

25/6/2014  21:43 >> Application_Name >> getDataPremium
exec sp_calonlineweb 'Y','110','1','1','5 ','JK-TO234','2000','A','A',540000,660000,'0',0

25/6/2014  21:43 >> Application_Name >> getDataPremium
exec sp_calonlineweb 'Y','110','2','1','5 ','JK-TO234','2000','A','A',540000,660000,'0',0

25/6/2014  21:43 >> Application_Name >> getDataPremium
exec sp_calonlineweb 'Y','110','3','1','5 ','JK-TO234','2000','A','A',0,0,'0',0

25/6/2014  22:5 >> Application_Name >> getDataCarMarkByCarMarkCode
SELECT * 
 FROM online_carmark 
 WHERE carmakcod = '' 
 ORDER BY desc_t, carmakcod 

25/6/2014  22:5 >> Application_Name >> getDataCarMarkByCarMarkCode
SELECT * 
 FROM online_carmark 
 WHERE carmakcod = 'JK-HO001' 
 ORDER BY desc_t, carmakcod 

25/6/2014  22:13 >> Application_Name >> getDataPremium
exec sp_calonlineweb 'Y','110','1','2','5 ','JK-HO001','2000','A','A',470250,574750,'0',30

25/6/2014  22:13 >> Application_Name >> getDataPremium
exec sp_calonlineweb 'Y','110','2','2','5 ','JK-HO001','2000','A','A',470250,574750,'0',30

25/6/2014  22:13 >> Application_Name >> getDataPremium
exec sp_calonlineweb 'Y','110','3','2','5 ','JK-HO001','2000','A','A',0,0,'0',30

25/6/2014  22:14 >> Application_Name >> getDataPremium
exec sp_calonlineweb 'Y','110','1','2','5 ','JK-HO001','2000','A','A',470250,574750,'0',0

25/6/2014  22:14 >> Application_Name >> getDataPremium
exec sp_calonlineweb 'Y','110','2','2','5 ','JK-HO001','2000','A','A',470250,574750,'0',0

25/6/2014  22:14 >> Application_Name >> getDataPremium
exec sp_calonlineweb 'Y','110','3','2','5 ','JK-HO001','2000','A','A',0,0,'0',0

25/6/2014  22:15 >> Application_Name >> getDataPremium
exec sp_calonlineweb 'Y','110','1','2','5 ','JK-HO001','2000','A','A',470250,574750,'0',30

25/6/2014  22:15 >> Application_Name >> getDataPremium
exec sp_calonlineweb 'Y','110','2','2','5 ','JK-HO001','2000','A','A',470250,574750,'0',30

25/6/2014  22:15 >> Application_Name >> getDataPremium
exec sp_calonlineweb 'Y','110','3','2','5 ','JK-HO001','2000','A','A',0,0,'0',30

25/6/2014  22:20 >> Application_Name >> getDataPremium
exec sp_calonlineweb 'Y','110','1','2','5 ','JK-HO001','2000','A','A',470250,574750,'36',30

25/6/2014  22:20 >> Application_Name >> getDataPremium
exec sp_calonlineweb 'Y','110','2','2','5 ','JK-HO001','2000','A','A',470250,574750,'36',30

25/6/2014  22:20 >> Application_Name >> getDataPremium
exec sp_calonlineweb 'Y','110','3','2','5 ','JK-HO001','2000','A','A',0,0,'36',30

25/6/2014  22:21 >> Application_Name >> getDataPremium
exec sp_calonlineweb 'Y','110','1','2','5 ','JK-HO001','2000','A','A',470250,574750,'36',30

25/6/2014  22:21 >> Application_Name >> getDataPremium
exec sp_calonlineweb 'Y','110','2','2','5 ','JK-HO001','2000','A','A',470250,574750,'36',30

25/6/2014  22:21 >> Application_Name >> getDataPremium
exec sp_calonlineweb 'Y','110','3','2','5 ','JK-HO001','2000','A','A',0,0,'36',30

25/6/2014  22:21 >> Application_Name >> getDataPremium
exec sp_calonlineweb 'Y','110','1','2','5 ','JK-HO001','2000','A','A',470250,574750,'36',30

25/6/2014  22:21 >> Application_Name >> getDataPremium
exec sp_calonlineweb 'Y','110','2','2','5 ','JK-HO001','2000','A','A',470250,574750,'36',30

25/6/2014  22:21 >> Application_Name >> getDataPremium
exec sp_calonlineweb 'Y','110','3','2','5 ','JK-HO001','2000','A','A',0,0,'36',30

25/6/2014  22:21 >> Application_Name >> SMK :: BuyVoluntary_step2-docToUI
Combine

25/6/2014  22:21 >> Application_Name >> SMK :: BuyVoluntary_step2-docToUI
rg_prmm-011279.2

25/6/2014  22:21 >> Application_Name >> SMK :: BuyVoluntary_step2-docToUI
rg_prmm11279.2

25/6/2014  22:21 >> Application_Name >> SMK :: BuyVoluntary_step2-docToUI
cp_comp_prmm600.00

25/6/2014  22:22 >> Application_Name >> getDataPremium
exec sp_calonlineweb 'Y','110','1','2','5 ','JK-HO001','2000','A','A',470250,574750,'36',30

25/6/2014  22:22 >> Application_Name >> getDataPremium
exec sp_calonlineweb 'Y','110','2','2','5 ','JK-HO001','2000','A','A',470250,574750,'36',30

25/6/2014  22:22 >> Application_Name >> getDataPremium
exec sp_calonlineweb 'Y','110','3','2','5 ','JK-HO001','2000','A','A',0,0,'36',30

25/6/2014  22:23 >> Application_Name >> getDataPremium
exec sp_calonlineweb 'Y','110','1','2','5 ','JK-HO001','2000','A','A',470250,574750,'36',30

25/6/2014  22:23 >> Application_Name >> getDataPremium
exec sp_calonlineweb 'Y','110','2','2','5 ','JK-HO001','2000','A','A',470250,574750,'36',30

25/6/2014  22:23 >> Application_Name >> getDataPremium
exec sp_calonlineweb 'Y','110','3','2','5 ','JK-HO001','2000','A','A',0,0,'36',30

25/6/2014  22:23 >> Application_Name >> getDataPremium
exec sp_calonlineweb 'Y','110','1','2','5 ','JK-HO001','2000','A','A',470250,574750,'36',30

25/6/2014  22:23 >> Application_Name >> getDataPremium
exec sp_calonlineweb 'Y','110','2','2','5 ','JK-HO001','2000','A','A',470250,574750,'36',30

25/6/2014  22:23 >> Application_Name >> getDataPremium
exec sp_calonlineweb 'Y','110','3','2','5 ','JK-HO001','2000','A','A',0,0,'36',30

25/6/2014  22:23 >> Application_Name >> SMK :: BuyVoluntary_step2-docToUI
Combine

25/6/2014  22:23 >> Application_Name >> SMK :: BuyVoluntary_step2-docToUI
rg_prmm-011279.2

25/6/2014  22:23 >> Application_Name >> SMK :: BuyVoluntary_step2-docToUI
rg_prmm11279.2

25/6/2014  22:23 >> Application_Name >> SMK :: BuyVoluntary_step2-docToUI
cp_comp_prmm600.00

25/6/2014  22:25 >> Application_Name >> getDataCarMarkByCarMarkCode
SELECT * 
 FROM online_carmark 
 WHERE carmakcod = '' 
 ORDER BY desc_t, carmakcod 

25/6/2014  22:25 >> Application_Name >> getDataCarMarkByCarMarkCode
SELECT * 
 FROM online_carmark 
 WHERE carmakcod = 'JK-HO001' 
 ORDER BY desc_t, carmakcod 

25/6/2014  22:27 >> Application_Name >> getDataPremium
exec sp_calonlineweb 'Y','110','1','2','5 ','JK-HO001','2000','A','A',470250,574750,'36',30

25/6/2014  22:27 >> Application_Name >> getDataPremium
exec sp_calonlineweb 'Y','110','2','2','5 ','JK-HO001','2000','A','A',470250,574750,'36',30

25/6/2014  22:27 >> Application_Name >> getDataPremium
exec sp_calonlineweb 'Y','110','3','2','5 ','JK-HO001','2000','A','A',0,0,'36',30

25/6/2014  22:27 >> Application_Name >> SMK :: BuyVoluntary_step2-docToUI
Combine

25/6/2014  22:27 >> Application_Name >> SMK :: BuyVoluntary_step2-docToUI
rg_prmm-011279.2

25/6/2014  22:27 >> Application_Name >> SMK :: BuyVoluntary_step2-docToUI
rg_prmm11279.2

25/6/2014  22:27 >> Application_Name >> SMK :: BuyVoluntary_step2-docToUI
cp_comp_prmm600.00

25/6/2014  22:27 >> Application_Name >> getDataPremium
exec sp_calonlineweb 'Y','110','1','2','5 ','JK-HO001','2000','A','A',470250,574750,'36',30

25/6/2014  22:27 >> Application_Name >> getDataPremium
exec sp_calonlineweb 'Y','110','2','2','5 ','JK-HO001','2000','A','A',470250,574750,'36',30

25/6/2014  22:27 >> Application_Name >> getDataPremium
exec sp_calonlineweb 'Y','110','3','2','5 ','JK-HO001','2000','A','A',0,0,'36',30

25/6/2014  22:28 >> Application_Name >> SMK :: BuyVoluntary_step2-docToUI
Combine

25/6/2014  22:28 >> Application_Name >> SMK :: BuyVoluntary_step2-docToUI
rg_prmm-011279.2

25/6/2014  22:28 >> Application_Name >> SMK :: BuyVoluntary_step2-docToUI
rg_prmm11279.2

25/6/2014  22:28 >> Application_Name >> SMK :: BuyVoluntary_step2-docToUI
cp_comp_prmm600.00

25/6/2014  22:44 >> Application_Name >> getDataCarMarkByCarMarkCode
SELECT * 
 FROM online_carmark 
 WHERE carmakcod = '' 
 ORDER BY desc_t, carmakcod 

25/6/2014  22:44 >> Application_Name >> getDataCarMarkByCarMarkCode
SELECT * 
 FROM online_carmark 
 WHERE carmakcod = 'JK-HO001' 
 ORDER BY desc_t, carmakcod 

25/6/2014  22:47 >> Application_Name >> getDataPremium
exec sp_calonlineweb 'Y','110','1','2','5 ','JK-HO001','2000','A','A',470250,574750,'0',0

25/6/2014  22:47 >> Application_Name >> getDataPremium
exec sp_calonlineweb 'Y','110','2','2','5 ','JK-HO001','2000','A','A',470250,574750,'0',0

25/6/2014  22:47 >> Application_Name >> getDataPremium
exec sp_calonlineweb 'Y','110','3','2','5 ','JK-HO001','2000','A','A',0,0,'0',0

25/6/2014  22:50 >> Application_Name >> getDataCarMarkByCarMarkCode
SELECT * 
 FROM online_carmark 
 WHERE carmakcod = '' 
 ORDER BY desc_t, carmakcod 

25/6/2014  22:50 >> Application_Name >> getDataCarMarkByCarMarkCode
SELECT * 
 FROM online_carmark 
 WHERE carmakcod = 'JK-HO001' 
 ORDER BY desc_t, carmakcod 

25/6/2014  22:51 >> Application_Name >> getDataPremium
exec sp_calonlineweb 'Y','110','1','2','5 ','JK-HO001','2000','A','A',470250,574750,'25',0

25/6/2014  22:51 >> Application_Name >> getDataPremium
exec sp_calonlineweb 'Y','110','2','2','5 ','JK-HO001','2000','A','A',470250,574750,'25',0

25/6/2014  22:51 >> Application_Name >> getDataPremium
exec sp_calonlineweb 'Y','110','3','2','5 ','JK-HO001','2000','A','A',0,0,'25',0

25/6/2014  23:12 >> Application_Name >> SMK :: BuyVoluntary_step2-docToUI
Combine

25/6/2014  23:12 >> Application_Name >> SMK :: BuyVoluntary_step2-docToUI
rg_prmm-011055

25/6/2014  23:12 >> Application_Name >> SMK :: BuyVoluntary_step2-docToUI
rg_prmm11055

25/6/2014  23:12 >> Application_Name >> SMK :: BuyVoluntary_step2-docToUI
cp_comp_prmm600.00

25/6/2014  23:12 >> Application_Name >> getDataPremium
exec sp_calonlineweb 'Y','110','1','2','5 ','JK-MA065','2000','A','A',470250,574750,'25',0

25/6/2014  23:12 >> Application_Name >> getDataPremium
exec sp_calonlineweb 'Y','110','2','2','5 ','JK-MA065','2000','A','A',470250,574750,'25',0

25/6/2014  23:12 >> Application_Name >> getDataPremium
exec sp_calonlineweb 'Y','110','3','2','5 ','JK-MA065','2000','A','A',0,0,'25',0

25/6/2014  23:12 >> Application_Name >> SMK :: BuyVoluntary_step2-docToUI
Combine

25/6/2014  23:12 >> Application_Name >> SMK :: BuyVoluntary_step2-docToUI
rg_prmm-06030

25/6/2014  23:12 >> Application_Name >> SMK :: BuyVoluntary_step2-docToUI
rg_prmm6030

25/6/2014  23:12 >> Application_Name >> SMK :: BuyVoluntary_step2-docToUI
cp_comp_prmm600.00

25/6/2014  23:12 >> Application_Name >> getDataPremium
exec sp_calonlineweb 'Y','110','1','2','5 ','JK-MA065','2000','A','A',470250,574750,'0',0

25/6/2014  23:12 >> Application_Name >> getDataPremium
exec sp_calonlineweb 'Y','110','2','2','5 ','JK-MA065','2000','A','A',470250,574750,'0',0

25/6/2014  23:12 >> Application_Name >> getDataPremium
exec sp_calonlineweb 'Y','110','3','2','5 ','JK-MA065','2000','A','A',0,0,'0',0

25/6/2014  23:12 >> Application_Name >> SMK :: BuyVoluntary_step2-docToUI
Combine

25/6/2014  23:12 >> Application_Name >> SMK :: BuyVoluntary_step2-docToUI
rg_prmm-011055

25/6/2014  23:12 >> Application_Name >> SMK :: BuyVoluntary_step2-docToUI
rg_prmm11055

25/6/2014  23:12 >> Application_Name >> SMK :: BuyVoluntary_step2-docToUI
cp_comp_prmm600.00

25/6/2014  23:13 >> Application_Name >> getDataPremium
exec sp_calonlineweb 'Y','110','1','2','5 ','JK-MA065','2000','A','A',470250,574750,'0',0

25/6/2014  23:13 >> Application_Name >> getDataPremium
exec sp_calonlineweb 'Y','110','2','2','5 ','JK-MA065','2000','A','A',470250,574750,'0',0

25/6/2014  23:13 >> Application_Name >> getDataPremium
exec sp_calonlineweb 'Y','110','3','2','5 ','JK-MA065','2000','A','A',0,0,'0',0

25/6/2014  23:13 >> Application_Name >> SMK :: BuyVoluntary_step2-docToUI
Combine

25/6/2014  23:13 >> Application_Name >> SMK :: BuyVoluntary_step2-docToUI
rg_prmm-016314

25/6/2014  23:13 >> Application_Name >> SMK :: BuyVoluntary_step2-docToUI
rg_prmm16314

25/6/2014  23:13 >> Application_Name >> SMK :: BuyVoluntary_step2-docToUI
cp_comp_prmm600.00

25/6/2014  23:14 >> Application_Name >> getDataPremium
exec sp_calonlineweb 'Y','110','1','2','5 ','JK-MA065','2000','A','A',470250,574750,'0',0

25/6/2014  23:14 >> Application_Name >> getDataPremium
exec sp_calonlineweb 'Y','110','2','2','5 ','JK-MA065','2000','A','A',470250,574750,'0',0

25/6/2014  23:14 >> Application_Name >> getDataPremium
exec sp_calonlineweb 'Y','110','3','2','5 ','JK-MA065','2000','A','A',0,0,'0',0

25/6/2014  23:15 >> Application_Name >> SMK :: BuyVoluntary_step2-docToUI
Combine

25/6/2014  23:15 >> Application_Name >> SMK :: BuyVoluntary_step2-docToUI
rg_prmm-011055

25/6/2014  23:15 >> Application_Name >> SMK :: BuyVoluntary_step2-docToUI
rg_prmm11055

25/6/2014  23:15 >> Application_Name >> SMK :: BuyVoluntary_step2-docToUI
cp_comp_prmm600.00

25/6/2014  23:15 >> Application_Name >> getDataPremium
exec sp_calonlineweb 'Y','110','1','2','5 ','JK-MA065','2000','A','A',470250,574750,'0',0

25/6/2014  23:15 >> Application_Name >> getDataPremium
exec sp_calonlineweb 'Y','110','2','2','5 ','JK-MA065','2000','A','A',470250,574750,'0',0

25/6/2014  23:15 >> Application_Name >> getDataPremium
exec sp_calonlineweb 'Y','110','3','2','5 ','JK-MA065','2000','A','A',0,0,'0',0

25/6/2014  23:15 >> Application_Name >> getDataCarMarkByCarMarkCode
SELECT * 
 FROM online_carmark 
 WHERE carmakcod = '' 
 ORDER BY desc_t, carmakcod 

25/6/2014  23:51 >> Application_Name >> getDataCarMarkByCarMarkCode
SELECT * 
 FROM online_carmark 
 WHERE carmakcod = '' 
 ORDER BY desc_t, carmakcod 

25/6/2014  23:51 >> Application_Name >> getDataCarMarkByCarMarkCode
SELECT * 
 FROM online_carmark 
 WHERE carmakcod = '' 
 ORDER BY desc_t, carmakcod 

25/6/2014  23:51 >> Application_Name >> getDataCarMarkByCarMarkCode
SELECT * 
 FROM online_carmark 
 WHERE carmakcod = 'JP-TO043' 
 ORDER BY desc_t, carmakcod 

25/6/2014  23:52 >> Application_Name >> getDataPremium
exec sp_calonlineweb 'Y','210','1','3','A','','2500','21','A',460238.9,508685.1,'0',0

25/6/2014  23:52 >> Application_Name >> getDataPremium
exec sp_calonlineweb 'Y','210','2','3','A','','2500','21','A',460238.9,508685.1,'0',0

25/6/2014  23:52 >> Application_Name >> getDataPremium
exec sp_calonlineweb 'Y','210','3','3','A','','2500','21','A',0,0,'0',0

