12/7/2014  2:41 >> Application_Name >> getDataCarMarkByCarMarkCode
SELECT * 
 FROM online_carmark 
 WHERE carmakcod = '' 
 ORDER BY desc_t, carmakcod 

12/7/2014  2:41 >> Application_Name >> getDataCarMarkByCarMarkCode
SELECT * 
 FROM online_carmark 
 WHERE carmakcod = 'JK-MI080' 
 ORDER BY desc_t, carmakcod 

12/7/2014  2:59 >> Application_Name >> getDataCarMarkByCarMarkCode
SELECT * 
 FROM online_carmark 
 WHERE carmakcod = '' 
 ORDER BY desc_t, carmakcod 

12/7/2014  2:59 >> Application_Name >> getDataCarMarkByCarMarkCode
SELECT * 
 FROM online_carmark 
 WHERE carmakcod = 'JK-MI081' 
 ORDER BY desc_t, carmakcod 

12/7/2014  5:36 >> Application_Name >> getDataCarMarkByCarMarkCode
SELECT * 
 FROM online_carmark 
 WHERE carmakcod = 'JK-MI061' 
 ORDER BY desc_t, carmakcod 

12/7/2014  7:0 >> Application_Name >> getDataCarMarkByCarMarkCode
SELECT * 
 FROM online_carmark 
 WHERE carmakcod = '' 
 ORDER BY desc_t, carmakcod 

12/7/2014  7:0 >> Application_Name >> getDataCarMarkByCarMarkCode
SELECT * 
 FROM online_carmark 
 WHERE carmakcod = 'JK-HO001' 
 ORDER BY desc_t, carmakcod 

12/7/2014  7:6 >> Application_Name >> getDataCarMarkByCarMarkCode
SELECT * 
 FROM online_carmark 
 WHERE carmakcod = '' 
 ORDER BY desc_t, carmakcod 

12/7/2014  7:6 >> Application_Name >> getDataCarMarkByCarMarkCode
SELECT * 
 FROM online_carmark 
 WHERE carmakcod = 'JK-HO001' 
 ORDER BY desc_t, carmakcod 

12/7/2014  7:10 >> Application_Name >> getDataPremium
exec sp_calonlineweb 'Y','110','1','2','5 ','JK-HO001','2000','A','A',470250,574750,'36',20

12/7/2014  7:10 >> Application_Name >> getDataPremium
exec sp_calonlineweb 'Y','110','2','2','5 ','JK-HO001','2000','A','A',470250,574750,'36',20

12/7/2014  7:10 >> Application_Name >> getDataPremium
exec sp_calonlineweb 'Y','110','3','2','5 ','JK-HO001','2000','A','A',0,0,'36',20

12/7/2014  7:11 >> Application_Name >> getDataCarMarkByCarMarkCode
SELECT * 
 FROM online_carmark 
 WHERE carmakcod = '' 
 ORDER BY desc_t, carmakcod 

12/7/2014  7:11 >> Application_Name >> getDataCarMarkByCarMarkCode
SELECT * 
 FROM online_carmark 
 WHERE carmakcod = 'JK-HO001' 
 ORDER BY desc_t, carmakcod 

12/7/2014  7:12 >> Application_Name >> getDataPremium
exec sp_calonlineweb 'Y','110','1','2','5 ','JK-HO001','2000','A','A',470250,574750,'0',20

12/7/2014  7:12 >> Application_Name >> getDataPremium
exec sp_calonlineweb 'Y','110','2','2','5 ','JK-HO001','2000','A','A',470250,574750,'0',20

12/7/2014  7:12 >> Application_Name >> getDataPremium
exec sp_calonlineweb 'Y','110','3','2','5 ','JK-HO001','2000','A','A',0,0,'0',20

12/7/2014  7:13 >> Application_Name >> getDataPremium
exec sp_calonlineweb 'Y','110','1','2','5 ','JK-HO001','2000','A','A',470250,574750,'36',20

12/7/2014  7:13 >> Application_Name >> getDataPremium
exec sp_calonlineweb 'Y','110','2','2','5 ','JK-HO001','2000','A','A',470250,574750,'36',20

12/7/2014  7:13 >> Application_Name >> getDataPremium
exec sp_calonlineweb 'Y','110','3','2','5 ','JK-HO001','2000','A','A',0,0,'36',20

12/7/2014  7:44 >> Application_Name >> getDataCarMarkByCarMarkCode
SELECT * 
 FROM online_carmark 
 WHERE carmakcod = '' 
 ORDER BY desc_t, carmakcod 

12/7/2014  7:45 >> Application_Name >> getDataCarMarkByCarMarkCode
SELECT * 
 FROM online_carmark 
 WHERE carmakcod = 'JK-HO084' 
 ORDER BY desc_t, carmakcod 

12/7/2014  7:46 >> Application_Name >> getDataPremium
exec sp_calonlineweb 'N','110','1','3','5 ','JK-HO084','2000','A','A',462982.5,565867.5,'0',0

12/7/2014  7:46 >> Application_Name >> getDataPremium
exec sp_calonlineweb 'N','110','2','3','5 ','JK-HO084','2000','A','A',462982.5,565867.5,'0',0

12/7/2014  7:46 >> Application_Name >> getDataPremium
exec sp_calonlineweb 'N','110','3','3','5 ','JK-HO084','2000','A','A',0,0,'0',0

12/7/2014  7:47 >> Application_Name >> getDataPremium
exec sp_calonlineweb 'N','110','1','3','5 ','JK-HO084','2000','A','A',462982.5,565867.5,'0',0

12/7/2014  7:47 >> Application_Name >> getDataPremium
exec sp_calonlineweb 'N','110','2','3','5 ','JK-HO084','2000','A','A',462982.5,565867.5,'0',0

12/7/2014  7:47 >> Application_Name >> getDataPremium
exec sp_calonlineweb 'N','110','3','3','5 ','JK-HO084','2000','A','A',0,0,'0',0

12/7/2014  7:47 >> Application_Name >> getDataPremium
exec sp_calonlineweb 'N','110','1','3','5 ','JK-HO084','2000','A','A',462982.5,565867.5,'0',0

12/7/2014  7:47 >> Application_Name >> getDataPremium
exec sp_calonlineweb 'N','110','2','3','5 ','JK-HO084','2000','A','A',462982.5,565867.5,'0',0

12/7/2014  7:47 >> Application_Name >> getDataPremium
exec sp_calonlineweb 'N','110','3','3','5 ','JK-HO084','2000','A','A',0,0,'0',0

12/7/2014  7:48 >> Application_Name >> getDataPremium
exec sp_calonlineweb 'N','110','1','3','5 ','JK-HO084','2000','A','A',462982.5,565867.5,'0',0

12/7/2014  7:48 >> Application_Name >> getDataPremium
exec sp_calonlineweb 'N','110','2','3','5 ','JK-HO084','2000','A','A',462982.5,565867.5,'0',0

12/7/2014  7:48 >> Application_Name >> getDataPremium
exec sp_calonlineweb 'N','110','3','3','5 ','JK-HO084','2000','A','A',0,0,'0',0

12/7/2014  7:48 >> Application_Name >> getDataPremium
exec sp_calonlineweb 'N','110','1','3','5 ','JK-HO084','2000','A','A',462982.5,565867.5,'0',0

12/7/2014  7:48 >> Application_Name >> getDataPremium
exec sp_calonlineweb 'N','110','2','3','5 ','JK-HO084','2000','A','A',462982.5,565867.5,'0',0

12/7/2014  7:48 >> Application_Name >> getDataPremium
exec sp_calonlineweb 'N','110','3','3','5 ','JK-HO084','2000','A','A',0,0,'0',0

12/7/2014  8:38 >> Application_Name >> getDataCarMarkByCarMarkCode
SELECT * 
 FROM online_carmark 
 WHERE carmakcod = '' 
 ORDER BY desc_t, carmakcod 

12/7/2014  8:38 >> Application_Name >> getDataCarMarkByCarMarkCode
SELECT * 
 FROM online_carmark 
 WHERE carmakcod = 'JK-HO001' 
 ORDER BY desc_t, carmakcod 

12/7/2014  8:40 >> Application_Name >> getDataPremium
exec sp_calonlineweb 'Y','110','1','2','5 ','JK-HO001','2000','A','A',470250,574750,'0',0

12/7/2014  8:40 >> Application_Name >> getDataPremium
exec sp_calonlineweb 'Y','110','2','2','5 ','JK-HO001','2000','A','A',470250,574750,'0',0

12/7/2014  8:40 >> Application_Name >> getDataPremium
exec sp_calonlineweb 'Y','110','3','2','5 ','JK-HO001','2000','A','A',0,0,'0',0

12/7/2014  8:41 >> Application_Name >> SMK :: BuyVoluntary_step2-docToUI
Combine

12/7/2014  8:41 >> Application_Name >> SMK :: BuyVoluntary_step2-docToUI
rg_prmm-017059

12/7/2014  8:41 >> Application_Name >> SMK :: BuyVoluntary_step2-docToUI
rg_prmm17059

12/7/2014  8:41 >> Application_Name >> SMK :: BuyVoluntary_step2-docToUI
cp_comp_prmm600.00

12/7/2014  9:23 >> Application_Name >> getDataCarMarkByCarMarkCode
SELECT * 
 FROM online_carmark 
 WHERE carmakcod = '' 
 ORDER BY desc_t, carmakcod 

12/7/2014  9:23 >> Application_Name >> getDataCarMarkByCarMarkCode
SELECT * 
 FROM online_carmark 
 WHERE carmakcod = 'JK-HO001' 
 ORDER BY desc_t, carmakcod 

12/7/2014  9:26 >> Application_Name >> getDataPremium
exec sp_calonlineweb 'Y','110','1','3','5 ','JK-HO001','2000','A','A',446737.5,546012.5,'0',30

12/7/2014  9:26 >> Application_Name >> getDataPremium
exec sp_calonlineweb 'Y','110','2','3','5 ','JK-HO001','2000','A','A',446737.5,546012.5,'0',30

12/7/2014  9:26 >> Application_Name >> getDataPremium
exec sp_calonlineweb 'Y','110','3','3','5 ','JK-HO001','2000','A','A',0,0,'0',30

12/7/2014  9:39 >> Application_Name >> getDataCarMarkByCarMarkCode
SELECT * 
 FROM online_carmark 
 WHERE carmakcod = '' 
 ORDER BY desc_t, carmakcod 

12/7/2014  9:40 >> Application_Name >> getDataCarMarkByCarMarkCode
SELECT * 
 FROM online_carmark 
 WHERE carmakcod = 'JK-MA065' 
 ORDER BY desc_t, carmakcod 

12/7/2014  9:42 >> Application_Name >> getDataPremium
exec sp_calonlineweb 'Y','110','1','3','5 ','JK-MA065','2000','A','A',454860,555940,'0',0

12/7/2014  9:42 >> Application_Name >> getDataPremium
exec sp_calonlineweb 'Y','110','2','3','5 ','JK-MA065','2000','A','A',454860,555940,'0',0

12/7/2014  9:42 >> Application_Name >> getDataPremium
exec sp_calonlineweb 'Y','110','3','3','5 ','JK-MA065','2000','A','A',0,0,'0',0

12/7/2014  9:43 >> Application_Name >> getDataCarMarkByCarMarkCode
SELECT * 
 FROM online_carmark 
 WHERE carmakcod = '' 
 ORDER BY desc_t, carmakcod 

12/7/2014  9:43 >> Application_Name >> getDataCarMarkByCarMarkCode
SELECT * 
 FROM online_carmark 
 WHERE carmakcod = '' 
 ORDER BY desc_t, carmakcod 

12/7/2014  9:43 >> Application_Name >> getDataCarMarkByCarMarkCode
SELECT * 
 FROM online_carmark 
 WHERE carmakcod = 'JK-NI100' 
 ORDER BY desc_t, carmakcod 

12/7/2014  9:43 >> Application_Name >> getDataCarMarkByCarMarkCode
SELECT * 
 FROM online_carmark 
 WHERE carmakcod = 'JK-MA063' 
 ORDER BY desc_t, carmakcod 

12/7/2014  9:44 >> Application_Name >> getDataPremium
exec sp_calonlineweb 'N','110','1','2','5 ','JK-NI100','2000','A','A',380000,418000,'0',0

12/7/2014  9:44 >> Application_Name >> getDataPremium
exec sp_calonlineweb 'N','110','2','2','5 ','JK-NI100','2000','A','A',380000,418000,'0',0

12/7/2014  9:44 >> Application_Name >> getDataPremium
exec sp_calonlineweb 'N','110','3','2','5 ','JK-NI100','2000','A','A',0,0,'0',0

12/7/2014  9:44 >> Application_Name >> getDataPremium
exec sp_calonlineweb 'Y','110','1','3','5 ','JK-MA065','2000','A','A',454860,555940,'0',20

12/7/2014  9:44 >> Application_Name >> getDataPremium
exec sp_calonlineweb 'Y','110','2','3','5 ','JK-MA065','2000','A','A',454860,555940,'0',20

12/7/2014  9:44 >> Application_Name >> getDataPremium
exec sp_calonlineweb 'Y','110','3','3','5 ','JK-MA065','2000','A','A',0,0,'0',20

12/7/2014  9:45 >> Application_Name >> SMK :: BuyVoluntary_step2-docToUI
Combine

12/7/2014  9:45 >> Application_Name >> SMK :: BuyVoluntary_step2-docToUI
rg_prmm-012954.4

12/7/2014  9:45 >> Application_Name >> SMK :: BuyVoluntary_step2-docToUI
rg_prmm12954.4

12/7/2014  9:45 >> Application_Name >> SMK :: BuyVoluntary_step2-docToUI
cp_comp_prmm600.00

12/7/2014  9:46 >> Application_Name >> getDataPremium
exec sp_calonlineweb 'Y','110','1','3','3 ','JK-MA063','9999','A','A',503595,615505,'0',0

12/7/2014  9:46 >> Application_Name >> getDataPremium
exec sp_calonlineweb 'Y','110','2','3','3 ','JK-MA063','9999','A','A',503595,615505,'0',0

12/7/2014  9:46 >> Application_Name >> getDataPremium
exec sp_calonlineweb 'Y','110','3','3','3 ','JK-MA063','9999','A','A',0,0,'0',0

12/7/2014  10:2 >> Application_Name >> getDataCarMarkByCarMarkCode
SELECT * 
 FROM online_carmark 
 WHERE carmakcod = '' 
 ORDER BY desc_t, carmakcod 

12/7/2014  10:2 >> Application_Name >> getDataCarMarkByCarMarkCode
SELECT * 
 FROM online_carmark 
 WHERE carmakcod = 'JK-IS021' 
 ORDER BY desc_t, carmakcod 

12/7/2014  10:3 >> Application_Name >> getDataCarMarkByCarMarkCode
SELECT * 
 FROM online_carmark 
 WHERE carmakcod = '' 
 ORDER BY desc_t, carmakcod 

12/7/2014  10:46 >> Application_Name >> getDataCarMarkByCarMarkCode
SELECT * 
 FROM online_carmark 
 WHERE carmakcod = '' 
 ORDER BY desc_t, carmakcod 

12/7/2014  10:46 >> Application_Name >> getDataCarMarkByCarMarkCode
SELECT * 
 FROM online_carmark 
 WHERE carmakcod = 'JK-MI081' 
 ORDER BY desc_t, carmakcod 

12/7/2014  10:48 >> Application_Name >> getDataPremium
exec sp_calonlineweb 'Y','110','1','2','5 ','JK-MI081','2000','A','A',367650,449350,'25',0

12/7/2014  10:48 >> Application_Name >> getDataPremium
exec sp_calonlineweb 'Y','110','2','2','5 ','JK-MI081','2000','A','A',367650,449350,'25',0

12/7/2014  10:48 >> Application_Name >> getDataPremium
exec sp_calonlineweb 'Y','110','3','2','5 ','JK-MI081','2000','A','A',0,0,'25',0

12/7/2014  10:50 >> Application_Name >> SMK :: BuyVoluntary_step2-docToUI
Combine

12/7/2014  10:50 >> Application_Name >> SMK :: BuyVoluntary_step2-docToUI
rg_prmm-012369

12/7/2014  10:50 >> Application_Name >> SMK :: BuyVoluntary_step2-docToUI
rg_prmm12369

12/7/2014  10:50 >> Application_Name >> SMK :: BuyVoluntary_step2-docToUI
cp_comp_prmm600.00

12/7/2014  10:54 >> Application_Name >> getDataCarMarkByCarMarkCode
SELECT * 
 FROM online_carmark 
 WHERE carmakcod = '' 
 ORDER BY desc_t, carmakcod 

12/7/2014  10:55 >> Application_Name >> getDataCarMarkByCarMarkCode
SELECT * 
 FROM online_carmark 
 WHERE carmakcod = 'JK-TO178' 
 ORDER BY desc_t, carmakcod 

12/7/2014  10:55 >> Application_Name >> getDataCarMarkByCarMarkCode
SELECT * 
 FROM online_carmark 
 WHERE carmakcod = 'JK-TO179' 
 ORDER BY desc_t, carmakcod 

12/7/2014  10:55 >> Application_Name >> getDataCarMarkByCarMarkCode
SELECT * 
 FROM online_carmark 
 WHERE carmakcod = 'JK-TO178' 
 ORDER BY desc_t, carmakcod 

12/7/2014  10:56 >> Application_Name >> getDataCarMarkByCarMarkCode
SELECT * 
 FROM online_carmark 
 WHERE carmakcod = '' 
 ORDER BY desc_t, carmakcod 

12/7/2014  10:59 >> Application_Name >> getDataCarMarkByCarMarkCode
SELECT * 
 FROM online_carmark 
 WHERE carmakcod = '' 
 ORDER BY desc_t, carmakcod 

12/7/2014  10:59 >> Application_Name >> getDataCarMarkByCarMarkCode
SELECT * 
 FROM online_carmark 
 WHERE carmakcod = 'JK-TO240' 
 ORDER BY desc_t, carmakcod 

12/7/2014  11:1 >> Application_Name >> getDataPremium
exec sp_calonlineweb 'Y','110','1','2','3 ','JK-TO240','9999','A','A',760950,930050,'0',0

12/7/2014  11:1 >> Application_Name >> getDataPremium
exec sp_calonlineweb 'Y','110','2','2','3 ','JK-TO240','9999','A','A',760950,930050,'0',0

12/7/2014  11:1 >> Application_Name >> getDataPremium
exec sp_calonlineweb 'Y','110','3','2','3 ','JK-TO240','9999','A','A',0,0,'0',0

12/7/2014  11:7 >> Application_Name >> getDataPremium
exec sp_calonlineweb 'Y','110','1','2','3 ','JK-TO240','9999','A','A',760950,930050,'51',0

12/7/2014  11:7 >> Application_Name >> getDataPremium
exec sp_calonlineweb 'Y','110','2','2','3 ','JK-TO240','9999','A','A',760950,930050,'51',0

12/7/2014  11:7 >> Application_Name >> getDataPremium
exec sp_calonlineweb 'Y','110','3','2','3 ','JK-TO240','9999','A','A',0,0,'51',0

12/7/2014  11:16 >> Application_Name >> getDataCarMarkByCarMarkCode
SELECT * 
 FROM online_carmark 
 WHERE carmakcod = '' 
 ORDER BY desc_t, carmakcod 

12/7/2014  11:16 >> Application_Name >> getDataCarMarkByCarMarkCode
SELECT * 
 FROM online_carmark 
 WHERE carmakcod = 'JK-HO061' 
 ORDER BY desc_t, carmakcod 

12/7/2014  11:19 >> Application_Name >> getDataPremium
exec sp_calonlineweb 'Y','110','1','3','3 ','JK-HO061','9999','A','A',666045,814055,'18',0

12/7/2014  11:19 >> Application_Name >> getDataPremium
exec sp_calonlineweb 'Y','110','2','3','3 ','JK-HO061','9999','A','A',666045,814055,'18',0

12/7/2014  11:19 >> Application_Name >> getDataPremium
exec sp_calonlineweb 'Y','110','3','3','3 ','JK-HO061','9999','A','A',0,0,'18',0

12/7/2014  11:20 >> Application_Name >> getDataCarMarkByCarMarkCode
SELECT * 
 FROM online_carmark 
 WHERE carmakcod = '' 
 ORDER BY desc_t, carmakcod 

12/7/2014  11:46 >> Application_Name >> getDataCarMarkByCarMarkCode
SELECT * 
 FROM online_carmark 
 WHERE carmakcod = '' 
 ORDER BY desc_t, carmakcod 

12/7/2014  11:47 >> Application_Name >> getDataCarMarkByCarMarkCode
SELECT * 
 FROM online_carmark 
 WHERE carmakcod = 'JK-TO206' 
 ORDER BY desc_t, carmakcod 

12/7/2014  12:19 >> Application_Name >> getDataCarMarkByCarMarkCode
SELECT * 
 FROM online_carmark 
 WHERE carmakcod = '' 
 ORDER BY desc_t, carmakcod 

12/7/2014  12:19 >> Application_Name >> getDataCarMarkByCarMarkCode
SELECT * 
 FROM online_carmark 
 WHERE carmakcod = 'JK-MA065' 
 ORDER BY desc_t, carmakcod 

12/7/2014  12:21 >> Application_Name >> getDataPremium
exec sp_calonlineweb 'Y','110','1','2','5 ','JK-MA065','2000','A','A',478800,585200,'18',30

12/7/2014  12:21 >> Application_Name >> getDataPremium
exec sp_calonlineweb 'Y','110','2','2','5 ','JK-MA065','2000','A','A',478800,585200,'18',30

12/7/2014  12:21 >> Application_Name >> getDataPremium
exec sp_calonlineweb 'Y','110','3','2','5 ','JK-MA065','2000','A','A',0,0,'18',30

12/7/2014  12:22 >> Application_Name >> SMK :: BuyVoluntary_step2-docToUI
Combine

12/7/2014  12:22 >> Application_Name >> SMK :: BuyVoluntary_step2-docToUI
rg_prmm-012604.8

12/7/2014  12:22 >> Application_Name >> SMK :: BuyVoluntary_step2-docToUI
rg_prmm12604.8

12/7/2014  12:22 >> Application_Name >> SMK :: BuyVoluntary_step2-docToUI
cp_comp_prmm600.00

12/7/2014  13:38 >> Application_Name >> getDataCarMarkByCarMarkCode
SELECT * 
 FROM online_carmark 
 WHERE carmakcod = '' 
 ORDER BY desc_t, carmakcod 

12/7/2014  13:38 >> Application_Name >> getDataCarMarkByCarMarkCode
SELECT * 
 FROM online_carmark 
 WHERE carmakcod = 'JK-TO019' 
 ORDER BY desc_t, carmakcod 

12/7/2014  13:39 >> Application_Name >> getDataCarMarkByCarMarkCode
SELECT * 
 FROM online_carmark 
 WHERE carmakcod = '' 
 ORDER BY desc_t, carmakcod 

12/7/2014  13:39 >> Application_Name >> getDataCarMarkByCarMarkCode
SELECT * 
 FROM online_carmark 
 WHERE carmakcod = 'JK-HO001' 
 ORDER BY desc_t, carmakcod 

12/7/2014  13:40 >> Application_Name >> getDataPremium
exec sp_calonlineweb 'N','110','1','2','4 ','JK-TO019','2000','A','A',666900,815100,'36',30

12/7/2014  13:40 >> Application_Name >> getDataPremium
exec sp_calonlineweb 'N','110','2','2','4 ','JK-TO019','2000','A','A',666900,815100,'36',30

12/7/2014  13:40 >> Application_Name >> getDataPremium
exec sp_calonlineweb 'N','110','3','2','4 ','JK-TO019','2000','A','A',0,0,'36',30

12/7/2014  13:41 >> Application_Name >> getDataPremium
exec sp_calonlineweb 'Y','110','1','2','5 ','JK-HO001','2000','A','A',470250,574750,'0',20

12/7/2014  13:41 >> Application_Name >> getDataPremium
exec sp_calonlineweb 'Y','110','2','2','5 ','JK-HO001','2000','A','A',470250,574750,'0',20

12/7/2014  13:41 >> Application_Name >> getDataPremium
exec sp_calonlineweb 'Y','110','3','2','5 ','JK-HO001','2000','A','A',0,0,'0',20

12/7/2014  13:54 >> Application_Name >> getDataPremium
exec sp_calonlineweb 'N','110','1','2','4 ','JK-TO019','2000','A','A',666900,815100,'0',0

12/7/2014  13:54 >> Application_Name >> getDataPremium
exec sp_calonlineweb 'N','110','2','2','4 ','JK-TO019','2000','A','A',666900,815100,'0',0

12/7/2014  13:54 >> Application_Name >> getDataPremium
exec sp_calonlineweb 'N','110','3','2','4 ','JK-TO019','2000','A','A',0,0,'0',0

12/7/2014  13:54 >> Application_Name >> getDataPremium
exec sp_calonlineweb 'N','110','1','2','4 ','JK-TO019','2000','A','A',666900,815100,'0',30

12/7/2014  13:54 >> Application_Name >> getDataPremium
exec sp_calonlineweb 'N','110','2','2','4 ','JK-TO019','2000','A','A',666900,815100,'0',30

12/7/2014  13:54 >> Application_Name >> getDataPremium
exec sp_calonlineweb 'N','110','3','2','4 ','JK-TO019','2000','A','A',0,0,'0',30

12/7/2014  13:54 >> Application_Name >> getDataPremium
exec sp_calonlineweb 'N','110','1','2','4 ','JK-TO019','2000','A','A',666900,815100,'36',0

12/7/2014  13:54 >> Application_Name >> getDataPremium
exec sp_calonlineweb 'N','110','2','2','4 ','JK-TO019','2000','A','A',666900,815100,'36',0

12/7/2014  13:54 >> Application_Name >> getDataPremium
exec sp_calonlineweb 'N','110','3','2','4 ','JK-TO019','2000','A','A',0,0,'36',0

12/7/2014  14:5 >> Application_Name >> getDataCarMarkByCarMarkCode
SELECT * 
 FROM online_carmark 
 WHERE carmakcod = '' 
 ORDER BY desc_t, carmakcod 

12/7/2014  14:5 >> Application_Name >> getDataCarMarkByCarMarkCode
SELECT * 
 FROM online_carmark 
 WHERE carmakcod = 'JK-HO001' 
 ORDER BY desc_t, carmakcod 

12/7/2014  14:6 >> Application_Name >> getDataCarMarkByCarMarkCode
SELECT * 
 FROM online_carmark 
 WHERE carmakcod = '' 
 ORDER BY desc_t, carmakcod 

12/7/2014  14:7 >> Application_Name >> getDataPremium
exec sp_calonlineweb 'Y','110','1','3','5 ','JK-HO001','2000','A','A',446737.5,546012.5,'0',20

12/7/2014  14:7 >> Application_Name >> getDataPremium
exec sp_calonlineweb 'Y','110','2','3','5 ','JK-HO001','2000','A','A',446737.5,546012.5,'0',20

12/7/2014  14:7 >> Application_Name >> getDataPremium
exec sp_calonlineweb 'Y','110','3','3','5 ','JK-HO001','2000','A','A',0,0,'0',20

12/7/2014  14:10 >> Application_Name >> getDataPremium
exec sp_calonlineweb 'Y','110','1','3','5 ','JK-MA065','2000','A','A',446737.5,546012.5,'0',20

12/7/2014  14:10 >> Application_Name >> getDataPremium
exec sp_calonlineweb 'Y','110','2','3','5 ','JK-MA065','2000','A','A',446737.5,546012.5,'0',20

12/7/2014  14:10 >> Application_Name >> getDataPremium
exec sp_calonlineweb 'Y','110','3','3','5 ','JK-MA065','2000','A','A',0,0,'0',20

12/7/2014  14:12 >> Application_Name >> SMK :: BuyVoluntary_step2-docToUI
Combine

12/7/2014  14:12 >> Application_Name >> SMK :: BuyVoluntary_step2-docToUI
rg_prmm-012954.4

12/7/2014  14:12 >> Application_Name >> SMK :: BuyVoluntary_step2-docToUI
rg_prmm12954.4

12/7/2014  14:12 >> Application_Name >> SMK :: BuyVoluntary_step2-docToUI
cp_comp_prmm600.00

12/7/2014  14:41 >> Application_Name >> getCategoryCompByBrand
SELECT mdc_minor_cd , mdc_desc_t as mdc_desc FROM mtdesc_comp  WHERE mdc_minor_cd <> '0000' AND mdc_major_cd = 'H004' ORDER BY mdc_desc 

12/7/2014  15:21 >> Application_Name >> getCategoryCompByBrand
SELECT mdc_minor_cd , mdc_desc_t as mdc_desc FROM mtdesc_comp  WHERE mdc_minor_cd <> '0000' AND mdc_major_cd = 'H004' ORDER BY mdc_desc 

12/7/2014  15:26 >> Application_Name >> getNewPremium - compprmm
SELECT cp_com_prmm, cp_stamp, cp_tax FROM comprmm WHERE cp_veh_cd = '1.10   '

12/7/2014  15:28 >> Application_Name >> getNewPremium - compprmm
SELECT cp_com_prmm, cp_stamp, cp_tax FROM comprmm WHERE cp_veh_cd = '1.10   '

12/7/2014  15:28 >> Application_Name >> getNewPremium - compprmm
SELECT cp_com_prmm, cp_stamp, cp_tax FROM comprmm WHERE cp_veh_cd = '1.10   '

12/7/2014  15:28 >> Application_Name >> getDataCarMarkByCarMarkCode
SELECT * 
 FROM online_carmark 
 WHERE carmakcod = '' 
 ORDER BY desc_t, carmakcod 

12/7/2014  15:28 >> Application_Name >> getDataCarMarkByCarMarkCode
SELECT * 
 FROM online_carmark 
 WHERE carmakcod = '' 
 ORDER BY desc_t, carmakcod 

12/7/2014  15:29 >> Application_Name >> getDataCarMarkByCarMarkCode
SELECT * 
 FROM online_carmark 
 WHERE carmakcod = 'JK-HO001' 
 ORDER BY desc_t, carmakcod 

12/7/2014  15:30 >> Application_Name >> getDataPremium
exec sp_calonlineweb 'Y','110','1','3','5 ','JK-HO001','2000','A','A',446737.5,546012.5,'0',0

12/7/2014  15:30 >> Application_Name >> getDataPremium
exec sp_calonlineweb 'Y','110','2','3','5 ','JK-HO001','2000','A','A',446737.5,546012.5,'0',0

12/7/2014  15:30 >> Application_Name >> getDataPremium
exec sp_calonlineweb 'Y','110','3','3','5 ','JK-HO001','2000','A','A',0,0,'0',0

12/7/2014  15:31 >> Application_Name >> getDataPremium
exec sp_calonlineweb 'Y','110','1','3','5 ','JK-HO001','2000','A','A',446737.5,546012.5,'0',0

12/7/2014  15:31 >> Application_Name >> getDataPremium
exec sp_calonlineweb 'Y','110','2','3','5 ','JK-HO001','2000','A','A',446737.5,546012.5,'0',0

12/7/2014  15:31 >> Application_Name >> getDataPremium
exec sp_calonlineweb 'Y','110','3','3','5 ','JK-HO001','2000','A','A',0,0,'0',0

12/7/2014  15:31 >> Application_Name >> getDataPremium
exec sp_calonlineweb 'Y','110','1','3','5 ','JK-HO001','2000','A','A',446737.5,546012.5,'0',30

12/7/2014  15:31 >> Application_Name >> getDataPremium
exec sp_calonlineweb 'Y','110','2','3','5 ','JK-HO001','2000','A','A',446737.5,546012.5,'0',30

12/7/2014  15:31 >> Application_Name >> getDataPremium
exec sp_calonlineweb 'Y','110','3','3','5 ','JK-HO001','2000','A','A',0,0,'0',30

12/7/2014  15:41 >> Application_Name >> SMK :: BuyVoluntary_step2-docToUI
Combine

12/7/2014  15:41 >> Application_Name >> SMK :: BuyVoluntary_step2-docToUI
rg_prmm-012954.4

12/7/2014  15:41 >> Application_Name >> SMK :: BuyVoluntary_step2-docToUI
rg_prmm12954.4

12/7/2014  15:41 >> Application_Name >> SMK :: BuyVoluntary_step2-docToUI
cp_comp_prmm600.00

12/7/2014  15:48 >> Application_Name >> getDataPremium
exec sp_calonlineweb 'Y','110','1','3','5 ','JK-MA065','2000','A','A',446737.5,546012.5,'0',0

12/7/2014  15:48 >> Application_Name >> getDataPremium
exec sp_calonlineweb 'Y','110','2','3','5 ','JK-MA065','2000','A','A',446737.5,546012.5,'0',0

12/7/2014  15:48 >> Application_Name >> getDataPremium
exec sp_calonlineweb 'Y','110','3','3','5 ','JK-MA065','2000','A','A',0,0,'0',0

12/7/2014  16:1 >> Application_Name >> getDataCarMarkByCarMarkCode
SELECT * 
 FROM online_carmark 
 WHERE carmakcod = '' 
 ORDER BY desc_t, carmakcod 

12/7/2014  16:1 >> Application_Name >> getDataCarMarkByCarMarkCode
SELECT * 
 FROM online_carmark 
 WHERE carmakcod = 'JK-TO242' 
 ORDER BY desc_t, carmakcod 

12/7/2014  16:3 >> Application_Name >> getDataPremium
exec sp_calonlineweb 'Y','110','1','5','5 ','JK-TO242','2000','A','A',410511.15,501735.85,'0',0

12/7/2014  16:3 >> Application_Name >> getDataPremium
exec sp_calonlineweb 'Y','110','2','5','5 ','JK-TO242','2000','A','A',410511.15,501735.85,'0',0

12/7/2014  16:3 >> Application_Name >> getDataPremium
exec sp_calonlineweb 'Y','110','3','5','5 ','JK-TO242','2000','A','A',0,0,'0',0

12/7/2014  16:4 >> Application_Name >> getDataPremium
exec sp_calonlineweb 'Y','110','1','5','5 ','JK-TO242','2000','A','A',410511.15,501735.85,'0',30

12/7/2014  16:4 >> Application_Name >> getDataPremium
exec sp_calonlineweb 'Y','110','2','5','5 ','JK-TO242','2000','A','A',410511.15,501735.85,'0',30

12/7/2014  16:4 >> Application_Name >> getDataPremium
exec sp_calonlineweb 'Y','110','3','5','5 ','JK-TO242','2000','A','A',0,0,'0',30

12/7/2014  16:4 >> Application_Name >> getDataPremium
exec sp_calonlineweb 'Y','110','1','5','5 ','JK-TO242','2000','A','A',410511.15,501735.85,'0',30

12/7/2014  16:4 >> Application_Name >> getDataPremium
exec sp_calonlineweb 'Y','110','2','5','5 ','JK-TO242','2000','A','A',410511.15,501735.85,'0',30

12/7/2014  16:4 >> Application_Name >> getDataPremium
exec sp_calonlineweb 'Y','110','3','5','5 ','JK-TO242','2000','A','A',0,0,'0',30

12/7/2014  17:0 >> Application_Name >> getDataCarMarkByCarMarkCode
SELECT * 
 FROM online_carmark 
 WHERE carmakcod = '' 
 ORDER BY desc_t, carmakcod 

12/7/2014  17:1 >> Application_Name >> getDataCarMarkByCarMarkCode
SELECT * 
 FROM online_carmark 
 WHERE carmakcod = 'JK-TO242' 
 ORDER BY desc_t, carmakcod 

12/7/2014  17:3 >> Application_Name >> getDataPremium
exec sp_calonlineweb 'N','110','1','5','5 ','JK-TO242','2000','A','A',410511.15,501735.85,'25',0

12/7/2014  17:3 >> Application_Name >> getDataPremium
exec sp_calonlineweb 'N','110','2','5','5 ','JK-TO242','2000','A','A',410511.15,501735.85,'25',0

12/7/2014  17:3 >> Application_Name >> getDataPremium
exec sp_calonlineweb 'N','110','3','5','5 ','JK-TO242','2000','A','A',0,0,'25',0

12/7/2014  17:3 >> Application_Name >> getDataPremium
exec sp_calonlineweb 'N','110','1','5','5 ','JK-TO242','2000','A','A',410511.15,501735.85,'25',0

12/7/2014  17:3 >> Application_Name >> getDataPremium
exec sp_calonlineweb 'N','110','2','5','5 ','JK-TO242','2000','A','A',410511.15,501735.85,'25',0

12/7/2014  17:3 >> Application_Name >> getDataPremium
exec sp_calonlineweb 'N','110','3','5','5 ','JK-TO242','2000','A','A',0,0,'25',0

12/7/2014  17:3 >> Application_Name >> getDataPremium
exec sp_calonlineweb 'N','110','1','5','5 ','JK-TO242','2000','A','A',410511.15,501735.85,'25',0

12/7/2014  17:3 >> Application_Name >> getDataPremium
exec sp_calonlineweb 'N','110','2','5','5 ','JK-TO242','2000','A','A',410511.15,501735.85,'25',0

12/7/2014  17:3 >> Application_Name >> getDataPremium
exec sp_calonlineweb 'N','110','3','5','5 ','JK-TO242','2000','A','A',0,0,'25',0

12/7/2014  17:4 >> Application_Name >> getDataCarMarkByCarMarkCode
SELECT * 
 FROM online_carmark 
 WHERE carmakcod = '' 
 ORDER BY desc_t, carmakcod 

12/7/2014  17:5 >> Application_Name >> getDataCarMarkByCarMarkCode
SELECT * 
 FROM online_carmark 
 WHERE carmakcod = '' 
 ORDER BY desc_t, carmakcod 

12/7/2014  17:5 >> Application_Name >> getDataCarMarkByCarMarkCode
SELECT * 
 FROM online_carmark 
 WHERE carmakcod = 'JP-NI043' 
 ORDER BY desc_t, carmakcod 

12/7/2014  17:17 >> Application_Name >> getDataCarMarkByCarMarkCode
SELECT * 
 FROM online_carmark 
 WHERE carmakcod = '' 
 ORDER BY desc_t, carmakcod 

12/7/2014  17:17 >> Application_Name >> getDataCarMarkByCarMarkCode
SELECT * 
 FROM online_carmark 
 WHERE carmakcod = 'JK-NI101' 
 ORDER BY desc_t, carmakcod 

12/7/2014  17:20 >> Application_Name >> getDataPremium
exec sp_calonlineweb 'Y','110','1','3','3 ','JK-NI101','9999','A','A',552330,675070,'0',20

12/7/2014  17:20 >> Application_Name >> getDataPremium
exec sp_calonlineweb 'Y','110','2','3','3 ','JK-NI101','9999','A','A',552330,675070,'0',20

12/7/2014  17:20 >> Application_Name >> getDataPremium
exec sp_calonlineweb 'Y','110','3','3','3 ','JK-NI101','9999','A','A',0,0,'0',20

12/7/2014  17:25 >> Application_Name >> getDataCarMarkByCarMarkCode
SELECT * 
 FROM online_carmark 
 WHERE carmakcod = '' 
 ORDER BY desc_t, carmakcod 

12/7/2014  17:25 >> Application_Name >> getDataCarMarkByCarMarkCode
SELECT * 
 FROM online_carmark 
 WHERE carmakcod = '' 
 ORDER BY desc_t, carmakcod 

12/7/2014  17:25 >> Application_Name >> getDataCarMarkByCarMarkCode
SELECT * 
 FROM online_carmark 
 WHERE carmakcod = 'JK-TO242' 
 ORDER BY desc_t, carmakcod 

12/7/2014  17:28 >> Application_Name >> SENDBACK : regis_no
90-01712

12/7/2014  17:28 >> Application_Name >> SENDBACK : HOSTRESP
00

12/7/2014  17:28 >> Application_Name >> SENDBACK : REFCODE
XXXXXXXXXXXX

12/7/2014  17:28 >> Application_Name >> SENDBACK : AUTHCODE
004753

12/7/2014  17:28 >> Application_Name >> SENDBACK : RETURNINV
000009001712

12/7/2014  17:28 >> Application_Name >> SENDBACK : UAID
XXXXXXXXXXXXXXXXXXXXXXXXXXXXXXXXXXXX

12/7/2014  17:28 >> Application_Name >> SENDBACK : CARDNUMBER
4921XXXXXXXX1864

12/7/2014  17:28 >> Application_Name >> SENDBACK : AMOUNT
000001612811

12/7/2014  17:28 >> Application_Name >> SENDBACK : CURISO
764

12/7/2014  17:28 >> Application_Name >> SENDBACK : FILLSPACE
KBANKCARDXXXXXXXXXXX

12/7/2014  17:28 >> Application_Name >> RegisterManager.updateCreditResult :: SQL 
UPDATE CREDIT_POST SET cp_stat = '00'  WHERE cp_ref_no = '90-01712' 

12/7/2014  17:28 >> Application_Name >> SENDBACK : 90-01712:00
buyVoluntary_step4.aspx?regis_no=90-01712&paid_at=4

12/7/2014  17:47 >> Application_Name >> getDataCarMarkByCarMarkCode
SELECT * 
 FROM online_carmark 
 WHERE carmakcod = '' 
 ORDER BY desc_t, carmakcod 

12/7/2014  17:48 >> Application_Name >> getDataCarMarkByCarMarkCode
SELECT * 
 FROM online_carmark 
 WHERE carmakcod = 'JK-TO242' 
 ORDER BY desc_t, carmakcod 

12/7/2014  18:8 >> Application_Name >> getDataCarMarkByCarMarkCode
SELECT * 
 FROM online_carmark 
 WHERE carmakcod = '' 
 ORDER BY desc_t, carmakcod 

12/7/2014  18:8 >> Application_Name >> getDataCarMarkByCarMarkCode
SELECT * 
 FROM online_carmark 
 WHERE carmakcod = 'JK-MA065' 
 ORDER BY desc_t, carmakcod 

12/7/2014  18:10 >> Application_Name >> getDataPremium
exec sp_calonlineweb 'Y','110','1','3','5 ','JK-MA065','2000','A','A',454860,555940,'0',30

12/7/2014  18:10 >> Application_Name >> getDataPremium
exec sp_calonlineweb 'Y','110','2','3','5 ','JK-MA065','2000','A','A',454860,555940,'0',30

12/7/2014  18:10 >> Application_Name >> getDataPremium
exec sp_calonlineweb 'Y','110','3','3','5 ','JK-MA065','2000','A','A',0,0,'0',30

12/7/2014  18:31 >> Application_Name >> getDataCarMarkByCarMarkCode
SELECT * 
 FROM online_carmark 
 WHERE carmakcod = '' 
 ORDER BY desc_t, carmakcod 

12/7/2014  18:31 >> Application_Name >> getDataCarMarkByCarMarkCode
SELECT * 
 FROM online_carmark 
 WHERE carmakcod = 'JK-MI080' 
 ORDER BY desc_t, carmakcod 

12/7/2014  18:33 >> Application_Name >> getDataPremium
exec sp_calonlineweb 'Y','110','1','2','5 ','JK-MI080','2000','A','A',376200,459800,'25',0

12/7/2014  18:33 >> Application_Name >> getDataPremium
exec sp_calonlineweb 'Y','110','2','2','5 ','JK-MI080','2000','A','A',376200,459800,'25',0

12/7/2014  18:33 >> Application_Name >> getDataPremium
exec sp_calonlineweb 'Y','110','3','2','5 ','JK-MI080','2000','A','A',0,0,'25',0

12/7/2014  18:35 >> Application_Name >> getDataCarMarkByCarMarkCode
SELECT * 
 FROM online_carmark 
 WHERE carmakcod = '' 
 ORDER BY desc_t, carmakcod 

12/7/2014  18:35 >> Application_Name >> getDataCarMarkByCarMarkCode
SELECT * 
 FROM online_carmark 
 WHERE carmakcod = 'JK-MI080' 
 ORDER BY desc_t, carmakcod 

12/7/2014  18:36 >> Application_Name >> getDataPremium
exec sp_calonlineweb 'Y','110','1','2','5 ','JK-MI080','2000','A','A',376200,459800,'25',0

12/7/2014  18:36 >> Application_Name >> getDataPremium
exec sp_calonlineweb 'Y','110','2','2','5 ','JK-MI080','2000','A','A',376200,459800,'25',0

12/7/2014  18:36 >> Application_Name >> getDataPremium
exec sp_calonlineweb 'Y','110','3','2','5 ','JK-MI080','2000','A','A',0,0,'25',0

12/7/2014  18:37 >> Application_Name >> getDataPremium
exec sp_calonlineweb 'Y','110','1','2','5 ','JK-MI080','2000','A','A',376200,459800,'0',0

12/7/2014  18:37 >> Application_Name >> getDataPremium
exec sp_calonlineweb 'Y','110','2','2','5 ','JK-MI080','2000','A','A',376200,459800,'0',0

12/7/2014  18:37 >> Application_Name >> getDataPremium
exec sp_calonlineweb 'Y','110','3','2','5 ','JK-MI080','2000','A','A',0,0,'0',0

12/7/2014  18:37 >> Application_Name >> getDataPremium
exec sp_calonlineweb 'Y','110','1','2','5 ','JK-MI080','2000','A','A',376200,459800,'25',20

12/7/2014  18:37 >> Application_Name >> getDataPremium
exec sp_calonlineweb 'Y','110','2','2','5 ','JK-MI080','2000','A','A',376200,459800,'25',20

12/7/2014  18:37 >> Application_Name >> getDataPremium
exec sp_calonlineweb 'Y','110','3','2','5 ','JK-MI080','2000','A','A',0,0,'25',20

12/7/2014  18:38 >> Application_Name >> getDataPremium
exec sp_calonlineweb 'Y','110','1','2','5 ','JK-MI080','2000','A','A',376200,459800,'25',30

12/7/2014  18:38 >> Application_Name >> getDataPremium
exec sp_calonlineweb 'Y','110','2','2','5 ','JK-MI080','2000','A','A',376200,459800,'25',30

12/7/2014  18:38 >> Application_Name >> getDataPremium
exec sp_calonlineweb 'Y','110','3','2','5 ','JK-MI080','2000','A','A',0,0,'25',30

12/7/2014  18:42 >> Application_Name >> getDataCarMarkByCarMarkCode
SELECT * 
 FROM online_carmark 
 WHERE carmakcod = '' 
 ORDER BY desc_t, carmakcod 

12/7/2014  18:42 >> Application_Name >> getDataCarMarkByCarMarkCode
SELECT * 
 FROM online_carmark 
 WHERE carmakcod = 'JK-HO122' 
 ORDER BY desc_t, carmakcod 

12/7/2014  18:44 >> Application_Name >> getDataPremium
exec sp_calonlineweb 'Y','110','1','2','5 ','JK-HO122','2000','A','A',427500,522500,'25',0

12/7/2014  18:44 >> Application_Name >> getDataPremium
exec sp_calonlineweb 'Y','110','2','2','5 ','JK-HO122','2000','A','A',427500,522500,'25',0

12/7/2014  18:44 >> Application_Name >> getDataPremium
exec sp_calonlineweb 'Y','110','3','2','5 ','JK-HO122','2000','A','A',0,0,'25',0

12/7/2014  19:4 >> Application_Name >> getDataCarMarkByCarMarkCode
SELECT * 
 FROM online_carmark 
 WHERE carmakcod = '' 
 ORDER BY desc_t, carmakcod 

12/7/2014  19:4 >> Application_Name >> getDataCarMarkByCarMarkCode
SELECT * 
 FROM online_carmark 
 WHERE carmakcod = '' 
 ORDER BY desc_t, carmakcod 

12/7/2014  19:5 >> Application_Name >> getDataCarMarkByCarMarkCode
SELECT * 
 FROM online_carmark 
 WHERE carmakcod = 'EP-FO028' 
 ORDER BY desc_t, carmakcod 

12/7/2014  19:10 >> Application_Name >> getDataCarMarkByCarMarkCode
SELECT * 
 FROM online_carmark 
 WHERE carmakcod = '' 
 ORDER BY desc_t, carmakcod 

12/7/2014  19:10 >> Application_Name >> getDataCarMarkByCarMarkCode
SELECT * 
 FROM online_carmark 
 WHERE carmakcod = 'JK-MA065' 
 ORDER BY desc_t, carmakcod 

12/7/2014  19:12 >> Application_Name >> getDataPremium
exec sp_calonlineweb 'Y','110','1','3','5 ','JK-MA065','2000','A','A',454860,555940,'0',30

12/7/2014  19:12 >> Application_Name >> getDataPremium
exec sp_calonlineweb 'Y','110','2','3','5 ','JK-MA065','2000','A','A',454860,555940,'0',30

12/7/2014  19:12 >> Application_Name >> getDataPremium
exec sp_calonlineweb 'Y','110','3','3','5 ','JK-MA065','2000','A','A',0,0,'0',30

12/7/2014  19:19 >> Application_Name >> getDataCarMarkByCarMarkCode
SELECT * 
 FROM online_carmark 
 WHERE carmakcod = '' 
 ORDER BY desc_t, carmakcod 

12/7/2014  19:19 >> Application_Name >> getDataCarMarkByCarMarkCode
SELECT * 
 FROM online_carmark 
 WHERE carmakcod = '' 
 ORDER BY desc_t, carmakcod 

12/7/2014  19:19 >> Application_Name >> getDataCarMarkByCarMarkCode
SELECT * 
 FROM online_carmark 
 WHERE carmakcod = 'JP-MA020' 
 ORDER BY desc_t, carmakcod 

12/7/2014  19:21 >> Application_Name >> getDataCarMarkByCarMarkCode
SELECT * 
 FROM online_carmark 
 WHERE carmakcod = '' 
 ORDER BY desc_t, carmakcod 

12/7/2014  19:21 >> Application_Name >> getDataCarMarkByCarMarkCode
SELECT * 
 FROM online_carmark 
 WHERE carmakcod = 'JK-TO206' 
 ORDER BY desc_t, carmakcod 

12/7/2014  19:22 >> Application_Name >> getDataPremium
exec sp_calonlineweb 'N','320','1','9','A','','4','N','A',277259.32032605,306444.511939318,'36',0

12/7/2014  19:22 >> Application_Name >> getDataPremium
exec sp_calonlineweb 'N','320','2','9','A','','4','N','A',277259.32032605,306444.511939318,'36',0

12/7/2014  19:22 >> Application_Name >> getDataPremium
exec sp_calonlineweb 'N','320','3','9','A','','4','N','A',0,0,'36',0

12/7/2014  19:23 >> Application_Name >> getDataPremium
exec sp_calonlineweb 'Y','110','1','3','5 ','JK-MA065','2000','A','A',454860,555940,'0',30

12/7/2014  19:23 >> Application_Name >> getDataPremium
exec sp_calonlineweb 'Y','110','2','3','5 ','JK-MA065','2000','A','A',454860,555940,'0',30

12/7/2014  19:23 >> Application_Name >> getDataPremium
exec sp_calonlineweb 'Y','110','3','3','5 ','JK-MA065','2000','A','A',0,0,'0',30

12/7/2014  19:23 >> Application_Name >> getDataCarMarkByCarMarkCode
SELECT * 
 FROM online_carmark 
 WHERE carmakcod = '' 
 ORDER BY desc_t, carmakcod 

12/7/2014  19:23 >> Application_Name >> getDataCarMarkByCarMarkCode
SELECT * 
 FROM online_carmark 
 WHERE carmakcod = 'JK-MI047' 
 ORDER BY desc_t, carmakcod 

12/7/2014  19:24 >> Application_Name >> getDataPremium
exec sp_calonlineweb 'N','110','1','4','4 ','JK-TO206','2000','A','A',478415.25,584729.75,'25',0

12/7/2014  19:24 >> Application_Name >> getDataPremium
exec sp_calonlineweb 'N','110','2','4','4 ','JK-TO206','2000','A','A',478415.25,584729.75,'25',0

12/7/2014  19:24 >> Application_Name >> getDataPremium
exec sp_calonlineweb 'N','110','3','4','4 ','JK-TO206','2000','A','A',0,0,'25',0

12/7/2014  19:27 >> Application_Name >> getDataPremium
exec sp_calonlineweb 'Y','110','1','2','3 ','JK-MI047','9999','A','A',803700,982300,'36',20

12/7/2014  19:27 >> Application_Name >> getDataPremium
exec sp_calonlineweb 'Y','110','2','2','3 ','JK-MI047','9999','A','A',803700,982300,'36',20

12/7/2014  19:27 >> Application_Name >> getDataPremium
exec sp_calonlineweb 'Y','110','3','2','3 ','JK-MI047','9999','A','A',0,0,'36',20

12/7/2014  20:30 >> Application_Name >> getDataCarMarkByCarMarkCode
SELECT * 
 FROM online_carmark 
 WHERE carmakcod = '' 
 ORDER BY desc_t, carmakcod 

12/7/2014  20:30 >> Application_Name >> getDataCarMarkByCarMarkCode
SELECT * 
 FROM online_carmark 
 WHERE carmakcod = 'JK-HO001' 
 ORDER BY desc_t, carmakcod 

12/7/2014  20:32 >> Application_Name >> getDataPremium
exec sp_calonlineweb 'Y','110','1','3','5 ','JK-HO001','2000','A','A',446737.5,546012.5,'0',0

12/7/2014  20:32 >> Application_Name >> getDataPremium
exec sp_calonlineweb 'Y','110','2','3','5 ','JK-HO001','2000','A','A',446737.5,546012.5,'0',0

12/7/2014  20:32 >> Application_Name >> getDataPremium
exec sp_calonlineweb 'Y','110','3','3','5 ','JK-HO001','2000','A','A',0,0,'0',0

12/7/2014  20:32 >> Application_Name >> getDataPremium
exec sp_calonlineweb 'Y','110','1','3','5 ','JK-HO001','2000','A','A',446737.5,546012.5,'0',0

12/7/2014  20:33 >> Application_Name >> getDataPremium
exec sp_calonlineweb 'Y','110','2','3','5 ','JK-HO001','2000','A','A',446737.5,546012.5,'0',0

12/7/2014  20:33 >> Application_Name >> getDataPremium
exec sp_calonlineweb 'Y','110','3','3','5 ','JK-HO001','2000','A','A',0,0,'0',0

12/7/2014  21:23 >> Application_Name >> getDataCarMarkByCarMarkCode
SELECT * 
 FROM online_carmark 
 WHERE carmakcod = '' 
 ORDER BY desc_t, carmakcod 

12/7/2014  21:23 >> Application_Name >> getDataCarMarkByCarMarkCode
SELECT * 
 FROM online_carmark 
 WHERE carmakcod = '' 
 ORDER BY desc_t, carmakcod 

12/7/2014  21:24 >> Application_Name >> getDataCarMarkByCarMarkCode
SELECT * 
 FROM online_carmark 
 WHERE carmakcod = 'JP-TO043' 
 ORDER BY desc_t, carmakcod 

12/7/2014  21:25 >> Application_Name >> getDataCarMarkByCarMarkCode
SELECT * 
 FROM online_carmark 
 WHERE carmakcod = '' 
 ORDER BY desc_t, carmakcod 

12/7/2014  21:26 >> Application_Name >> getDataCarMarkByCarMarkCode
SELECT * 
 FROM online_carmark 
 WHERE carmakcod = 'JK-HO001' 
 ORDER BY desc_t, carmakcod 

12/7/2014  21:26 >> Application_Name >> getDataPremium
exec sp_calonlineweb 'Y','210','1','2','A','','2500','21','A',484462,535458,'0',0

12/7/2014  21:26 >> Application_Name >> getDataPremium
exec sp_calonlineweb 'Y','210','2','2','A','','2500','21','A',484462,535458,'0',0

12/7/2014  21:26 >> Application_Name >> getDataPremium
exec sp_calonlineweb 'Y','210','3','2','A','','2500','21','A',0,0,'0',0

12/7/2014  21:27 >> Application_Name >> getDataPremium
exec sp_calonlineweb 'Y','110','1','3','5 ','JK-HO001','2000','A','A',446737.5,546012.5,'0',20

12/7/2014  21:27 >> Application_Name >> getDataPremium
exec sp_calonlineweb 'Y','110','2','3','5 ','JK-HO001','2000','A','A',446737.5,546012.5,'0',20

12/7/2014  21:27 >> Application_Name >> getDataPremium
exec sp_calonlineweb 'Y','110','3','3','5 ','JK-HO001','2000','A','A',0,0,'0',20

12/7/2014  21:28 >> Application_Name >> SMK :: BuyVoluntary_step2-docToUI
Combine

12/7/2014  21:28 >> Application_Name >> SMK :: BuyVoluntary_step2-docToUI
rg_prmm-013312

12/7/2014  21:28 >> Application_Name >> SMK :: BuyVoluntary_step2-docToUI
rg_prmm13312

12/7/2014  21:28 >> Application_Name >> SMK :: BuyVoluntary_step2-docToUI
cp_comp_prmm600.00

12/7/2014  21:30 >> Application_Name >> getDataPremium
exec sp_calonlineweb 'Y','110','1','3','5 ','JK-HO001','2000','A','A',446737.5,546012.5,'0',20

12/7/2014  21:30 >> Application_Name >> getDataPremium
exec sp_calonlineweb 'Y','110','2','3','5 ','JK-HO001','2000','A','A',446737.5,546012.5,'0',20

12/7/2014  21:30 >> Application_Name >> getDataPremium
exec sp_calonlineweb 'Y','110','3','3','5 ','JK-HO001','2000','A','A',0,0,'0',20

12/7/2014  21:30 >> Application_Name >> SMK :: BuyVoluntary_step2-docToUI
Combine

12/7/2014  21:30 >> Application_Name >> SMK :: BuyVoluntary_step2-docToUI
rg_prmm-013692.8

12/7/2014  21:30 >> Application_Name >> SMK :: BuyVoluntary_step2-docToUI
rg_prmm13692.8

12/7/2014  21:30 >> Application_Name >> SMK :: BuyVoluntary_step2-docToUI
cp_comp_prmm600.00

12/7/2014  21:31 >> Application_Name >> getDataPremium
exec sp_calonlineweb 'Y','110','1','3','5 ','JK-HO001','2000','A','A',446737.5,546012.5,'0',20

12/7/2014  21:31 >> Application_Name >> getDataPremium
exec sp_calonlineweb 'Y','110','2','3','5 ','JK-HO001','2000','A','A',446737.5,546012.5,'0',20

12/7/2014  21:31 >> Application_Name >> getDataPremium
exec sp_calonlineweb 'Y','110','3','3','5 ','JK-HO001','2000','A','A',0,0,'0',20

12/7/2014  21:31 >> Application_Name >> SMK :: BuyVoluntary_step2-docToUI
Combine

12/7/2014  21:31 >> Application_Name >> SMK :: BuyVoluntary_step2-docToUI
rg_prmm-08844

12/7/2014  21:31 >> Application_Name >> SMK :: BuyVoluntary_step2-docToUI
rg_prmm8844

12/7/2014  21:31 >> Application_Name >> SMK :: BuyVoluntary_step2-docToUI
cp_comp_prmm600.00

12/7/2014  21:34 >> Application_Name >> getDataCarMarkByCarMarkCode
SELECT * 
 FROM online_carmark 
 WHERE carmakcod = '' 
 ORDER BY desc_t, carmakcod 

12/7/2014  21:34 >> Application_Name >> getDataCarMarkByCarMarkCode
SELECT * 
 FROM online_carmark 
 WHERE carmakcod = 'JK-HO001' 
 ORDER BY desc_t, carmakcod 

12/7/2014  21:35 >> Application_Name >> getDataPremium
exec sp_calonlineweb 'Y','110','1','3','5 ','JK-HO001','2000','A','A',446737.5,546012.5,'0',20

12/7/2014  21:35 >> Application_Name >> getDataPremium
exec sp_calonlineweb 'Y','110','2','3','5 ','JK-HO001','2000','A','A',446737.5,546012.5,'0',20

12/7/2014  21:35 >> Application_Name >> getDataPremium
exec sp_calonlineweb 'Y','110','3','3','5 ','JK-HO001','2000','A','A',0,0,'0',20

12/7/2014  21:35 >> Application_Name >> SMK :: BuyVoluntary_step2-docToUI
Combine

12/7/2014  21:35 >> Application_Name >> SMK :: BuyVoluntary_step2-docToUI
rg_prmm-013533.6

12/7/2014  21:35 >> Application_Name >> SMK :: BuyVoluntary_step2-docToUI
rg_prmm13533.6

12/7/2014  21:35 >> Application_Name >> SMK :: BuyVoluntary_step2-docToUI
cp_comp_prmm600.00

12/7/2014  21:36 >> Application_Name >> getDataCarMarkByCarMarkCode
SELECT * 
 FROM online_carmark 
 WHERE carmakcod = '' 
 ORDER BY desc_t, carmakcod 

12/7/2014  21:36 >> Application_Name >> getDataCarMarkByCarMarkCode
SELECT * 
 FROM online_carmark 
 WHERE carmakcod = '' 
 ORDER BY desc_t, carmakcod 

12/7/2014  21:37 >> Application_Name >> getDataCarMarkByCarMarkCode
SELECT * 
 FROM online_carmark 
 WHERE carmakcod = 'JK-TO255' 
 ORDER BY desc_t, carmakcod 

12/7/2014  21:37 >> Application_Name >> getDataCarMarkByCarMarkCode
SELECT * 
 FROM online_carmark 
 WHERE carmakcod = '' 
 ORDER BY desc_t, carmakcod 

12/7/2014  21:37 >> Application_Name >> getDataCarMarkByCarMarkCode
SELECT * 
 FROM online_carmark 
 WHERE carmakcod = 'JK-TO255' 
 ORDER BY desc_t, carmakcod 

12/7/2014  21:38 >> Application_Name >> getDataPremium
exec sp_calonlineweb 'Y','110','1','3','3 ','JK-TO255','2000','A','A',1055112.75,1289582.25,'0',20

12/7/2014  21:38 >> Application_Name >> getDataPremium
exec sp_calonlineweb 'Y','110','2','3','3 ','JK-TO255','2000','A','A',1055112.75,1289582.25,'0',20

12/7/2014  21:38 >> Application_Name >> getDataPremium
exec sp_calonlineweb 'Y','110','3','3','3 ','JK-TO255','2000','A','A',0,0,'0',20

12/7/2014  21:38 >> Application_Name >> SMK :: BuyVoluntary_step2-docToUI
Combine

12/7/2014  21:38 >> Application_Name >> SMK :: BuyVoluntary_step2-docToUI
rg_prmm-024769.6

12/7/2014  21:38 >> Application_Name >> SMK :: BuyVoluntary_step2-docToUI
rg_prmm24769.6

12/7/2014  21:38 >> Application_Name >> SMK :: BuyVoluntary_step2-docToUI
cp_comp_prmm600.00

12/7/2014  21:39 >> Application_Name >> getDataCarMarkByCarMarkCode
SELECT * 
 FROM online_carmark 
 WHERE carmakcod = '' 
 ORDER BY desc_t, carmakcod 

12/7/2014  21:39 >> Application_Name >> getDataCarMarkByCarMarkCode
SELECT * 
 FROM online_carmark 
 WHERE carmakcod = 'JK-HO001' 
 ORDER BY desc_t, carmakcod 

12/7/2014  21:40 >> Application_Name >> getDataPremium
exec sp_calonlineweb 'Y','110','1','4','5 ','JK-HO001','2000','A','A',424400.625,518711.875,'0',20

12/7/2014  21:40 >> Application_Name >> getDataPremium
exec sp_calonlineweb 'Y','110','2','4','5 ','JK-HO001','2000','A','A',424400.625,518711.875,'0',20

12/7/2014  21:40 >> Application_Name >> getDataPremium
exec sp_calonlineweb 'Y','110','3','4','5 ','JK-HO001','2000','A','A',0,0,'0',20

12/7/2014  21:40 >> Application_Name >> SMK :: BuyVoluntary_step2-docToUI
Combine

12/7/2014  21:40 >> Application_Name >> SMK :: BuyVoluntary_step2-docToUI
rg_prmm-012738.4

12/7/2014  21:40 >> Application_Name >> SMK :: BuyVoluntary_step2-docToUI
rg_prmm12738.4

12/7/2014  21:40 >> Application_Name >> SMK :: BuyVoluntary_step2-docToUI
cp_comp_prmm600.00

12/7/2014  22:0 >> Application_Name >> getDataCarMarkByCarMarkCode
SELECT * 
 FROM online_carmark 
 WHERE carmakcod = '' 
 ORDER BY desc_t, carmakcod 

12/7/2014  22:0 >> Application_Name >> getDataCarMarkByCarMarkCode
SELECT * 
 FROM online_carmark 
 WHERE carmakcod = '' 
 ORDER BY desc_t, carmakcod 

12/7/2014  22:0 >> Application_Name >> getDataCarMarkByCarMarkCode
SELECT * 
 FROM online_carmark 
 WHERE carmakcod = 'JK-MA065' 
 ORDER BY desc_t, carmakcod 

12/7/2014  22:3 >> Application_Name >> getDataPremium
exec sp_calonlineweb 'N','110','1','6','5 ','JK-MA065','2000','A','A',389985.5925,476649.0575,'0',20

12/7/2014  22:3 >> Application_Name >> getDataPremium
exec sp_calonlineweb 'N','110','2','6','5 ','JK-MA065','2000','A','A',389985.5925,476649.0575,'0',20

12/7/2014  22:3 >> Application_Name >> getDataPremium
exec sp_calonlineweb 'N','110','3','6','5 ','JK-MA065','2000','A','A',0,0,'0',20

12/7/2014  22:41 >> Application_Name >> getDataCarMarkByCarMarkCode
SELECT * 
 FROM online_carmark 
 WHERE carmakcod = '' 
 ORDER BY desc_t, carmakcod 

12/7/2014  22:41 >> Application_Name >> getDataCarMarkByCarMarkCode
SELECT * 
 FROM online_carmark 
 WHERE carmakcod = '' 
 ORDER BY desc_t, carmakcod 

12/7/2014  22:41 >> Application_Name >> getDataCarMarkByCarMarkCode
SELECT * 
 FROM online_carmark 
 WHERE carmakcod = '' 
 ORDER BY desc_t, carmakcod 

12/7/2014  22:41 >> Application_Name >> getDataCarMarkByCarMarkCode
SELECT * 
 FROM online_carmark 
 WHERE carmakcod = 'JK-HO001' 
 ORDER BY desc_t, carmakcod 

12/7/2014  22:43 >> Application_Name >> getDataPremium
exec sp_calonlineweb 'Y','110','1','2','5 ','JK-HO001','2000','A','A',470250,574750,'0',30

12/7/2014  22:43 >> Application_Name >> getDataPremium
exec sp_calonlineweb 'Y','110','2','2','5 ','JK-HO001','2000','A','A',470250,574750,'0',30

12/7/2014  22:43 >> Application_Name >> getDataPremium
exec sp_calonlineweb 'Y','110','3','2','5 ','JK-HO001','2000','A','A',0,0,'0',30

12/7/2014  22:56 >> Application_Name >> getDataCarMarkByCarMarkCode
SELECT * 
 FROM online_carmark 
 WHERE carmakcod = '' 
 ORDER BY desc_t, carmakcod 

12/7/2014  22:57 >> Application_Name >> getDataCarMarkByCarMarkCode
SELECT * 
 FROM online_carmark 
 WHERE carmakcod = 'JK-TO206' 
 ORDER BY desc_t, carmakcod 

12/7/2014  22:57 >> Application_Name >> getDataCarMarkByCarMarkCode
SELECT * 
 FROM online_carmark 
 WHERE carmakcod = 'JK-TO019' 
 ORDER BY desc_t, carmakcod 

12/7/2014  22:59 >> Application_Name >> getDataPremium
exec sp_calonlineweb 'Y','110','1','2','4 ','JK-TO019','2000','A','A',666900,815100,'36',20

12/7/2014  22:59 >> Application_Name >> getDataPremium
exec sp_calonlineweb 'Y','110','2','2','4 ','JK-TO019','2000','A','A',666900,815100,'36',20

12/7/2014  22:59 >> Application_Name >> getDataPremium
exec sp_calonlineweb 'Y','110','3','2','4 ','JK-TO019','2000','A','A',0,0,'36',20

12/7/2014  23:1 >> Application_Name >> getDataPremium
exec sp_calonlineweb 'Y','110','1','2','4 ','JK-TO019','2000','A','A',666900,815100,'36',30

12/7/2014  23:1 >> Application_Name >> getDataPremium
exec sp_calonlineweb 'Y','110','2','2','4 ','JK-TO019','2000','A','A',666900,815100,'36',30

12/7/2014  23:1 >> Application_Name >> getDataPremium
exec sp_calonlineweb 'Y','110','3','2','4 ','JK-TO019','2000','A','A',0,0,'36',30

12/7/2014  23:6 >> Application_Name >> getDataPremium
exec sp_calonlineweb 'Y','110','1','2','4 ','JK-TO019','2000','A','A',666900,815100,'36',30

12/7/2014  23:6 >> Application_Name >> getDataPremium
exec sp_calonlineweb 'Y','110','2','2','4 ','JK-TO019','2000','A','A',666900,815100,'36',30

12/7/2014  23:6 >> Application_Name >> getDataPremium
exec sp_calonlineweb 'Y','110','3','2','4 ','JK-TO019','2000','A','A',0,0,'36',30

12/7/2014  23:7 >> Application_Name >> getDataCarMarkByCarMarkCode
SELECT * 
 FROM online_carmark 
 WHERE carmakcod = '' 
 ORDER BY desc_t, carmakcod 

12/7/2014  23:7 >> Application_Name >> getDataCarMarkByCarMarkCode
SELECT * 
 FROM online_carmark 
 WHERE carmakcod = 'JK-NI028' 
 ORDER BY desc_t, carmakcod 

12/7/2014  23:8 >> Application_Name >> getDataPremium
exec sp_calonlineweb 'N','110','1','3','5 ','JK-NI028','2000','A','A',349267.5,426882.5,'0',30

12/7/2014  23:8 >> Application_Name >> getDataPremium
exec sp_calonlineweb 'N','110','2','3','5 ','JK-NI028','2000','A','A',349267.5,426882.5,'0',30

12/7/2014  23:8 >> Application_Name >> getDataPremium
exec sp_calonlineweb 'N','110','3','3','5 ','JK-NI028','2000','A','A',0,0,'0',30

12/7/2014  23:11 >> Application_Name >> getDataCarMarkByCarMarkCode
SELECT * 
 FROM online_carmark 
 WHERE carmakcod = '' 
 ORDER BY desc_t, carmakcod 

12/7/2014  23:11 >> Application_Name >> getDataCarMarkByCarMarkCode
SELECT * 
 FROM online_carmark 
 WHERE carmakcod = '' 
 ORDER BY desc_t, carmakcod 

12/7/2014  23:11 >> Application_Name >> getDataCarMarkByCarMarkCode
SELECT * 
 FROM online_carmark 
 WHERE carmakcod = '' 
 ORDER BY desc_t, carmakcod 

12/7/2014  23:11 >> Application_Name >> getDataCarMarkByCarMarkCode
SELECT * 
 FROM online_carmark 
 WHERE carmakcod = '' 
 ORDER BY desc_t, carmakcod 

12/7/2014  23:11 >> Application_Name >> getDataCarMarkByCarMarkCode
SELECT * 
 FROM online_carmark 
 WHERE carmakcod = '' 
 ORDER BY desc_t, carmakcod 

12/7/2014  23:11 >> Application_Name >> getDataCarMarkByCarMarkCode
SELECT * 
 FROM online_carmark 
 WHERE carmakcod = '' 
 ORDER BY desc_t, carmakcod 

12/7/2014  23:11 >> Application_Name >> getDataCarMarkByCarMarkCode
SELECT * 
 FROM online_carmark 
 WHERE carmakcod = 'JK-HO001' 
 ORDER BY desc_t, carmakcod 

12/7/2014  23:45 >> Application_Name >> getDataCarMarkByCarMarkCode
SELECT * 
 FROM online_carmark 
 WHERE carmakcod = '' 
 ORDER BY desc_t, carmakcod 

12/7/2014  23:45 >> Application_Name >> getDataCarMarkByCarMarkCode
SELECT * 
 FROM online_carmark 
 WHERE carmakcod = 'EK-VV005' 
 ORDER BY desc_t, carmakcod 

