13/4/2014  0:13 >> Application_Name >> getDataCarMarkByCarMarkCode
SELECT * 
 FROM online_carmark 
 WHERE carmakcod = '' 
 ORDER BY desc_t, carmakcod 

13/4/2014  0:13 >> Application_Name >> getDataCarMarkByCarMarkCode
SELECT * 
 FROM online_carmark 
 WHERE carmakcod = 'JK-HO084' 
 ORDER BY desc_t, carmakcod 

13/4/2014  0:18 >> Application_Name >> getDataPremium
exec sp_calonlineweb 'Y','110','1','11','5 ','JK-HO084','2000','A','A',307152.049829289,375408.060902464,'25',0

13/4/2014  0:18 >> Application_Name >> getDataPremium
exec sp_calonlineweb 'Y','110','2','11','5 ','JK-HO084','2000','A','A',307152.049829289,375408.060902464,'25',0

13/4/2014  0:18 >> Application_Name >> getDataPremium
exec sp_calonlineweb 'Y','110','3','11','5 ','JK-HO084','2000','A','A',0,0,'25',0

13/4/2014  1:5 >> Application_Name >> getDataCarMarkByCarMarkCode
SELECT * 
 FROM online_carmark 
 WHERE carmakcod = '' 
 ORDER BY desc_t, carmakcod 

13/4/2014  1:6 >> Application_Name >> getDataCarMarkByCarMarkCode
SELECT * 
 FROM online_carmark 
 WHERE carmakcod = 'JK-MI002' 
 ORDER BY desc_t, carmakcod 

13/4/2014  1:7 >> Application_Name >> getDataCarMarkByCarMarkCode
SELECT * 
 FROM online_carmark 
 WHERE carmakcod = '' 
 ORDER BY desc_t, carmakcod 

13/4/2014  1:8 >> Application_Name >> getDataCarMarkByCarMarkCode
SELECT * 
 FROM online_carmark 
 WHERE carmakcod = 'JK-MI002' 
 ORDER BY desc_t, carmakcod 

13/4/2014  1:53 >> Application_Name >> getDataCarMarkByCarMarkCode
SELECT * 
 FROM online_carmark 
 WHERE carmakcod = '' 
 ORDER BY desc_t, carmakcod 

13/4/2014  1:54 >> Application_Name >> getDataCarMarkByCarMarkCode
SELECT * 
 FROM online_carmark 
 WHERE carmakcod = '' 
 ORDER BY desc_t, carmakcod 

13/4/2014  1:54 >> Application_Name >> getDataCarMarkByCarMarkCode
SELECT * 
 FROM online_carmark 
 WHERE carmakcod = 'JP-IS052' 
 ORDER BY desc_t, carmakcod 

13/4/2014  3:17 >> Application_Name >> getDataCarMarkByCarMarkCode
SELECT * 
 FROM online_carmark 
 WHERE carmakcod = '' 
 ORDER BY desc_t, carmakcod 

13/4/2014  3:18 >> Application_Name >> getDataCarMarkByCarMarkCode
SELECT * 
 FROM online_carmark 
 WHERE carmakcod = 'JK-NI100' 
 ORDER BY desc_t, carmakcod 

13/4/2014  3:20 >> Application_Name >> getDataPremium
exec sp_calonlineweb 'Y','110','1','3','5 ','JK-NI100','2000','A','A',361000,397100,'25',20

13/4/2014  3:20 >> Application_Name >> getDataPremium
exec sp_calonlineweb 'Y','110','2','3','5 ','JK-NI100','2000','A','A',361000,397100,'25',20

13/4/2014  3:20 >> Application_Name >> getDataPremium
exec sp_calonlineweb 'Y','110','3','3','5 ','JK-NI100','2000','A','A',0,0,'25',20

13/4/2014  9:26 >> Application_Name >> getDataCarMarkByCarMarkCode
SELECT * 
 FROM online_carmark 
 WHERE carmakcod = '' 
 ORDER BY desc_t, carmakcod 

13/4/2014  9:27 >> Application_Name >> getDataCarMarkByCarMarkCode
SELECT * 
 FROM online_carmark 
 WHERE carmakcod = 'JK-HO002' 
 ORDER BY desc_t, carmakcod 

13/4/2014  11:0 >> Application_Name >> getDataCarMarkByCarMarkCode
SELECT * 
 FROM online_carmark 
 WHERE carmakcod = '' 
 ORDER BY desc_t, carmakcod 

13/4/2014  11:0 >> Application_Name >> getDataCarMarkByCarMarkCode
SELECT * 
 FROM online_carmark 
 WHERE carmakcod = 'JK-TO175' 
 ORDER BY desc_t, carmakcod 

13/4/2014  11:2 >> Application_Name >> getDataPremium
exec sp_calonlineweb 'Y','110','1','4','5 ','JK-TO175','2000','A','A',385818.75,471556.25,'0',0

13/4/2014  11:2 >> Application_Name >> getDataPremium
exec sp_calonlineweb 'Y','110','2','4','5 ','JK-TO175','2000','A','A',385818.75,471556.25,'0',0

13/4/2014  11:2 >> Application_Name >> getDataPremium
exec sp_calonlineweb 'Y','110','3','4','5 ','JK-TO175','2000','A','A',0,0,'0',0

13/4/2014  11:3 >> Application_Name >> getDataCarMarkByCarMarkCode
SELECT * 
 FROM online_carmark 
 WHERE carmakcod = '' 
 ORDER BY desc_t, carmakcod 

13/4/2014  11:4 >> Application_Name >> getDataCarMarkByCarMarkCode
SELECT * 
 FROM online_carmark 
 WHERE carmakcod = 'JK-TO175' 
 ORDER BY desc_t, carmakcod 

13/4/2014  11:5 >> Application_Name >> getDataPremium
exec sp_calonlineweb 'Y','110','1','4','5 ','JK-TO175','2000','A','A',385818.75,471556.25,'0',0

13/4/2014  11:5 >> Application_Name >> getDataPremium
exec sp_calonlineweb 'Y','110','2','4','5 ','JK-TO175','2000','A','A',385818.75,471556.25,'0',0

13/4/2014  11:5 >> Application_Name >> getDataPremium
exec sp_calonlineweb 'Y','110','3','4','5 ','JK-TO175','2000','A','A',0,0,'0',0

13/4/2014  11:15 >> Application_Name >> getDataCarMarkByCarMarkCode
SELECT * 
 FROM online_carmark 
 WHERE carmakcod = '' 
 ORDER BY desc_t, carmakcod 

13/4/2014  11:15 >> Application_Name >> getDataCarMarkByCarMarkCode
SELECT * 
 FROM online_carmark 
 WHERE carmakcod = 'JK-TO175' 
 ORDER BY desc_t, carmakcod 

13/4/2014  11:16 >> Application_Name >> getDataPremium
exec sp_calonlineweb 'Y','110','1','4','5 ','JK-TO175','2000','A','A',385818.75,471556.25,'0',20

13/4/2014  11:16 >> Application_Name >> getDataPremium
exec sp_calonlineweb 'Y','110','2','4','5 ','JK-TO175','2000','A','A',385818.75,471556.25,'0',20

13/4/2014  11:16 >> Application_Name >> getDataPremium
exec sp_calonlineweb 'Y','110','3','4','5 ','JK-TO175','2000','A','A',0,0,'0',20

13/4/2014  11:18 >> Application_Name >> SMK :: BuyVoluntary_step2-docToUI
Combine

13/4/2014  11:18 >> Application_Name >> SMK :: BuyVoluntary_step2-docToUI
rg_prmm-011942.4

13/4/2014  11:18 >> Application_Name >> SMK :: BuyVoluntary_step2-docToUI
rg_prmm11942.4

13/4/2014  11:18 >> Application_Name >> SMK :: BuyVoluntary_step2-docToUI
cp_comp_prmm600.00

13/4/2014  11:26 >> Application_Name >> getDataCarMarkByCarMarkCode
SELECT * 
 FROM online_carmark 
 WHERE carmakcod = '' 
 ORDER BY desc_t, carmakcod 

13/4/2014  11:26 >> Application_Name >> getDataCarMarkByCarMarkCode
SELECT * 
 FROM online_carmark 
 WHERE carmakcod = 'JK-TO242' 
 ORDER BY desc_t, carmakcod 

13/4/2014  11:27 >> Application_Name >> getDataPremium
exec sp_calonlineweb 'N','110','1','3','5 ','JK-TO242','2000','A','A',454860,555940,'0',0

13/4/2014  11:27 >> Application_Name >> getDataPremium
exec sp_calonlineweb 'N','110','2','3','5 ','JK-TO242','2000','A','A',454860,555940,'0',0

13/4/2014  11:27 >> Application_Name >> getDataPremium
exec sp_calonlineweb 'N','110','3','3','5 ','JK-TO242','2000','A','A',0,0,'0',0

13/4/2014  11:28 >> Application_Name >> getDataCarMarkByCarMarkCode
SELECT * 
 FROM online_carmark 
 WHERE carmakcod = '' 
 ORDER BY desc_t, carmakcod 

13/4/2014  11:46 >> Application_Name >> getDataCarMarkByCarMarkCode
SELECT * 
 FROM online_carmark 
 WHERE carmakcod = '' 
 ORDER BY desc_t, carmakcod 

13/4/2014  11:46 >> Application_Name >> getDataCarMarkByCarMarkCode
SELECT * 
 FROM online_carmark 
 WHERE carmakcod = 'JK-MA056' 
 ORDER BY desc_t, carmakcod 

13/4/2014  12:6 >> Application_Name >> getDataCarMarkByCarMarkCode
SELECT * 
 FROM online_carmark 
 WHERE carmakcod = '' 
 ORDER BY desc_t, carmakcod 

13/4/2014  12:6 >> Application_Name >> getDataCarMarkByCarMarkCode
SELECT * 
 FROM online_carmark 
 WHERE carmakcod = 'JK-TO242' 
 ORDER BY desc_t, carmakcod 

13/4/2014  12:8 >> Application_Name >> getDataPremium
exec sp_calonlineweb 'Y','110','1','2','5 ','JK-TO242','2000','A','A',478800,585200,'0',0

13/4/2014  12:8 >> Application_Name >> getDataPremium
exec sp_calonlineweb 'Y','110','2','2','5 ','JK-TO242','2000','A','A',478800,585200,'0',0

13/4/2014  12:8 >> Application_Name >> getDataPremium
exec sp_calonlineweb 'Y','110','3','2','5 ','JK-TO242','2000','A','A',0,0,'0',0

13/4/2014  15:10 >> Application_Name >> getDataCarMarkByCarMarkCode
SELECT * 
 FROM online_carmark 
 WHERE carmakcod = '' 
 ORDER BY desc_t, carmakcod 

13/4/2014  15:10 >> Application_Name >> getDataCarMarkByCarMarkCode
SELECT * 
 FROM online_carmark 
 WHERE carmakcod = 'JK-NI100' 
 ORDER BY desc_t, carmakcod 

13/4/2014  15:11 >> Application_Name >> getDataPremium
exec sp_calonlineweb 'Y','110','1','2','5 ','JK-NI100','2000','A','A',380000,418000,'0',0

13/4/2014  15:11 >> Application_Name >> getDataPremium
exec sp_calonlineweb 'Y','110','2','2','5 ','JK-NI100','2000','A','A',380000,418000,'0',0

13/4/2014  15:11 >> Application_Name >> getDataPremium
exec sp_calonlineweb 'Y','110','3','2','5 ','JK-NI100','2000','A','A',0,0,'0',0

13/4/2014  15:13 >> Application_Name >> getDataPremium
exec sp_calonlineweb 'N','110','1','2','5 ','JK-NI100','2000','A','A',380000,418000,'0',0

13/4/2014  15:13 >> Application_Name >> getDataPremium
exec sp_calonlineweb 'N','110','2','2','5 ','JK-NI100','2000','A','A',380000,418000,'0',0

13/4/2014  15:13 >> Application_Name >> getDataPremium
exec sp_calonlineweb 'N','110','3','2','5 ','JK-NI100','2000','A','A',0,0,'0',0

13/4/2014  15:14 >> Application_Name >> getDataPremium
exec sp_calonlineweb 'Y','110','1','2','5 ','JK-NI100','2000','A','A',380000,418000,'0',0

13/4/2014  15:14 >> Application_Name >> getDataPremium
exec sp_calonlineweb 'Y','110','2','2','5 ','JK-NI100','2000','A','A',380000,418000,'0',0

13/4/2014  15:14 >> Application_Name >> getDataPremium
exec sp_calonlineweb 'Y','110','3','2','5 ','JK-NI100','2000','A','A',0,0,'0',0

13/4/2014  15:15 >> Application_Name >> SMK :: BuyVoluntary_step2-docToUI
Combine

13/4/2014  15:15 >> Application_Name >> SMK :: BuyVoluntary_step2-docToUI
rg_prmm-013743

13/4/2014  15:15 >> Application_Name >> SMK :: BuyVoluntary_step2-docToUI
rg_prmm13743

13/4/2014  15:15 >> Application_Name >> SMK :: BuyVoluntary_step2-docToUI
cp_comp_prmm600.00

13/4/2014  15:15 >> Application_Name >> getDataPremium
exec sp_calonlineweb 'Y','110','1','2','5 ','JK-NI100','2000','A','A',380000,418000,'0',0

13/4/2014  15:15 >> Application_Name >> getDataPremium
exec sp_calonlineweb 'Y','110','2','2','5 ','JK-NI100','2000','A','A',380000,418000,'0',0

13/4/2014  15:15 >> Application_Name >> getDataPremium
exec sp_calonlineweb 'Y','110','3','2','5 ','JK-NI100','2000','A','A',0,0,'0',0

13/4/2014  15:16 >> Application_Name >> SMK :: BuyVoluntary_step2-docToUI
Combine

13/4/2014  15:16 >> Application_Name >> SMK :: BuyVoluntary_step2-docToUI
rg_prmm-013743

13/4/2014  15:16 >> Application_Name >> SMK :: BuyVoluntary_step2-docToUI
rg_prmm13743

13/4/2014  15:16 >> Application_Name >> SMK :: BuyVoluntary_step2-docToUI
cp_comp_prmm600.00

13/4/2014  15:51 >> Application_Name >> getDataCarMarkByCarMarkCode
SELECT * 
 FROM online_carmark 
 WHERE carmakcod = '' 
 ORDER BY desc_t, carmakcod 

13/4/2014  15:51 >> Application_Name >> getDataCarMarkByCarMarkCode
SELECT * 
 FROM online_carmark 
 WHERE carmakcod = 'JK-TO242' 
 ORDER BY desc_t, carmakcod 

13/4/2014  16:28 >> Application_Name >> getDataCarMarkByCarMarkCode
SELECT * 
 FROM online_carmark 
 WHERE carmakcod = '' 
 ORDER BY desc_t, carmakcod 

13/4/2014  16:28 >> Application_Name >> getDataCarMarkByCarMarkCode
SELECT * 
 FROM online_carmark 
 WHERE carmakcod = 'JK-TO019' 
 ORDER BY desc_t, carmakcod 

13/4/2014  16:30 >> Application_Name >> getDataPremium
exec sp_calonlineweb 'Y','110','1','3','4 ','JK-TO019','2000','A','A',633555,774345,'0',0

13/4/2014  16:30 >> Application_Name >> getDataPremium
exec sp_calonlineweb 'Y','110','2','3','4 ','JK-TO019','2000','A','A',633555,774345,'0',0

13/4/2014  16:30 >> Application_Name >> getDataPremium
exec sp_calonlineweb 'Y','110','3','3','4 ','JK-TO019','2000','A','A',0,0,'0',0

13/4/2014  16:34 >> Application_Name >> SMK :: BuyVoluntary_step2-docToUI
Combine

13/4/2014  16:34 >> Application_Name >> SMK :: BuyVoluntary_step2-docToUI
rg_prmm-020682

13/4/2014  16:34 >> Application_Name >> SMK :: BuyVoluntary_step2-docToUI
rg_prmm20682

13/4/2014  16:34 >> Application_Name >> SMK :: BuyVoluntary_step2-docToUI
cp_comp_prmm600.00

13/4/2014  17:17 >> Application_Name >> getDataCarMarkByCarMarkCode
SELECT * 
 FROM online_carmark 
 WHERE carmakcod = '' 
 ORDER BY desc_t, carmakcod 

13/4/2014  17:17 >> Application_Name >> getDataCarMarkByCarMarkCode
SELECT * 
 FROM online_carmark 
 WHERE carmakcod = '' 
 ORDER BY desc_t, carmakcod 

13/4/2014  17:17 >> Application_Name >> getDataCarMarkByCarMarkCode
SELECT * 
 FROM online_carmark 
 WHERE carmakcod = 'JK-TO206' 
 ORDER BY desc_t, carmakcod 

13/4/2014  17:20 >> Application_Name >> getDataPremium
exec sp_calonlineweb 'Y','110','1','3','4 ','JK-TO206','2000','A','A',503595,615505,'0',0

13/4/2014  17:20 >> Application_Name >> getDataPremium
exec sp_calonlineweb 'Y','110','2','3','4 ','JK-TO206','2000','A','A',503595,615505,'0',0

13/4/2014  17:20 >> Application_Name >> getDataPremium
exec sp_calonlineweb 'Y','110','3','3','4 ','JK-TO206','2000','A','A',0,0,'0',0

13/4/2014  17:21 >> Application_Name >> SMK :: BuyVoluntary_step2-docToUI
Combine

13/4/2014  17:21 >> Application_Name >> SMK :: BuyVoluntary_step2-docToUI
rg_prmm-018613

13/4/2014  17:21 >> Application_Name >> SMK :: BuyVoluntary_step2-docToUI
rg_prmm18613

13/4/2014  17:21 >> Application_Name >> SMK :: BuyVoluntary_step2-docToUI
cp_comp_prmm600.00

13/4/2014  18:10 >> Application_Name >> getDataCarMarkByCarMarkCode
SELECT * 
 FROM online_carmark 
 WHERE carmakcod = '' 
 ORDER BY desc_t, carmakcod 

13/4/2014  18:10 >> Application_Name >> getDataCarMarkByCarMarkCode
SELECT * 
 FROM online_carmark 
 WHERE carmakcod = 'JK-MI080' 
 ORDER BY desc_t, carmakcod 

13/4/2014  18:13 >> Application_Name >> getDataPremium
exec sp_calonlineweb 'Y','110','1','2','5 ','JK-MI080','2000','A','A',376200,459800,'0',20

13/4/2014  18:13 >> Application_Name >> getDataPremium
exec sp_calonlineweb 'Y','110','2','2','5 ','JK-MI080','2000','A','A',376200,459800,'0',20

13/4/2014  18:13 >> Application_Name >> getDataPremium
exec sp_calonlineweb 'Y','110','3','2','5 ','JK-MI080','2000','A','A',0,0,'0',20

13/4/2014  18:16 >> Application_Name >> getDataPremium
exec sp_calonlineweb 'Y','110','1','2','5 ','JK-MI080','2000','A','A',376200,459800,'0',0

13/4/2014  18:16 >> Application_Name >> getDataPremium
exec sp_calonlineweb 'Y','110','2','2','5 ','JK-MI080','2000','A','A',376200,459800,'0',0

13/4/2014  18:16 >> Application_Name >> getDataPremium
exec sp_calonlineweb 'Y','110','3','2','5 ','JK-MI080','2000','A','A',0,0,'0',0

13/4/2014  18:17 >> Application_Name >> getDataPremium
exec sp_calonlineweb 'Y','110','1','2','5 ','JK-MI080','2000','A','A',376200,459800,'0',30

13/4/2014  18:17 >> Application_Name >> getDataPremium
exec sp_calonlineweb 'Y','110','2','2','5 ','JK-MI080','2000','A','A',376200,459800,'0',30

13/4/2014  18:17 >> Application_Name >> getDataPremium
exec sp_calonlineweb 'Y','110','3','2','5 ','JK-MI080','2000','A','A',0,0,'0',30

13/4/2014  18:17 >> Application_Name >> getDataCarMarkByCarMarkCode
SELECT * 
 FROM online_carmark 
 WHERE carmakcod = '' 
 ORDER BY desc_t, carmakcod 

13/4/2014  19:36 >> Application_Name >> getDataCarMarkByCarMarkCode
SELECT * 
 FROM online_carmark 
 WHERE carmakcod = '' 
 ORDER BY desc_t, carmakcod 

13/4/2014  19:36 >> Application_Name >> getDataCarMarkByCarMarkCode
SELECT * 
 FROM online_carmark 
 WHERE carmakcod = 'JK-HO002' 
 ORDER BY desc_t, carmakcod 

13/4/2014  20:59 >> Application_Name >> getDataCarMarkByCarMarkCode
SELECT * 
 FROM online_carmark 
 WHERE carmakcod = '' 
 ORDER BY desc_t, carmakcod 

13/4/2014  20:59 >> Application_Name >> getDataCarMarkByCarMarkCode
SELECT * 
 FROM online_carmark 
 WHERE carmakcod = 'JK-MA065' 
 ORDER BY desc_t, carmakcod 

13/4/2014  21:0 >> Application_Name >> getDataPremium
exec sp_calonlineweb 'N','110','1','3','5 ','JK-MA065','2000','A','A',454860,555940,'0',0

13/4/2014  21:0 >> Application_Name >> getDataPremium
exec sp_calonlineweb 'N','110','2','3','5 ','JK-MA065','2000','A','A',454860,555940,'0',0

13/4/2014  21:0 >> Application_Name >> getDataPremium
exec sp_calonlineweb 'N','110','3','3','5 ','JK-MA065','2000','A','A',0,0,'0',0

13/4/2014  21:1 >> Application_Name >> getDataCarMarkByCarMarkCode
SELECT * 
 FROM online_carmark 
 WHERE carmakcod = '' 
 ORDER BY desc_t, carmakcod 

13/4/2014  21:1 >> Application_Name >> getDataCarMarkByCarMarkCode
SELECT * 
 FROM online_carmark 
 WHERE carmakcod = 'JK-MA065' 
 ORDER BY desc_t, carmakcod 

13/4/2014  21:1 >> Application_Name >> getDataPremium
exec sp_calonlineweb 'N','110','1','3','5 ','JK-MA065','2000','A','A',454860,555940,'0',0

13/4/2014  21:1 >> Application_Name >> getDataPremium
exec sp_calonlineweb 'N','110','2','3','5 ','JK-MA065','2000','A','A',454860,555940,'0',0

13/4/2014  21:1 >> Application_Name >> getDataPremium
exec sp_calonlineweb 'N','110','3','3','5 ','JK-MA065','2000','A','A',0,0,'0',0

13/4/2014  21:1 >> Application_Name >> getDataCarMarkByCarMarkCode
SELECT * 
 FROM online_carmark 
 WHERE carmakcod = '' 
 ORDER BY desc_t, carmakcod 

13/4/2014  21:1 >> Application_Name >> getDataCarMarkByCarMarkCode
SELECT * 
 FROM online_carmark 
 WHERE carmakcod = 'JK-MA065' 
 ORDER BY desc_t, carmakcod 

13/4/2014  21:3 >> Application_Name >> getDataPremium
exec sp_calonlineweb 'Y','110','1','3','5 ','JK-MA065','2000','A','A',454860,555940,'25',0

13/4/2014  21:3 >> Application_Name >> getDataPremium
exec sp_calonlineweb 'Y','110','2','3','5 ','JK-MA065','2000','A','A',454860,555940,'25',0

13/4/2014  21:3 >> Application_Name >> getDataPremium
exec sp_calonlineweb 'Y','110','3','3','5 ','JK-MA065','2000','A','A',0,0,'25',0

13/4/2014  21:3 >> Application_Name >> getDataCarMarkByCarMarkCode
SELECT * 
 FROM online_carmark 
 WHERE carmakcod = '' 
 ORDER BY desc_t, carmakcod 

13/4/2014  21:3 >> Application_Name >> getDataCarMarkByCarMarkCode
SELECT * 
 FROM online_carmark 
 WHERE carmakcod = '' 
 ORDER BY desc_t, carmakcod 

13/4/2014  21:4 >> Application_Name >> getDataCarMarkByCarMarkCode
SELECT * 
 FROM online_carmark 
 WHERE carmakcod = 'JK-MA065' 
 ORDER BY desc_t, carmakcod 

13/4/2014  21:4 >> Application_Name >> getDataPremium
exec sp_calonlineweb 'N','110','1','3','5 ','JK-MA065','2000','A','A',454860,555940,'0',0

13/4/2014  21:4 >> Application_Name >> getDataPremium
exec sp_calonlineweb 'N','110','2','3','5 ','JK-MA065','2000','A','A',454860,555940,'0',0

13/4/2014  21:4 >> Application_Name >> getDataPremium
exec sp_calonlineweb 'N','110','3','3','5 ','JK-MA065','2000','A','A',0,0,'0',0

