14/3/2014  1:3 >> Application_Name >> getDataCarMarkByCarMarkCode
SELECT * 
 FROM online_carmark 
 WHERE carmakcod = '' 
 ORDER BY desc_t, carmakcod 

14/3/2014  1:3 >> Application_Name >> getDataCarMarkByCarMarkCode
SELECT * 
 FROM online_carmark 
 WHERE carmakcod = 'JK-HO001' 
 ORDER BY desc_t, carmakcod 

14/3/2014  3:37 >> Application_Name >> getCategoryCompByBrand
SELECT mdc_minor_cd , mdc_desc_t as mdc_desc FROM mtdesc_comp  WHERE mdc_minor_cd <> '0000' AND mdc_major_cd = 'N001' ORDER BY mdc_desc 

14/3/2014  3:37 >> Application_Name >> getDataCarMarkByCarMarkCode
SELECT * 
 FROM online_carmark 
 WHERE carmakcod = '' 
 ORDER BY desc_t, carmakcod 

14/3/2014  3:37 >> Application_Name >> getDataCarMarkByCarMarkCode
SELECT * 
 FROM online_carmark 
 WHERE carmakcod = 'JK-NI100' 
 ORDER BY desc_t, carmakcod 

14/3/2014  3:38 >> Application_Name >> getDataPremium
exec sp_calonlineweb 'Y','110','1','3','5 ','JK-NI100','2000','A','A',361000,397100,'0',30

14/3/2014  3:38 >> Application_Name >> getDataPremium
exec sp_calonlineweb 'Y','110','2','3','5 ','JK-NI100','2000','A','A',361000,397100,'0',30

14/3/2014  3:38 >> Application_Name >> getDataPremium
exec sp_calonlineweb 'Y','110','3','3','5 ','JK-NI100','2000','A','A',0,0,'0',30

14/3/2014  3:39 >> Application_Name >> getDataPremium
exec sp_calonlineweb 'Y','110','1','3','5 ','JK-NI100','2000','A','A',361000,397100,'25',30

14/3/2014  3:39 >> Application_Name >> getDataPremium
exec sp_calonlineweb 'Y','110','2','3','5 ','JK-NI100','2000','A','A',361000,397100,'25',30

14/3/2014  3:39 >> Application_Name >> getDataPremium
exec sp_calonlineweb 'Y','110','3','3','5 ','JK-NI100','2000','A','A',0,0,'25',30

14/3/2014  5:29 >> Application_Name >> getDataCarMarkByCarMarkCode
SELECT * 
 FROM online_carmark 
 WHERE carmakcod = '' 
 ORDER BY desc_t, carmakcod 

14/3/2014  5:29 >> Application_Name >> getDataCarMarkByCarMarkCode
SELECT * 
 FROM online_carmark 
 WHERE carmakcod = 'JK-HO001' 
 ORDER BY desc_t, carmakcod 

14/3/2014  8:48 >> Application_Name >> getDataCarMarkByCarMarkCode
SELECT * 
 FROM online_carmark 
 WHERE carmakcod = '' 
 ORDER BY desc_t, carmakcod 

14/3/2014  8:48 >> Application_Name >> getDataCarMarkByCarMarkCode
SELECT * 
 FROM online_carmark 
 WHERE carmakcod = 'JK-TO234' 
 ORDER BY desc_t, carmakcod 

14/3/2014  8:50 >> Application_Name >> getDataPremium
exec sp_calonlineweb 'Y','110','1','3','5 ','JK-TO234','2000','A','A',487350,595650,'36',20

14/3/2014  8:50 >> Application_Name >> getDataPremium
exec sp_calonlineweb 'Y','110','2','3','5 ','JK-TO234','2000','A','A',487350,595650,'36',20

14/3/2014  8:50 >> Application_Name >> getDataPremium
exec sp_calonlineweb 'Y','110','3','3','5 ','JK-TO234','2000','A','A',0,0,'36',20

14/3/2014  8:51 >> Application_Name >> SMK :: BuyVoluntary_step2-docToUI
Combine

14/3/2014  8:51 >> Application_Name >> SMK :: BuyVoluntary_step2-docToUI
rg_prmm-011504

14/3/2014  8:51 >> Application_Name >> SMK :: BuyVoluntary_step2-docToUI
rg_prmm11504

14/3/2014  8:51 >> Application_Name >> SMK :: BuyVoluntary_step2-docToUI
cp_comp_prmm600.00

14/3/2014  9:29 >> Application_Name >> getDataCarMarkByCarMarkCode
SELECT * 
 FROM online_carmark 
 WHERE carmakcod = '' 
 ORDER BY desc_t, carmakcod 

14/3/2014  9:29 >> Application_Name >> getDataCarMarkByCarMarkCode
SELECT * 
 FROM online_carmark 
 WHERE carmakcod = 'JK-TO242' 
 ORDER BY desc_t, carmakcod 

14/3/2014  9:31 >> Application_Name >> getDataPremium
exec sp_calonlineweb 'Y','110','1','2','5 ','JK-TO242','2000','A','A',478800,585200,'0',30

14/3/2014  9:31 >> Application_Name >> getDataPremium
exec sp_calonlineweb 'Y','110','2','2','5 ','JK-TO242','2000','A','A',478800,585200,'0',30

14/3/2014  9:31 >> Application_Name >> getDataPremium
exec sp_calonlineweb 'Y','110','3','2','5 ','JK-TO242','2000','A','A',0,0,'0',30

14/3/2014  9:49 >> Application_Name >> getDataCarMarkByCarMarkCode
SELECT * 
 FROM online_carmark 
 WHERE carmakcod = '' 
 ORDER BY desc_t, carmakcod 

14/3/2014  9:49 >> Application_Name >> getDataCarMarkByCarMarkCode
SELECT * 
 FROM online_carmark 
 WHERE carmakcod = 'JK-HO002' 
 ORDER BY desc_t, carmakcod 

14/3/2014  9:50 >> Application_Name >> getDataPremium
exec sp_calonlineweb 'Y','110','1','6','3 ','JK-HO002','2000','A','A',605870.4740625,740508.3571875,'0',20

14/3/2014  9:50 >> Application_Name >> getDataPremium
exec sp_calonlineweb 'Y','110','2','6','3 ','JK-HO002','2000','A','A',605870.4740625,740508.3571875,'0',20

14/3/2014  9:50 >> Application_Name >> getDataPremium
exec sp_calonlineweb 'Y','110','3','6','3 ','JK-HO002','2000','A','A',0,0,'0',20

14/3/2014  10:29 >> Application_Name >> getDataCarMarkByCarMarkCode
SELECT * 
 FROM online_carmark 
 WHERE carmakcod = '' 
 ORDER BY desc_t, carmakcod 

14/3/2014  10:29 >> Application_Name >> getDataCarMarkByCarMarkCode
SELECT * 
 FROM online_carmark 
 WHERE carmakcod = 'JK-NI077' 
 ORDER BY desc_t, carmakcod 

14/3/2014  10:30 >> Application_Name >> getDataCarMarkByCarMarkCode
SELECT * 
 FROM online_carmark 
 WHERE carmakcod = '' 
 ORDER BY desc_t, carmakcod 

14/3/2014  10:30 >> Application_Name >> getDataCarMarkByCarMarkCode
SELECT * 
 FROM online_carmark 
 WHERE carmakcod = 'JK-HO001' 
 ORDER BY desc_t, carmakcod 

14/3/2014  10:32 >> Application_Name >> getDataPremium
exec sp_calonlineweb 'Y','110','1','3','5 ','JK-HO001','2000','A','A',446737.5,546012.5,'25',20

14/3/2014  10:32 >> Application_Name >> getDataPremium
exec sp_calonlineweb 'Y','110','2','3','5 ','JK-HO001','2000','A','A',446737.5,546012.5,'25',20

14/3/2014  10:32 >> Application_Name >> getDataPremium
exec sp_calonlineweb 'Y','110','3','3','5 ','JK-HO001','2000','A','A',0,0,'25',20

14/3/2014  10:32 >> Application_Name >> getDataCarMarkByCarMarkCode
SELECT * 
 FROM online_carmark 
 WHERE carmakcod = '' 
 ORDER BY desc_t, carmakcod 

14/3/2014  10:32 >> Application_Name >> getDataCarMarkByCarMarkCode
SELECT * 
 FROM online_carmark 
 WHERE carmakcod = 'JK-NI077' 
 ORDER BY desc_t, carmakcod 

14/3/2014  10:33 >> Application_Name >> getDataPremium
exec sp_calonlineweb 'Y','110','1','3','5 ','JK-HO001','2000','A','A',446737.5,546012.5,'25',30

14/3/2014  10:33 >> Application_Name >> getDataPremium
exec sp_calonlineweb 'Y','110','2','3','5 ','JK-HO001','2000','A','A',446737.5,546012.5,'25',30

14/3/2014  10:33 >> Application_Name >> getDataPremium
exec sp_calonlineweb 'Y','110','3','3','5 ','JK-HO001','2000','A','A',0,0,'25',30

14/3/2014  10:33 >> Application_Name >> getDataCarMarkByCarMarkCode
SELECT * 
 FROM online_carmark 
 WHERE carmakcod = '' 
 ORDER BY desc_t, carmakcod 

14/3/2014  10:33 >> Application_Name >> getDataCarMarkByCarMarkCode
SELECT * 
 FROM online_carmark 
 WHERE carmakcod = 'JK-NI077' 
 ORDER BY desc_t, carmakcod 

14/3/2014  10:34 >> Application_Name >> getDataPremium
exec sp_calonlineweb 'N','110','1','6','3 ','JK-NI077','2000','A','A',693338.6712375,766321.6892625,'0',0

14/3/2014  10:34 >> Application_Name >> getDataPremium
exec sp_calonlineweb 'N','110','2','6','3 ','JK-NI077','2000','A','A',693338.6712375,766321.6892625,'0',0

14/3/2014  10:34 >> Application_Name >> getDataPremium
exec sp_calonlineweb 'N','110','3','6','3 ','JK-NI077','2000','A','A',0,0,'0',0

14/3/2014  10:35 >> Application_Name >> getDataCarMarkByCarMarkCode
SELECT * 
 FROM online_carmark 
 WHERE carmakcod = '' 
 ORDER BY desc_t, carmakcod 

14/3/2014  10:35 >> Application_Name >> getDataCarMarkByCarMarkCode
SELECT * 
 FROM online_carmark 
 WHERE carmakcod = 'JK-NI077' 
 ORDER BY desc_t, carmakcod 

14/3/2014  10:36 >> Application_Name >> getDataPremium
exec sp_calonlineweb 'N','110','1','6','3 ','JK-NI077','2000','A','A',693338.6712375,766321.6892625,'0',0

14/3/2014  10:36 >> Application_Name >> getDataPremium
exec sp_calonlineweb 'N','110','2','6','3 ','JK-NI077','2000','A','A',693338.6712375,766321.6892625,'0',0

14/3/2014  10:36 >> Application_Name >> getDataPremium
exec sp_calonlineweb 'N','110','3','6','3 ','JK-NI077','2000','A','A',0,0,'0',0

14/3/2014  10:37 >> Application_Name >> getDataCarMarkByCarMarkCode
SELECT * 
 FROM online_carmark 
 WHERE carmakcod = '' 
 ORDER BY desc_t, carmakcod 

14/3/2014  10:37 >> Application_Name >> getDataCarMarkByCarMarkCode
SELECT * 
 FROM online_carmark 
 WHERE carmakcod = 'JK-TO242' 
 ORDER BY desc_t, carmakcod 

14/3/2014  10:38 >> Application_Name >> getDataPremium
exec sp_calonlineweb 'Y','110','1','2','5 ','JK-TO242','2000','A','A',478800,585200,'0',30

14/3/2014  10:38 >> Application_Name >> getDataPremium
exec sp_calonlineweb 'Y','110','2','2','5 ','JK-TO242','2000','A','A',478800,585200,'0',30

14/3/2014  10:38 >> Application_Name >> getDataPremium
exec sp_calonlineweb 'Y','110','3','2','5 ','JK-TO242','2000','A','A',0,0,'0',30

14/3/2014  10:56 >> Application_Name >> getDataCarMarkByCarMarkCode
SELECT * 
 FROM online_carmark 
 WHERE carmakcod = '' 
 ORDER BY desc_t, carmakcod 

14/3/2014  10:56 >> Application_Name >> getDataCarMarkByCarMarkCode
SELECT * 
 FROM online_carmark 
 WHERE carmakcod = 'JK-HO001' 
 ORDER BY desc_t, carmakcod 

14/3/2014  10:57 >> Application_Name >> getDataCarMarkByCarMarkCode
SELECT * 
 FROM online_carmark 
 WHERE carmakcod = '' 
 ORDER BY desc_t, carmakcod 

14/3/2014  10:57 >> Application_Name >> getDataCarMarkByCarMarkCode
SELECT * 
 FROM online_carmark 
 WHERE carmakcod = 'JK-NI004' 
 ORDER BY desc_t, carmakcod 

14/3/2014  10:57 >> Application_Name >> getDataCarMarkByCarMarkCode
SELECT * 
 FROM online_carmark 
 WHERE carmakcod = 'JK-NI034' 
 ORDER BY desc_t, carmakcod 

14/3/2014  10:58 >> Application_Name >> getDataPremium
exec sp_calonlineweb 'N','110','1','2','5 ','JK-HO001','2000','A','A',470250,574750,'0',0

14/3/2014  10:58 >> Application_Name >> getDataPremium
exec sp_calonlineweb 'N','110','2','2','5 ','JK-HO001','2000','A','A',470250,574750,'0',0

14/3/2014  10:58 >> Application_Name >> getDataPremium
exec sp_calonlineweb 'N','110','3','2','5 ','JK-HO001','2000','A','A',0,0,'0',0

14/3/2014  10:59 >> Application_Name >> getDataPremium
exec sp_calonlineweb 'N','110','1','2','5 ','JK-HO001','2000','A','A',470250,574750,'0',20

14/3/2014  10:59 >> Application_Name >> getDataPremium
exec sp_calonlineweb 'N','110','2','2','5 ','JK-HO001','2000','A','A',470250,574750,'0',20

14/3/2014  10:59 >> Application_Name >> getDataPremium
exec sp_calonlineweb 'N','110','3','2','5 ','JK-HO001','2000','A','A',0,0,'0',20

14/3/2014  11:17 >> Application_Name >> getDataCarMarkByCarMarkCode
SELECT * 
 FROM online_carmark 
 WHERE carmakcod = '' 
 ORDER BY desc_t, carmakcod 

14/3/2014  11:22 >> Application_Name >> getDataCarMarkByCarMarkCode
SELECT * 
 FROM online_carmark 
 WHERE carmakcod = '' 
 ORDER BY desc_t, carmakcod 

14/3/2014  11:22 >> Application_Name >> getDataCarMarkByCarMarkCode
SELECT * 
 FROM online_carmark 
 WHERE carmakcod = 'JK-NI004' 
 ORDER BY desc_t, carmakcod 

14/3/2014  11:24 >> Application_Name >> getDataPremium
exec sp_calonlineweb 'Y','110','1','14','5 ','JK-NI004','2000','A','A',233693.849992161,258293.202622915,'0',0

14/3/2014  11:24 >> Application_Name >> getDataPremium
exec sp_calonlineweb 'Y','110','2','14','5 ','JK-NI004','2000','A','A',233693.849992161,258293.202622915,'0',0

14/3/2014  11:24 >> Application_Name >> getDataPremium
exec sp_calonlineweb 'Y','110','3','14','5 ','JK-NI004','2000','A','A',0,0,'0',0

14/3/2014  11:29 >> Application_Name >> getDataCarMarkByCarMarkCode
SELECT * 
 FROM online_carmark 
 WHERE carmakcod = '' 
 ORDER BY desc_t, carmakcod 

14/3/2014  11:29 >> Application_Name >> getDataCarMarkByCarMarkCode
SELECT * 
 FROM online_carmark 
 WHERE carmakcod = 'JK-NI100' 
 ORDER BY desc_t, carmakcod 

14/3/2014  11:37 >> Application_Name >> getDataCarMarkByCarMarkCode
SELECT * 
 FROM online_carmark 
 WHERE carmakcod = '' 
 ORDER BY desc_t, carmakcod 

14/3/2014  11:37 >> Application_Name >> getDataCarMarkByCarMarkCode
SELECT * 
 FROM online_carmark 
 WHERE carmakcod = 'JK-NI100' 
 ORDER BY desc_t, carmakcod 

14/3/2014  11:44 >> Application_Name >> getDataCarMarkByCarMarkCode
SELECT * 
 FROM online_carmark 
 WHERE carmakcod = '' 
 ORDER BY desc_t, carmakcod 

14/3/2014  11:45 >> Application_Name >> getDataCarMarkByCarMarkCode
SELECT * 
 FROM online_carmark 
 WHERE carmakcod = 'JK-TO067' 
 ORDER BY desc_t, carmakcod 

14/3/2014  12:43 >> Application_Name >> getDataCarMarkByCarMarkCode
SELECT * 
 FROM online_carmark 
 WHERE carmakcod = '' 
 ORDER BY desc_t, carmakcod 

14/3/2014  12:43 >> Application_Name >> getDataCarMarkByCarMarkCode
SELECT * 
 FROM online_carmark 
 WHERE carmakcod = 'JK-NI100' 
 ORDER BY desc_t, carmakcod 

14/3/2014  12:45 >> Application_Name >> getDataPremium
exec sp_calonlineweb 'Y','110','1','2','5 ','JK-NI100','2000','A','A',380000,418000,'0',20

14/3/2014  12:45 >> Application_Name >> getDataPremium
exec sp_calonlineweb 'Y','110','2','2','5 ','JK-NI100','2000','A','A',380000,418000,'0',20

14/3/2014  12:45 >> Application_Name >> getDataPremium
exec sp_calonlineweb 'Y','110','3','2','5 ','JK-NI100','2000','A','A',0,0,'0',20

14/3/2014  12:50 >> Application_Name >> getDataCarMarkByCarMarkCode
SELECT * 
 FROM online_carmark 
 WHERE carmakcod = '' 
 ORDER BY desc_t, carmakcod 

14/3/2014  12:50 >> Application_Name >> getDataCarMarkByCarMarkCode
SELECT * 
 FROM online_carmark 
 WHERE carmakcod = 'JK-NI100' 
 ORDER BY desc_t, carmakcod 

14/3/2014  12:52 >> Application_Name >> getDataPremium
exec sp_calonlineweb 'Y','110','1','3','5 ','JK-NI100','2000','A','A',361000,397100,'0',30

14/3/2014  12:52 >> Application_Name >> getDataPremium
exec sp_calonlineweb 'Y','110','2','3','5 ','JK-NI100','2000','A','A',361000,397100,'0',30

14/3/2014  12:52 >> Application_Name >> getDataPremium
exec sp_calonlineweb 'Y','110','3','3','5 ','JK-NI100','2000','A','A',0,0,'0',30

14/3/2014  12:53 >> Application_Name >> SMK :: BuyVoluntary_step2-docToUI
Combine

14/3/2014  12:53 >> Application_Name >> SMK :: BuyVoluntary_step2-docToUI
rg_prmm-011214.4

14/3/2014  12:53 >> Application_Name >> SMK :: BuyVoluntary_step2-docToUI
rg_prmm11214.4

14/3/2014  12:53 >> Application_Name >> SMK :: BuyVoluntary_step2-docToUI
cp_comp_prmm600.00

14/3/2014  12:54 >> Application_Name >> getDataCarMarkByCarMarkCode
SELECT * 
 FROM online_carmark 
 WHERE carmakcod = '' 
 ORDER BY desc_t, carmakcod 

14/3/2014  12:55 >> Application_Name >> getDataCarMarkByCarMarkCode
SELECT * 
 FROM online_carmark 
 WHERE carmakcod = 'JK-TO254' 
 ORDER BY desc_t, carmakcod 

14/3/2014  12:55 >> Application_Name >> getDataCarMarkByCarMarkCode
SELECT * 
 FROM online_carmark 
 WHERE carmakcod = 'JK-TO242' 
 ORDER BY desc_t, carmakcod 

14/3/2014  12:59 >> Application_Name >> getDataCarMarkByCarMarkCode
SELECT * 
 FROM online_carmark 
 WHERE carmakcod = '' 
 ORDER BY desc_t, carmakcod 

14/3/2014  12:59 >> Application_Name >> getDataCarMarkByCarMarkCode
SELECT * 
 FROM online_carmark 
 WHERE carmakcod = 'JK-HO084' 
 ORDER BY desc_t, carmakcod 

14/3/2014  13:0 >> Application_Name >> getDataCarMarkByCarMarkCode
SELECT * 
 FROM online_carmark 
 WHERE carmakcod = '' 
 ORDER BY desc_t, carmakcod 

14/3/2014  13:0 >> Application_Name >> getDataCarMarkByCarMarkCode
SELECT * 
 FROM online_carmark 
 WHERE carmakcod = 'JK-TO242' 
 ORDER BY desc_t, carmakcod 

14/3/2014  13:0 >> Application_Name >> getDataCarMarkByCarMarkCode
SELECT * 
 FROM online_carmark 
 WHERE carmakcod = '' 
 ORDER BY desc_t, carmakcod 

14/3/2014  13:0 >> Application_Name >> getDataCarMarkByCarMarkCode
SELECT * 
 FROM online_carmark 
 WHERE carmakcod = 'JK-MI080' 
 ORDER BY desc_t, carmakcod 

14/3/2014  13:0 >> Application_Name >> getDataPremium
exec sp_calonlineweb 'Y','110','1','4','5 ','JK-TO242','2000','A','A',432117,528143,'25',0

14/3/2014  13:0 >> Application_Name >> getDataPremium
exec sp_calonlineweb 'Y','110','2','4','5 ','JK-TO242','2000','A','A',432117,528143,'25',0

14/3/2014  13:0 >> Application_Name >> getDataPremium
exec sp_calonlineweb 'Y','110','3','4','5 ','JK-TO242','2000','A','A',0,0,'25',0

14/3/2014  13:1 >> Application_Name >> getDataPremium
exec sp_calonlineweb 'Y','110','1','4','5 ','JK-TO242','2000','A','A',432117,528143,'25',30

14/3/2014  13:1 >> Application_Name >> getDataPremium
exec sp_calonlineweb 'Y','110','2','4','5 ','JK-TO242','2000','A','A',432117,528143,'25',30

14/3/2014  13:1 >> Application_Name >> getDataPremium
exec sp_calonlineweb 'Y','110','3','4','5 ','JK-TO242','2000','A','A',0,0,'25',30

14/3/2014  13:1 >> Application_Name >> getDataPremium
exec sp_calonlineweb 'Y','110','1','4','5 ','JK-TO242','2000','A','A',432117,528143,'25',20

14/3/2014  13:1 >> Application_Name >> getDataPremium
exec sp_calonlineweb 'Y','110','2','4','5 ','JK-TO242','2000','A','A',432117,528143,'25',20

14/3/2014  13:1 >> Application_Name >> getDataPremium
exec sp_calonlineweb 'Y','110','3','4','5 ','JK-TO242','2000','A','A',0,0,'25',20

14/3/2014  13:1 >> Application_Name >> getDataPremium
exec sp_calonlineweb 'N','110','1','2','5 ','JK-HO084','2000','A','A',487350,595650,'25',0

14/3/2014  13:1 >> Application_Name >> getDataPremium
exec sp_calonlineweb 'N','110','2','2','5 ','JK-HO084','2000','A','A',487350,595650,'25',0

14/3/2014  13:1 >> Application_Name >> getDataPremium
exec sp_calonlineweb 'N','110','3','2','5 ','JK-HO084','2000','A','A',0,0,'25',0

14/3/2014  13:1 >> Application_Name >> getDataPremium
exec sp_calonlineweb 'Y','110','1','2','5 ','JK-MI080','2000','A','A',376200,459800,'0',0

14/3/2014  13:1 >> Application_Name >> getDataPremium
exec sp_calonlineweb 'Y','110','2','2','5 ','JK-MI080','2000','A','A',376200,459800,'0',0

14/3/2014  13:1 >> Application_Name >> getDataPremium
exec sp_calonlineweb 'Y','110','3','2','5 ','JK-MI080','2000','A','A',0,0,'0',0

14/3/2014  13:1 >> Application_Name >> SMK :: BuyVoluntary_step2-docToUI
Combine

14/3/2014  13:1 >> Application_Name >> SMK :: BuyVoluntary_step2-docToUI
rg_prmm-013743

14/3/2014  13:1 >> Application_Name >> SMK :: BuyVoluntary_step2-docToUI
rg_prmm13743

14/3/2014  13:1 >> Application_Name >> SMK :: BuyVoluntary_step2-docToUI
cp_comp_prmm600.00

14/3/2014  13:3 >> Application_Name >> getDataCarMarkByCarMarkCode
SELECT * 
 FROM online_carmark 
 WHERE carmakcod = '' 
 ORDER BY desc_t, carmakcod 

14/3/2014  13:3 >> Application_Name >> getDataCarMarkByCarMarkCode
SELECT * 
 FROM online_carmark 
 WHERE carmakcod = 'JK-MI080' 
 ORDER BY desc_t, carmakcod 

14/3/2014  13:4 >> Application_Name >> getDataPremium
exec sp_calonlineweb 'Y','110','1','2','5 ','JK-MI080','2000','A','A',376200,459800,'0',0

14/3/2014  13:4 >> Application_Name >> getDataPremium
exec sp_calonlineweb 'Y','110','2','2','5 ','JK-MI080','2000','A','A',376200,459800,'0',0

14/3/2014  13:4 >> Application_Name >> getDataPremium
exec sp_calonlineweb 'Y','110','3','2','5 ','JK-MI080','2000','A','A',0,0,'0',0

14/3/2014  13:4 >> Application_Name >> SMK :: BuyVoluntary_step2-docToUI
Combine

14/3/2014  13:4 >> Application_Name >> SMK :: BuyVoluntary_step2-docToUI
rg_prmm-013743

14/3/2014  13:4 >> Application_Name >> SMK :: BuyVoluntary_step2-docToUI
rg_prmm13743

14/3/2014  13:4 >> Application_Name >> SMK :: BuyVoluntary_step2-docToUI
cp_comp_prmm600.00

14/3/2014  13:19 >> Application_Name >> RegisterManager.updateCreditResult :: SQL 
UPDATE CREDIT_POST SET cp_stat = 'A'  WHERE cp_ref_no = '3934' 

14/3/2014  13:31 >> Application_Name >> getDataCarMarkByCarMarkCode
SELECT * 
 FROM online_carmark 
 WHERE carmakcod = '' 
 ORDER BY desc_t, carmakcod 

14/3/2014  13:33 >> Application_Name >> getDataCarMarkByCarMarkCode
SELECT * 
 FROM online_carmark 
 WHERE carmakcod = 'JK-NI100' 
 ORDER BY desc_t, carmakcod 

14/3/2014  13:43 >> Application_Name >> getDataCarMarkByCarMarkCode
SELECT * 
 FROM online_carmark 
 WHERE carmakcod = '' 
 ORDER BY desc_t, carmakcod 

14/3/2014  13:43 >> Application_Name >> getDataCarMarkByCarMarkCode
SELECT * 
 FROM online_carmark 
 WHERE carmakcod = 'JK-NI100' 
 ORDER BY desc_t, carmakcod 

14/3/2014  13:44 >> Application_Name >> getDataPremium
exec sp_calonlineweb 'Y','110','1','2','5 ','JK-NI100','2000','A','A',380000,418000,'0',0

14/3/2014  13:44 >> Application_Name >> getDataPremium
exec sp_calonlineweb 'Y','110','2','2','5 ','JK-NI100','2000','A','A',380000,418000,'0',0

14/3/2014  13:44 >> Application_Name >> getDataPremium
exec sp_calonlineweb 'Y','110','3','2','5 ','JK-NI100','2000','A','A',0,0,'0',0

14/3/2014  13:48 >> Application_Name >> getDataPremium
exec sp_calonlineweb 'Y','110','1','2','5 ','JK-NI100','2000','A','A',380000,418000,'0',0

14/3/2014  13:48 >> Application_Name >> getDataPremium
exec sp_calonlineweb 'Y','110','2','2','5 ','JK-NI100','2000','A','A',380000,418000,'0',0

14/3/2014  13:48 >> Application_Name >> getDataPremium
exec sp_calonlineweb 'Y','110','3','2','5 ','JK-NI100','2000','A','A',0,0,'0',0

14/3/2014  13:49 >> Application_Name >> SMK :: BuyVoluntary_step2-docToUI
Combine

14/3/2014  13:49 >> Application_Name >> SMK :: BuyVoluntary_step2-docToUI
rg_prmm-013743

14/3/2014  13:49 >> Application_Name >> SMK :: BuyVoluntary_step2-docToUI
rg_prmm13743

14/3/2014  13:49 >> Application_Name >> SMK :: BuyVoluntary_step2-docToUI
cp_comp_prmm600.00

14/3/2014  13:49 >> Application_Name >> getDataCarMarkByCarMarkCode
SELECT * 
 FROM online_carmark 
 WHERE carmakcod = '' 
 ORDER BY desc_t, carmakcod 

14/3/2014  13:50 >> Application_Name >> getDataCarMarkByCarMarkCode
SELECT * 
 FROM online_carmark 
 WHERE carmakcod = 'JK-TO206' 
 ORDER BY desc_t, carmakcod 

14/3/2014  13:50 >> Application_Name >> getDataCarMarkByCarMarkCode
SELECT * 
 FROM online_carmark 
 WHERE carmakcod = '' 
 ORDER BY desc_t, carmakcod 

14/3/2014  13:50 >> Application_Name >> getDataCarMarkByCarMarkCode
SELECT * 
 FROM online_carmark 
 WHERE carmakcod = '' 
 ORDER BY desc_t, carmakcod 

14/3/2014  13:50 >> Application_Name >> getDataCarMarkByCarMarkCode
SELECT * 
 FROM online_carmark 
 WHERE carmakcod = '' 
 ORDER BY desc_t, carmakcod 

14/3/2014  13:50 >> Application_Name >> getDataCarMarkByCarMarkCode
SELECT * 
 FROM online_carmark 
 WHERE carmakcod = 'JP-IS052' 
 ORDER BY desc_t, carmakcod 

14/3/2014  13:52 >> Application_Name >> getDataPremium
exec sp_calonlineweb 'Y','210','1','3','A','','2500','21','A',528143,583737,'0',30

14/3/2014  13:52 >> Application_Name >> getDataPremium
exec sp_calonlineweb 'Y','210','2','3','A','','2500','21','A',528143,583737,'0',30

14/3/2014  13:52 >> Application_Name >> getDataPremium
exec sp_calonlineweb 'Y','210','3','3','A','','2500','21','A',0,0,'0',30

14/3/2014  13:52 >> Application_Name >> getDataPremium
exec sp_calonlineweb 'Y','210','1','3','A','','2500','21','A',528143,583737,'0',30

14/3/2014  13:52 >> Application_Name >> getDataPremium
exec sp_calonlineweb 'Y','210','2','3','A','','2500','21','A',528143,583737,'0',30

14/3/2014  13:52 >> Application_Name >> getDataPremium
exec sp_calonlineweb 'Y','210','3','3','A','','2500','21','A',0,0,'0',30

14/3/2014  14:30 >> Application_Name >> getDataCarMarkByCarMarkCode
SELECT * 
 FROM online_carmark 
 WHERE carmakcod = '' 
 ORDER BY desc_t, carmakcod 

14/3/2014  14:30 >> Application_Name >> getDataCarMarkByCarMarkCode
SELECT * 
 FROM online_carmark 
 WHERE carmakcod = 'JK-HO084' 
 ORDER BY desc_t, carmakcod 

14/3/2014  14:30 >> Application_Name >> getDataCarMarkByCarMarkCode
SELECT * 
 FROM online_carmark 
 WHERE carmakcod = '' 
 ORDER BY desc_t, carmakcod 

14/3/2014  14:31 >> Application_Name >> getDataCarMarkByCarMarkCode
SELECT * 
 FROM online_carmark 
 WHERE carmakcod = 'JK-TO019' 
 ORDER BY desc_t, carmakcod 

14/3/2014  14:33 >> Application_Name >> getDataCarMarkByCarMarkCode
SELECT * 
 FROM online_carmark 
 WHERE carmakcod = '' 
 ORDER BY desc_t, carmakcod 

14/3/2014  14:34 >> Application_Name >> getDataCarMarkByCarMarkCode
SELECT * 
 FROM online_carmark 
 WHERE carmakcod = 'JK-TO019' 
 ORDER BY desc_t, carmakcod 

14/3/2014  14:35 >> Application_Name >> getCategoryCompByBrand
SELECT mdc_minor_cd , mdc_desc_t as mdc_desc FROM mtdesc_comp  WHERE mdc_minor_cd <> '0000' AND mdc_major_cd = 'T001' ORDER BY mdc_desc 

14/3/2014  15:17 >> Application_Name >> getDataCarMarkByCarMarkCode
SELECT * 
 FROM online_carmark 
 WHERE carmakcod = '' 
 ORDER BY desc_t, carmakcod 

14/3/2014  15:17 >> Application_Name >> getDataCarMarkByCarMarkCode
SELECT * 
 FROM online_carmark 
 WHERE carmakcod = '' 
 ORDER BY desc_t, carmakcod 

14/3/2014  15:18 >> Application_Name >> getDataCarMarkByCarMarkCode
SELECT * 
 FROM online_carmark 
 WHERE carmakcod = 'JK-HO084' 
 ORDER BY desc_t, carmakcod 

14/3/2014  15:19 >> Application_Name >> getDataPremium
exec sp_calonlineweb 'N','110','1','14','5 ','JK-HO084','2000','A','A',263344.488722387,321865.48621625,'25',0

14/3/2014  15:19 >> Application_Name >> getDataPremium
exec sp_calonlineweb 'N','110','2','14','5 ','JK-HO084','2000','A','A',263344.488722387,321865.48621625,'25',0

14/3/2014  15:19 >> Application_Name >> getDataPremium
exec sp_calonlineweb 'N','110','3','14','5 ','JK-HO084','2000','A','A',0,0,'25',0

14/3/2014  15:27 >> Application_Name >> getDataPremium
exec sp_calonlineweb 'N','110','1','14','5 ','JK-HO084','2000','A','A',263344.488722387,321865.48621625,'25',0

14/3/2014  15:27 >> Application_Name >> getDataPremium
exec sp_calonlineweb 'N','110','2','14','5 ','JK-HO084','2000','A','A',263344.488722387,321865.48621625,'25',0

14/3/2014  15:27 >> Application_Name >> getDataPremium
exec sp_calonlineweb 'N','110','3','14','5 ','JK-HO084','2000','A','A',0,0,'25',0

14/3/2014  15:28 >> Application_Name >> getDataCarMarkByCarMarkCode
SELECT * 
 FROM online_carmark 
 WHERE carmakcod = '' 
 ORDER BY desc_t, carmakcod 

14/3/2014  15:28 >> Application_Name >> getDataCarMarkByCarMarkCode
SELECT * 
 FROM online_carmark 
 WHERE carmakcod = 'JK-HO084' 
 ORDER BY desc_t, carmakcod 

14/3/2014  15:29 >> Application_Name >> getDataPremium
exec sp_calonlineweb 'N','110','1','14','5 ','JK-HO084','2000','A','A',263344.488722387,321865.48621625,'25',0

14/3/2014  15:29 >> Application_Name >> getDataPremium
exec sp_calonlineweb 'N','110','2','14','5 ','JK-HO084','2000','A','A',263344.488722387,321865.48621625,'25',0

14/3/2014  15:29 >> Application_Name >> getDataPremium
exec sp_calonlineweb 'N','110','3','14','5 ','JK-HO084','2000','A','A',0,0,'25',0

14/3/2014  15:32 >> Application_Name >> getDataCarMarkByCarMarkCode
SELECT * 
 FROM online_carmark 
 WHERE carmakcod = '' 
 ORDER BY desc_t, carmakcod 

14/3/2014  15:32 >> Application_Name >> getDataCarMarkByCarMarkCode
SELECT * 
 FROM online_carmark 
 WHERE carmakcod = 'JK-TO242' 
 ORDER BY desc_t, carmakcod 

14/3/2014  15:34 >> Application_Name >> getDataPremium
exec sp_calonlineweb 'Y','110','1','3','5 ','JK-TO242','2000','A','A',454860,555940,'0',20

14/3/2014  15:34 >> Application_Name >> getDataPremium
exec sp_calonlineweb 'Y','110','2','3','5 ','JK-TO242','2000','A','A',454860,555940,'0',20

14/3/2014  15:34 >> Application_Name >> getDataPremium
exec sp_calonlineweb 'Y','110','3','3','5 ','JK-TO242','2000','A','A',0,0,'0',20

14/3/2014  15:39 >> Application_Name >> getDataCarMarkByCarMarkCode
SELECT * 
 FROM online_carmark 
 WHERE carmakcod = '' 
 ORDER BY desc_t, carmakcod 

14/3/2014  15:39 >> Application_Name >> getDataCarMarkByCarMarkCode
SELECT * 
 FROM online_carmark 
 WHERE carmakcod = 'JK-TO242' 
 ORDER BY desc_t, carmakcod 

14/3/2014  15:40 >> Application_Name >> getDataPremium
exec sp_calonlineweb 'Y','110','1','3','5 ','JK-TO242','2000','A','A',454860,555940,'0',20

14/3/2014  15:40 >> Application_Name >> getDataPremium
exec sp_calonlineweb 'Y','110','2','3','5 ','JK-TO242','2000','A','A',454860,555940,'0',20

14/3/2014  15:40 >> Application_Name >> getDataPremium
exec sp_calonlineweb 'Y','110','3','3','5 ','JK-TO242','2000','A','A',0,0,'0',20

14/3/2014  15:42 >> Application_Name >> SMK :: BuyVoluntary_step2-docToUI
Combine

14/3/2014  15:42 >> Application_Name >> SMK :: BuyVoluntary_step2-docToUI
rg_prmm-013920

14/3/2014  15:42 >> Application_Name >> SMK :: BuyVoluntary_step2-docToUI
rg_prmm13920

14/3/2014  15:42 >> Application_Name >> SMK :: BuyVoluntary_step2-docToUI
cp_comp_prmm600.00

14/3/2014  15:46 >> Application_Name >> getDataPremium
exec sp_calonlineweb 'Y','110','1','3','5 ','JK-TO242','2000','A','A',454860,555940,'0',20

14/3/2014  15:46 >> Application_Name >> getDataPremium
exec sp_calonlineweb 'Y','110','2','3','5 ','JK-TO242','2000','A','A',454860,555940,'0',20

14/3/2014  15:46 >> Application_Name >> getDataPremium
exec sp_calonlineweb 'Y','110','3','3','5 ','JK-TO242','2000','A','A',0,0,'0',20

14/3/2014  15:51 >> Application_Name >> getDataCarMarkByCarMarkCode
SELECT * 
 FROM online_carmark 
 WHERE carmakcod = '' 
 ORDER BY desc_t, carmakcod 

14/3/2014  15:51 >> Application_Name >> getDataCarMarkByCarMarkCode
SELECT * 
 FROM online_carmark 
 WHERE carmakcod = 'JK-TO242' 
 ORDER BY desc_t, carmakcod 

14/3/2014  15:52 >> Application_Name >> getDataPremium
exec sp_calonlineweb 'Y','110','1','4','5 ','JK-TO242','2000','A','A',432117,528143,'25',20

14/3/2014  15:52 >> Application_Name >> getDataPremium
exec sp_calonlineweb 'Y','110','2','4','5 ','JK-TO242','2000','A','A',432117,528143,'25',20

14/3/2014  15:52 >> Application_Name >> getDataPremium
exec sp_calonlineweb 'Y','110','3','4','5 ','JK-TO242','2000','A','A',0,0,'25',20

14/3/2014  15:52 >> Application_Name >> getDataCarMarkByCarMarkCode
SELECT * 
 FROM online_carmark 
 WHERE carmakcod = '' 
 ORDER BY desc_t, carmakcod 

14/3/2014  15:52 >> Application_Name >> getDataCarMarkByCarMarkCode
SELECT * 
 FROM online_carmark 
 WHERE carmakcod = 'JK-MA065' 
 ORDER BY desc_t, carmakcod 

14/3/2014  15:52 >> Application_Name >> getDataPremium
exec sp_calonlineweb 'Y','110','1','2','5 ','JK-TO242','2000','A','A',478800,585200,'0',20

14/3/2014  15:52 >> Application_Name >> getDataPremium
exec sp_calonlineweb 'Y','110','2','2','5 ','JK-TO242','2000','A','A',478800,585200,'0',20

14/3/2014  15:52 >> Application_Name >> getDataPremium
exec sp_calonlineweb 'Y','110','3','2','5 ','JK-TO242','2000','A','A',0,0,'0',20

14/3/2014  15:52 >> Application_Name >> SMK :: BuyVoluntary_step2-docToUI
Combine

14/3/2014  15:52 >> Application_Name >> SMK :: BuyVoluntary_step2-docToUI
rg_prmm-013268

14/3/2014  15:52 >> Application_Name >> SMK :: BuyVoluntary_step2-docToUI
rg_prmm13268

14/3/2014  15:52 >> Application_Name >> SMK :: BuyVoluntary_step2-docToUI
cp_comp_prmm600.00

14/3/2014  15:54 >> Application_Name >> getDataPremium
exec sp_calonlineweb 'N','110','1','2','5 ','JK-TO242','2000','A','A',478800,585200,'0',20

14/3/2014  15:54 >> Application_Name >> getDataPremium
exec sp_calonlineweb 'N','110','2','2','5 ','JK-TO242','2000','A','A',478800,585200,'0',20

14/3/2014  15:54 >> Application_Name >> getDataPremium
exec sp_calonlineweb 'N','110','3','2','5 ','JK-TO242','2000','A','A',0,0,'0',20

14/3/2014  16:5 >> Application_Name >> getDataCarMarkByCarMarkCode
SELECT * 
 FROM online_carmark 
 WHERE carmakcod = '' 
 ORDER BY desc_t, carmakcod 

14/3/2014  16:13 >> Application_Name >> getDataCarMarkByCarMarkCode
SELECT * 
 FROM online_carmark 
 WHERE carmakcod = '' 
 ORDER BY desc_t, carmakcod 

14/3/2014  16:13 >> Application_Name >> getDataCarMarkByCarMarkCode
SELECT * 
 FROM online_carmark 
 WHERE carmakcod = 'JK-MI080' 
 ORDER BY desc_t, carmakcod 

14/3/2014  16:13 >> Application_Name >> getDataCarMarkByCarMarkCode
SELECT * 
 FROM online_carmark 
 WHERE carmakcod = '' 
 ORDER BY desc_t, carmakcod 

14/3/2014  16:13 >> Application_Name >> getDataCarMarkByCarMarkCode
SELECT * 
 FROM online_carmark 
 WHERE carmakcod = 'JK-IS017' 
 ORDER BY desc_t, carmakcod 

14/3/2014  16:14 >> Application_Name >> getDataPremium
exec sp_calonlineweb 'N','110','1','2','5 ','JK-MI080','2000','A','A',376200,459800,'0',0

14/3/2014  16:14 >> Application_Name >> getDataPremium
exec sp_calonlineweb 'N','110','2','2','5 ','JK-MI080','2000','A','A',376200,459800,'0',0

14/3/2014  16:14 >> Application_Name >> getDataPremium
exec sp_calonlineweb 'N','110','3','2','5 ','JK-MI080','2000','A','A',0,0,'0',0

14/3/2014  16:15 >> Application_Name >> getDataPremium
exec sp_calonlineweb 'Y','110','1','2','3 ','JK-IS017','9999','A','A',478800,585200,'0',20

14/3/2014  16:15 >> Application_Name >> getDataPremium
exec sp_calonlineweb 'Y','110','2','2','3 ','JK-IS017','9999','A','A',478800,585200,'0',20

14/3/2014  16:15 >> Application_Name >> getDataPremium
exec sp_calonlineweb 'Y','110','3','2','3 ','JK-IS017','9999','A','A',0,0,'0',20

14/3/2014  16:18 >> Application_Name >> getDataCarMarkByCarMarkCode
SELECT * 
 FROM online_carmark 
 WHERE carmakcod = '' 
 ORDER BY desc_t, carmakcod 

14/3/2014  16:18 >> Application_Name >> getDataCarMarkByCarMarkCode
SELECT * 
 FROM online_carmark 
 WHERE carmakcod = 'JK-HO084' 
 ORDER BY desc_t, carmakcod 

14/3/2014  16:20 >> Application_Name >> getDataPremium
exec sp_calonlineweb 'Y','110','1','2','5 ','JK-HO084','2000','A','A',487350,595650,'25',30

14/3/2014  16:20 >> Application_Name >> getDataPremium
exec sp_calonlineweb 'Y','110','2','2','5 ','JK-HO084','2000','A','A',487350,595650,'25',30

14/3/2014  16:20 >> Application_Name >> getDataPremium
exec sp_calonlineweb 'Y','110','3','2','5 ','JK-HO084','2000','A','A',0,0,'25',30

14/3/2014  16:21 >> Application_Name >> getDataPremium
exec sp_calonlineweb 'Y','110','1','2','5 ','JK-HO084','2000','A','A',487350,595650,'25',20

14/3/2014  16:21 >> Application_Name >> getDataPremium
exec sp_calonlineweb 'Y','110','2','2','5 ','JK-HO084','2000','A','A',487350,595650,'25',20

14/3/2014  16:21 >> Application_Name >> getDataPremium
exec sp_calonlineweb 'Y','110','3','2','5 ','JK-HO084','2000','A','A',0,0,'25',20

14/3/2014  16:23 >> Application_Name >> getDataCarMarkByCarMarkCode
SELECT * 
 FROM online_carmark 
 WHERE carmakcod = '' 
 ORDER BY desc_t, carmakcod 

14/3/2014  16:23 >> Application_Name >> getDataCarMarkByCarMarkCode
SELECT * 
 FROM online_carmark 
 WHERE carmakcod = 'JK-NI100' 
 ORDER BY desc_t, carmakcod 

14/3/2014  16:24 >> Application_Name >> getDataPremium
exec sp_calonlineweb 'N','110','1','2','5 ','JK-NI100','2000','A','A',380000,418000,'0',20

14/3/2014  16:24 >> Application_Name >> getDataPremium
exec sp_calonlineweb 'N','110','2','2','5 ','JK-NI100','2000','A','A',380000,418000,'0',20

14/3/2014  16:24 >> Application_Name >> getDataPremium
exec sp_calonlineweb 'N','110','3','2','5 ','JK-NI100','2000','A','A',0,0,'0',20

14/3/2014  16:27 >> Application_Name >> getDataCarMarkByCarMarkCode
SELECT * 
 FROM online_carmark 
 WHERE carmakcod = '' 
 ORDER BY desc_t, carmakcod 

14/3/2014  16:27 >> Application_Name >> getDataCarMarkByCarMarkCode
SELECT * 
 FROM online_carmark 
 WHERE carmakcod = 'JK-HO001' 
 ORDER BY desc_t, carmakcod 

14/3/2014  16:28 >> Application_Name >> getDataPremium
exec sp_calonlineweb 'Y','110','1','2','5 ','JK-HO001','2000','A','A',470250,574750,'36',0

14/3/2014  16:28 >> Application_Name >> getDataPremium
exec sp_calonlineweb 'Y','110','2','2','5 ','JK-HO001','2000','A','A',470250,574750,'36',0

14/3/2014  16:28 >> Application_Name >> getDataPremium
exec sp_calonlineweb 'Y','110','3','2','5 ','JK-HO001','2000','A','A',0,0,'36',0

14/3/2014  16:28 >> Application_Name >> getDataPremium
exec sp_calonlineweb 'Y','110','1','2','5 ','JK-HO001','2000','A','A',470250,574750,'36',0

14/3/2014  16:28 >> Application_Name >> getDataPremium
exec sp_calonlineweb 'Y','110','2','2','5 ','JK-HO001','2000','A','A',470250,574750,'36',0

14/3/2014  16:28 >> Application_Name >> getDataPremium
exec sp_calonlineweb 'Y','110','3','2','5 ','JK-HO001','2000','A','A',0,0,'36',0

14/3/2014  16:31 >> Application_Name >> getDataCarMarkByCarMarkCode
SELECT * 
 FROM online_carmark 
 WHERE carmakcod = '' 
 ORDER BY desc_t, carmakcod 

14/3/2014  16:31 >> Application_Name >> getDataCarMarkByCarMarkCode
SELECT * 
 FROM online_carmark 
 WHERE carmakcod = 'JK-HO001' 
 ORDER BY desc_t, carmakcod 

14/3/2014  16:35 >> Application_Name >> getDataCarMarkByCarMarkCode
SELECT * 
 FROM online_carmark 
 WHERE carmakcod = '' 
 ORDER BY desc_t, carmakcod 

14/3/2014  16:35 >> Application_Name >> getDataCarMarkByCarMarkCode
SELECT * 
 FROM online_carmark 
 WHERE carmakcod = 'JK-HO001' 
 ORDER BY desc_t, carmakcod 

14/3/2014  16:38 >> Application_Name >> getDataPremium
exec sp_calonlineweb 'Y','110','1','2','5 ','JK-HO001','2000','A','A',470250,574750,'36',0

14/3/2014  16:38 >> Application_Name >> getDataPremium
exec sp_calonlineweb 'Y','110','2','2','5 ','JK-HO001','2000','A','A',470250,574750,'36',0

14/3/2014  16:38 >> Application_Name >> getDataPremium
exec sp_calonlineweb 'Y','110','3','2','5 ','JK-HO001','2000','A','A',0,0,'36',0

14/3/2014  16:42 >> Application_Name >> getDataCarMarkByCarMarkCode
SELECT * 
 FROM online_carmark 
 WHERE carmakcod = '' 
 ORDER BY desc_t, carmakcod 

14/3/2014  16:42 >> Application_Name >> getDataCarMarkByCarMarkCode
SELECT * 
 FROM online_carmark 
 WHERE carmakcod = 'JK-TO067' 
 ORDER BY desc_t, carmakcod 

14/3/2014  16:45 >> Application_Name >> getDataPremium
exec sp_calonlineweb 'Y','110','1','3','5 ','JK-TO067','2000','A','A',452423.25,552961.75,'0',0

14/3/2014  16:45 >> Application_Name >> getDataPremium
exec sp_calonlineweb 'Y','110','2','3','5 ','JK-TO067','2000','A','A',452423.25,552961.75,'0',0

14/3/2014  16:45 >> Application_Name >> getDataPremium
exec sp_calonlineweb 'Y','110','3','3','5 ','JK-TO067','2000','A','A',0,0,'0',0

14/3/2014  16:47 >> Application_Name >> getDataCarMarkByCarMarkCode
SELECT * 
 FROM online_carmark 
 WHERE carmakcod = '' 
 ORDER BY desc_t, carmakcod 

14/3/2014  16:47 >> Application_Name >> getDataCarMarkByCarMarkCode
SELECT * 
 FROM online_carmark 
 WHERE carmakcod = 'JK-HO001' 
 ORDER BY desc_t, carmakcod 

14/3/2014  16:47 >> Application_Name >> getDataCarMarkByCarMarkCode
SELECT * 
 FROM online_carmark 
 WHERE carmakcod = '' 
 ORDER BY desc_t, carmakcod 

14/3/2014  16:47 >> Application_Name >> getDataCarMarkByCarMarkCode
SELECT * 
 FROM online_carmark 
 WHERE carmakcod = 'JK-HO001' 
 ORDER BY desc_t, carmakcod 

14/3/2014  16:48 >> Application_Name >> getDataPremium
exec sp_calonlineweb 'N','110','1','2','5 ','JK-HO001','2000','A','A',470250,574750,'0',30

14/3/2014  16:48 >> Application_Name >> getDataPremium
exec sp_calonlineweb 'N','110','2','2','5 ','JK-HO001','2000','A','A',470250,574750,'0',30

14/3/2014  16:48 >> Application_Name >> getDataPremium
exec sp_calonlineweb 'N','110','3','2','5 ','JK-HO001','2000','A','A',0,0,'0',30

14/3/2014  16:49 >> Application_Name >> getDataCarMarkByCarMarkCode
SELECT * 
 FROM online_carmark 
 WHERE carmakcod = '' 
 ORDER BY desc_t, carmakcod 

14/3/2014  16:49 >> Application_Name >> getDataCarMarkByCarMarkCode
SELECT * 
 FROM online_carmark 
 WHERE carmakcod = 'JK-HO001' 
 ORDER BY desc_t, carmakcod 

14/3/2014  16:50 >> Application_Name >> getDataPremium
exec sp_calonlineweb 'Y','110','1','2','5 ','JK-HO001','2000','A','A',470250,574750,'0',20

14/3/2014  16:50 >> Application_Name >> getDataPremium
exec sp_calonlineweb 'Y','110','2','2','5 ','JK-HO001','2000','A','A',470250,574750,'0',20

14/3/2014  16:50 >> Application_Name >> getDataPremium
exec sp_calonlineweb 'Y','110','3','2','5 ','JK-HO001','2000','A','A',0,0,'0',20

14/3/2014  16:51 >> Application_Name >> getDataCarMarkByCarMarkCode
SELECT * 
 FROM online_carmark 
 WHERE carmakcod = '' 
 ORDER BY desc_t, carmakcod 

14/3/2014  16:51 >> Application_Name >> getDataPremium
exec sp_calonlineweb 'Y','110','1','2','5 ','JK-HO001','2000','A','A',470250,574750,'0',30

14/3/2014  16:51 >> Application_Name >> getDataPremium
exec sp_calonlineweb 'Y','110','2','2','5 ','JK-HO001','2000','A','A',470250,574750,'0',30

14/3/2014  16:51 >> Application_Name >> getDataPremium
exec sp_calonlineweb 'Y','110','3','2','5 ','JK-HO001','2000','A','A',0,0,'0',30

14/3/2014  16:52 >> Application_Name >> getDataPremium
exec sp_calonlineweb 'Y','110','1','2','5 ','EK-BE010','2000','A','A',470250,574750,'0',20

14/3/2014  16:52 >> Application_Name >> getDataPremium
exec sp_calonlineweb 'Y','110','2','2','5 ','EK-BE010','2000','A','A',470250,574750,'0',20

14/3/2014  16:52 >> Application_Name >> getDataPremium
exec sp_calonlineweb 'Y','110','3','2','5 ','EK-BE010','2000','A','A',0,0,'0',20

14/3/2014  16:54 >> Application_Name >> getDataPremium
exec sp_calonlineweb 'Y','110','1','2','5 ','EK-BE010','2000','A','A',470250,574750,'0',20

14/3/2014  16:54 >> Application_Name >> getDataPremium
exec sp_calonlineweb 'Y','110','2','2','5 ','EK-BE010','2000','A','A',470250,574750,'0',20

14/3/2014  16:54 >> Application_Name >> getDataPremium
exec sp_calonlineweb 'Y','110','3','2','5 ','EK-BE010','2000','A','A',0,0,'0',20

14/3/2014  16:54 >> Application_Name >> SMK :: BuyVoluntary_step2-docToUI
Combine

14/3/2014  16:54 >> Application_Name >> SMK :: BuyVoluntary_step2-docToUI
rg_prmm-013268

14/3/2014  16:54 >> Application_Name >> SMK :: BuyVoluntary_step2-docToUI
rg_prmm13268

14/3/2014  16:54 >> Application_Name >> SMK :: BuyVoluntary_step2-docToUI
cp_comp_prmm600.00

14/3/2014  16:56 >> Application_Name >> getDataCarMarkByCarMarkCode
SELECT * 
 FROM online_carmark 
 WHERE carmakcod = '' 
 ORDER BY desc_t, carmakcod 

14/3/2014  16:56 >> Application_Name >> getDataCarMarkByCarMarkCode
SELECT * 
 FROM online_carmark 
 WHERE carmakcod = 'JK-HO001' 
 ORDER BY desc_t, carmakcod 

14/3/2014  16:57 >> Application_Name >> getDataPremium
exec sp_calonlineweb 'N','110','1','2','5 ','JK-HO001','2000','A','A',470250,574750,'0',20

14/3/2014  16:57 >> Application_Name >> getDataPremium
exec sp_calonlineweb 'N','110','2','2','5 ','JK-HO001','2000','A','A',470250,574750,'0',20

14/3/2014  16:57 >> Application_Name >> getDataPremium
exec sp_calonlineweb 'N','110','3','2','5 ','JK-HO001','2000','A','A',0,0,'0',20

14/3/2014  17:1 >> Application_Name >> getDataPremium
exec sp_calonlineweb 'Y','110','1','2','5 ','JK-HO084','2000','A','A',487350,595650,'25',0

14/3/2014  17:1 >> Application_Name >> getDataPremium
exec sp_calonlineweb 'Y','110','2','2','5 ','JK-HO084','2000','A','A',487350,595650,'25',0

14/3/2014  17:1 >> Application_Name >> getDataPremium
exec sp_calonlineweb 'Y','110','3','2','5 ','JK-HO084','2000','A','A',0,0,'25',0

14/3/2014  17:7 >> Application_Name >> getDataCarMarkByCarMarkCode
SELECT * 
 FROM online_carmark 
 WHERE carmakcod = '' 
 ORDER BY desc_t, carmakcod 

14/3/2014  17:7 >> Application_Name >> getDataCarMarkByCarMarkCode
SELECT * 
 FROM online_carmark 
 WHERE carmakcod = 'JK-HO001' 
 ORDER BY desc_t, carmakcod 

14/3/2014  17:8 >> Application_Name >> getDataPremium
exec sp_calonlineweb 'Y','110','1','2','5 ','JK-HO001','2000','A','A',470250,574750,'0',0

14/3/2014  17:8 >> Application_Name >> getDataPremium
exec sp_calonlineweb 'Y','110','2','2','5 ','JK-HO001','2000','A','A',470250,574750,'0',0

14/3/2014  17:8 >> Application_Name >> getDataPremium
exec sp_calonlineweb 'Y','110','3','2','5 ','JK-HO001','2000','A','A',0,0,'0',0

14/3/2014  17:9 >> Application_Name >> getDataCarMarkByCarMarkCode
SELECT * 
 FROM online_carmark 
 WHERE carmakcod = '' 
 ORDER BY desc_t, carmakcod 

14/3/2014  17:9 >> Application_Name >> getDataCarMarkByCarMarkCode
SELECT * 
 FROM online_carmark 
 WHERE carmakcod = 'JK-HO001' 
 ORDER BY desc_t, carmakcod 

14/3/2014  17:9 >> Application_Name >> getDataPremium
exec sp_calonlineweb 'Y','110','1','2','5 ','JK-HO001','2000','A','A',470250,574750,'0',20

14/3/2014  17:9 >> Application_Name >> getDataPremium
exec sp_calonlineweb 'Y','110','2','2','5 ','JK-HO001','2000','A','A',470250,574750,'0',20

14/3/2014  17:9 >> Application_Name >> getDataPremium
exec sp_calonlineweb 'Y','110','3','2','5 ','JK-HO001','2000','A','A',0,0,'0',20

14/3/2014  17:12 >> Application_Name >> SMK :: BuyVoluntary_step2-docToUI
Combine

14/3/2014  17:12 >> Application_Name >> SMK :: BuyVoluntary_step2-docToUI
rg_prmm-017533

14/3/2014  17:12 >> Application_Name >> SMK :: BuyVoluntary_step2-docToUI
rg_prmm17533

14/3/2014  17:12 >> Application_Name >> SMK :: BuyVoluntary_step2-docToUI
cp_comp_prmm600.00

14/3/2014  17:12 >> Application_Name >> getDataPremium
exec sp_calonlineweb 'Y','110','1','2','5 ','EK-BE010','2000','A','A',470250,574750,'0',0

14/3/2014  17:12 >> Application_Name >> getDataPremium
exec sp_calonlineweb 'Y','110','2','2','5 ','EK-BE010','2000','A','A',470250,574750,'0',0

14/3/2014  17:12 >> Application_Name >> getDataPremium
exec sp_calonlineweb 'Y','110','3','2','5 ','EK-BE010','2000','A','A',0,0,'0',0

14/3/2014  17:13 >> Application_Name >> getDataCarMarkByCarMarkCode
SELECT * 
 FROM online_carmark 
 WHERE carmakcod = 'JK-HO001' 
 ORDER BY desc_t, carmakcod 

14/3/2014  17:13 >> Application_Name >> getDataPremium
exec sp_calonlineweb 'Y','110','1','2','5 ','JK-HO001','2000','A','A',470250,574750,'0',0

14/3/2014  17:13 >> Application_Name >> getDataPremium
exec sp_calonlineweb 'Y','110','2','2','5 ','JK-HO001','2000','A','A',470250,574750,'0',0

14/3/2014  17:13 >> Application_Name >> getDataPremium
exec sp_calonlineweb 'Y','110','3','2','5 ','JK-HO001','2000','A','A',0,0,'0',0

14/3/2014  17:23 >> Application_Name >> getDataCarMarkByCarMarkCode
SELECT * 
 FROM online_carmark 
 WHERE carmakcod = '' 
 ORDER BY desc_t, carmakcod 

14/3/2014  17:23 >> Application_Name >> getDataCarMarkByCarMarkCode
SELECT * 
 FROM online_carmark 
 WHERE carmakcod = '' 
 ORDER BY desc_t, carmakcod 

14/3/2014  17:23 >> Application_Name >> getDataCarMarkByCarMarkCode
SELECT * 
 FROM online_carmark 
 WHERE carmakcod = 'JP-NI026' 
 ORDER BY desc_t, carmakcod 

14/3/2014  17:28 >> Application_Name >> getDataCarMarkByCarMarkCode
SELECT * 
 FROM online_carmark 
 WHERE carmakcod = '' 
 ORDER BY desc_t, carmakcod 

14/3/2014  17:28 >> Application_Name >> getDataCarMarkByCarMarkCode
SELECT * 
 FROM online_carmark 
 WHERE carmakcod = 'JK-IS053' 
 ORDER BY desc_t, carmakcod 

14/3/2014  17:29 >> Application_Name >> getDataCarMarkByCarMarkCode
SELECT * 
 FROM online_carmark 
 WHERE carmakcod = '' 
 ORDER BY desc_t, carmakcod 

14/3/2014  17:29 >> Application_Name >> getDataCarMarkByCarMarkCode
SELECT * 
 FROM online_carmark 
 WHERE carmakcod = 'JP-IS059' 
 ORDER BY desc_t, carmakcod 

14/3/2014  17:30 >> Application_Name >> getDataPremium
exec sp_calonlineweb 'N','210','1','3','A','','2999','21','A',641677.5,784272.5,'0',30

14/3/2014  17:30 >> Application_Name >> getDataPremium
exec sp_calonlineweb 'N','210','2','3','A','','2999','21','A',641677.5,784272.5,'0',30

14/3/2014  17:30 >> Application_Name >> getDataPremium
exec sp_calonlineweb 'N','210','3','3','A','','2999','21','A',0,0,'0',30

14/3/2014  17:31 >> Application_Name >> getDataPremium
exec sp_calonlineweb 'N','210','1','3','A','','2999','21','A',641677.5,784272.5,'0',30

14/3/2014  17:31 >> Application_Name >> getDataPremium
exec sp_calonlineweb 'N','210','2','3','A','','2999','21','A',641677.5,784272.5,'0',30

14/3/2014  17:31 >> Application_Name >> getDataPremium
exec sp_calonlineweb 'N','210','3','3','A','','2999','21','A',0,0,'0',30

14/3/2014  17:31 >> Application_Name >> getDataPremium
exec sp_calonlineweb 'N','210','1','3','A','','2999','21','A',641677.5,784272.5,'0',30

14/3/2014  17:31 >> Application_Name >> getDataPremium
exec sp_calonlineweb 'N','210','2','3','A','','2999','21','A',641677.5,784272.5,'0',30

14/3/2014  17:31 >> Application_Name >> getDataPremium
exec sp_calonlineweb 'N','210','3','3','A','','2999','21','A',0,0,'0',30

14/3/2014  17:32 >> Application_Name >> getDataPremium
exec sp_calonlineweb 'N','210','1','3','A','','2999','21','A',641677.5,784272.5,'0',30

14/3/2014  17:32 >> Application_Name >> getDataPremium
exec sp_calonlineweb 'N','210','2','3','A','','2999','21','A',641677.5,784272.5,'0',30

14/3/2014  17:32 >> Application_Name >> getDataPremium
exec sp_calonlineweb 'N','210','3','3','A','','2999','21','A',0,0,'0',30

14/3/2014  18:11 >> Application_Name >> getDataCarMarkByCarMarkCode
SELECT * 
 FROM online_carmark 
 WHERE carmakcod = '' 
 ORDER BY desc_t, carmakcod 

14/3/2014  18:12 >> Application_Name >> getDataCarMarkByCarMarkCode
SELECT * 
 FROM online_carmark 
 WHERE carmakcod = '' 
 ORDER BY desc_t, carmakcod 

14/3/2014  18:12 >> Application_Name >> getDataCarMarkByCarMarkCode
SELECT * 
 FROM online_carmark 
 WHERE carmakcod = 'JP-TO043' 
 ORDER BY desc_t, carmakcod 

14/3/2014  18:13 >> Application_Name >> getDataPremium
exec sp_calonlineweb 'N','210','1','2','A','','2500','21','A',484462,535458,'0',0

14/3/2014  18:13 >> Application_Name >> getDataPremium
exec sp_calonlineweb 'N','210','2','2','A','','2500','21','A',484462,535458,'0',0

14/3/2014  18:13 >> Application_Name >> getDataPremium
exec sp_calonlineweb 'N','210','3','2','A','','2500','21','A',0,0,'0',0

14/3/2014  18:14 >> Application_Name >> getDataPremium
exec sp_calonlineweb 'N','210','1','2','A','','2500','21','A',484462,535458,'0',0

14/3/2014  18:14 >> Application_Name >> getDataPremium
exec sp_calonlineweb 'N','210','2','2','A','','2500','21','A',484462,535458,'0',0

14/3/2014  18:14 >> Application_Name >> getDataPremium
exec sp_calonlineweb 'N','210','3','2','A','','2500','21','A',0,0,'0',0

14/3/2014  18:24 >> Application_Name >> getDataCarMarkByCarMarkCode
SELECT * 
 FROM online_carmark 
 WHERE carmakcod = '' 
 ORDER BY desc_t, carmakcod 

14/3/2014  18:24 >> Application_Name >> getDataCarMarkByCarMarkCode
SELECT * 
 FROM online_carmark 
 WHERE carmakcod = 'JK-TO242' 
 ORDER BY desc_t, carmakcod 

14/3/2014  18:25 >> Application_Name >> getDataCarMarkByCarMarkCode
SELECT * 
 FROM online_carmark 
 WHERE carmakcod = '' 
 ORDER BY desc_t, carmakcod 

14/3/2014  18:25 >> Application_Name >> getDataCarMarkByCarMarkCode
SELECT * 
 FROM online_carmark 
 WHERE carmakcod = 'JK-HO001' 
 ORDER BY desc_t, carmakcod 

14/3/2014  18:27 >> Application_Name >> getDataPremium
exec sp_calonlineweb 'Y','110','1','2','5 ','JK-HO001','2000','A','A',470250,574750,'25',0

14/3/2014  18:27 >> Application_Name >> getDataPremium
exec sp_calonlineweb 'Y','110','2','2','5 ','JK-HO001','2000','A','A',470250,574750,'25',0

14/3/2014  18:27 >> Application_Name >> getDataPremium
exec sp_calonlineweb 'Y','110','3','2','5 ','JK-HO001','2000','A','A',0,0,'25',0

14/3/2014  18:27 >> Application_Name >> SMK :: BuyVoluntary_step2-docToUI
Combine

14/3/2014  18:27 >> Application_Name >> SMK :: BuyVoluntary_step2-docToUI
rg_prmm-014927

14/3/2014  18:27 >> Application_Name >> SMK :: BuyVoluntary_step2-docToUI
rg_prmm14927

14/3/2014  18:27 >> Application_Name >> SMK :: BuyVoluntary_step2-docToUI
cp_comp_prmm600.00

14/3/2014  18:27 >> Application_Name >> getDataPremium
exec sp_calonlineweb 'N','110','1','3','5 ','JK-TO242','2000','A','A',454860,555940,'25',30

14/3/2014  18:27 >> Application_Name >> getDataPremium
exec sp_calonlineweb 'N','110','2','3','5 ','JK-TO242','2000','A','A',454860,555940,'25',30

14/3/2014  18:27 >> Application_Name >> getDataPremium
exec sp_calonlineweb 'N','110','3','3','5 ','JK-TO242','2000','A','A',0,0,'25',30

14/3/2014  18:32 >> Application_Name >> getDataPremium
exec sp_calonlineweb 'N','110','1','3','5 ','JK-TO242','2000','A','A',454860,555940,'25',30

14/3/2014  18:32 >> Application_Name >> getDataPremium
exec sp_calonlineweb 'N','110','2','3','5 ','JK-TO242','2000','A','A',454860,555940,'25',30

14/3/2014  18:32 >> Application_Name >> getDataPremium
exec sp_calonlineweb 'N','110','3','3','5 ','JK-TO242','2000','A','A',0,0,'25',30

14/3/2014  19:9 >> Application_Name >> getDataCarMarkByCarMarkCode
SELECT * 
 FROM online_carmark 
 WHERE carmakcod = '' 
 ORDER BY desc_t, carmakcod 

14/3/2014  19:9 >> Application_Name >> getDataCarMarkByCarMarkCode
SELECT * 
 FROM online_carmark 
 WHERE carmakcod = 'JK-HO001' 
 ORDER BY desc_t, carmakcod 

14/3/2014  19:11 >> Application_Name >> getDataPremium
exec sp_calonlineweb 'N','110','1','2','5 ','JK-HO001','2000','A','A',470250,574750,'36',0

14/3/2014  19:11 >> Application_Name >> getDataPremium
exec sp_calonlineweb 'N','110','2','2','5 ','JK-HO001','2000','A','A',470250,574750,'36',0

14/3/2014  19:11 >> Application_Name >> getDataPremium
exec sp_calonlineweb 'N','110','3','2','5 ','JK-HO001','2000','A','A',0,0,'36',0

14/3/2014  19:11 >> Application_Name >> getDataPremium
exec sp_calonlineweb 'Y','110','1','2','5 ','JK-HO001','2000','A','A',470250,574750,'36',0

14/3/2014  19:11 >> Application_Name >> getDataPremium
exec sp_calonlineweb 'Y','110','2','2','5 ','JK-HO001','2000','A','A',470250,574750,'36',0

14/3/2014  19:11 >> Application_Name >> getDataPremium
exec sp_calonlineweb 'Y','110','3','2','5 ','JK-HO001','2000','A','A',0,0,'36',0

14/3/2014  19:12 >> Application_Name >> SMK :: BuyVoluntary_step2-docToUI
Combine

14/3/2014  19:12 >> Application_Name >> SMK :: BuyVoluntary_step2-docToUI
rg_prmm-014099

14/3/2014  19:12 >> Application_Name >> SMK :: BuyVoluntary_step2-docToUI
rg_prmm14099

14/3/2014  19:12 >> Application_Name >> SMK :: BuyVoluntary_step2-docToUI
cp_comp_prmm600.00

14/3/2014  20:50 >> Application_Name >> getDataCarMarkByCarMarkCode
SELECT * 
 FROM online_carmark 
 WHERE carmakcod = '' 
 ORDER BY desc_t, carmakcod 

14/3/2014  20:50 >> Application_Name >> getDataCarMarkByCarMarkCode
SELECT * 
 FROM online_carmark 
 WHERE carmakcod = 'JK-NI028' 
 ORDER BY desc_t, carmakcod 

14/3/2014  20:52 >> Application_Name >> getDataPremium
exec sp_calonlineweb 'N','110','1','4','5 ','JK-NI028','2000','A','A',331804.125,405538.375,'0',0

14/3/2014  20:52 >> Application_Name >> getDataPremium
exec sp_calonlineweb 'N','110','2','4','5 ','JK-NI028','2000','A','A',331804.125,405538.375,'0',0

14/3/2014  20:52 >> Application_Name >> getDataPremium
exec sp_calonlineweb 'N','110','3','4','5 ','JK-NI028','2000','A','A',0,0,'0',0

14/3/2014  22:17 >> Application_Name >> getDataCarMarkByCarMarkCode
SELECT * 
 FROM online_carmark 
 WHERE carmakcod = '' 
 ORDER BY desc_t, carmakcod 

14/3/2014  22:17 >> Application_Name >> getDataCarMarkByCarMarkCode
SELECT * 
 FROM online_carmark 
 WHERE carmakcod = '' 
 ORDER BY desc_t, carmakcod 

14/3/2014  22:17 >> Application_Name >> getDataCarMarkByCarMarkCode
SELECT * 
 FROM online_carmark 
 WHERE carmakcod = 'JK-HO122' 
 ORDER BY desc_t, carmakcod 

14/3/2014  22:18 >> Application_Name >> getDataPremium
exec sp_calonlineweb 'Y','110','1','2','5 ','JK-HO122','2000','A','A',427500,522500,'0',30

14/3/2014  22:18 >> Application_Name >> getDataPremium
exec sp_calonlineweb 'Y','110','2','2','5 ','JK-HO122','2000','A','A',427500,522500,'0',30

14/3/2014  22:18 >> Application_Name >> getDataPremium
exec sp_calonlineweb 'Y','110','3','2','5 ','JK-HO122','2000','A','A',0,0,'0',30

14/3/2014  22:20 >> Application_Name >> getDataCarMarkByCarMarkCode
SELECT * 
 FROM online_carmark 
 WHERE carmakcod = 'JK-TO242' 
 ORDER BY desc_t, carmakcod 

14/3/2014  22:20 >> Application_Name >> getDataPremium
exec sp_calonlineweb 'Y','110','1','2','5 ','JK-HO122','2000','A','A',427500,522500,'0',20

14/3/2014  22:20 >> Application_Name >> getDataPremium
exec sp_calonlineweb 'Y','110','2','2','5 ','JK-HO122','2000','A','A',427500,522500,'0',20

14/3/2014  22:20 >> Application_Name >> getDataPremium
exec sp_calonlineweb 'Y','110','3','2','5 ','JK-HO122','2000','A','A',0,0,'0',20

14/3/2014  22:22 >> Application_Name >> getDataPremium
exec sp_calonlineweb 'Y','110','1','3','5 ','JK-TO242','2000','A','A',454860,555940,'0',20

14/3/2014  22:22 >> Application_Name >> getDataPremium
exec sp_calonlineweb 'Y','110','2','3','5 ','JK-TO242','2000','A','A',454860,555940,'0',20

14/3/2014  22:22 >> Application_Name >> getDataPremium
exec sp_calonlineweb 'Y','110','3','3','5 ','JK-TO242','2000','A','A',0,0,'0',20

14/3/2014  22:22 >> Application_Name >> getDataCarMarkByCarMarkCode
SELECT * 
 FROM online_carmark 
 WHERE carmakcod = '' 
 ORDER BY desc_t, carmakcod 

14/3/2014  22:22 >> Application_Name >> getDataCarMarkByCarMarkCode
SELECT * 
 FROM online_carmark 
 WHERE carmakcod = 'JK-TO184' 
 ORDER BY desc_t, carmakcod 

14/3/2014  22:23 >> Application_Name >> getDataCarMarkByCarMarkCode
SELECT * 
 FROM online_carmark 
 WHERE carmakcod = '' 
 ORDER BY desc_t, carmakcod 

14/3/2014  22:23 >> Application_Name >> getDataCarMarkByCarMarkCode
SELECT * 
 FROM online_carmark 
 WHERE carmakcod = 'JP-TO002' 
 ORDER BY desc_t, carmakcod 

14/3/2014  22:24 >> Application_Name >> getDataPremium
exec sp_calonlineweb 'Y','210','1','10','A','','3000','21','A',321401.988983162,355233.777297179,'0',0

14/3/2014  22:24 >> Application_Name >> getDataPremium
exec sp_calonlineweb 'Y','210','2','10','A','','3000','21','A',321401.988983162,355233.777297179,'0',0

14/3/2014  22:24 >> Application_Name >> getDataPremium
exec sp_calonlineweb 'Y','210','3','10','A','','3000','21','A',0,0,'0',0

14/3/2014  23:43 >> Application_Name >> getDataCarMarkByCarMarkCode
SELECT * 
 FROM online_carmark 
 WHERE carmakcod = '' 
 ORDER BY desc_t, carmakcod 

14/3/2014  23:43 >> Application_Name >> getDataCarMarkByCarMarkCode
SELECT * 
 FROM online_carmark 
 WHERE carmakcod = 'JK-HO001' 
 ORDER BY desc_t, carmakcod 

14/3/2014  23:44 >> Application_Name >> getDataPremium
exec sp_calonlineweb 'Y','110','1','2','5 ','JK-HO001','2000','A','A',470250,574750,'0',0

14/3/2014  23:44 >> Application_Name >> getDataPremium
exec sp_calonlineweb 'Y','110','2','2','5 ','JK-HO001','2000','A','A',470250,574750,'0',0

14/3/2014  23:44 >> Application_Name >> getDataPremium
exec sp_calonlineweb 'Y','110','3','2','5 ','JK-HO001','2000','A','A',0,0,'0',0

14/3/2014  23:44 >> Application_Name >> SMK :: BuyVoluntary_step2-docToUI
Combine

14/3/2014  23:44 >> Application_Name >> SMK :: BuyVoluntary_step2-docToUI
rg_prmm-016585

14/3/2014  23:44 >> Application_Name >> SMK :: BuyVoluntary_step2-docToUI
rg_prmm16585

14/3/2014  23:44 >> Application_Name >> SMK :: BuyVoluntary_step2-docToUI
cp_comp_prmm600.00

14/3/2014  23:51 >> Application_Name >> getDataCarMarkByCarMarkCode
SELECT * 
 FROM online_carmark 
 WHERE carmakcod = '' 
 ORDER BY desc_t, carmakcod 

14/3/2014  23:51 >> Application_Name >> getDataCarMarkByCarMarkCode
SELECT * 
 FROM online_carmark 
 WHERE carmakcod = 'JK-HO084' 
 ORDER BY desc_t, carmakcod 

14/3/2014  23:52 >> Application_Name >> getDataPremium
exec sp_calonlineweb 'Y','110','1','4','5 ','JK-HO084','2000','A','A',439833.375,537574.125,'0',30

14/3/2014  23:52 >> Application_Name >> getDataPremium
exec sp_calonlineweb 'Y','110','2','4','5 ','JK-HO084','2000','A','A',439833.375,537574.125,'0',30

14/3/2014  23:52 >> Application_Name >> getDataPremium
exec sp_calonlineweb 'Y','110','3','4','5 ','JK-HO084','2000','A','A',0,0,'0',30

14/3/2014  23:55 >> Application_Name >> SMK :: BuyVoluntary_step2-docToUI
Combine

14/3/2014  23:55 >> Application_Name >> SMK :: BuyVoluntary_step2-docToUI
rg_prmm-07339.5

14/3/2014  23:55 >> Application_Name >> SMK :: BuyVoluntary_step2-docToUI
rg_prmm7339.5

14/3/2014  23:55 >> Application_Name >> SMK :: BuyVoluntary_step2-docToUI
cp_comp_prmm600.00

