4/5/2014  2:15 >> Application_Name >> getDataCarMarkByCarMarkCode
SELECT * 
 FROM online_carmark 
 WHERE carmakcod = '' 
 ORDER BY desc_t, carmakcod 

4/5/2014  2:15 >> Application_Name >> getDataCarMarkByCarMarkCode
SELECT * 
 FROM online_carmark 
 WHERE carmakcod = 'JK-NI100' 
 ORDER BY desc_t, carmakcod 

4/5/2014  2:16 >> Application_Name >> getDataPremium
exec sp_calonlineweb 'Y','110','1','2','5 ','JK-NI100','2000','A','A',380000,418000,'18',0

4/5/2014  2:16 >> Application_Name >> getDataPremium
exec sp_calonlineweb 'Y','110','2','2','5 ','JK-NI100','2000','A','A',380000,418000,'18',0

4/5/2014  2:16 >> Application_Name >> getDataPremium
exec sp_calonlineweb 'Y','110','3','2','5 ','JK-NI100','2000','A','A',0,0,'18',0

4/5/2014  2:17 >> Application_Name >> SMK :: BuyVoluntary_step2-docToUI
Combine

4/5/2014  2:17 >> Application_Name >> SMK :: BuyVoluntary_step2-docToUI
rg_prmm-012843

4/5/2014  2:17 >> Application_Name >> SMK :: BuyVoluntary_step2-docToUI
rg_prmm12843

4/5/2014  2:17 >> Application_Name >> SMK :: BuyVoluntary_step2-docToUI
cp_comp_prmm600.00

4/5/2014  7:3 >> Application_Name >> getDataCarMarkByCarMarkCode
SELECT * 
 FROM online_carmark 
 WHERE carmakcod = '' 
 ORDER BY desc_t, carmakcod 

4/5/2014  7:3 >> Application_Name >> getDataCarMarkByCarMarkCode
SELECT * 
 FROM online_carmark 
 WHERE carmakcod = 'JK-TO242' 
 ORDER BY desc_t, carmakcod 

4/5/2014  8:56 >> Application_Name >> getDataCarMarkByCarMarkCode
SELECT * 
 FROM online_carmark 
 WHERE carmakcod = '' 
 ORDER BY desc_t, carmakcod 

4/5/2014  8:56 >> Application_Name >> getDataCarMarkByCarMarkCode
SELECT * 
 FROM online_carmark 
 WHERE carmakcod = 'JK-HO002' 
 ORDER BY desc_t, carmakcod 

4/5/2014  8:59 >> Application_Name >> getDataPremium
exec sp_calonlineweb 'N','110','1','8','3 ','JK-HO002','2000','A','A',546798.102841406,668308.792361719,'0',0

4/5/2014  8:59 >> Application_Name >> getDataPremium
exec sp_calonlineweb 'N','110','2','8','3 ','JK-HO002','2000','A','A',546798.102841406,668308.792361719,'0',0

4/5/2014  8:59 >> Application_Name >> getDataPremium
exec sp_calonlineweb 'N','110','3','8','3 ','JK-HO002','2000','A','A',0,0,'0',0

4/5/2014  9:1 >> Application_Name >> getDataPremium
exec sp_calonlineweb 'N','110','1','8','3 ','JK-HO002','2000','A','A',546798.102841406,668308.792361719,'0',0

4/5/2014  9:1 >> Application_Name >> getDataPremium
exec sp_calonlineweb 'N','110','2','8','3 ','JK-HO002','2000','A','A',546798.102841406,668308.792361719,'0',0

4/5/2014  9:1 >> Application_Name >> getDataPremium
exec sp_calonlineweb 'N','110','3','8','3 ','JK-HO002','2000','A','A',0,0,'0',0

4/5/2014  9:3 >> Application_Name >> getDataCarMarkByCarMarkCode
SELECT * 
 FROM online_carmark 
 WHERE carmakcod = '' 
 ORDER BY desc_t, carmakcod 

4/5/2014  9:3 >> Application_Name >> getDataCarMarkByCarMarkCode
SELECT * 
 FROM online_carmark 
 WHERE carmakcod = 'JK-MI002' 
 ORDER BY desc_t, carmakcod 

4/5/2014  9:44 >> Application_Name >> getDataCarMarkByCarMarkCode
SELECT * 
 FROM online_carmark 
 WHERE carmakcod = '' 
 ORDER BY desc_t, carmakcod 

4/5/2014  9:44 >> Application_Name >> getDataCarMarkByCarMarkCode
SELECT * 
 FROM online_carmark 
 WHERE carmakcod = 'JK-MA065' 
 ORDER BY desc_t, carmakcod 

4/5/2014  9:56 >> Application_Name >> getDataCarMarkByCarMarkCode
SELECT * 
 FROM online_carmark 
 WHERE carmakcod = '' 
 ORDER BY desc_t, carmakcod 

4/5/2014  9:56 >> Application_Name >> getDataCarMarkByCarMarkCode
SELECT * 
 FROM online_carmark 
 WHERE carmakcod = 'JK-MA056' 
 ORDER BY desc_t, carmakcod 

4/5/2014  9:59 >> Application_Name >> getDataPremium
exec sp_calonlineweb 'N','110','1','2','3 ','JK-MA056','2000','A','A',752400,919600,'0',0

4/5/2014  9:59 >> Application_Name >> getDataPremium
exec sp_calonlineweb 'N','110','2','2','3 ','JK-MA056','2000','A','A',752400,919600,'0',0

4/5/2014  9:59 >> Application_Name >> getDataPremium
exec sp_calonlineweb 'N','110','3','2','3 ','JK-MA056','2000','A','A',0,0,'0',0

4/5/2014  10:0 >> Application_Name >> getDataPremium
exec sp_calonlineweb 'N','110','1','4','3 ','JK-MA056','2000','A','A',679041,829939,'0',0

4/5/2014  10:0 >> Application_Name >> getDataPremium
exec sp_calonlineweb 'N','110','2','4','3 ','JK-MA056','2000','A','A',679041,829939,'0',0

4/5/2014  10:0 >> Application_Name >> getDataPremium
exec sp_calonlineweb 'N','110','3','4','3 ','JK-MA056','2000','A','A',0,0,'0',0

4/5/2014  10:0 >> Application_Name >> getDataPremium
exec sp_calonlineweb 'N','110','1','2','3 ','JK-MA056','2000','A','A',752400,919600,'0',0

4/5/2014  10:0 >> Application_Name >> getDataPremium
exec sp_calonlineweb 'N','110','2','2','3 ','JK-MA056','2000','A','A',752400,919600,'0',0

4/5/2014  10:0 >> Application_Name >> getDataPremium
exec sp_calonlineweb 'N','110','3','2','3 ','JK-MA056','2000','A','A',0,0,'0',0

4/5/2014  10:1 >> Application_Name >> getDataPremium
exec sp_calonlineweb 'N','110','1','2','3 ','JK-MA056','2000','A','A',752400,919600,'0',0

4/5/2014  10:1 >> Application_Name >> getDataPremium
exec sp_calonlineweb 'N','110','2','2','3 ','JK-MA056','2000','A','A',752400,919600,'0',0

4/5/2014  10:1 >> Application_Name >> getDataPremium
exec sp_calonlineweb 'N','110','3','2','3 ','JK-MA056','2000','A','A',0,0,'0',0

4/5/2014  11:12 >> Application_Name >> getDataCarMarkByCarMarkCode
SELECT * 
 FROM online_carmark 
 WHERE carmakcod = '' 
 ORDER BY desc_t, carmakcod 

4/5/2014  11:12 >> Application_Name >> getDataCarMarkByCarMarkCode
SELECT * 
 FROM online_carmark 
 WHERE carmakcod = 'JK-MI081' 
 ORDER BY desc_t, carmakcod 

4/5/2014  11:14 >> Application_Name >> getDataPremium
exec sp_calonlineweb 'Y','110','1','2','5 ','JK-MI081','2000','A','A',367650,449350,'0',0

4/5/2014  11:14 >> Application_Name >> getDataPremium
exec sp_calonlineweb 'Y','110','2','2','5 ','JK-MI081','2000','A','A',367650,449350,'0',0

4/5/2014  11:14 >> Application_Name >> getDataPremium
exec sp_calonlineweb 'Y','110','3','2','5 ','JK-MI081','2000','A','A',0,0,'0',0

4/5/2014  11:15 >> Application_Name >> getCategoryCompByBrand
SELECT mdc_minor_cd , mdc_desc_t as mdc_desc FROM mtdesc_comp  WHERE mdc_minor_cd <> '0000' AND mdc_major_cd = 'N001' ORDER BY mdc_desc 

4/5/2014  11:45 >> Application_Name >> getDataCarMarkByCarMarkCode
SELECT * 
 FROM online_carmark 
 WHERE carmakcod = '' 
 ORDER BY desc_t, carmakcod 

4/5/2014  11:45 >> Application_Name >> getDataCarMarkByCarMarkCode
SELECT * 
 FROM online_carmark 
 WHERE carmakcod = 'JK-MA065' 
 ORDER BY desc_t, carmakcod 

4/5/2014  11:47 >> Application_Name >> getDataCarMarkByCarMarkCode
SELECT * 
 FROM online_carmark 
 WHERE carmakcod = '' 
 ORDER BY desc_t, carmakcod 

4/5/2014  11:47 >> Application_Name >> getDataCarMarkByCarMarkCode
SELECT * 
 FROM online_carmark 
 WHERE carmakcod = 'JK-MA065' 
 ORDER BY desc_t, carmakcod 

4/5/2014  11:49 >> Application_Name >> getDataPremium
exec sp_calonlineweb 'Y','110','1','3','5 ','JK-MA065','2000','A','A',454860,555940,'25',30

4/5/2014  11:49 >> Application_Name >> getDataPremium
exec sp_calonlineweb 'Y','110','2','3','5 ','JK-MA065','2000','A','A',454860,555940,'25',30

4/5/2014  11:49 >> Application_Name >> getDataPremium
exec sp_calonlineweb 'Y','110','3','3','5 ','JK-MA065','2000','A','A',0,0,'25',30

4/5/2014  11:49 >> Application_Name >> getDataCarMarkByCarMarkCode
SELECT * 
 FROM online_carmark 
 WHERE carmakcod = '' 
 ORDER BY desc_t, carmakcod 

4/5/2014  11:49 >> Application_Name >> getDataCarMarkByCarMarkCode
SELECT * 
 FROM online_carmark 
 WHERE carmakcod = 'JK-MA065' 
 ORDER BY desc_t, carmakcod 

4/5/2014  11:50 >> Application_Name >> getDataPremium
exec sp_calonlineweb 'Y','110','1','2','5 ','JK-MA065','2000','A','A',478800,585200,'0',30

4/5/2014  11:50 >> Application_Name >> getDataPremium
exec sp_calonlineweb 'Y','110','2','2','5 ','JK-MA065','2000','A','A',478800,585200,'0',30

4/5/2014  11:50 >> Application_Name >> getDataPremium
exec sp_calonlineweb 'Y','110','3','2','5 ','JK-MA065','2000','A','A',0,0,'0',30

4/5/2014  11:51 >> Application_Name >> getDataCarMarkByCarMarkCode
SELECT * 
 FROM online_carmark 
 WHERE carmakcod = '' 
 ORDER BY desc_t, carmakcod 

4/5/2014  11:52 >> Application_Name >> getDataCarMarkByCarMarkCode
SELECT * 
 FROM online_carmark 
 WHERE carmakcod = 'JK-HO001' 
 ORDER BY desc_t, carmakcod 

4/5/2014  11:52 >> Application_Name >> SMK :: BuyVoluntary_step2-docToUI
Combine

4/5/2014  11:52 >> Application_Name >> SMK :: BuyVoluntary_step2-docToUI
rg_prmm-013268

4/5/2014  11:52 >> Application_Name >> SMK :: BuyVoluntary_step2-docToUI
rg_prmm13268

4/5/2014  11:52 >> Application_Name >> SMK :: BuyVoluntary_step2-docToUI
cp_comp_prmm600.00

4/5/2014  11:54 >> Application_Name >> getDataPremium
exec sp_calonlineweb 'Y','110','1','3','5 ','JK-HO001','2000','A','A',446737.5,546012.5,'0',30

4/5/2014  11:54 >> Application_Name >> getDataPremium
exec sp_calonlineweb 'Y','110','2','3','5 ','JK-HO001','2000','A','A',446737.5,546012.5,'0',30

4/5/2014  11:54 >> Application_Name >> getDataPremium
exec sp_calonlineweb 'Y','110','3','3','5 ','JK-HO001','2000','A','A',0,0,'0',30

4/5/2014  11:56 >> Application_Name >> getDataCarMarkByCarMarkCode
SELECT * 
 FROM online_carmark 
 WHERE carmakcod = '' 
 ORDER BY desc_t, carmakcod 

4/5/2014  11:56 >> Application_Name >> getDataCarMarkByCarMarkCode
SELECT * 
 FROM online_carmark 
 WHERE carmakcod = '' 
 ORDER BY desc_t, carmakcod 

4/5/2014  11:56 >> Application_Name >> getDataCarMarkByCarMarkCode
SELECT * 
 FROM online_carmark 
 WHERE carmakcod = 'JK-HO001' 
 ORDER BY desc_t, carmakcod 

4/5/2014  12:2 >> Application_Name >> getDataPremium
exec sp_calonlineweb 'Y','110','1','3','5 ','JK-MA065','2000','A','A',454860,555940,'25',0

4/5/2014  12:2 >> Application_Name >> getDataPremium
exec sp_calonlineweb 'Y','110','2','3','5 ','JK-MA065','2000','A','A',454860,555940,'25',0

4/5/2014  12:2 >> Application_Name >> getDataPremium
exec sp_calonlineweb 'Y','110','3','3','5 ','JK-MA065','2000','A','A',0,0,'25',0

4/5/2014  12:6 >> Application_Name >> getDataCarMarkByCarMarkCode
SELECT * 
 FROM online_carmark 
 WHERE carmakcod = '' 
 ORDER BY desc_t, carmakcod 

4/5/2014  12:8 >> Application_Name >> getDataCarMarkByCarMarkCode
SELECT * 
 FROM online_carmark 
 WHERE carmakcod = '' 
 ORDER BY desc_t, carmakcod 

4/5/2014  12:8 >> Application_Name >> getDataCarMarkByCarMarkCode
SELECT * 
 FROM online_carmark 
 WHERE carmakcod = 'JK-MA065' 
 ORDER BY desc_t, carmakcod 

4/5/2014  12:9 >> Application_Name >> getDataPremium
exec sp_calonlineweb 'Y','110','1','2','5 ','JK-MA065','2000','A','A',478800,585200,'0',30

4/5/2014  12:9 >> Application_Name >> getDataPremium
exec sp_calonlineweb 'Y','110','2','2','5 ','JK-MA065','2000','A','A',478800,585200,'0',30

4/5/2014  12:9 >> Application_Name >> getDataPremium
exec sp_calonlineweb 'Y','110','3','2','5 ','JK-MA065','2000','A','A',0,0,'0',30

4/5/2014  12:10 >> Application_Name >> SMK :: BuyVoluntary_step2-docToUI
Combine

4/5/2014  12:10 >> Application_Name >> SMK :: BuyVoluntary_step2-docToUI
rg_prmm-013268

4/5/2014  12:10 >> Application_Name >> SMK :: BuyVoluntary_step2-docToUI
rg_prmm13268

4/5/2014  12:10 >> Application_Name >> SMK :: BuyVoluntary_step2-docToUI
cp_comp_prmm600.00

4/5/2014  12:10 >> Application_Name >> getDataCarMarkByCarMarkCode
SELECT * 
 FROM online_carmark 
 WHERE carmakcod = '' 
 ORDER BY desc_t, carmakcod 

4/5/2014  12:10 >> Application_Name >> getDataCarMarkByCarMarkCode
SELECT * 
 FROM online_carmark 
 WHERE carmakcod = 'JK-HO001' 
 ORDER BY desc_t, carmakcod 

4/5/2014  12:11 >> Application_Name >> getDataPremium
exec sp_calonlineweb 'N','110','1','3','5 ','JK-HO001','2000','A','A',446737.5,546012.5,'0',30

4/5/2014  12:11 >> Application_Name >> getDataPremium
exec sp_calonlineweb 'N','110','2','3','5 ','JK-HO001','2000','A','A',446737.5,546012.5,'0',30

4/5/2014  12:11 >> Application_Name >> getDataPremium
exec sp_calonlineweb 'N','110','3','3','5 ','JK-HO001','2000','A','A',0,0,'0',30

4/5/2014  12:12 >> Application_Name >> getDataPremium
exec sp_calonlineweb 'Y','110','1','3','5 ','JK-HO001','2000','A','A',446737.5,546012.5,'0',30

4/5/2014  12:12 >> Application_Name >> getDataPremium
exec sp_calonlineweb 'Y','110','2','3','5 ','JK-HO001','2000','A','A',446737.5,546012.5,'0',30

4/5/2014  12:12 >> Application_Name >> getDataPremium
exec sp_calonlineweb 'Y','110','3','3','5 ','JK-HO001','2000','A','A',0,0,'0',30

4/5/2014  13:16 >> Application_Name >> getDataCarMarkByCarMarkCode
SELECT * 
 FROM online_carmark 
 WHERE carmakcod = '' 
 ORDER BY desc_t, carmakcod 

4/5/2014  13:16 >> Application_Name >> getDataCarMarkByCarMarkCode
SELECT * 
 FROM online_carmark 
 WHERE carmakcod = 'JK-TO067' 
 ORDER BY desc_t, carmakcod 

4/5/2014  13:17 >> Application_Name >> getDataPremium
exec sp_calonlineweb 'N','110','1','2','5 ','JK-TO067','2000','A','A',476235,582065,'0',20

4/5/2014  13:17 >> Application_Name >> getDataPremium
exec sp_calonlineweb 'N','110','2','2','5 ','JK-TO067','2000','A','A',476235,582065,'0',20

4/5/2014  13:17 >> Application_Name >> getDataPremium
exec sp_calonlineweb 'N','110','3','2','5 ','JK-TO067','2000','A','A',0,0,'0',20

4/5/2014  14:7 >> Application_Name >> getDataCarMarkByCarMarkCode
SELECT * 
 FROM online_carmark 
 WHERE carmakcod = '' 
 ORDER BY desc_t, carmakcod 

4/5/2014  14:7 >> Application_Name >> getDataCarMarkByCarMarkCode
SELECT * 
 FROM online_carmark 
 WHERE carmakcod = 'JK-TO240' 
 ORDER BY desc_t, carmakcod 

4/5/2014  14:9 >> Application_Name >> getDataPremium
exec sp_calonlineweb 'N','110','1','9','3 ','JK-TO240','9999','A','A',531399.765462539,649488.602231992,'0',0

4/5/2014  14:9 >> Application_Name >> getDataPremium
exec sp_calonlineweb 'N','110','2','9','3 ','JK-TO240','9999','A','A',531399.765462539,649488.602231992,'0',0

4/5/2014  14:9 >> Application_Name >> getDataPremium
exec sp_calonlineweb 'N','110','3','9','3 ','JK-TO240','9999','A','A',0,0,'0',0

4/5/2014  15:0 >> Application_Name >> getDataCarMarkByCarMarkCode
SELECT * 
 FROM online_carmark 
 WHERE carmakcod = '' 
 ORDER BY desc_t, carmakcod 

4/5/2014  15:0 >> Application_Name >> getDataCarMarkByCarMarkCode
SELECT * 
 FROM online_carmark 
 WHERE carmakcod = 'JK-MA065' 
 ORDER BY desc_t, carmakcod 

4/5/2014  15:17 >> Application_Name >> getDataCarMarkByCarMarkCode
SELECT * 
 FROM online_carmark 
 WHERE carmakcod = '' 
 ORDER BY desc_t, carmakcod 

4/5/2014  15:17 >> Application_Name >> getDataCarMarkByCarMarkCode
SELECT * 
 FROM online_carmark 
 WHERE carmakcod = 'JK-HO001' 
 ORDER BY desc_t, carmakcod 

4/5/2014  15:19 >> Application_Name >> getDataPremium
exec sp_calonlineweb 'Y','110','1','3','5 ','JK-HO001','2000','A','A',446737.5,546012.5,'0',30

4/5/2014  15:19 >> Application_Name >> getDataPremium
exec sp_calonlineweb 'Y','110','2','3','5 ','JK-HO001','2000','A','A',446737.5,546012.5,'0',30

4/5/2014  15:19 >> Application_Name >> getDataPremium
exec sp_calonlineweb 'Y','110','3','3','5 ','JK-HO001','2000','A','A',0,0,'0',30

4/5/2014  15:20 >> Application_Name >> SMK :: BuyVoluntary_step2-docToUI
Combine

4/5/2014  15:20 >> Application_Name >> SMK :: BuyVoluntary_step2-docToUI
rg_prmm-011148.9

4/5/2014  15:20 >> Application_Name >> SMK :: BuyVoluntary_step2-docToUI
rg_prmm11148.9

4/5/2014  15:20 >> Application_Name >> SMK :: BuyVoluntary_step2-docToUI
cp_comp_prmm600.00

4/5/2014  17:20 >> Application_Name >> getDataCarMarkByCarMarkCode
SELECT * 
 FROM online_carmark 
 WHERE carmakcod = '' 
 ORDER BY desc_t, carmakcod 

4/5/2014  17:20 >> Application_Name >> getDataCarMarkByCarMarkCode
SELECT * 
 FROM online_carmark 
 WHERE carmakcod = 'JK-HO002' 
 ORDER BY desc_t, carmakcod 

4/5/2014  17:24 >> Application_Name >> getDataPremium
exec sp_calonlineweb 'Y','110','1','5','3 ','JK-HO002','2000','A','A',637758.39375,779482.48125,'0',30

4/5/2014  17:24 >> Application_Name >> getDataPremium
exec sp_calonlineweb 'Y','110','2','5','3 ','JK-HO002','2000','A','A',637758.39375,779482.48125,'0',30

4/5/2014  17:24 >> Application_Name >> getDataPremium
exec sp_calonlineweb 'Y','110','3','5','3 ','JK-HO002','2000','A','A',0,0,'0',30

4/5/2014  17:26 >> Application_Name >> SMK :: BuyVoluntary_step2-docToUI
Combine

4/5/2014  17:26 >> Application_Name >> SMK :: BuyVoluntary_step2-docToUI
rg_prmm-08934.1

4/5/2014  17:26 >> Application_Name >> SMK :: BuyVoluntary_step2-docToUI
rg_prmm8934.1

4/5/2014  17:26 >> Application_Name >> SMK :: BuyVoluntary_step2-docToUI
cp_comp_prmm600.00

4/5/2014  17:27 >> Application_Name >> getDataCarMarkByCarMarkCode
SELECT * 
 FROM online_carmark 
 WHERE carmakcod = '' 
 ORDER BY desc_t, carmakcod 

4/5/2014  17:27 >> Application_Name >> getDataCarMarkByCarMarkCode
SELECT * 
 FROM online_carmark 
 WHERE carmakcod = 'JK-HO002' 
 ORDER BY desc_t, carmakcod 

4/5/2014  17:28 >> Application_Name >> getDataPremium
exec sp_calonlineweb 'Y','110','1','5','3 ','JK-HO002','2000','A','A',637758.39375,779482.48125,'0',30

4/5/2014  17:28 >> Application_Name >> getDataPremium
exec sp_calonlineweb 'Y','110','2','5','3 ','JK-HO002','2000','A','A',637758.39375,779482.48125,'0',30

4/5/2014  17:28 >> Application_Name >> getDataPremium
exec sp_calonlineweb 'Y','110','3','5','3 ','JK-HO002','2000','A','A',0,0,'0',30

4/5/2014  17:30 >> Application_Name >> SMK :: BuyVoluntary_step2-docToUI
Combine

4/5/2014  17:30 >> Application_Name >> SMK :: BuyVoluntary_step2-docToUI
rg_prmm-09520.7

4/5/2014  17:30 >> Application_Name >> SMK :: BuyVoluntary_step2-docToUI
rg_prmm9520.7

4/5/2014  17:30 >> Application_Name >> SMK :: BuyVoluntary_step2-docToUI
cp_comp_prmm600.00

4/5/2014  17:32 >> Application_Name >> getDataCarMarkByCarMarkCode
SELECT * 
 FROM online_carmark 
 WHERE carmakcod = '' 
 ORDER BY desc_t, carmakcod 

4/5/2014  17:32 >> Application_Name >> getDataCarMarkByCarMarkCode
SELECT * 
 FROM online_carmark 
 WHERE carmakcod = 'EK-FO083' 
 ORDER BY desc_t, carmakcod 

4/5/2014  17:34 >> Application_Name >> getDataPremium
exec sp_calonlineweb 'Y','110','1','2','5 ','EK-FO083','2000','A','A',478800,585200,'25',20

4/5/2014  17:34 >> Application_Name >> getDataPremium
exec sp_calonlineweb 'Y','110','2','2','5 ','EK-FO083','2000','A','A',478800,585200,'25',20

4/5/2014  17:34 >> Application_Name >> getDataPremium
exec sp_calonlineweb 'Y','110','3','2','5 ','EK-FO083','2000','A','A',0,0,'25',20

4/5/2014  17:35 >> Application_Name >> getDataPremium
exec sp_calonlineweb 'Y','110','1','2','5 ','EK-FO083','2000','A','A',478800,585200,'0',20

4/5/2014  17:35 >> Application_Name >> getDataPremium
exec sp_calonlineweb 'Y','110','2','2','5 ','EK-FO083','2000','A','A',478800,585200,'0',20

4/5/2014  17:35 >> Application_Name >> getDataPremium
exec sp_calonlineweb 'Y','110','3','2','5 ','EK-FO083','2000','A','A',0,0,'0',20

4/5/2014  17:44 >> Application_Name >> getDataCarMarkByCarMarkCode
SELECT * 
 FROM online_carmark 
 WHERE carmakcod = '' 
 ORDER BY desc_t, carmakcod 

4/5/2014  17:45 >> Application_Name >> getDataCarMarkByCarMarkCode
SELECT * 
 FROM online_carmark 
 WHERE carmakcod = '' 
 ORDER BY desc_t, carmakcod 

4/5/2014  17:45 >> Application_Name >> getDataCarMarkByCarMarkCode
SELECT * 
 FROM online_carmark 
 WHERE carmakcod = 'JK-HO002' 
 ORDER BY desc_t, carmakcod 

4/5/2014  17:48 >> Application_Name >> getDataPremium
exec sp_calonlineweb 'Y','110','1','5','3 ','JK-HO002','2000','A','A',637758.39375,779482.48125,'0',20

4/5/2014  17:48 >> Application_Name >> getDataPremium
exec sp_calonlineweb 'Y','110','1','5','3 ','JK-HO002','2000','A','A',637758.39375,779482.48125,'0',20

4/5/2014  17:48 >> Application_Name >> getDataPremium
exec sp_calonlineweb 'Y','110','2','5','3 ','JK-HO002','2000','A','A',637758.39375,779482.48125,'0',20

4/5/2014  17:48 >> Application_Name >> getDataPremium
exec sp_calonlineweb 'Y','110','2','5','3 ','JK-HO002','2000','A','A',637758.39375,779482.48125,'0',20

4/5/2014  17:48 >> Application_Name >> getDataPremium
exec sp_calonlineweb 'Y','110','3','5','3 ','JK-HO002','2000','A','A',0,0,'0',20

4/5/2014  17:48 >> Application_Name >> getDataPremium
exec sp_calonlineweb 'Y','110','3','5','3 ','JK-HO002','2000','A','A',0,0,'0',20

4/5/2014  17:48 >> Application_Name >> getDataPremium
exec sp_calonlineweb 'Y','110','1','5','3 ','JK-HO002','2000','A','A',637758.39375,779482.48125,'0',20

4/5/2014  17:48 >> Application_Name >> getDataPremium
exec sp_calonlineweb 'Y','110','2','5','3 ','JK-HO002','2000','A','A',637758.39375,779482.48125,'0',20

4/5/2014  17:48 >> Application_Name >> getDataPremium
exec sp_calonlineweb 'Y','110','3','5','3 ','JK-HO002','2000','A','A',0,0,'0',20

4/5/2014  18:3 >> Application_Name >> getDataCarMarkByCarMarkCode
SELECT * 
 FROM online_carmark 
 WHERE carmakcod = '' 
 ORDER BY desc_t, carmakcod 

4/5/2014  18:3 >> Application_Name >> getDataCarMarkByCarMarkCode
SELECT * 
 FROM online_carmark 
 WHERE carmakcod = '' 
 ORDER BY desc_t, carmakcod 

4/5/2014  18:3 >> Application_Name >> getDataCarMarkByCarMarkCode
SELECT * 
 FROM online_carmark 
 WHERE carmakcod = 'JP-TO100' 
 ORDER BY desc_t, carmakcod 

4/5/2014  18:4 >> Application_Name >> getDataCarMarkByCarMarkCode
SELECT * 
 FROM online_carmark 
 WHERE carmakcod = '' 
 ORDER BY desc_t, carmakcod 

4/5/2014  18:4 >> Application_Name >> getDataCarMarkByCarMarkCode
SELECT * 
 FROM online_carmark 
 WHERE carmakcod = 'EK-FO083' 
 ORDER BY desc_t, carmakcod 

4/5/2014  18:5 >> Application_Name >> getDataPremium
exec sp_calonlineweb 'Y','110','1','3','5 ','EK-FO083','2000','A','A',454860,555940,'0',0

4/5/2014  18:5 >> Application_Name >> getDataPremium
exec sp_calonlineweb 'Y','110','2','3','5 ','EK-FO083','2000','A','A',454860,555940,'0',0

4/5/2014  18:5 >> Application_Name >> getDataPremium
exec sp_calonlineweb 'Y','110','3','3','5 ','EK-FO083','2000','A','A',0,0,'0',0

4/5/2014  18:6 >> Application_Name >> getDataPremium
exec sp_calonlineweb 'Y','110','1','3','5 ','EK-FO083','2000','A','A',454860,555940,'0',20

4/5/2014  18:6 >> Application_Name >> getDataPremium
exec sp_calonlineweb 'Y','110','2','3','5 ','EK-FO083','2000','A','A',454860,555940,'0',20

4/5/2014  18:6 >> Application_Name >> getDataPremium
exec sp_calonlineweb 'Y','110','3','3','5 ','EK-FO083','2000','A','A',0,0,'0',20

4/5/2014  18:7 >> Application_Name >> getDataPremium
exec sp_calonlineweb 'Y','210','1','3','A','','2500','21','A',524027.6,579188.4,'0',30

4/5/2014  18:7 >> Application_Name >> getDataPremium
exec sp_calonlineweb 'Y','210','2','3','A','','2500','21','A',524027.6,579188.4,'0',30

4/5/2014  18:7 >> Application_Name >> getDataPremium
exec sp_calonlineweb 'Y','210','3','3','A','','2500','21','A',0,0,'0',30

4/5/2014  18:8 >> Application_Name >> getDataPremium
exec sp_calonlineweb 'Y','210','1','3','A','','2500','21','A',524027.6,579188.4,'0',30

4/5/2014  18:8 >> Application_Name >> getDataPremium
exec sp_calonlineweb 'Y','210','2','3','A','','2500','21','A',524027.6,579188.4,'0',30

4/5/2014  18:8 >> Application_Name >> getDataPremium
exec sp_calonlineweb 'Y','210','3','3','A','','2500','21','A',0,0,'0',30

4/5/2014  18:51 >> Application_Name >> getDataCarMarkByCarMarkCode
SELECT * 
 FROM online_carmark 
 WHERE carmakcod = '' 
 ORDER BY desc_t, carmakcod 

4/5/2014  18:52 >> Application_Name >> getDataCarMarkByCarMarkCode
SELECT * 
 FROM online_carmark 
 WHERE carmakcod = 'JK-HO001' 
 ORDER BY desc_t, carmakcod 

4/5/2014  20:24 >> Application_Name >> getDataCarMarkByCarMarkCode
SELECT * 
 FROM online_carmark 
 WHERE carmakcod = '' 
 ORDER BY desc_t, carmakcod 

4/5/2014  20:24 >> Application_Name >> getDataCarMarkByCarMarkCode
SELECT * 
 FROM online_carmark 
 WHERE carmakcod = 'JK-TO242' 
 ORDER BY desc_t, carmakcod 

4/5/2014  20:58 >> Application_Name >> getDataCarMarkByCarMarkCode
SELECT * 
 FROM online_carmark 
 WHERE carmakcod = '' 
 ORDER BY desc_t, carmakcod 

4/5/2014  20:59 >> Application_Name >> getDataCarMarkByCarMarkCode
SELECT * 
 FROM online_carmark 
 WHERE carmakcod = 'JK-HO084' 
 ORDER BY desc_t, carmakcod 

4/5/2014  21:10 >> Application_Name >> getDataCarMarkByCarMarkCode
SELECT * 
 FROM online_carmark 
 WHERE carmakcod = '' 
 ORDER BY desc_t, carmakcod 

4/5/2014  21:10 >> Application_Name >> getDataCarMarkByCarMarkCode
SELECT * 
 FROM online_carmark 
 WHERE carmakcod = 'JK-HO084' 
 ORDER BY desc_t, carmakcod 

4/5/2014  21:26 >> Application_Name >> getDataCarMarkByCarMarkCode
SELECT * 
 FROM online_carmark 
 WHERE carmakcod = '' 
 ORDER BY desc_t, carmakcod 

4/5/2014  21:26 >> Application_Name >> getDataCarMarkByCarMarkCode
SELECT * 
 FROM online_carmark 
 WHERE carmakcod = 'JK-HO002' 
 ORDER BY desc_t, carmakcod 

4/5/2014  21:28 >> Application_Name >> getDataPremium
exec sp_calonlineweb 'Y','110','1','6','3 ','JK-HO002','2000','A','A',605870.4740625,740508.3571875,'51',0

4/5/2014  21:28 >> Application_Name >> getDataPremium
exec sp_calonlineweb 'Y','110','2','6','3 ','JK-HO002','2000','A','A',605870.4740625,740508.3571875,'51',0

4/5/2014  21:28 >> Application_Name >> getDataPremium
exec sp_calonlineweb 'Y','110','3','6','3 ','JK-HO002','2000','A','A',0,0,'51',0

4/5/2014  21:54 >> Application_Name >> getDataCarMarkByCarMarkCode
SELECT * 
 FROM online_carmark 
 WHERE carmakcod = '' 
 ORDER BY desc_t, carmakcod 

4/5/2014  21:54 >> Application_Name >> getDataCarMarkByCarMarkCode
SELECT * 
 FROM online_carmark 
 WHERE carmakcod = 'JK-HO001' 
 ORDER BY desc_t, carmakcod 

4/5/2014  21:55 >> Application_Name >> getDataPremium
exec sp_calonlineweb 'Y','110','1','2','5 ','JK-HO001','2000','A','A',470250,574750,'0',0

4/5/2014  21:56 >> Application_Name >> getDataPremium
exec sp_calonlineweb 'Y','110','2','2','5 ','JK-HO001','2000','A','A',470250,574750,'0',0

4/5/2014  21:56 >> Application_Name >> getDataPremium
exec sp_calonlineweb 'Y','110','3','2','5 ','JK-HO001','2000','A','A',0,0,'0',0

4/5/2014  21:58 >> Application_Name >> SMK :: BuyVoluntary_step2-docToUI
Combine

4/5/2014  21:58 >> Application_Name >> SMK :: BuyVoluntary_step2-docToUI
rg_prmm-016314

4/5/2014  21:58 >> Application_Name >> SMK :: BuyVoluntary_step2-docToUI
rg_prmm16314

4/5/2014  21:58 >> Application_Name >> SMK :: BuyVoluntary_step2-docToUI
cp_comp_prmm600.00

4/5/2014  22:51 >> Application_Name >> getDataCarMarkByCarMarkCode
SELECT * 
 FROM online_carmark 
 WHERE carmakcod = '' 
 ORDER BY desc_t, carmakcod 

4/5/2014  22:51 >> Application_Name >> getDataCarMarkByCarMarkCode
SELECT * 
 FROM online_carmark 
 WHERE carmakcod = 'JK-HO001' 
 ORDER BY desc_t, carmakcod 

4/5/2014  22:52 >> Application_Name >> getDataPremium
exec sp_calonlineweb 'N','110','1','2','5 ','JK-HO001','2000','A','A',470250,574750,'0',0

4/5/2014  22:52 >> Application_Name >> getDataPremium
exec sp_calonlineweb 'N','110','2','2','5 ','JK-HO001','2000','A','A',470250,574750,'0',0

4/5/2014  22:52 >> Application_Name >> getDataPremium
exec sp_calonlineweb 'N','110','3','2','5 ','JK-HO001','2000','A','A',0,0,'0',0

4/5/2014  22:53 >> Application_Name >> getDataCarMarkByCarMarkCode
SELECT * 
 FROM online_carmark 
 WHERE carmakcod = '' 
 ORDER BY desc_t, carmakcod 

4/5/2014  22:53 >> Application_Name >> getDataCarMarkByCarMarkCode
SELECT * 
 FROM online_carmark 
 WHERE carmakcod = '' 
 ORDER BY desc_t, carmakcod 

4/5/2014  22:53 >> Application_Name >> getDataCarMarkByCarMarkCode
SELECT * 
 FROM online_carmark 
 WHERE carmakcod = 'JK-MA065' 
 ORDER BY desc_t, carmakcod 

4/5/2014  23:13 >> Application_Name >> getDataCarMarkByCarMarkCode
SELECT * 
 FROM online_carmark 
 WHERE carmakcod = '' 
 ORDER BY desc_t, carmakcod 

4/5/2014  23:13 >> Application_Name >> getDataCarMarkByCarMarkCode
SELECT * 
 FROM online_carmark 
 WHERE carmakcod = 'JK-HO001' 
 ORDER BY desc_t, carmakcod 

4/5/2014  23:14 >> Application_Name >> getDataCarMarkByCarMarkCode
SELECT * 
 FROM online_carmark 
 WHERE carmakcod = '' 
 ORDER BY desc_t, carmakcod 

4/5/2014  23:14 >> Application_Name >> getDataCarMarkByCarMarkCode
SELECT * 
 FROM online_carmark 
 WHERE carmakcod = 'JK-HO001' 
 ORDER BY desc_t, carmakcod 

4/5/2014  23:15 >> Application_Name >> getDataPremium
exec sp_calonlineweb 'Y','110','1','3','5 ','JK-HO001','2000','A','A',446737.5,546012.5,'0',20

4/5/2014  23:15 >> Application_Name >> getDataPremium
exec sp_calonlineweb 'Y','110','2','3','5 ','JK-HO001','2000','A','A',446737.5,546012.5,'0',20

4/5/2014  23:15 >> Application_Name >> getDataPremium
exec sp_calonlineweb 'Y','110','3','3','5 ','JK-HO001','2000','A','A',0,0,'0',20

4/5/2014  23:18 >> Application_Name >> getDataPremium
exec sp_calonlineweb 'Y','110','1','3','5 ','JK-HO001','2000','A','A',446737.5,546012.5,'0',30

4/5/2014  23:18 >> Application_Name >> getDataPremium
exec sp_calonlineweb 'Y','110','2','3','5 ','JK-HO001','2000','A','A',446737.5,546012.5,'0',30

4/5/2014  23:18 >> Application_Name >> getDataPremium
exec sp_calonlineweb 'Y','110','3','3','5 ','JK-HO001','2000','A','A',0,0,'0',30

4/5/2014  23:18 >> Application_Name >> getDataPremium
exec sp_calonlineweb 'Y','110','1','3','5 ','JK-HO001','2000','A','A',446737.5,546012.5,'0',30

4/5/2014  23:18 >> Application_Name >> getDataPremium
exec sp_calonlineweb 'Y','110','2','3','5 ','JK-HO001','2000','A','A',446737.5,546012.5,'0',30

4/5/2014  23:18 >> Application_Name >> getDataPremium
exec sp_calonlineweb 'Y','110','3','3','5 ','JK-HO001','2000','A','A',0,0,'0',30

4/5/2014  23:45 >> Application_Name >> getDataCarMarkByCarMarkCode
SELECT * 
 FROM online_carmark 
 WHERE carmakcod = '' 
 ORDER BY desc_t, carmakcod 

