30/7/2014  3:14 >> Application_Name >> getDataCarMarkByCarMarkCode
SELECT * 
 FROM online_carmark 
 WHERE carmakcod = '' 
 ORDER BY desc_t, carmakcod 

30/7/2014  3:14 >> Application_Name >> getDataCarMarkByCarMarkCode
SELECT * 
 FROM online_carmark 
 WHERE carmakcod = 'JK-NI101' 
 ORDER BY desc_t, carmakcod 

30/7/2014  3:14 >> Application_Name >> getDataCarMarkByCarMarkCode
SELECT * 
 FROM online_carmark 
 WHERE carmakcod = '' 
 ORDER BY desc_t, carmakcod 

30/7/2014  3:14 >> Application_Name >> getDataCarMarkByCarMarkCode
SELECT * 
 FROM online_carmark 
 WHERE carmakcod = 'JP-NI043' 
 ORDER BY desc_t, carmakcod 

30/7/2014  3:16 >> Application_Name >> getDataPremium
exec sp_calonlineweb 'N','210','1','2','A','','2500','21','A',446918,493962,'0',0

30/7/2014  3:16 >> Application_Name >> getDataPremium
exec sp_calonlineweb 'N','210','2','2','A','','2500','21','A',446918,493962,'0',0

30/7/2014  3:16 >> Application_Name >> getDataPremium
exec sp_calonlineweb 'N','210','3','2','A','','2500','21','A',0,0,'0',0

30/7/2014  3:16 >> Application_Name >> getDataPremium
exec sp_calonlineweb 'N','210','1','2','A','','2500','21','A',446918,493962,'0',0

30/7/2014  3:16 >> Application_Name >> getDataPremium
exec sp_calonlineweb 'N','210','2','2','A','','2500','21','A',446918,493962,'0',0

30/7/2014  3:16 >> Application_Name >> getDataPremium
exec sp_calonlineweb 'N','210','3','2','A','','2500','21','A',0,0,'0',0

30/7/2014  3:16 >> Application_Name >> getDataPremium
exec sp_calonlineweb 'N','210','1','2','A','','2500','21','A',446918,493962,'0',0

30/7/2014  3:16 >> Application_Name >> getDataPremium
exec sp_calonlineweb 'N','210','2','2','A','','2500','21','A',446918,493962,'0',0

30/7/2014  3:16 >> Application_Name >> getDataPremium
exec sp_calonlineweb 'N','210','3','2','A','','2500','21','A',0,0,'0',0

30/7/2014  3:32 >> Application_Name >> getDataCarMarkByCarMarkCode
SELECT * 
 FROM online_carmark 
 WHERE carmakcod = '' 
 ORDER BY desc_t, carmakcod 

30/7/2014  3:32 >> Application_Name >> getDataCarMarkByCarMarkCode
SELECT * 
 FROM online_carmark 
 WHERE carmakcod = '' 
 ORDER BY desc_t, carmakcod 

30/7/2014  3:33 >> Application_Name >> getDataCarMarkByCarMarkCode
SELECT * 
 FROM online_carmark 
 WHERE carmakcod = 'JP-TO100' 
 ORDER BY desc_t, carmakcod 

30/7/2014  3:35 >> Application_Name >> getDataPremium
exec sp_calonlineweb 'Y','210','1','3','A','','2500','21','A',524027.6,579188.4,'36',20

30/7/2014  3:35 >> Application_Name >> getDataPremium
exec sp_calonlineweb 'Y','210','2','3','A','','2500','21','A',524027.6,579188.4,'36',20

30/7/2014  3:35 >> Application_Name >> getDataPremium
exec sp_calonlineweb 'Y','210','3','3','A','','2500','21','A',0,0,'36',20

30/7/2014  3:35 >> Application_Name >> getDataPremium
exec sp_calonlineweb 'Y','210','1','3','A','','2500','21','A',524027.6,579188.4,'36',20

30/7/2014  3:35 >> Application_Name >> getDataPremium
exec sp_calonlineweb 'Y','210','2','3','A','','2500','21','A',524027.6,579188.4,'36',20

30/7/2014  3:35 >> Application_Name >> getDataPremium
exec sp_calonlineweb 'Y','210','3','3','A','','2500','21','A',0,0,'36',20

30/7/2014  7:37 >> Application_Name >> getDataCarMarkByCarMarkCode
SELECT * 
 FROM online_carmark 
 WHERE carmakcod = '' 
 ORDER BY desc_t, carmakcod 

30/7/2014  7:37 >> Application_Name >> getDataCarMarkByCarMarkCode
SELECT * 
 FROM online_carmark 
 WHERE carmakcod = 'JK-HO001' 
 ORDER BY desc_t, carmakcod 

30/7/2014  7:38 >> Application_Name >> getDataPremium
exec sp_calonlineweb 'Y','110','1','2','5 ','JK-HO001','2000','A','A',470250,574750,'0',0

30/7/2014  7:38 >> Application_Name >> getDataPremium
exec sp_calonlineweb 'Y','110','2','2','5 ','JK-HO001','2000','A','A',470250,574750,'0',0

30/7/2014  7:38 >> Application_Name >> getDataPremium
exec sp_calonlineweb 'Y','110','3','2','5 ','JK-HO001','2000','A','A',0,0,'0',0

30/7/2014  7:39 >> Application_Name >> SMK :: BuyVoluntary_step2-docToUI
Combine

30/7/2014  7:39 >> Application_Name >> SMK :: BuyVoluntary_step2-docToUI
rg_prmm-016585

30/7/2014  7:39 >> Application_Name >> SMK :: BuyVoluntary_step2-docToUI
rg_prmm16585

30/7/2014  7:39 >> Application_Name >> SMK :: BuyVoluntary_step2-docToUI
cp_comp_prmm600.00

30/7/2014  9:21 >> Application_Name >> getDataCarMarkByCarMarkCode
SELECT * 
 FROM online_carmark 
 WHERE carmakcod = '' 
 ORDER BY desc_t, carmakcod 

30/7/2014  9:21 >> Application_Name >> getDataCarMarkByCarMarkCode
SELECT * 
 FROM online_carmark 
 WHERE carmakcod = '' 
 ORDER BY desc_t, carmakcod 

30/7/2014  9:21 >> Application_Name >> getDataCarMarkByCarMarkCode
SELECT * 
 FROM online_carmark 
 WHERE carmakcod = 'JK-SZ004' 
 ORDER BY desc_t, carmakcod 

30/7/2014  9:21 >> Application_Name >> getDataCarMarkByCarMarkCode
SELECT * 
 FROM online_carmark 
 WHERE carmakcod = '' 
 ORDER BY desc_t, carmakcod 

30/7/2014  9:23 >> Application_Name >> getCategoryCompByBrand
SELECT mdc_minor_cd , mdc_desc_t as mdc_desc FROM mtdesc_comp  WHERE mdc_minor_cd <> '0000' AND mdc_major_cd = 'H004' ORDER BY mdc_desc 

30/7/2014  9:26 >> Application_Name >> getDataCarMarkByCarMarkCode
SELECT * 
 FROM online_carmark 
 WHERE carmakcod = '' 
 ORDER BY desc_t, carmakcod 

30/7/2014  9:26 >> Application_Name >> getDataCarMarkByCarMarkCode
SELECT * 
 FROM online_carmark 
 WHERE carmakcod = '' 
 ORDER BY desc_t, carmakcod 

30/7/2014  9:26 >> Application_Name >> getDataCarMarkByCarMarkCode
SELECT * 
 FROM online_carmark 
 WHERE carmakcod = 'EK-CR015' 
 ORDER BY desc_t, carmakcod 

30/7/2014  9:26 >> Application_Name >> getDataCarMarkByCarMarkCode
SELECT * 
 FROM online_carmark 
 WHERE carmakcod = 'EK-VV004' 
 ORDER BY desc_t, carmakcod 

30/7/2014  9:26 >> Application_Name >> getDataPremium
exec sp_calonlineweb 'Y','110','1','3','2 ','EK-VV004','2000','A','A',1501038,1834602,'0',0

30/7/2014  9:26 >> Application_Name >> getDataPremium
exec sp_calonlineweb 'Y','110','2','3','2 ','EK-VV004','2000','A','A',1501038,1834602,'0',0

30/7/2014  9:26 >> Application_Name >> getDataPremium
exec sp_calonlineweb 'Y','110','3','3','2 ','EK-VV004','2000','A','A',0,0,'0',0

30/7/2014  9:27 >> Application_Name >> getDataPremium
exec sp_calonlineweb 'Y','110','1','3','2 ','EK-VV004','2000','A','A',1501038,1834602,'0',0

30/7/2014  9:27 >> Application_Name >> getDataPremium
exec sp_calonlineweb 'Y','110','2','3','2 ','EK-VV004','2000','A','A',1501038,1834602,'0',0

30/7/2014  9:27 >> Application_Name >> getDataPremium
exec sp_calonlineweb 'Y','110','3','3','2 ','EK-VV004','2000','A','A',0,0,'0',0

30/7/2014  9:28 >> Application_Name >> getDataCarMarkByCarMarkCode
SELECT * 
 FROM online_carmark 
 WHERE carmakcod = '' 
 ORDER BY desc_t, carmakcod 

30/7/2014  9:28 >> Application_Name >> getDataCarMarkByCarMarkCode
SELECT * 
 FROM online_carmark 
 WHERE carmakcod = '' 
 ORDER BY desc_t, carmakcod 

30/7/2014  9:28 >> Application_Name >> getDataCarMarkByCarMarkCode
SELECT * 
 FROM online_carmark 
 WHERE carmakcod = 'JK-TO242' 
 ORDER BY desc_t, carmakcod 

30/7/2014  9:28 >> Application_Name >> getDataPremium
exec sp_calonlineweb 'Y','110','1','3','5 ','JK-TO242','2000','A','A',454860,555940,'0',0

30/7/2014  9:28 >> Application_Name >> getDataPremium
exec sp_calonlineweb 'Y','110','2','3','5 ','JK-TO242','2000','A','A',454860,555940,'0',0

30/7/2014  9:28 >> Application_Name >> getDataPremium
exec sp_calonlineweb 'Y','110','3','3','5 ','JK-TO242','2000','A','A',0,0,'0',0

30/7/2014  9:29 >> Application_Name >> getDataCarMarkByCarMarkCode
SELECT * 
 FROM online_carmark 
 WHERE carmakcod = 'JK-HO002' 
 ORDER BY desc_t, carmakcod 

30/7/2014  9:33 >> Application_Name >> getDataPremium
exec sp_calonlineweb 'N','110','1','3','3 ','JK-HO002','2000','A','A',706657.5,863692.5,'25',0

30/7/2014  9:33 >> Application_Name >> getDataPremium
exec sp_calonlineweb 'N','110','2','3','3 ','JK-HO002','2000','A','A',706657.5,863692.5,'25',0

30/7/2014  9:33 >> Application_Name >> getDataPremium
exec sp_calonlineweb 'N','110','3','3','3 ','JK-HO002','2000','A','A',0,0,'25',0

30/7/2014  9:39 >> Application_Name >> getDataCarMarkByCarMarkCode
SELECT * 
 FROM online_carmark 
 WHERE carmakcod = '' 
 ORDER BY desc_t, carmakcod 

30/7/2014  9:39 >> Application_Name >> getDataCarMarkByCarMarkCode
SELECT * 
 FROM online_carmark 
 WHERE carmakcod = 'JK-HO002' 
 ORDER BY desc_t, carmakcod 

30/7/2014  9:41 >> Application_Name >> getDataPremium
exec sp_calonlineweb 'Y','110','1','5','3 ','JK-HO002','2000','A','A',637758.39375,779482.48125,'0',0

30/7/2014  9:41 >> Application_Name >> getDataPremium
exec sp_calonlineweb 'Y','110','2','5','3 ','JK-HO002','2000','A','A',637758.39375,779482.48125,'0',0

30/7/2014  9:41 >> Application_Name >> getDataPremium
exec sp_calonlineweb 'Y','110','3','5','3 ','JK-HO002','2000','A','A',0,0,'0',0

30/7/2014  9:44 >> Application_Name >> getDataCarMarkByCarMarkCode
SELECT * 
 FROM online_carmark 
 WHERE carmakcod = '' 
 ORDER BY desc_t, carmakcod 

30/7/2014  9:44 >> Application_Name >> getDataCarMarkByCarMarkCode
SELECT * 
 FROM online_carmark 
 WHERE carmakcod = 'JK-HO001' 
 ORDER BY desc_t, carmakcod 

30/7/2014  9:46 >> Application_Name >> getDataPremium
exec sp_calonlineweb 'Y','110','1','3','5 ','JK-HO001','2000','A','A',446737.5,546012.5,'0',0

30/7/2014  9:46 >> Application_Name >> getDataPremium
exec sp_calonlineweb 'Y','110','2','3','5 ','JK-HO001','2000','A','A',446737.5,546012.5,'0',0

30/7/2014  9:46 >> Application_Name >> getDataPremium
exec sp_calonlineweb 'Y','110','3','3','5 ','JK-HO001','2000','A','A',0,0,'0',0

30/7/2014  9:47 >> Application_Name >> getDataCarMarkByCarMarkCode
SELECT * 
 FROM online_carmark 
 WHERE carmakcod = '' 
 ORDER BY desc_t, carmakcod 

30/7/2014  9:47 >> Application_Name >> getDataCarMarkByCarMarkCode
SELECT * 
 FROM online_carmark 
 WHERE carmakcod = 'JK-TO019' 
 ORDER BY desc_t, carmakcod 

30/7/2014  9:50 >> Application_Name >> getDataPremium
exec sp_calonlineweb 'Y','110','1','3','5 ','JK-HO001','2000','A','A',446737.5,546012.5,'0',0

30/7/2014  9:50 >> Application_Name >> getDataPremium
exec sp_calonlineweb 'Y','110','2','3','5 ','JK-HO001','2000','A','A',446737.5,546012.5,'0',0

30/7/2014  9:50 >> Application_Name >> getDataPremium
exec sp_calonlineweb 'Y','110','3','3','5 ','JK-HO001','2000','A','A',0,0,'0',0

30/7/2014  10:7 >> Application_Name >> getDataCarMarkByCarMarkCode
SELECT * 
 FROM online_carmark 
 WHERE carmakcod = '' 
 ORDER BY desc_t, carmakcod 

30/7/2014  10:7 >> Application_Name >> getDataCarMarkByCarMarkCode
SELECT * 
 FROM online_carmark 
 WHERE carmakcod = 'JK-MA065' 
 ORDER BY desc_t, carmakcod 

30/7/2014  10:9 >> Application_Name >> getDataCarMarkByCarMarkCode
SELECT * 
 FROM online_carmark 
 WHERE carmakcod = '' 
 ORDER BY desc_t, carmakcod 

30/7/2014  10:9 >> Application_Name >> getDataCarMarkByCarMarkCode
SELECT * 
 FROM online_carmark 
 WHERE carmakcod = 'JK-SZ004' 
 ORDER BY desc_t, carmakcod 

30/7/2014  10:10 >> Application_Name >> getDataPremium
exec sp_calonlineweb 'N','110','1','2','5 ','JK-SZ004','2000','A','A',342000,380000,'0',0

30/7/2014  10:10 >> Application_Name >> getDataPremium
exec sp_calonlineweb 'N','110','2','2','5 ','JK-SZ004','2000','A','A',342000,380000,'0',0

30/7/2014  10:10 >> Application_Name >> getDataPremium
exec sp_calonlineweb 'N','110','3','2','5 ','JK-SZ004','2000','A','A',0,0,'0',0

30/7/2014  10:12 >> Application_Name >> getDataPremium
exec sp_calonlineweb 'N','110','1','2','5 ','JK-SZ004','2000','A','A',342000,380000,'0',0

30/7/2014  10:12 >> Application_Name >> getDataPremium
exec sp_calonlineweb 'N','110','2','2','5 ','JK-SZ004','2000','A','A',342000,380000,'0',0

30/7/2014  10:12 >> Application_Name >> getDataPremium
exec sp_calonlineweb 'N','110','3','2','5 ','JK-SZ004','2000','A','A',0,0,'0',0

30/7/2014  10:13 >> Application_Name >> getDataPremium
exec sp_calonlineweb 'N','110','1','2','5 ','JK-SZ004','2000','A','A',342000,380000,'36',0

30/7/2014  10:13 >> Application_Name >> getDataPremium
exec sp_calonlineweb 'N','110','2','2','5 ','JK-SZ004','2000','A','A',342000,380000,'36',0

30/7/2014  10:13 >> Application_Name >> getDataPremium
exec sp_calonlineweb 'N','110','3','2','5 ','JK-SZ004','2000','A','A',0,0,'36',0

30/7/2014  10:13 >> Application_Name >> getDataPremium
exec sp_calonlineweb 'N','110','1','2','5 ','JK-SZ004','2000','A','A',342000,380000,'18',0

30/7/2014  10:13 >> Application_Name >> getDataPremium
exec sp_calonlineweb 'N','110','2','2','5 ','JK-SZ004','2000','A','A',342000,380000,'18',0

30/7/2014  10:13 >> Application_Name >> getDataPremium
exec sp_calonlineweb 'N','110','3','2','5 ','JK-SZ004','2000','A','A',0,0,'18',0

30/7/2014  10:14 >> Application_Name >> getDataCarMarkByCarMarkCode
SELECT * 
 FROM online_carmark 
 WHERE carmakcod = '' 
 ORDER BY desc_t, carmakcod 

30/7/2014  10:14 >> Application_Name >> getDataCarMarkByCarMarkCode
SELECT * 
 FROM online_carmark 
 WHERE carmakcod = '' 
 ORDER BY desc_t, carmakcod 

30/7/2014  10:14 >> Application_Name >> getDataCarMarkByCarMarkCode
SELECT * 
 FROM online_carmark 
 WHERE carmakcod = 'JP-TO043' 
 ORDER BY desc_t, carmakcod 

30/7/2014  10:15 >> Application_Name >> getDataCarMarkByCarMarkCode
SELECT * 
 FROM online_carmark 
 WHERE carmakcod = '' 
 ORDER BY desc_t, carmakcod 

30/7/2014  10:15 >> Application_Name >> getDataCarMarkByCarMarkCode
SELECT * 
 FROM online_carmark 
 WHERE carmakcod = 'JP-TO043' 
 ORDER BY desc_t, carmakcod 

30/7/2014  10:16 >> Application_Name >> getDataPremium
exec sp_calonlineweb 'N','320','1','2','A','','4','N','A',484462,535458,'0',30

30/7/2014  10:16 >> Application_Name >> getDataPremium
exec sp_calonlineweb 'N','320','2','2','A','','4','N','A',484462,535458,'0',30

30/7/2014  10:16 >> Application_Name >> getDataPremium
exec sp_calonlineweb 'N','320','3','2','A','','4','N','A',0,0,'0',30

30/7/2014  10:19 >> Application_Name >> getDataCarMarkByCarMarkCode
SELECT * 
 FROM online_carmark 
 WHERE carmakcod = '' 
 ORDER BY desc_t, carmakcod 

30/7/2014  10:19 >> Application_Name >> getDataCarMarkByCarMarkCode
SELECT * 
 FROM online_carmark 
 WHERE carmakcod = '' 
 ORDER BY desc_t, carmakcod 

30/7/2014  10:19 >> Application_Name >> getDataCarMarkByCarMarkCode
SELECT * 
 FROM online_carmark 
 WHERE carmakcod = 'JK-TO242' 
 ORDER BY desc_t, carmakcod 

30/7/2014  10:20 >> Application_Name >> getDataCarMarkByCarMarkCode
SELECT * 
 FROM online_carmark 
 WHERE carmakcod = '' 
 ORDER BY desc_t, carmakcod 

30/7/2014  10:20 >> Application_Name >> getDataCarMarkByCarMarkCode
SELECT * 
 FROM online_carmark 
 WHERE carmakcod = '' 
 ORDER BY desc_t, carmakcod 

30/7/2014  10:20 >> Application_Name >> getDataCarMarkByCarMarkCode
SELECT * 
 FROM online_carmark 
 WHERE carmakcod = 'JK-TO242' 
 ORDER BY desc_t, carmakcod 

30/7/2014  10:21 >> Application_Name >> getDataPremium
exec sp_calonlineweb 'N','110','1','11','5 ','JK-TO242','2000','A','A',301763.417376144,368821.954570842,'0',0

30/7/2014  10:21 >> Application_Name >> getDataPremium
exec sp_calonlineweb 'N','110','2','11','5 ','JK-TO242','2000','A','A',301763.417376144,368821.954570842,'0',0

30/7/2014  10:21 >> Application_Name >> getDataPremium
exec sp_calonlineweb 'N','110','3','11','5 ','JK-TO242','2000','A','A',0,0,'0',0

30/7/2014  10:28 >> Application_Name >> getDataCarMarkByCarMarkCode
SELECT * 
 FROM online_carmark 
 WHERE carmakcod = 'JK-IS062' 
 ORDER BY desc_t, carmakcod 

30/7/2014  10:29 >> Application_Name >> getDataCarMarkByCarMarkCode
SELECT * 
 FROM online_carmark 
 WHERE carmakcod = '' 
 ORDER BY desc_t, carmakcod 

30/7/2014  10:29 >> Application_Name >> getDataCarMarkByCarMarkCode
SELECT * 
 FROM online_carmark 
 WHERE carmakcod = 'JK-SZ004' 
 ORDER BY desc_t, carmakcod 

30/7/2014  10:29 >> Application_Name >> getDataCarMarkByCarMarkCode
SELECT * 
 FROM online_carmark 
 WHERE carmakcod = 'JK-MA009' 
 ORDER BY desc_t, carmakcod 

30/7/2014  10:30 >> Application_Name >> getDataPremium
exec sp_calonlineweb 'N','110','1','2','5 ','JK-SZ004','2000','A','A',342000,380000,'36',0

30/7/2014  10:30 >> Application_Name >> getDataPremium
exec sp_calonlineweb 'N','110','2','2','5 ','JK-SZ004','2000','A','A',342000,380000,'36',0

30/7/2014  10:30 >> Application_Name >> getDataPremium
exec sp_calonlineweb 'N','110','3','2','5 ','JK-SZ004','2000','A','A',0,0,'36',0

30/7/2014  10:31 >> Application_Name >> getDataPremium
exec sp_calonlineweb 'N','110','1','2','5 ','JK-SZ004','2000','A','A',342000,380000,'36',0

30/7/2014  10:31 >> Application_Name >> getDataPremium
exec sp_calonlineweb 'N','110','2','2','5 ','JK-SZ004','2000','A','A',342000,380000,'36',0

30/7/2014  10:31 >> Application_Name >> getDataPremium
exec sp_calonlineweb 'N','110','3','2','5 ','JK-SZ004','2000','A','A',0,0,'36',0

30/7/2014  10:45 >> Application_Name >> getDataCarMarkByCarMarkCode
SELECT * 
 FROM online_carmark 
 WHERE carmakcod = '' 
 ORDER BY desc_t, carmakcod 

30/7/2014  10:45 >> Application_Name >> getDataCarMarkByCarMarkCode
SELECT * 
 FROM online_carmark 
 WHERE carmakcod = '' 
 ORDER BY desc_t, carmakcod 

30/7/2014  10:45 >> Application_Name >> getDataCarMarkByCarMarkCode
SELECT * 
 FROM online_carmark 
 WHERE carmakcod = '' 
 ORDER BY desc_t, carmakcod 

30/7/2014  10:45 >> Application_Name >> getDataCarMarkByCarMarkCode
SELECT * 
 FROM online_carmark 
 WHERE carmakcod = 'JP-IS030' 
 ORDER BY desc_t, carmakcod 

30/7/2014  10:47 >> Application_Name >> getDataCarMarkByCarMarkCode
SELECT * 
 FROM online_carmark 
 WHERE carmakcod = '' 
 ORDER BY desc_t, carmakcod 

30/7/2014  10:47 >> Application_Name >> getDataCarMarkByCarMarkCode
SELECT * 
 FROM online_carmark 
 WHERE carmakcod = 'JP-IS052' 
 ORDER BY desc_t, carmakcod 

30/7/2014  10:48 >> Application_Name >> getDataPremium
exec sp_calonlineweb 'N','210','1','3','A','','12','21','A',528143,583737,'0',0

30/7/2014  10:48 >> Application_Name >> getDataPremium
exec sp_calonlineweb 'N','210','2','3','A','','12','21','A',528143,583737,'0',0

30/7/2014  10:48 >> Application_Name >> getDataPremium
exec sp_calonlineweb 'N','210','3','3','A','','12','21','A',0,0,'0',0

30/7/2014  10:50 >> Application_Name >> getDataCarMarkByCarMarkCode
SELECT * 
 FROM online_carmark 
 WHERE carmakcod = '' 
 ORDER BY desc_t, carmakcod 

30/7/2014  10:50 >> Application_Name >> getDataCarMarkByCarMarkCode
SELECT * 
 FROM online_carmark 
 WHERE carmakcod = '' 
 ORDER BY desc_t, carmakcod 

30/7/2014  10:50 >> Application_Name >> getDataCarMarkByCarMarkCode
SELECT * 
 FROM online_carmark 
 WHERE carmakcod = '' 
 ORDER BY desc_t, carmakcod 

30/7/2014  10:50 >> Application_Name >> getDataCarMarkByCarMarkCode
SELECT * 
 FROM online_carmark 
 WHERE carmakcod = 'JP-TO104' 
 ORDER BY desc_t, carmakcod 

30/7/2014  10:51 >> Application_Name >> getDataPremium
exec sp_calonlineweb 'Y','210','1','2','A','','2500','21','A',440420,486780,'0',0

30/7/2014  10:51 >> Application_Name >> getDataPremium
exec sp_calonlineweb 'Y','210','2','2','A','','2500','21','A',440420,486780,'0',0

30/7/2014  10:51 >> Application_Name >> getDataPremium
exec sp_calonlineweb 'Y','210','3','2','A','','2500','21','A',0,0,'0',0

30/7/2014  10:51 >> Application_Name >> getDataPremium
exec sp_calonlineweb 'Y','210','1','2','A','','2500','21','A',440420,486780,'0',0

30/7/2014  10:51 >> Application_Name >> getDataPremium
exec sp_calonlineweb 'Y','210','2','2','A','','2500','21','A',440420,486780,'0',0

30/7/2014  10:51 >> Application_Name >> getDataPremium
exec sp_calonlineweb 'Y','210','3','2','A','','2500','21','A',0,0,'0',0

30/7/2014  10:54 >> Application_Name >> getDataCarMarkByCarMarkCode
SELECT * 
 FROM online_carmark 
 WHERE carmakcod = '' 
 ORDER BY desc_t, carmakcod 

30/7/2014  10:55 >> Application_Name >> getDataCarMarkByCarMarkCode
SELECT * 
 FROM online_carmark 
 WHERE carmakcod = 'JK-TO242' 
 ORDER BY desc_t, carmakcod 

30/7/2014  10:57 >> Application_Name >> getDataPremium
exec sp_calonlineweb 'Y','110','1','3','5 ','JK-TO242','2000','A','A',454860,555940,'0',0

30/7/2014  10:57 >> Application_Name >> getDataPremium
exec sp_calonlineweb 'Y','110','2','3','5 ','JK-TO242','2000','A','A',454860,555940,'0',0

30/7/2014  10:57 >> Application_Name >> getDataPremium
exec sp_calonlineweb 'Y','110','3','3','5 ','JK-TO242','2000','A','A',0,0,'0',0

30/7/2014  10:58 >> Application_Name >> SMK :: BuyVoluntary_step2-docToUI
Combine

30/7/2014  10:58 >> Application_Name >> SMK :: BuyVoluntary_step2-docToUI
rg_prmm-016193

30/7/2014  10:58 >> Application_Name >> SMK :: BuyVoluntary_step2-docToUI
rg_prmm16193

30/7/2014  10:58 >> Application_Name >> SMK :: BuyVoluntary_step2-docToUI
cp_comp_prmm600.00

30/7/2014  11:15 >> Application_Name >> getDataCarMarkByCarMarkCode
SELECT * 
 FROM online_carmark 
 WHERE carmakcod = '' 
 ORDER BY desc_t, carmakcod 

30/7/2014  11:15 >> Application_Name >> getDataCarMarkByCarMarkCode
SELECT * 
 FROM online_carmark 
 WHERE carmakcod = '' 
 ORDER BY desc_t, carmakcod 

30/7/2014  11:15 >> Application_Name >> getDataCarMarkByCarMarkCode
SELECT * 
 FROM online_carmark 
 WHERE carmakcod = 'JP-TO008' 
 ORDER BY desc_t, carmakcod 

30/7/2014  11:20 >> Application_Name >> getDataPremium
exec sp_calonlineweb 'N','210','1','4','A','','2500','22','A',628798.825,694988.175,'0',30

30/7/2014  11:20 >> Application_Name >> getDataPremium
exec sp_calonlineweb 'N','210','2','4','A','','2500','22','A',628798.825,694988.175,'0',30

30/7/2014  11:20 >> Application_Name >> getDataPremium
exec sp_calonlineweb 'N','210','3','4','A','','2500','22','A',0,0,'0',30

30/7/2014  11:21 >> Application_Name >> getDataCarMarkByCarMarkCode
SELECT * 
 FROM online_carmark 
 WHERE carmakcod = '' 
 ORDER BY desc_t, carmakcod 

30/7/2014  11:21 >> Application_Name >> getDataCarMarkByCarMarkCode
SELECT * 
 FROM online_carmark 
 WHERE carmakcod = '' 
 ORDER BY desc_t, carmakcod 

30/7/2014  11:21 >> Application_Name >> getDataCarMarkByCarMarkCode
SELECT * 
 FROM online_carmark 
 WHERE carmakcod = 'JP-TO008' 
 ORDER BY desc_t, carmakcod 

30/7/2014  11:23 >> Application_Name >> getDataPremium
exec sp_calonlineweb 'N','210','1','4','A','','2500','22','A',628798.825,694988.175,'0',30

30/7/2014  11:23 >> Application_Name >> getDataPremium
exec sp_calonlineweb 'N','210','2','4','A','','2500','22','A',628798.825,694988.175,'0',30

30/7/2014  11:23 >> Application_Name >> getDataPremium
exec sp_calonlineweb 'N','210','3','4','A','','2500','22','A',0,0,'0',30

30/7/2014  11:30 >> Application_Name >> getCategoryCompByBrand
SELECT mdc_minor_cd , mdc_desc_t as mdc_desc FROM mtdesc_comp  WHERE mdc_minor_cd <> '0000' AND mdc_major_cd = 'H004' ORDER BY mdc_desc 

30/7/2014  11:41 >> Application_Name >> getDataCarMarkByCarMarkCode
SELECT * 
 FROM online_carmark 
 WHERE carmakcod = '' 
 ORDER BY desc_t, carmakcod 

30/7/2014  11:41 >> Application_Name >> getDataCarMarkByCarMarkCode
SELECT * 
 FROM online_carmark 
 WHERE carmakcod = 'EK-FO083' 
 ORDER BY desc_t, carmakcod 

30/7/2014  11:43 >> Application_Name >> getCategoryCompByBrand
SELECT mdc_minor_cd , mdc_desc_t as mdc_desc FROM mtdesc_comp  WHERE mdc_minor_cd <> '0000' AND mdc_major_cd = 'H004' ORDER BY mdc_desc 

30/7/2014  11:52 >> Application_Name >> getDataCarMarkByCarMarkCode
SELECT * 
 FROM online_carmark 
 WHERE carmakcod = '' 
 ORDER BY desc_t, carmakcod 

30/7/2014  12:2 >> Application_Name >> getDataCarMarkByCarMarkCode
SELECT * 
 FROM online_carmark 
 WHERE carmakcod = '' 
 ORDER BY desc_t, carmakcod 

30/7/2014  12:2 >> Application_Name >> getDataCarMarkByCarMarkCode
SELECT * 
 FROM online_carmark 
 WHERE carmakcod = '' 
 ORDER BY desc_t, carmakcod 

30/7/2014  12:2 >> Application_Name >> getDataCarMarkByCarMarkCode
SELECT * 
 FROM online_carmark 
 WHERE carmakcod = 'JP-TO104' 
 ORDER BY desc_t, carmakcod 

30/7/2014  12:4 >> Application_Name >> getDataPremium
exec sp_calonlineweb 'Y','210','1','12','A','','12','21','A',263695.722779367,291453.167282458,'0',0

30/7/2014  12:4 >> Application_Name >> getDataPremium
exec sp_calonlineweb 'Y','210','2','12','A','','12','21','A',263695.722779367,291453.167282458,'0',0

30/7/2014  12:4 >> Application_Name >> getDataPremium
exec sp_calonlineweb 'Y','210','3','12','A','','12','21','A',0,0,'0',0

30/7/2014  12:4 >> Application_Name >> getDataPremium
exec sp_calonlineweb 'Y','210','1','2','A','','12','21','A',440420,486780,'0',0

30/7/2014  12:4 >> Application_Name >> getDataPremium
exec sp_calonlineweb 'Y','210','2','2','A','','12','21','A',440420,486780,'0',0

30/7/2014  12:4 >> Application_Name >> getDataPremium
exec sp_calonlineweb 'Y','210','3','2','A','','12','21','A',0,0,'0',0

30/7/2014  12:22 >> Application_Name >> getDataPremium
exec sp_calonlineweb 'Y','210','1','2','A','','12','21','A',440420,486780,'0',0

30/7/2014  12:22 >> Application_Name >> getDataPremium
exec sp_calonlineweb 'Y','210','2','2','A','','12','21','A',440420,486780,'0',0

30/7/2014  12:22 >> Application_Name >> getDataPremium
exec sp_calonlineweb 'Y','210','3','2','A','','12','21','A',0,0,'0',0

30/7/2014  12:26 >> Application_Name >> getDataCarMarkByCarMarkCode
SELECT * 
 FROM online_carmark 
 WHERE carmakcod = '' 
 ORDER BY desc_t, carmakcod 

30/7/2014  12:26 >> Application_Name >> getDataCarMarkByCarMarkCode
SELECT * 
 FROM online_carmark 
 WHERE carmakcod = 'JK-HO001' 
 ORDER BY desc_t, carmakcod 

30/7/2014  12:27 >> Application_Name >> getDataPremium
exec sp_calonlineweb 'Y','110','1','3','5 ','JK-HO001','2000','A','A',446737.5,546012.5,'0',30

30/7/2014  12:27 >> Application_Name >> getDataPremium
exec sp_calonlineweb 'Y','110','2','3','5 ','JK-HO001','2000','A','A',446737.5,546012.5,'0',30

30/7/2014  12:27 >> Application_Name >> getDataPremium
exec sp_calonlineweb 'Y','110','3','3','5 ','JK-HO001','2000','A','A',0,0,'0',30

30/7/2014  12:52 >> Application_Name >> getDataCarMarkByCarMarkCode
SELECT * 
 FROM online_carmark 
 WHERE carmakcod = '' 
 ORDER BY desc_t, carmakcod 

30/7/2014  12:52 >> Application_Name >> getDataCarMarkByCarMarkCode
SELECT * 
 FROM online_carmark 
 WHERE carmakcod = 'JK-MA065' 
 ORDER BY desc_t, carmakcod 

30/7/2014  12:53 >> Application_Name >> getDataPremium
exec sp_calonlineweb 'Y','110','1','3','5 ','JK-MA065','2000','A','A',454860,555940,'0',30

30/7/2014  12:53 >> Application_Name >> getDataPremium
exec sp_calonlineweb 'Y','110','2','3','5 ','JK-MA065','2000','A','A',454860,555940,'0',30

30/7/2014  12:53 >> Application_Name >> getDataPremium
exec sp_calonlineweb 'Y','110','3','3','5 ','JK-MA065','2000','A','A',0,0,'0',30

30/7/2014  12:55 >> Application_Name >> SMK :: BuyVoluntary_step2-docToUI
Combine

30/7/2014  12:55 >> Application_Name >> SMK :: BuyVoluntary_step2-docToUI
rg_prmm-011148.9

30/7/2014  12:55 >> Application_Name >> SMK :: BuyVoluntary_step2-docToUI
rg_prmm11148.9

30/7/2014  12:55 >> Application_Name >> SMK :: BuyVoluntary_step2-docToUI
cp_comp_prmm600.00

30/7/2014  12:57 >> Application_Name >> getDataCarMarkByCarMarkCode
SELECT * 
 FROM online_carmark 
 WHERE carmakcod = '' 
 ORDER BY desc_t, carmakcod 

30/7/2014  12:57 >> Application_Name >> getDataCarMarkByCarMarkCode
SELECT * 
 FROM online_carmark 
 WHERE carmakcod = 'JK-SZ004' 
 ORDER BY desc_t, carmakcod 

30/7/2014  13:0 >> Application_Name >> getDataPremium
exec sp_calonlineweb 'Y','110','1','2','5 ','JK-SZ004','2000','A','A',342000,380000,'25',0

30/7/2014  13:0 >> Application_Name >> getDataPremium
exec sp_calonlineweb 'Y','110','2','2','5 ','JK-SZ004','2000','A','A',342000,380000,'25',0

30/7/2014  13:0 >> Application_Name >> getDataPremium
exec sp_calonlineweb 'Y','110','3','2','5 ','JK-SZ004','2000','A','A',0,0,'25',0

30/7/2014  13:3 >> Application_Name >> getDataPremium
exec sp_calonlineweb 'Y','110','1','2','5 ','JK-HO001','2000','A','A',470250,574750,'25',0

30/7/2014  13:3 >> Application_Name >> getDataPremium
exec sp_calonlineweb 'Y','110','2','2','5 ','JK-HO001','2000','A','A',470250,574750,'25',0

30/7/2014  13:3 >> Application_Name >> getDataPremium
exec sp_calonlineweb 'Y','110','3','2','5 ','JK-HO001','2000','A','A',0,0,'25',0

30/7/2014  13:3 >> Application_Name >> getDataPremium
exec sp_calonlineweb 'Y','110','1','2','5 ','JK-HO001','2000','A','A',470250,574750,'25',0

30/7/2014  13:3 >> Application_Name >> getDataPremium
exec sp_calonlineweb 'Y','110','2','2','5 ','JK-HO001','2000','A','A',470250,574750,'25',0

30/7/2014  13:3 >> Application_Name >> getDataPremium
exec sp_calonlineweb 'Y','110','3','2','5 ','JK-HO001','2000','A','A',0,0,'25',0

30/7/2014  13:4 >> Application_Name >> getDataCarMarkByCarMarkCode
SELECT * 
 FROM online_carmark 
 WHERE carmakcod = '' 
 ORDER BY desc_t, carmakcod 

30/7/2014  13:4 >> Application_Name >> getDataCarMarkByCarMarkCode
SELECT * 
 FROM online_carmark 
 WHERE carmakcod = '' 
 ORDER BY desc_t, carmakcod 

30/7/2014  13:5 >> Application_Name >> getDataCarMarkByCarMarkCode
SELECT * 
 FROM online_carmark 
 WHERE carmakcod = 'JP-TO100' 
 ORDER BY desc_t, carmakcod 

30/7/2014  13:6 >> Application_Name >> getDataCarMarkByCarMarkCode
SELECT * 
 FROM online_carmark 
 WHERE carmakcod = '' 
 ORDER BY desc_t, carmakcod 

30/7/2014  13:7 >> Application_Name >> getDataCarMarkByCarMarkCode
SELECT * 
 FROM online_carmark 
 WHERE carmakcod = 'JK-HO001' 
 ORDER BY desc_t, carmakcod 

30/7/2014  13:8 >> Application_Name >> getDataPremium
exec sp_calonlineweb 'Y','110','1','2','5 ','JK-HO001','2000','A','A',470250,574750,'0',0

30/7/2014  13:8 >> Application_Name >> getDataPremium
exec sp_calonlineweb 'Y','110','2','2','5 ','JK-HO001','2000','A','A',470250,574750,'0',0

30/7/2014  13:8 >> Application_Name >> getDataPremium
exec sp_calonlineweb 'Y','110','3','2','5 ','JK-HO001','2000','A','A',0,0,'0',0

30/7/2014  13:8 >> Application_Name >> getDataPremium
exec sp_calonlineweb 'Y','210','1','2','A','','3000','21','A',551608,609672,'25',0

30/7/2014  13:8 >> Application_Name >> getDataPremium
exec sp_calonlineweb 'Y','210','2','2','A','','3000','21','A',551608,609672,'25',0

30/7/2014  13:8 >> Application_Name >> getDataPremium
exec sp_calonlineweb 'Y','210','3','2','A','','3000','21','A',0,0,'25',0

30/7/2014  13:13 >> Application_Name >> getDataCarMarkByCarMarkCode
SELECT * 
 FROM online_carmark 
 WHERE carmakcod = '' 
 ORDER BY desc_t, carmakcod 

30/7/2014  13:13 >> Application_Name >> getDataCarMarkByCarMarkCode
SELECT * 
 FROM online_carmark 
 WHERE carmakcod = 'JK-TO242' 
 ORDER BY desc_t, carmakcod 

30/7/2014  13:15 >> Application_Name >> getDataCarMarkByCarMarkCode
SELECT * 
 FROM online_carmark 
 WHERE carmakcod = '' 
 ORDER BY desc_t, carmakcod 

30/7/2014  13:15 >> Application_Name >> getDataCarMarkByCarMarkCode
SELECT * 
 FROM online_carmark 
 WHERE carmakcod = 'JK-HO001' 
 ORDER BY desc_t, carmakcod 

30/7/2014  13:16 >> Application_Name >> getDataPremium
exec sp_calonlineweb 'Y','110','1','2','5 ','JK-HO001','2000','A','A',470250,574750,'0',0

30/7/2014  13:16 >> Application_Name >> getDataPremium
exec sp_calonlineweb 'Y','110','2','2','5 ','JK-HO001','2000','A','A',470250,574750,'0',0

30/7/2014  13:16 >> Application_Name >> getDataPremium
exec sp_calonlineweb 'Y','110','3','2','5 ','JK-HO001','2000','A','A',0,0,'0',0

30/7/2014  13:16 >> Application_Name >> SMK :: BuyVoluntary_step2-docToUI
Combine

30/7/2014  13:16 >> Application_Name >> SMK :: BuyVoluntary_step2-docToUI
rg_prmm-016585

30/7/2014  13:16 >> Application_Name >> SMK :: BuyVoluntary_step2-docToUI
rg_prmm16585

30/7/2014  13:16 >> Application_Name >> SMK :: BuyVoluntary_step2-docToUI
cp_comp_prmm600.00

30/7/2014  13:16 >> Application_Name >> getDataPremium
exec sp_calonlineweb 'Y','110','1','2','5 ','JK-HO001','2000','A','A',470250,574750,'0',0

30/7/2014  13:17 >> Application_Name >> getDataPremium
exec sp_calonlineweb 'Y','110','2','2','5 ','JK-HO001','2000','A','A',470250,574750,'0',0

30/7/2014  13:17 >> Application_Name >> getDataPremium
exec sp_calonlineweb 'Y','110','3','2','5 ','JK-HO001','2000','A','A',0,0,'0',0

30/7/2014  13:17 >> Application_Name >> SMK :: BuyVoluntary_step2-docToUI
Combine

30/7/2014  13:17 >> Application_Name >> SMK :: BuyVoluntary_step2-docToUI
rg_prmm-016585

30/7/2014  13:17 >> Application_Name >> SMK :: BuyVoluntary_step2-docToUI
rg_prmm16585

30/7/2014  13:17 >> Application_Name >> SMK :: BuyVoluntary_step2-docToUI
cp_comp_prmm600.00

30/7/2014  13:19 >> Application_Name >> getDataCarMarkByCarMarkCode
SELECT * 
 FROM online_carmark 
 WHERE carmakcod = '' 
 ORDER BY desc_t, carmakcod 

30/7/2014  13:19 >> Application_Name >> getDataCarMarkByCarMarkCode
SELECT * 
 FROM online_carmark 
 WHERE carmakcod = 'JK-TO242' 
 ORDER BY desc_t, carmakcod 

30/7/2014  13:20 >> Application_Name >> getDataCarMarkByCarMarkCode
SELECT * 
 FROM online_carmark 
 WHERE carmakcod = '' 
 ORDER BY desc_t, carmakcod 

30/7/2014  13:21 >> Application_Name >> getDataCarMarkByCarMarkCode
SELECT * 
 FROM online_carmark 
 WHERE carmakcod = 'JK-TO242' 
 ORDER BY desc_t, carmakcod 

30/7/2014  13:21 >> Application_Name >> getDataPremium
exec sp_calonlineweb 'N','110','1','17','5 ','JK-TO242','2000','A','A',221823.841000491,271118.027889489,'0',0

30/7/2014  13:21 >> Application_Name >> getDataPremium
exec sp_calonlineweb 'N','110','2','17','5 ','JK-TO242','2000','A','A',221823.841000491,271118.027889489,'0',0

30/7/2014  13:21 >> Application_Name >> getDataPremium
exec sp_calonlineweb 'N','110','3','17','5 ','JK-TO242','2000','A','A',0,0,'0',0

30/7/2014  13:22 >> Application_Name >> getDataCarMarkByCarMarkCode
SELECT * 
 FROM online_carmark 
 WHERE carmakcod = '' 
 ORDER BY desc_t, carmakcod 

30/7/2014  13:22 >> Application_Name >> getDataCarMarkByCarMarkCode
SELECT * 
 FROM online_carmark 
 WHERE carmakcod = 'JK-TO067' 
 ORDER BY desc_t, carmakcod 

30/7/2014  13:22 >> Application_Name >> getDataPremium
exec sp_calonlineweb 'Y','110','1','3','5 ','JK-TO242','2000','A','A',454860,555940,'0',0

30/7/2014  13:22 >> Application_Name >> getDataPremium
exec sp_calonlineweb 'Y','110','2','3','5 ','JK-TO242','2000','A','A',454860,555940,'0',0

30/7/2014  13:22 >> Application_Name >> getDataPremium
exec sp_calonlineweb 'Y','110','3','3','5 ','JK-TO242','2000','A','A',0,0,'0',0

30/7/2014  13:22 >> Application_Name >> getDataPremium
exec sp_calonlineweb 'Y','110','1','12','5 ','JK-TO067','2000','A','A',285139.48625819,348503.816537787,'0',0

30/7/2014  13:22 >> Application_Name >> getDataPremium
exec sp_calonlineweb 'Y','110','2','12','5 ','JK-TO067','2000','A','A',285139.48625819,348503.816537787,'0',0

30/7/2014  13:22 >> Application_Name >> getDataPremium
exec sp_calonlineweb 'Y','110','3','12','5 ','JK-TO067','2000','A','A',0,0,'0',0

30/7/2014  13:24 >> Application_Name >> SMK :: BuyVoluntary_step2-docToUI
Combine

30/7/2014  13:24 >> Application_Name >> SMK :: BuyVoluntary_step2-docToUI
rg_prmm-09015

30/7/2014  13:24 >> Application_Name >> SMK :: BuyVoluntary_step2-docToUI
rg_prmm9015

30/7/2014  13:24 >> Application_Name >> SMK :: BuyVoluntary_step2-docToUI
cp_comp_prmm600.00

30/7/2014  13:30 >> Application_Name >> getDataCarMarkByCarMarkCode
SELECT * 
 FROM online_carmark 
 WHERE carmakcod = '' 
 ORDER BY desc_t, carmakcod 

30/7/2014  13:30 >> Application_Name >> getDataCarMarkByCarMarkCode
SELECT * 
 FROM online_carmark 
 WHERE carmakcod = '' 
 ORDER BY desc_t, carmakcod 

30/7/2014  13:30 >> Application_Name >> getDataCarMarkByCarMarkCode
SELECT * 
 FROM online_carmark 
 WHERE carmakcod = 'JK-TO184' 
 ORDER BY desc_t, carmakcod 

30/7/2014  13:30 >> Application_Name >> getDataCarMarkByCarMarkCode
SELECT * 
 FROM online_carmark 
 WHERE carmakcod = 'JK-TO242' 
 ORDER BY desc_t, carmakcod 

30/7/2014  13:30 >> Application_Name >> getDataCarMarkByCarMarkCode
SELECT * 
 FROM online_carmark 
 WHERE carmakcod = 'JK-IS047' 
 ORDER BY desc_t, carmakcod 

30/7/2014  13:33 >> Application_Name >> getDataPremium
exec sp_calonlineweb 'Y','110','1','3','5 ','JK-TO242','2000','A','A',454860,555940,'36',30

30/7/2014  13:33 >> Application_Name >> getDataPremium
exec sp_calonlineweb 'Y','110','2','3','5 ','JK-TO242','2000','A','A',454860,555940,'36',30

30/7/2014  13:33 >> Application_Name >> getDataPremium
exec sp_calonlineweb 'Y','110','3','3','5 ','JK-TO242','2000','A','A',0,0,'36',30

30/7/2014  13:34 >> Application_Name >> SMK :: BuyVoluntary_step2-docToUI
Combine

30/7/2014  13:34 >> Application_Name >> SMK :: BuyVoluntary_step2-docToUI
rg_prmm-011504

30/7/2014  13:34 >> Application_Name >> SMK :: BuyVoluntary_step2-docToUI
rg_prmm11504

30/7/2014  13:34 >> Application_Name >> SMK :: BuyVoluntary_step2-docToUI
cp_comp_prmm600.00

30/7/2014  13:35 >> Application_Name >> getDataCarMarkByCarMarkCode
SELECT * 
 FROM online_carmark 
 WHERE carmakcod = '' 
 ORDER BY desc_t, carmakcod 

30/7/2014  13:35 >> Application_Name >> getDataCarMarkByCarMarkCode
SELECT * 
 FROM online_carmark 
 WHERE carmakcod = 'JK-MI061' 
 ORDER BY desc_t, carmakcod 

30/7/2014  13:36 >> Application_Name >> getDataPremium
exec sp_calonlineweb 'Y','110','1','4','3 ','JK-MI061','9999','A','A',354953.25,433831.75,'0',0

30/7/2014  13:36 >> Application_Name >> getDataPremium
exec sp_calonlineweb 'Y','110','2','4','3 ','JK-MI061','9999','A','A',354953.25,433831.75,'0',0

30/7/2014  13:36 >> Application_Name >> getDataPremium
exec sp_calonlineweb 'Y','110','3','4','3 ','JK-MI061','9999','A','A',0,0,'0',0

30/7/2014  13:36 >> Application_Name >> SMK :: BuyVoluntary_step2-docToUI
Combine

30/7/2014  13:36 >> Application_Name >> SMK :: BuyVoluntary_step2-docToUI
rg_prmm-08273

30/7/2014  13:36 >> Application_Name >> SMK :: BuyVoluntary_step2-docToUI
rg_prmm8273

30/7/2014  13:36 >> Application_Name >> SMK :: BuyVoluntary_step2-docToUI
cp_comp_prmm600.00

30/7/2014  13:37 >> Application_Name >> getDataCarMarkByCarMarkCode
SELECT * 
 FROM online_carmark 
 WHERE carmakcod = '' 
 ORDER BY desc_t, carmakcod 

30/7/2014  13:38 >> Application_Name >> getDataCarMarkByCarMarkCode
SELECT * 
 FROM online_carmark 
 WHERE carmakcod = 'JK-IS047' 
 ORDER BY desc_t, carmakcod 

30/7/2014  13:40 >> Application_Name >> getDataPremium
exec sp_calonlineweb 'Y','110','1','3','3 ','JK-IS047','9999','A','A',495472.5,605577.5,'25',0

30/7/2014  13:40 >> Application_Name >> getDataPremium
exec sp_calonlineweb 'Y','110','2','3','3 ','JK-IS047','9999','A','A',495472.5,605577.5,'25',0

30/7/2014  13:40 >> Application_Name >> getDataPremium
exec sp_calonlineweb 'Y','110','3','3','3 ','JK-IS047','9999','A','A',0,0,'25',0

30/7/2014  14:9 >> Application_Name >> getDataCarMarkByCarMarkCode
SELECT * 
 FROM online_carmark 
 WHERE carmakcod = '' 
 ORDER BY desc_t, carmakcod 

30/7/2014  14:9 >> Application_Name >> getDataCarMarkByCarMarkCode
SELECT * 
 FROM online_carmark 
 WHERE carmakcod = 'JK-TO242' 
 ORDER BY desc_t, carmakcod 

30/7/2014  14:19 >> Application_Name >> getDataCarMarkByCarMarkCode
SELECT * 
 FROM online_carmark 
 WHERE carmakcod = '' 
 ORDER BY desc_t, carmakcod 

30/7/2014  14:19 >> Application_Name >> getDataCarMarkByCarMarkCode
SELECT * 
 FROM online_carmark 
 WHERE carmakcod = 'EK-FO078' 
 ORDER BY desc_t, carmakcod 

30/7/2014  14:22 >> Application_Name >> getDataCarMarkByCarMarkCode
SELECT * 
 FROM online_carmark 
 WHERE carmakcod = '' 
 ORDER BY desc_t, carmakcod 

30/7/2014  14:22 >> Application_Name >> getDataCarMarkByCarMarkCode
SELECT * 
 FROM online_carmark 
 WHERE carmakcod = 'JK-TO242' 
 ORDER BY desc_t, carmakcod 

30/7/2014  14:24 >> Application_Name >> getDataPremium
exec sp_calonlineweb 'Y','110','1','7','5 ','JK-TO242','2000','A','A',370486.312875,452816.604625,'36',0

30/7/2014  14:24 >> Application_Name >> getDataPremium
exec sp_calonlineweb 'Y','110','2','7','5 ','JK-TO242','2000','A','A',370486.312875,452816.604625,'36',0

30/7/2014  14:24 >> Application_Name >> getDataPremium
exec sp_calonlineweb 'Y','110','3','7','5 ','JK-TO242','2000','A','A',0,0,'36',0

30/7/2014  14:25 >> Application_Name >> getDataCarMarkByCarMarkCode
SELECT * 
 FROM online_carmark 
 WHERE carmakcod = '' 
 ORDER BY desc_t, carmakcod 

30/7/2014  14:25 >> Application_Name >> getDataCarMarkByCarMarkCode
SELECT * 
 FROM online_carmark 
 WHERE carmakcod = 'JK-MI047' 
 ORDER BY desc_t, carmakcod 

30/7/2014  14:25 >> Application_Name >> getDataPremium
exec sp_calonlineweb 'Y','110','1','8','5 ','JK-TO242','2000','A','A',351961.99723125,430175.77439375,'36',0

30/7/2014  14:25 >> Application_Name >> getDataPremium
exec sp_calonlineweb 'Y','110','2','8','5 ','JK-TO242','2000','A','A',351961.99723125,430175.77439375,'36',0

30/7/2014  14:25 >> Application_Name >> getDataPremium
exec sp_calonlineweb 'Y','110','3','8','5 ','JK-TO242','2000','A','A',0,0,'36',0

30/7/2014  14:28 >> Application_Name >> getDataPremium
exec sp_calonlineweb 'N','110','1','3','3 ','JK-MI047','9999','A','A',763515,933185,'0',30

30/7/2014  14:28 >> Application_Name >> getDataPremium
exec sp_calonlineweb 'N','110','2','3','3 ','JK-MI047','9999','A','A',763515,933185,'0',30

30/7/2014  14:28 >> Application_Name >> getDataPremium
exec sp_calonlineweb 'N','110','3','3','3 ','JK-MI047','9999','A','A',0,0,'0',30

30/7/2014  14:29 >> Application_Name >> getDataCarMarkByCarMarkCode
SELECT * 
 FROM online_carmark 
 WHERE carmakcod = '' 
 ORDER BY desc_t, carmakcod 

30/7/2014  14:29 >> Application_Name >> getDataCarMarkByCarMarkCode
SELECT * 
 FROM online_carmark 
 WHERE carmakcod = 'JK-MI002' 
 ORDER BY desc_t, carmakcod 

30/7/2014  14:29 >> Application_Name >> getDataPremium
exec sp_calonlineweb 'N','110','1','3','3 ','JK-MI047','9999','A','A',763515,933185,'0',30

30/7/2014  14:29 >> Application_Name >> getDataPremium
exec sp_calonlineweb 'N','110','2','3','3 ','JK-MI047','9999','A','A',763515,933185,'0',30

30/7/2014  14:29 >> Application_Name >> getDataPremium
exec sp_calonlineweb 'N','110','3','3','3 ','JK-MI047','9999','A','A',0,0,'0',30

30/7/2014  14:30 >> Application_Name >> getDataPremium
exec sp_calonlineweb 'N','110','1','3','3 ','JK-MI047','9999','A','A',763515,933185,'0',30

30/7/2014  14:30 >> Application_Name >> getDataPremium
exec sp_calonlineweb 'N','110','2','3','3 ','JK-MI047','9999','A','A',763515,933185,'0',30

30/7/2014  14:30 >> Application_Name >> getDataPremium
exec sp_calonlineweb 'N','110','3','3','3 ','JK-MI047','9999','A','A',0,0,'0',30

30/7/2014  14:30 >> Application_Name >> getDataPremium
exec sp_calonlineweb 'N','110','1','3','3 ','JK-MI047','9999','A','A',763515,933185,'0',30

30/7/2014  14:30 >> Application_Name >> getDataPremium
exec sp_calonlineweb 'N','110','2','3','3 ','JK-MI047','9999','A','A',763515,933185,'0',30

30/7/2014  14:30 >> Application_Name >> getDataPremium
exec sp_calonlineweb 'N','110','3','3','3 ','JK-MI047','9999','A','A',0,0,'0',30

30/7/2014  14:30 >> Application_Name >> getDataPremium
exec sp_calonlineweb 'N','110','1','3','3 ','JK-MI047','9999','A','A',763515,933185,'0',30

30/7/2014  14:30 >> Application_Name >> getDataPremium
exec sp_calonlineweb 'N','110','2','3','3 ','JK-MI047','9999','A','A',763515,933185,'0',30

30/7/2014  14:30 >> Application_Name >> getDataPremium
exec sp_calonlineweb 'N','110','3','3','3 ','JK-MI047','9999','A','A',0,0,'0',30

30/7/2014  14:32 >> Application_Name >> getDataPremium
exec sp_calonlineweb 'Y','110','1','10','4 ','JK-MI002','2000','A','A',283612.234376074,346637.175348536,'0',0

30/7/2014  14:32 >> Application_Name >> getDataPremium
exec sp_calonlineweb 'Y','110','2','10','4 ','JK-MI002','2000','A','A',283612.234376074,346637.175348536,'0',0

30/7/2014  14:32 >> Application_Name >> getDataPremium
exec sp_calonlineweb 'Y','110','3','10','4 ','JK-MI002','2000','A','A',0,0,'0',0

30/7/2014  14:35 >> Application_Name >> getDataCarMarkByCarMarkCode
SELECT * 
 FROM online_carmark 
 WHERE carmakcod = '' 
 ORDER BY desc_t, carmakcod 

30/7/2014  14:35 >> Application_Name >> getDataCarMarkByCarMarkCode
SELECT * 
 FROM online_carmark 
 WHERE carmakcod = 'JK-MI002' 
 ORDER BY desc_t, carmakcod 

30/7/2014  14:38 >> Application_Name >> getDataCarMarkByCarMarkCode
SELECT * 
 FROM online_carmark 
 WHERE carmakcod = '' 
 ORDER BY desc_t, carmakcod 

30/7/2014  14:39 >> Application_Name >> getDataCarMarkByCarMarkCode
SELECT * 
 FROM online_carmark 
 WHERE carmakcod = '' 
 ORDER BY desc_t, carmakcod 

30/7/2014  14:44 >> Application_Name >> getDataCarMarkByCarMarkCode
SELECT * 
 FROM online_carmark 
 WHERE carmakcod = '' 
 ORDER BY desc_t, carmakcod 

30/7/2014  14:44 >> Application_Name >> getDataCarMarkByCarMarkCode
SELECT * 
 FROM online_carmark 
 WHERE carmakcod = '' 
 ORDER BY desc_t, carmakcod 

30/7/2014  14:44 >> Application_Name >> getDataCarMarkByCarMarkCode
SELECT * 
 FROM online_carmark 
 WHERE carmakcod = 'JK-MI081' 
 ORDER BY desc_t, carmakcod 

30/7/2014  14:50 >> Application_Name >> getDataCarMarkByCarMarkCode
SELECT * 
 FROM online_carmark 
 WHERE carmakcod = '' 
 ORDER BY desc_t, carmakcod 

30/7/2014  14:50 >> Application_Name >> getDataCarMarkByCarMarkCode
SELECT * 
 FROM online_carmark 
 WHERE carmakcod = 'JK-HO001' 
 ORDER BY desc_t, carmakcod 

30/7/2014  14:52 >> Application_Name >> getDataPremium
exec sp_calonlineweb 'Y','110','1','2','5 ','JK-HO001','2000','A','A',470250,574750,'0',0

30/7/2014  14:52 >> Application_Name >> getDataPremium
exec sp_calonlineweb 'Y','110','2','2','5 ','JK-HO001','2000','A','A',470250,574750,'0',0

30/7/2014  14:52 >> Application_Name >> getDataPremium
exec sp_calonlineweb 'Y','110','3','2','5 ','JK-HO001','2000','A','A',0,0,'0',0

30/7/2014  14:53 >> Application_Name >> getDataPremium
exec sp_calonlineweb 'N','110','1','2','5 ','JK-HO001','2000','A','A',470250,574750,'0',0

30/7/2014  14:53 >> Application_Name >> getDataPremium
exec sp_calonlineweb 'N','110','2','2','5 ','JK-HO001','2000','A','A',470250,574750,'0',0

30/7/2014  14:53 >> Application_Name >> getDataPremium
exec sp_calonlineweb 'N','110','3','2','5 ','JK-HO001','2000','A','A',0,0,'0',0

30/7/2014  15:7 >> Application_Name >> getDataCarMarkByCarMarkCode
SELECT * 
 FROM online_carmark 
 WHERE carmakcod = '' 
 ORDER BY desc_t, carmakcod 

30/7/2014  15:7 >> Application_Name >> getDataCarMarkByCarMarkCode
SELECT * 
 FROM online_carmark 
 WHERE carmakcod = 'JK-SZ004' 
 ORDER BY desc_t, carmakcod 

30/7/2014  15:8 >> Application_Name >> getDataPremium
exec sp_calonlineweb 'Y','110','1','2','5 ','JK-SZ004','2000','A','A',342000,380000,'0',0

30/7/2014  15:8 >> Application_Name >> getDataPremium
exec sp_calonlineweb 'Y','110','2','2','5 ','JK-SZ004','2000','A','A',342000,380000,'0',0

30/7/2014  15:8 >> Application_Name >> getDataPremium
exec sp_calonlineweb 'Y','110','3','2','5 ','JK-SZ004','2000','A','A',0,0,'0',0

30/7/2014  15:8 >> Application_Name >> SMK :: BuyVoluntary_step2-docToUI
Combine

30/7/2014  15:8 >> Application_Name >> SMK :: BuyVoluntary_step2-docToUI
rg_prmm-013032

30/7/2014  15:8 >> Application_Name >> SMK :: BuyVoluntary_step2-docToUI
rg_prmm13032

30/7/2014  15:8 >> Application_Name >> SMK :: BuyVoluntary_step2-docToUI
cp_comp_prmm600.00

30/7/2014  15:12 >> Application_Name >> getDataCarMarkByCarMarkCode
SELECT * 
 FROM online_carmark 
 WHERE carmakcod = '' 
 ORDER BY desc_t, carmakcod 

30/7/2014  15:12 >> Application_Name >> getDataCarMarkByCarMarkCode
SELECT * 
 FROM online_carmark 
 WHERE carmakcod = 'JK-SZ004' 
 ORDER BY desc_t, carmakcod 

30/7/2014  15:13 >> Application_Name >> getDataPremium
exec sp_calonlineweb 'Y','110','1','2','5 ','JK-SZ004','2000','A','A',342000,380000,'0',0

30/7/2014  15:13 >> Application_Name >> getDataPremium
exec sp_calonlineweb 'Y','110','2','2','5 ','JK-SZ004','2000','A','A',342000,380000,'0',0

30/7/2014  15:13 >> Application_Name >> getDataPremium
exec sp_calonlineweb 'Y','110','3','2','5 ','JK-SZ004','2000','A','A',0,0,'0',0

30/7/2014  15:13 >> Application_Name >> getDataPremium
exec sp_calonlineweb 'Y','110','1','2','5 ','JK-SZ004','2000','A','A',342000,380000,'0',0

30/7/2014  15:13 >> Application_Name >> getDataPremium
exec sp_calonlineweb 'Y','110','2','2','5 ','JK-SZ004','2000','A','A',342000,380000,'0',0

30/7/2014  15:13 >> Application_Name >> getDataPremium
exec sp_calonlineweb 'Y','110','3','2','5 ','JK-SZ004','2000','A','A',0,0,'0',0

30/7/2014  15:14 >> Application_Name >> getDataPremium
exec sp_calonlineweb 'Y','110','1','2','5 ','JK-SZ004','2000','A','A',342000,380000,'0',0

30/7/2014  15:14 >> Application_Name >> getDataPremium
exec sp_calonlineweb 'Y','110','2','2','5 ','JK-SZ004','2000','A','A',342000,380000,'0',0

30/7/2014  15:14 >> Application_Name >> getDataPremium
exec sp_calonlineweb 'Y','110','3','2','5 ','JK-SZ004','2000','A','A',0,0,'0',0

30/7/2014  15:17 >> Application_Name >> getDataCarMarkByCarMarkCode
SELECT * 
 FROM online_carmark 
 WHERE carmakcod = '' 
 ORDER BY desc_t, carmakcod 

30/7/2014  15:17 >> Application_Name >> SMK :: BuyVoluntary_step2-docToUI
Combine

30/7/2014  15:17 >> Application_Name >> SMK :: BuyVoluntary_step2-docToUI
rg_prmm-013032

30/7/2014  15:17 >> Application_Name >> SMK :: BuyVoluntary_step2-docToUI
rg_prmm13032

30/7/2014  15:17 >> Application_Name >> SMK :: BuyVoluntary_step2-docToUI
cp_comp_prmm600.00

30/7/2014  15:19 >> Application_Name >> getDataPremium
exec sp_calonlineweb 'Y','110','1','2','5 ','JK-SZ004','2000','A','A',342000,380000,'25',0

30/7/2014  15:19 >> Application_Name >> getDataPremium
exec sp_calonlineweb 'Y','110','2','2','5 ','JK-SZ004','2000','A','A',342000,380000,'25',0

30/7/2014  15:19 >> Application_Name >> getDataPremium
exec sp_calonlineweb 'Y','110','3','2','5 ','JK-SZ004','2000','A','A',0,0,'25',0

30/7/2014  15:19 >> Application_Name >> SMK :: BuyVoluntary_step2-docToUI
Combine

30/7/2014  15:19 >> Application_Name >> SMK :: BuyVoluntary_step2-docToUI
rg_prmm-011730

30/7/2014  15:19 >> Application_Name >> SMK :: BuyVoluntary_step2-docToUI
rg_prmm11730

30/7/2014  15:19 >> Application_Name >> SMK :: BuyVoluntary_step2-docToUI
cp_comp_prmm600.00

30/7/2014  15:20 >> Application_Name >> getDataPremium
exec sp_calonlineweb 'Y','110','1','2','5 ','JK-SZ004','2000','A','A',342000,380000,'25',0

30/7/2014  15:20 >> Application_Name >> getDataPremium
exec sp_calonlineweb 'Y','110','2','2','5 ','JK-SZ004','2000','A','A',342000,380000,'25',0

30/7/2014  15:20 >> Application_Name >> getDataPremium
exec sp_calonlineweb 'Y','110','3','2','5 ','JK-SZ004','2000','A','A',0,0,'25',0

30/7/2014  15:20 >> Application_Name >> getDataPremium
exec sp_calonlineweb 'Y','110','1','2','5 ','JK-SZ004','2000','A','A',342000,380000,'0',0

30/7/2014  15:20 >> Application_Name >> getDataPremium
exec sp_calonlineweb 'Y','110','2','2','5 ','JK-SZ004','2000','A','A',342000,380000,'0',0

30/7/2014  15:20 >> Application_Name >> getDataPremium
exec sp_calonlineweb 'Y','110','3','2','5 ','JK-SZ004','2000','A','A',0,0,'0',0

30/7/2014  15:20 >> Application_Name >> SMK :: BuyVoluntary_step2-docToUI
Combine

30/7/2014  15:20 >> Application_Name >> SMK :: BuyVoluntary_step2-docToUI
rg_prmm-013032

30/7/2014  15:20 >> Application_Name >> SMK :: BuyVoluntary_step2-docToUI
rg_prmm13032

30/7/2014  15:20 >> Application_Name >> SMK :: BuyVoluntary_step2-docToUI
cp_comp_prmm600.00

30/7/2014  15:20 >> Application_Name >> getDataPremium
exec sp_calonlineweb 'Y','110','1','2','5 ','JK-SZ004','2000','A','A',342000,380000,'0',0

30/7/2014  15:20 >> Application_Name >> getDataPremium
exec sp_calonlineweb 'Y','110','2','2','5 ','JK-SZ004','2000','A','A',342000,380000,'0',0

30/7/2014  15:20 >> Application_Name >> getDataPremium
exec sp_calonlineweb 'Y','110','3','2','5 ','JK-SZ004','2000','A','A',0,0,'0',0

30/7/2014  15:20 >> Application_Name >> getDataCarMarkByCarMarkCode
SELECT * 
 FROM online_carmark 
 WHERE carmakcod = '' 
 ORDER BY desc_t, carmakcod 

30/7/2014  15:20 >> Application_Name >> getDataCarMarkByCarMarkCode
SELECT * 
 FROM online_carmark 
 WHERE carmakcod = 'JK-HO001' 
 ORDER BY desc_t, carmakcod 

30/7/2014  15:21 >> Application_Name >> getDataPremium
exec sp_calonlineweb 'Y','110','1','2','5 ','JK-SZ004','2000','A','A',342000,380000,'25',0

30/7/2014  15:21 >> Application_Name >> getDataPremium
exec sp_calonlineweb 'Y','110','2','2','5 ','JK-SZ004','2000','A','A',342000,380000,'25',0

30/7/2014  15:21 >> Application_Name >> getDataPremium
exec sp_calonlineweb 'Y','110','3','2','5 ','JK-SZ004','2000','A','A',0,0,'25',0

30/7/2014  15:24 >> Application_Name >> getDataPremium
exec sp_calonlineweb 'Y','110','1','2','5 ','JK-SZ004','2000','A','A',342000,380000,'0',0

30/7/2014  15:24 >> Application_Name >> getDataPremium
exec sp_calonlineweb 'Y','110','2','2','5 ','JK-SZ004','2000','A','A',342000,380000,'0',0

30/7/2014  15:24 >> Application_Name >> getDataPremium
exec sp_calonlineweb 'Y','110','3','2','5 ','JK-SZ004','2000','A','A',0,0,'0',0

30/7/2014  15:24 >> Application_Name >> SMK :: BuyVoluntary_step2-docToUI
Combine

30/7/2014  15:24 >> Application_Name >> SMK :: BuyVoluntary_step2-docToUI
rg_prmm-013032

30/7/2014  15:24 >> Application_Name >> SMK :: BuyVoluntary_step2-docToUI
rg_prmm13032

30/7/2014  15:24 >> Application_Name >> SMK :: BuyVoluntary_step2-docToUI
cp_comp_prmm600.00

30/7/2014  15:28 >> Application_Name >> getDataCarMarkByCarMarkCode
SELECT * 
 FROM online_carmark 
 WHERE carmakcod = '' 
 ORDER BY desc_t, carmakcod 

30/7/2014  15:28 >> Application_Name >> getDataCarMarkByCarMarkCode
SELECT * 
 FROM online_carmark 
 WHERE carmakcod = 'JK-MI081' 
 ORDER BY desc_t, carmakcod 

30/7/2014  15:35 >> Application_Name >> getDataCarMarkByCarMarkCode
SELECT * 
 FROM online_carmark 
 WHERE carmakcod = '' 
 ORDER BY desc_t, carmakcod 

30/7/2014  15:35 >> Application_Name >> getDataCarMarkByCarMarkCode
SELECT * 
 FROM online_carmark 
 WHERE carmakcod = 'JK-TO019' 
 ORDER BY desc_t, carmakcod 

30/7/2014  15:45 >> Application_Name >> getDataCarMarkByCarMarkCode
SELECT * 
 FROM online_carmark 
 WHERE carmakcod = '' 
 ORDER BY desc_t, carmakcod 

30/7/2014  15:45 >> Application_Name >> getDataCarMarkByCarMarkCode
SELECT * 
 FROM online_carmark 
 WHERE carmakcod = 'JK-HO084' 
 ORDER BY desc_t, carmakcod 

30/7/2014  15:48 >> Application_Name >> getDataPremium
exec sp_calonlineweb 'N','110','1','4','5 ','JK-HO084','2000','A','A',439833.375,537574.125,'0',0

30/7/2014  15:48 >> Application_Name >> getDataPremium
exec sp_calonlineweb 'N','110','2','4','5 ','JK-HO084','2000','A','A',439833.375,537574.125,'0',0

30/7/2014  15:48 >> Application_Name >> getDataPremium
exec sp_calonlineweb 'N','110','3','4','5 ','JK-HO084','2000','A','A',0,0,'0',0

30/7/2014  15:48 >> Application_Name >> getDataCarMarkByCarMarkCode
SELECT * 
 FROM online_carmark 
 WHERE carmakcod = '' 
 ORDER BY desc_t, carmakcod 

30/7/2014  15:50 >> Application_Name >> getDataCarMarkByCarMarkCode
SELECT * 
 FROM online_carmark 
 WHERE carmakcod = '' 
 ORDER BY desc_t, carmakcod 

30/7/2014  15:50 >> Application_Name >> getDataCarMarkByCarMarkCode
SELECT * 
 FROM online_carmark 
 WHERE carmakcod = 'JK-SZ004' 
 ORDER BY desc_t, carmakcod 

30/7/2014  15:51 >> Application_Name >> getDataPremium
exec sp_calonlineweb 'Y','110','1','2','5 ','JK-SZ004','2000','A','A',342000,380000,'0',0

30/7/2014  15:51 >> Application_Name >> getDataPremium
exec sp_calonlineweb 'Y','110','2','2','5 ','JK-SZ004','2000','A','A',342000,380000,'0',0

30/7/2014  15:51 >> Application_Name >> getDataPremium
exec sp_calonlineweb 'Y','110','3','2','5 ','JK-SZ004','2000','A','A',0,0,'0',0

30/7/2014  15:51 >> Application_Name >> SMK :: BuyVoluntary_step2-docToUI
Combine

30/7/2014  15:51 >> Application_Name >> SMK :: BuyVoluntary_step2-docToUI
rg_prmm-013743

30/7/2014  15:51 >> Application_Name >> SMK :: BuyVoluntary_step2-docToUI
rg_prmm13743

30/7/2014  15:51 >> Application_Name >> SMK :: BuyVoluntary_step2-docToUI
cp_comp_prmm600.00

30/7/2014  15:52 >> Application_Name >> getDataCarMarkByCarMarkCode
SELECT * 
 FROM online_carmark 
 WHERE carmakcod = '' 
 ORDER BY desc_t, carmakcod 

30/7/2014  15:52 >> Application_Name >> getDataCarMarkByCarMarkCode
SELECT * 
 FROM online_carmark 
 WHERE carmakcod = '' 
 ORDER BY desc_t, carmakcod 

30/7/2014  15:54 >> Application_Name >> getDataCarMarkByCarMarkCode
SELECT * 
 FROM online_carmark 
 WHERE carmakcod = '' 
 ORDER BY desc_t, carmakcod 

30/7/2014  15:54 >> Application_Name >> getDataCarMarkByCarMarkCode
SELECT * 
 FROM online_carmark 
 WHERE carmakcod = '' 
 ORDER BY desc_t, carmakcod 

30/7/2014  15:55 >> Application_Name >> getDataCarMarkByCarMarkCode
SELECT * 
 FROM online_carmark 
 WHERE carmakcod = '' 
 ORDER BY desc_t, carmakcod 

30/7/2014  15:55 >> Application_Name >> getDataCarMarkByCarMarkCode
SELECT * 
 FROM online_carmark 
 WHERE carmakcod = 'JP-IS052' 
 ORDER BY desc_t, carmakcod 

30/7/2014  15:55 >> Application_Name >> getDataPremium
exec sp_calonlineweb 'Y','320','1','2','A','','4','N','A',555940,614460,'0',0

30/7/2014  15:55 >> Application_Name >> getDataPremium
exec sp_calonlineweb 'Y','320','2','2','A','','4','N','A',555940,614460,'0',0

30/7/2014  15:55 >> Application_Name >> getDataPremium
exec sp_calonlineweb 'Y','320','3','2','A','','4','N','A',0,0,'0',0

30/7/2014  16:9 >> Application_Name >> getDataCarMarkByCarMarkCode
SELECT * 
 FROM online_carmark 
 WHERE carmakcod = '' 
 ORDER BY desc_t, carmakcod 

30/7/2014  16:9 >> Application_Name >> getDataCarMarkByCarMarkCode
SELECT * 
 FROM online_carmark 
 WHERE carmakcod = 'JK-HO001' 
 ORDER BY desc_t, carmakcod 

30/7/2014  16:17 >> Application_Name >> getDataCarMarkByCarMarkCode
SELECT * 
 FROM online_carmark 
 WHERE carmakcod = '' 
 ORDER BY desc_t, carmakcod 

30/7/2014  16:17 >> Application_Name >> getDataCarMarkByCarMarkCode
SELECT * 
 FROM online_carmark 
 WHERE carmakcod = 'JK-HO001' 
 ORDER BY desc_t, carmakcod 

30/7/2014  16:37 >> Application_Name >> getDataCarMarkByCarMarkCode
SELECT * 
 FROM online_carmark 
 WHERE carmakcod = '' 
 ORDER BY desc_t, carmakcod 

30/7/2014  16:37 >> Application_Name >> getDataCarMarkByCarMarkCode
SELECT * 
 FROM online_carmark 
 WHERE carmakcod = '' 
 ORDER BY desc_t, carmakcod 

30/7/2014  16:37 >> Application_Name >> getDataCarMarkByCarMarkCode
SELECT * 
 FROM online_carmark 
 WHERE carmakcod = 'EK-FO083' 
 ORDER BY desc_t, carmakcod 

30/7/2014  16:38 >> Application_Name >> getDataCarMarkByCarMarkCode
SELECT * 
 FROM online_carmark 
 WHERE carmakcod = '' 
 ORDER BY desc_t, carmakcod 

30/7/2014  16:39 >> Application_Name >> getDataPremium
exec sp_calonlineweb 'Y','110','1','3','5 ','EK-FO083','2000','A','A',454860,555940,'0',0

30/7/2014  16:39 >> Application_Name >> getDataPremium
exec sp_calonlineweb 'Y','110','2','3','5 ','EK-FO083','2000','A','A',454860,555940,'0',0

30/7/2014  16:39 >> Application_Name >> getDataPremium
exec sp_calonlineweb 'Y','110','3','3','5 ','EK-FO083','2000','A','A',0,0,'0',0

30/7/2014  16:45 >> Application_Name >> getDataCarMarkByCarMarkCode
SELECT * 
 FROM online_carmark 
 WHERE carmakcod = '' 
 ORDER BY desc_t, carmakcod 

30/7/2014  16:46 >> Application_Name >> getDataCarMarkByCarMarkCode
SELECT * 
 FROM online_carmark 
 WHERE carmakcod = '' 
 ORDER BY desc_t, carmakcod 

30/7/2014  16:50 >> Application_Name >> getDataCarMarkByCarMarkCode
SELECT * 
 FROM online_carmark 
 WHERE carmakcod = '' 
 ORDER BY desc_t, carmakcod 

30/7/2014  16:50 >> Application_Name >> getDataCarMarkByCarMarkCode
SELECT * 
 FROM online_carmark 
 WHERE carmakcod = 'JK-IS021' 
 ORDER BY desc_t, carmakcod 

30/7/2014  16:51 >> Application_Name >> getDataCarMarkByCarMarkCode
SELECT * 
 FROM online_carmark 
 WHERE carmakcod = '' 
 ORDER BY desc_t, carmakcod 

30/7/2014  16:51 >> Application_Name >> getDataCarMarkByCarMarkCode
SELECT * 
 FROM online_carmark 
 WHERE carmakcod = 'JK-IS047' 
 ORDER BY desc_t, carmakcod 

30/7/2014  16:52 >> Application_Name >> getDataPremium
exec sp_calonlineweb 'Y','110','1','3','3 ','JK-IS047','9999','A','A',495472.5,605577.5,'0',30

30/7/2014  16:52 >> Application_Name >> getDataPremium
exec sp_calonlineweb 'Y','110','2','3','3 ','JK-IS047','9999','A','A',495472.5,605577.5,'0',30

30/7/2014  16:52 >> Application_Name >> getDataPremium
exec sp_calonlineweb 'Y','110','3','3','3 ','JK-IS047','9999','A','A',0,0,'0',30

30/7/2014  16:53 >> Application_Name >> SMK :: BuyVoluntary_step2-docToUI
Combine

30/7/2014  16:53 >> Application_Name >> SMK :: BuyVoluntary_step2-docToUI
rg_prmm-016821.6

30/7/2014  16:53 >> Application_Name >> SMK :: BuyVoluntary_step2-docToUI
rg_prmm16821.6

30/7/2014  16:53 >> Application_Name >> SMK :: BuyVoluntary_step2-docToUI
cp_comp_prmm600.00

30/7/2014  16:56 >> Application_Name >> getDataCarMarkByCarMarkCode
SELECT * 
 FROM online_carmark 
 WHERE carmakcod = '' 
 ORDER BY desc_t, carmakcod 

30/7/2014  16:56 >> Application_Name >> getDataCarMarkByCarMarkCode
SELECT * 
 FROM online_carmark 
 WHERE carmakcod = 'JK-IS047' 
 ORDER BY desc_t, carmakcod 

30/7/2014  16:58 >> Application_Name >> getDataPremium
exec sp_calonlineweb 'Y','110','1','3','3 ','JK-IS047','9999','A','A',495472.5,605577.5,'0',30

30/7/2014  16:58 >> Application_Name >> getDataPremium
exec sp_calonlineweb 'Y','110','2','3','3 ','JK-IS047','9999','A','A',495472.5,605577.5,'0',30

30/7/2014  16:58 >> Application_Name >> getDataPremium
exec sp_calonlineweb 'Y','110','3','3','3 ','JK-IS047','9999','A','A',0,0,'0',30

30/7/2014  16:58 >> Application_Name >> SMK :: BuyVoluntary_step2-docToUI
Combine

30/7/2014  16:58 >> Application_Name >> SMK :: BuyVoluntary_step2-docToUI
rg_prmm-016821.6

30/7/2014  16:58 >> Application_Name >> SMK :: BuyVoluntary_step2-docToUI
rg_prmm16821.6

30/7/2014  16:58 >> Application_Name >> SMK :: BuyVoluntary_step2-docToUI
cp_comp_prmm600.00

30/7/2014  17:5 >> Application_Name >> getDataCarMarkByCarMarkCode
SELECT * 
 FROM online_carmark 
 WHERE carmakcod = '' 
 ORDER BY desc_t, carmakcod 

30/7/2014  17:5 >> Application_Name >> getDataCarMarkByCarMarkCode
SELECT * 
 FROM online_carmark 
 WHERE carmakcod = 'JK-TO240' 
 ORDER BY desc_t, carmakcod 

30/7/2014  17:6 >> Application_Name >> getDataCarMarkByCarMarkCode
SELECT * 
 FROM online_carmark 
 WHERE carmakcod = '' 
 ORDER BY desc_t, carmakcod 

30/7/2014  17:6 >> Application_Name >> getDataCarMarkByCarMarkCode
SELECT * 
 FROM online_carmark 
 WHERE carmakcod = '' 
 ORDER BY desc_t, carmakcod 

30/7/2014  17:15 >> Application_Name >> getDataCarMarkByCarMarkCode
SELECT * 
 FROM online_carmark 
 WHERE carmakcod = '' 
 ORDER BY desc_t, carmakcod 

30/7/2014  17:16 >> Application_Name >> getDataCarMarkByCarMarkCode
SELECT * 
 FROM online_carmark 
 WHERE carmakcod = 'EK-CR039' 
 ORDER BY desc_t, carmakcod 

30/7/2014  17:16 >> Application_Name >> getDataPremium
exec sp_calonlineweb 'Y','110','1','1','3 ','EK-CR039','2000','A','A',980000,1100000,'0',0

30/7/2014  17:16 >> Application_Name >> getDataPremium
exec sp_calonlineweb 'Y','110','2','1','3 ','EK-CR039','2000','A','A',980000,1100000,'0',0

30/7/2014  17:16 >> Application_Name >> getDataPremium
exec sp_calonlineweb 'Y','110','3','1','3 ','EK-CR039','2000','A','A',0,0,'0',0

30/7/2014  17:36 >> Application_Name >> getDataCarMarkByCarMarkCode
SELECT * 
 FROM online_carmark 
 WHERE carmakcod = '' 
 ORDER BY desc_t, carmakcod 

30/7/2014  17:36 >> Application_Name >> getDataCarMarkByCarMarkCode
SELECT * 
 FROM online_carmark 
 WHERE carmakcod = 'JK-TO206' 
 ORDER BY desc_t, carmakcod 

30/7/2014  17:52 >> Application_Name >> getDataCarMarkByCarMarkCode
SELECT * 
 FROM online_carmark 
 WHERE carmakcod = '' 
 ORDER BY desc_t, carmakcod 

30/7/2014  17:57 >> Application_Name >> getDataCarMarkByCarMarkCode
SELECT * 
 FROM online_carmark 
 WHERE carmakcod = '' 
 ORDER BY desc_t, carmakcod 

30/7/2014  17:57 >> Application_Name >> getDataCarMarkByCarMarkCode
SELECT * 
 FROM online_carmark 
 WHERE carmakcod = '' 
 ORDER BY desc_t, carmakcod 

30/7/2014  17:57 >> Application_Name >> getDataCarMarkByCarMarkCode
SELECT * 
 FROM online_carmark 
 WHERE carmakcod = 'JP-IS059' 
 ORDER BY desc_t, carmakcod 

30/7/2014  18:7 >> Application_Name >> getDataCarMarkByCarMarkCode
SELECT * 
 FROM online_carmark 
 WHERE carmakcod = '' 
 ORDER BY desc_t, carmakcod 

30/7/2014  18:7 >> Application_Name >> getDataCarMarkByCarMarkCode
SELECT * 
 FROM online_carmark 
 WHERE carmakcod = '' 
 ORDER BY desc_t, carmakcod 

30/7/2014  18:7 >> Application_Name >> getDataCarMarkByCarMarkCode
SELECT * 
 FROM online_carmark 
 WHERE carmakcod = 'JP-IS030' 
 ORDER BY desc_t, carmakcod 

30/7/2014  18:11 >> Application_Name >> getDataCarMarkByCarMarkCode
SELECT * 
 FROM online_carmark 
 WHERE carmakcod = '' 
 ORDER BY desc_t, carmakcod 

30/7/2014  18:11 >> Application_Name >> getDataCarMarkByCarMarkCode
SELECT * 
 FROM online_carmark 
 WHERE carmakcod = 'JK-IS021' 
 ORDER BY desc_t, carmakcod 

30/7/2014  18:11 >> Application_Name >> getDataCarMarkByCarMarkCode
SELECT * 
 FROM online_carmark 
 WHERE carmakcod = 'JK-MA065' 
 ORDER BY desc_t, carmakcod 

30/7/2014  18:11 >> Application_Name >> getDataCarMarkByCarMarkCode
SELECT * 
 FROM online_carmark 
 WHERE carmakcod = '' 
 ORDER BY desc_t, carmakcod 

30/7/2014  18:11 >> Application_Name >> getDataCarMarkByCarMarkCode
SELECT * 
 FROM online_carmark 
 WHERE carmakcod = '' 
 ORDER BY desc_t, carmakcod 

30/7/2014  18:11 >> Application_Name >> getDataCarMarkByCarMarkCode
SELECT * 
 FROM online_carmark 
 WHERE carmakcod = '' 
 ORDER BY desc_t, carmakcod 

30/7/2014  18:12 >> Application_Name >> getDataCarMarkByCarMarkCode
SELECT * 
 FROM online_carmark 
 WHERE carmakcod = 'JK-HO001' 
 ORDER BY desc_t, carmakcod 

30/7/2014  18:13 >> Application_Name >> getDataPremium
exec sp_calonlineweb 'N','110','1','2','5 ','JK-HO001','2000','A','A',470250,574750,'0',20

30/7/2014  18:13 >> Application_Name >> getDataPremium
exec sp_calonlineweb 'N','110','2','2','5 ','JK-HO001','2000','A','A',470250,574750,'0',20

30/7/2014  18:13 >> Application_Name >> getDataPremium
exec sp_calonlineweb 'N','110','3','2','5 ','JK-HO001','2000','A','A',0,0,'0',20

30/7/2014  18:14 >> Application_Name >> getDataCarMarkByCarMarkCode
SELECT * 
 FROM online_carmark 
 WHERE carmakcod = '' 
 ORDER BY desc_t, carmakcod 

30/7/2014  18:14 >> Application_Name >> getDataPremium
exec sp_calonlineweb 'Y','110','1','11','3 ','JK-IS021','9999','A','A',312540.682282433,381994.167234086,'0',0

30/7/2014  18:14 >> Application_Name >> getDataPremium
exec sp_calonlineweb 'Y','110','2','11','3 ','JK-IS021','9999','A','A',312540.682282433,381994.167234086,'0',0

30/7/2014  18:14 >> Application_Name >> getDataPremium
exec sp_calonlineweb 'Y','110','3','11','3 ','JK-IS021','9999','A','A',0,0,'0',0

30/7/2014  18:14 >> Application_Name >> getDataCarMarkByCarMarkCode
SELECT * 
 FROM online_carmark 
 WHERE carmakcod = 'JK-HO001' 
 ORDER BY desc_t, carmakcod 

30/7/2014  18:15 >> Application_Name >> SMK :: BuyVoluntary_step2-docToUI
Combine

30/7/2014  18:15 >> Application_Name >> SMK :: BuyVoluntary_step2-docToUI
rg_prmm-06632

30/7/2014  18:15 >> Application_Name >> SMK :: BuyVoluntary_step2-docToUI
rg_prmm6632

30/7/2014  18:15 >> Application_Name >> SMK :: BuyVoluntary_step2-docToUI
cp_comp_prmm600.00

30/7/2014  18:20 >> Application_Name >> getDataCarMarkByCarMarkCode
SELECT * 
 FROM online_carmark 
 WHERE carmakcod = '' 
 ORDER BY desc_t, carmakcod 

30/7/2014  18:20 >> Application_Name >> getDataCarMarkByCarMarkCode
SELECT * 
 FROM online_carmark 
 WHERE carmakcod = '' 
 ORDER BY desc_t, carmakcod 

30/7/2014  18:20 >> Application_Name >> getDataCarMarkByCarMarkCode
SELECT * 
 FROM online_carmark 
 WHERE carmakcod = 'JP-IS052' 
 ORDER BY desc_t, carmakcod 

30/7/2014  18:21 >> Application_Name >> getDataCarMarkByCarMarkCode
SELECT * 
 FROM online_carmark 
 WHERE carmakcod = '' 
 ORDER BY desc_t, carmakcod 

30/7/2014  18:21 >> Application_Name >> getDataCarMarkByCarMarkCode
SELECT * 
 FROM online_carmark 
 WHERE carmakcod = 'JK-MA056' 
 ORDER BY desc_t, carmakcod 

30/7/2014  18:22 >> Application_Name >> getDataPremium
exec sp_calonlineweb 'N','110','1','2','3 ','JK-MA056','2000','A','A',752400,919600,'0',30

30/7/2014  18:22 >> Application_Name >> getDataPremium
exec sp_calonlineweb 'N','110','2','2','3 ','JK-MA056','2000','A','A',752400,919600,'0',30

30/7/2014  18:22 >> Application_Name >> getDataPremium
exec sp_calonlineweb 'N','110','3','2','3 ','JK-MA056','2000','A','A',0,0,'0',30

30/7/2014  18:23 >> Application_Name >> getDataPremium
exec sp_calonlineweb 'Y','210','1','8','A','','2500','21','A',408666.985674063,451684.563113438,'0',30

30/7/2014  18:23 >> Application_Name >> getDataPremium
exec sp_calonlineweb 'Y','210','2','8','A','','2500','21','A',408666.985674063,451684.563113438,'0',30

30/7/2014  18:23 >> Application_Name >> getDataPremium
exec sp_calonlineweb 'Y','210','3','8','A','','2500','21','A',0,0,'0',30

30/7/2014  18:49 >> Application_Name >> getDataCarMarkByCarMarkCode
SELECT * 
 FROM online_carmark 
 WHERE carmakcod = '' 
 ORDER BY desc_t, carmakcod 

30/7/2014  18:49 >> Application_Name >> getDataCarMarkByCarMarkCode
SELECT * 
 FROM online_carmark 
 WHERE carmakcod = 'JK-TO019' 
 ORDER BY desc_t, carmakcod 

30/7/2014  18:57 >> Application_Name >> getDataCarMarkByCarMarkCode
SELECT * 
 FROM online_carmark 
 WHERE carmakcod = '' 
 ORDER BY desc_t, carmakcod 

30/7/2014  18:57 >> Application_Name >> getDataCarMarkByCarMarkCode
SELECT * 
 FROM online_carmark 
 WHERE carmakcod = 'JK-MA056' 
 ORDER BY desc_t, carmakcod 

30/7/2014  18:59 >> Application_Name >> getDataPremium
exec sp_calonlineweb 'N','110','1','7','3 ','JK-MA056','2000','A','A',582192.777375,711568.950125,'0',0

30/7/2014  18:59 >> Application_Name >> getDataPremium
exec sp_calonlineweb 'N','110','2','7','3 ','JK-MA056','2000','A','A',582192.777375,711568.950125,'0',0

30/7/2014  18:59 >> Application_Name >> getDataPremium
exec sp_calonlineweb 'N','110','3','7','3 ','JK-MA056','2000','A','A',0,0,'0',0

30/7/2014  19:15 >> Application_Name >> getDataCarMarkByCarMarkCode
SELECT * 
 FROM online_carmark 
 WHERE carmakcod = '' 
 ORDER BY desc_t, carmakcod 

30/7/2014  19:15 >> Application_Name >> getDataCarMarkByCarMarkCode
SELECT * 
 FROM online_carmark 
 WHERE carmakcod = 'JK-HO084' 
 ORDER BY desc_t, carmakcod 

30/7/2014  19:30 >> Application_Name >> getDataCarMarkByCarMarkCode
SELECT * 
 FROM online_carmark 
 WHERE carmakcod = '' 
 ORDER BY desc_t, carmakcod 

30/7/2014  19:30 >> Application_Name >> getDataCarMarkByCarMarkCode
SELECT * 
 FROM online_carmark 
 WHERE carmakcod = 'JK-TO242' 
 ORDER BY desc_t, carmakcod 

30/7/2014  19:53 >> Application_Name >> getDataCarMarkByCarMarkCode
SELECT * 
 FROM online_carmark 
 WHERE carmakcod = '' 
 ORDER BY desc_t, carmakcod 

30/7/2014  20:3 >> Application_Name >> getDataCarMarkByCarMarkCode
SELECT * 
 FROM online_carmark 
 WHERE carmakcod = '' 
 ORDER BY desc_t, carmakcod 

30/7/2014  20:3 >> Application_Name >> getDataCarMarkByCarMarkCode
SELECT * 
 FROM online_carmark 
 WHERE carmakcod = 'JK-MI080' 
 ORDER BY desc_t, carmakcod 

30/7/2014  20:5 >> Application_Name >> getDataPremium
exec sp_calonlineweb 'Y','110','1','2','5 ','JK-MI080','2000','A','A',376200,459800,'0',20

30/7/2014  20:5 >> Application_Name >> getDataPremium
exec sp_calonlineweb 'Y','110','2','2','5 ','JK-MI080','2000','A','A',376200,459800,'0',20

30/7/2014  20:5 >> Application_Name >> getDataPremium
exec sp_calonlineweb 'Y','110','3','2','5 ','JK-MI080','2000','A','A',0,0,'0',20

30/7/2014  20:6 >> Application_Name >> getDataCarMarkByCarMarkCode
SELECT * 
 FROM online_carmark 
 WHERE carmakcod = '' 
 ORDER BY desc_t, carmakcod 

30/7/2014  20:6 >> Application_Name >> getDataCarMarkByCarMarkCode
SELECT * 
 FROM online_carmark 
 WHERE carmakcod = 'JK-MI080' 
 ORDER BY desc_t, carmakcod 

30/7/2014  20:7 >> Application_Name >> getDataPremium
exec sp_calonlineweb 'Y','110','1','2','5 ','JK-MI080','2000','A','A',376200,459800,'0',20

30/7/2014  20:7 >> Application_Name >> getDataPremium
exec sp_calonlineweb 'Y','110','2','2','5 ','JK-MI080','2000','A','A',376200,459800,'0',20

30/7/2014  20:7 >> Application_Name >> getDataPremium
exec sp_calonlineweb 'Y','110','3','2','5 ','JK-MI080','2000','A','A',0,0,'0',20

30/7/2014  20:16 >> Application_Name >> getDataCarMarkByCarMarkCode
SELECT * 
 FROM online_carmark 
 WHERE carmakcod = '' 
 ORDER BY desc_t, carmakcod 

30/7/2014  20:16 >> Application_Name >> getDataCarMarkByCarMarkCode
SELECT * 
 FROM online_carmark 
 WHERE carmakcod = 'JK-MI080' 
 ORDER BY desc_t, carmakcod 

30/7/2014  20:17 >> Application_Name >> getDataPremium
exec sp_calonlineweb 'Y','110','1','2','5 ','JK-MI080','2000','A','A',376200,459800,'0',20

30/7/2014  20:17 >> Application_Name >> getDataPremium
exec sp_calonlineweb 'Y','110','2','2','5 ','JK-MI080','2000','A','A',376200,459800,'0',20

30/7/2014  20:17 >> Application_Name >> getDataPremium
exec sp_calonlineweb 'Y','110','3','2','5 ','JK-MI080','2000','A','A',0,0,'0',20

30/7/2014  21:26 >> Application_Name >> getDataCarMarkByCarMarkCode
SELECT * 
 FROM online_carmark 
 WHERE carmakcod = '' 
 ORDER BY desc_t, carmakcod 

30/7/2014  21:26 >> Application_Name >> getDataCarMarkByCarMarkCode
SELECT * 
 FROM online_carmark 
 WHERE carmakcod = 'JK-HO002' 
 ORDER BY desc_t, carmakcod 

30/7/2014  21:28 >> Application_Name >> getDataPremium
exec sp_calonlineweb 'N','110','1','7','3 ','JK-HO002','2000','A','A',575576.950359375,703482.939328125,'0',30

30/7/2014  21:28 >> Application_Name >> getDataPremium
exec sp_calonlineweb 'N','110','2','7','3 ','JK-HO002','2000','A','A',575576.950359375,703482.939328125,'0',30

30/7/2014  21:28 >> Application_Name >> getDataPremium
exec sp_calonlineweb 'N','110','3','7','3 ','JK-HO002','2000','A','A',0,0,'0',30

30/7/2014  21:41 >> Application_Name >> getDataCarMarkByCarMarkCode
SELECT * 
 FROM online_carmark 
 WHERE carmakcod = '' 
 ORDER BY desc_t, carmakcod 

30/7/2014  21:41 >> Application_Name >> getDataCarMarkByCarMarkCode
SELECT * 
 FROM online_carmark 
 WHERE carmakcod = 'JK-TO242' 
 ORDER BY desc_t, carmakcod 

30/7/2014  21:46 >> Application_Name >> getDataCarMarkByCarMarkCode
SELECT * 
 FROM online_carmark 
 WHERE carmakcod = '' 
 ORDER BY desc_t, carmakcod 

30/7/2014  21:47 >> Application_Name >> getDataCarMarkByCarMarkCode
SELECT * 
 FROM online_carmark 
 WHERE carmakcod = 'JK-TO242' 
 ORDER BY desc_t, carmakcod 

30/7/2014  21:49 >> Application_Name >> getDataPremium
exec sp_calonlineweb 'N','110','1','4','5 ','JK-TO242','2000','A','A',432117,528143,'0',0

30/7/2014  21:49 >> Application_Name >> getDataPremium
exec sp_calonlineweb 'N','110','2','4','5 ','JK-TO242','2000','A','A',432117,528143,'0',0

30/7/2014  21:49 >> Application_Name >> getDataPremium
exec sp_calonlineweb 'N','110','3','4','5 ','JK-TO242','2000','A','A',0,0,'0',0

30/7/2014  21:51 >> Application_Name >> getDataCarMarkByCarMarkCode
SELECT * 
 FROM online_carmark 
 WHERE carmakcod = '' 
 ORDER BY desc_t, carmakcod 

30/7/2014  21:51 >> Application_Name >> getDataCarMarkByCarMarkCode
SELECT * 
 FROM online_carmark 
 WHERE carmakcod = 'JK-HO122' 
 ORDER BY desc_t, carmakcod 

30/7/2014  21:54 >> Application_Name >> getDataCarMarkByCarMarkCode
SELECT * 
 FROM online_carmark 
 WHERE carmakcod = '' 
 ORDER BY desc_t, carmakcod 

30/7/2014  21:56 >> Application_Name >> getDataCarMarkByCarMarkCode
SELECT * 
 FROM online_carmark 
 WHERE carmakcod = '' 
 ORDER BY desc_t, carmakcod 

30/7/2014  21:56 >> Application_Name >> getDataCarMarkByCarMarkCode
SELECT * 
 FROM online_carmark 
 WHERE carmakcod = '' 
 ORDER BY desc_t, carmakcod 

30/7/2014  21:56 >> Application_Name >> getDataCarMarkByCarMarkCode
SELECT * 
 FROM online_carmark 
 WHERE carmakcod = 'JK-TO242' 
 ORDER BY desc_t, carmakcod 

30/7/2014  22:5 >> Application_Name >> getDataCarMarkByCarMarkCode
SELECT * 
 FROM online_carmark 
 WHERE carmakcod = '' 
 ORDER BY desc_t, carmakcod 

30/7/2014  22:5 >> Application_Name >> getDataCarMarkByCarMarkCode
SELECT * 
 FROM online_carmark 
 WHERE carmakcod = 'JK-TO242' 
 ORDER BY desc_t, carmakcod 

30/7/2014  22:6 >> Application_Name >> getDataPremium
exec sp_calonlineweb 'N','110','1','4','5 ','JK-TO242','2000','A','A',432117,528143,'25',0

30/7/2014  22:6 >> Application_Name >> getDataPremium
exec sp_calonlineweb 'N','110','2','4','5 ','JK-TO242','2000','A','A',432117,528143,'25',0

30/7/2014  22:6 >> Application_Name >> getDataPremium
exec sp_calonlineweb 'N','110','3','4','5 ','JK-TO242','2000','A','A',0,0,'25',0

30/7/2014  22:18 >> Application_Name >> getDataPremium
exec sp_calonlineweb 'Y','110','1','4','5 ','JK-TO242','2000','A','A',432117,528143,'25',0

30/7/2014  22:18 >> Application_Name >> getDataPremium
exec sp_calonlineweb 'Y','110','2','4','5 ','JK-TO242','2000','A','A',432117,528143,'25',0

30/7/2014  22:18 >> Application_Name >> getDataPremium
exec sp_calonlineweb 'Y','110','3','4','5 ','JK-TO242','2000','A','A',0,0,'25',0

30/7/2014  22:38 >> Application_Name >> getDataCarMarkByCarMarkCode
SELECT * 
 FROM online_carmark 
 WHERE carmakcod = '' 
 ORDER BY desc_t, carmakcod 

30/7/2014  22:38 >> Application_Name >> getDataCarMarkByCarMarkCode
SELECT * 
 FROM online_carmark 
 WHERE carmakcod = 'JK-TO206' 
 ORDER BY desc_t, carmakcod 

30/7/2014  23:0 >> Application_Name >> getDataCarMarkByCarMarkCode
SELECT * 
 FROM online_carmark 
 WHERE carmakcod = '' 
 ORDER BY desc_t, carmakcod 

30/7/2014  23:0 >> Application_Name >> getDataCarMarkByCarMarkCode
SELECT * 
 FROM online_carmark 
 WHERE carmakcod = 'EK-CR039' 
 ORDER BY desc_t, carmakcod 

30/7/2014  23:1 >> Application_Name >> getDataPremium
exec sp_calonlineweb 'Y','110','1','1','3 ','EK-CR039','2000','A','A',980000,1100000,'0',0

30/7/2014  23:1 >> Application_Name >> getDataPremium
exec sp_calonlineweb 'Y','110','2','1','3 ','EK-CR039','2000','A','A',980000,1100000,'0',0

30/7/2014  23:1 >> Application_Name >> getDataPremium
exec sp_calonlineweb 'Y','110','3','1','3 ','EK-CR039','2000','A','A',0,0,'0',0

30/7/2014  23:5 >> Application_Name >> getDataCarMarkByCarMarkCode
SELECT * 
 FROM online_carmark 
 WHERE carmakcod = '' 
 ORDER BY desc_t, carmakcod 

30/7/2014  23:5 >> Application_Name >> getDataCarMarkByCarMarkCode
SELECT * 
 FROM online_carmark 
 WHERE carmakcod = 'JK-TO001' 
 ORDER BY desc_t, carmakcod 

30/7/2014  23:6 >> Application_Name >> getDataPremium
exec sp_calonlineweb 'Y','110','1','13','5 ','JK-TO001','2000','A','A',272341.48418197,332861.814000185,'0',0

30/7/2014  23:6 >> Application_Name >> getDataPremium
exec sp_calonlineweb 'Y','110','2','13','5 ','JK-TO001','2000','A','A',272341.48418197,332861.814000185,'0',0

30/7/2014  23:6 >> Application_Name >> getDataPremium
exec sp_calonlineweb 'Y','110','3','13','5 ','JK-TO001','2000','A','A',0,0,'0',0

