11/7/2014  0:54 >> Application_Name >> getDataCarMarkByCarMarkCode
SELECT * 
 FROM online_carmark 
 WHERE carmakcod = '' 
 ORDER BY desc_t, carmakcod 

11/7/2014  0:54 >> Application_Name >> getDataCarMarkByCarMarkCode
SELECT * 
 FROM online_carmark 
 WHERE carmakcod = '' 
 ORDER BY desc_t, carmakcod 

11/7/2014  0:54 >> Application_Name >> getDataCarMarkByCarMarkCode
SELECT * 
 FROM online_carmark 
 WHERE carmakcod = 'JP-MA043' 
 ORDER BY desc_t, carmakcod 

11/7/2014  4:27 >> Application_Name >> getDataCarMarkByCarMarkCode
SELECT * 
 FROM online_carmark 
 WHERE carmakcod = '' 
 ORDER BY desc_t, carmakcod 

11/7/2014  4:27 >> Application_Name >> getDataCarMarkByCarMarkCode
SELECT * 
 FROM online_carmark 
 WHERE carmakcod = 'JK-MI047' 
 ORDER BY desc_t, carmakcod 

11/7/2014  4:29 >> Application_Name >> getDataPremium
exec sp_calonlineweb 'Y','110','1','2','3 ','JK-MI047','9999','A','A',803700,982300,'0',20

11/7/2014  4:29 >> Application_Name >> getDataPremium
exec sp_calonlineweb 'Y','110','2','2','3 ','JK-MI047','9999','A','A',803700,982300,'0',20

11/7/2014  4:29 >> Application_Name >> getDataPremium
exec sp_calonlineweb 'Y','110','3','2','3 ','JK-MI047','9999','A','A',0,0,'0',20

11/7/2014  4:29 >> Application_Name >> getDataPremium
exec sp_calonlineweb 'Y','110','1','2','3 ','JK-MI047','9999','A','A',803700,982300,'0',20

11/7/2014  4:29 >> Application_Name >> getDataPremium
exec sp_calonlineweb 'Y','110','2','2','3 ','JK-MI047','9999','A','A',803700,982300,'0',20

11/7/2014  4:29 >> Application_Name >> getDataPremium
exec sp_calonlineweb 'Y','110','3','2','3 ','JK-MI047','9999','A','A',0,0,'0',20

11/7/2014  4:42 >> Application_Name >> getDataCarMarkByCarMarkCode
SELECT * 
 FROM online_carmark 
 WHERE carmakcod = '' 
 ORDER BY desc_t, carmakcod 

11/7/2014  8:12 >> Application_Name >> getDataCarMarkByCarMarkCode
SELECT * 
 FROM online_carmark 
 WHERE carmakcod = '' 
 ORDER BY desc_t, carmakcod 

11/7/2014  8:12 >> Application_Name >> getDataCarMarkByCarMarkCode
SELECT * 
 FROM online_carmark 
 WHERE carmakcod = '' 
 ORDER BY desc_t, carmakcod 

11/7/2014  8:13 >> Application_Name >> getDataCarMarkByCarMarkCode
SELECT * 
 FROM online_carmark 
 WHERE carmakcod = 'JK-HO001' 
 ORDER BY desc_t, carmakcod 

11/7/2014  8:14 >> Application_Name >> getDataPremium
exec sp_calonlineweb 'Y','110','1','2','5 ','JK-HO001','2000','A','A',470250,574750,'0',20

11/7/2014  8:14 >> Application_Name >> getDataPremium
exec sp_calonlineweb 'Y','110','2','2','5 ','JK-HO001','2000','A','A',470250,574750,'0',20

11/7/2014  8:14 >> Application_Name >> getDataPremium
exec sp_calonlineweb 'Y','110','3','2','5 ','JK-HO001','2000','A','A',0,0,'0',20

11/7/2014  8:15 >> Application_Name >> getDataPremium
exec sp_calonlineweb 'Y','110','1','3','5 ','JK-HO001','2000','A','A',446737.5,546012.5,'0',20

11/7/2014  8:15 >> Application_Name >> getDataPremium
exec sp_calonlineweb 'Y','110','2','3','5 ','JK-HO001','2000','A','A',446737.5,546012.5,'0',20

11/7/2014  8:15 >> Application_Name >> getDataPremium
exec sp_calonlineweb 'Y','110','3','3','5 ','JK-HO001','2000','A','A',0,0,'0',20

11/7/2014  8:18 >> Application_Name >> getDataCarMarkByCarMarkCode
SELECT * 
 FROM online_carmark 
 WHERE carmakcod = '' 
 ORDER BY desc_t, carmakcod 

11/7/2014  8:18 >> Application_Name >> getDataCarMarkByCarMarkCode
SELECT * 
 FROM online_carmark 
 WHERE carmakcod = 'JK-HO001' 
 ORDER BY desc_t, carmakcod 

11/7/2014  8:20 >> Application_Name >> getDataPremium
exec sp_calonlineweb 'N','110','1','3','5 ','JK-HO001','2000','A','A',446737.5,546012.5,'0',0

11/7/2014  8:20 >> Application_Name >> getDataPremium
exec sp_calonlineweb 'N','110','2','3','5 ','JK-HO001','2000','A','A',446737.5,546012.5,'0',0

11/7/2014  8:20 >> Application_Name >> getDataPremium
exec sp_calonlineweb 'N','110','3','3','5 ','JK-HO001','2000','A','A',0,0,'0',0

11/7/2014  8:54 >> Application_Name >> getDataCarMarkByCarMarkCode
SELECT * 
 FROM online_carmark 
 WHERE carmakcod = '' 
 ORDER BY desc_t, carmakcod 

11/7/2014  8:54 >> Application_Name >> getDataCarMarkByCarMarkCode
SELECT * 
 FROM online_carmark 
 WHERE carmakcod = 'JK-MI081' 
 ORDER BY desc_t, carmakcod 

11/7/2014  8:55 >> Application_Name >> getDataPremium
exec sp_calonlineweb 'Y','110','1','2','5 ','JK-MI081','2000','A','A',367650,449350,'0',0

11/7/2014  8:55 >> Application_Name >> getDataPremium
exec sp_calonlineweb 'Y','110','2','2','5 ','JK-MI081','2000','A','A',367650,449350,'0',0

11/7/2014  8:55 >> Application_Name >> getDataPremium
exec sp_calonlineweb 'Y','110','3','2','5 ','JK-MI081','2000','A','A',0,0,'0',0

11/7/2014  9:24 >> Application_Name >> getDataCarMarkByCarMarkCode
SELECT * 
 FROM online_carmark 
 WHERE carmakcod = '' 
 ORDER BY desc_t, carmakcod 

11/7/2014  9:25 >> Application_Name >> getDataCarMarkByCarMarkCode
SELECT * 
 FROM online_carmark 
 WHERE carmakcod = '' 
 ORDER BY desc_t, carmakcod 

11/7/2014  9:25 >> Application_Name >> getDataCarMarkByCarMarkCode
SELECT * 
 FROM online_carmark 
 WHERE carmakcod = 'JP-TO100' 
 ORDER BY desc_t, carmakcod 

11/7/2014  10:34 >> Application_Name >> getDataCarMarkByCarMarkCode
SELECT * 
 FROM online_carmark 
 WHERE carmakcod = '' 
 ORDER BY desc_t, carmakcod 

11/7/2014  10:34 >> Application_Name >> getDataCarMarkByCarMarkCode
SELECT * 
 FROM online_carmark 
 WHERE carmakcod = 'JK-TO004' 
 ORDER BY desc_t, carmakcod 

11/7/2014  10:36 >> Application_Name >> getDataPremium
exec sp_calonlineweb 'N','110','1','5','3 ','JK-TO004','2000','A','A',804113.15025,888756.63975,'0',0

11/7/2014  10:36 >> Application_Name >> getDataPremium
exec sp_calonlineweb 'N','110','2','5','3 ','JK-TO004','2000','A','A',804113.15025,888756.63975,'0',0

11/7/2014  10:36 >> Application_Name >> getDataPremium
exec sp_calonlineweb 'N','110','3','5','3 ','JK-TO004','2000','A','A',0,0,'0',0

11/7/2014  10:37 >> Application_Name >> getDataPremium
exec sp_calonlineweb 'N','110','1','6','3 ','JK-TO004','2000','A','A',763907.4927375,844318.8077625,'0',0

11/7/2014  10:37 >> Application_Name >> getDataPremium
exec sp_calonlineweb 'N','110','2','6','3 ','JK-TO004','2000','A','A',763907.4927375,844318.8077625,'0',0

11/7/2014  10:37 >> Application_Name >> getDataPremium
exec sp_calonlineweb 'N','110','3','6','3 ','JK-TO004','2000','A','A',0,0,'0',0

11/7/2014  10:39 >> Application_Name >> getDataCarMarkByCarMarkCode
SELECT * 
 FROM online_carmark 
 WHERE carmakcod = 'JK-HO084' 
 ORDER BY desc_t, carmakcod 

11/7/2014  11:27 >> Application_Name >> getDataCarMarkByCarMarkCode
SELECT * 
 FROM online_carmark 
 WHERE carmakcod = '' 
 ORDER BY desc_t, carmakcod 

11/7/2014  11:27 >> Application_Name >> getDataCarMarkByCarMarkCode
SELECT * 
 FROM online_carmark 
 WHERE carmakcod = 'JK-TO242' 
 ORDER BY desc_t, carmakcod 

11/7/2014  11:28 >> Application_Name >> getDataPremium
exec sp_calonlineweb 'Y','110','1','2','5 ','JK-TO242','2000','A','A',478800,585200,'0',0

11/7/2014  11:28 >> Application_Name >> getDataPremium
exec sp_calonlineweb 'Y','110','2','2','5 ','JK-TO242','2000','A','A',478800,585200,'0',0

11/7/2014  11:28 >> Application_Name >> getDataPremium
exec sp_calonlineweb 'Y','110','3','2','5 ','JK-TO242','2000','A','A',0,0,'0',0

11/7/2014  11:30 >> Application_Name >> getDataCarMarkByCarMarkCode
SELECT * 
 FROM online_carmark 
 WHERE carmakcod = '' 
 ORDER BY desc_t, carmakcod 

11/7/2014  11:30 >> Application_Name >> getDataCarMarkByCarMarkCode
SELECT * 
 FROM online_carmark 
 WHERE carmakcod = 'JK-TO242' 
 ORDER BY desc_t, carmakcod 

11/7/2014  11:31 >> Application_Name >> getDataPremium
exec sp_calonlineweb 'Y','110','1','2','5 ','JK-TO242','2000','A','A',478800,585200,'0',0

11/7/2014  11:31 >> Application_Name >> getDataPremium
exec sp_calonlineweb 'Y','110','2','2','5 ','JK-TO242','2000','A','A',478800,585200,'0',0

11/7/2014  11:31 >> Application_Name >> getDataPremium
exec sp_calonlineweb 'Y','110','3','2','5 ','JK-TO242','2000','A','A',0,0,'0',0

11/7/2014  11:31 >> Application_Name >> SMK :: BuyVoluntary_step2-docToUI
Combine

11/7/2014  11:31 >> Application_Name >> SMK :: BuyVoluntary_step2-docToUI
rg_prmm-06594

11/7/2014  11:31 >> Application_Name >> SMK :: BuyVoluntary_step2-docToUI
rg_prmm6594

11/7/2014  11:31 >> Application_Name >> SMK :: BuyVoluntary_step2-docToUI
cp_comp_prmm600.00

11/7/2014  11:36 >> Application_Name >> getDataCarMarkByCarMarkCode
SELECT * 
 FROM online_carmark 
 WHERE carmakcod = '' 
 ORDER BY desc_t, carmakcod 

11/7/2014  11:38 >> Application_Name >> getDataCarMarkByCarMarkCode
SELECT * 
 FROM online_carmark 
 WHERE carmakcod = 'JK-TO321' 
 ORDER BY desc_t, carmakcod 

11/7/2014  11:38 >> Application_Name >> getDataPremium
exec sp_calonlineweb 'N','110','1','20','3 ','JK-TO321','9999','A','A',415556.881255983,459299.710861876,'0',0

11/7/2014  11:38 >> Application_Name >> getDataPremium
exec sp_calonlineweb 'N','110','2','20','3 ','JK-TO321','9999','A','A',415556.881255983,459299.710861876,'0',0

11/7/2014  11:38 >> Application_Name >> getDataPremium
exec sp_calonlineweb 'N','110','3','20','3 ','JK-TO321','9999','A','A',0,0,'0',0

11/7/2014  11:40 >> Application_Name >> SMK :: BuyVoluntary_step2-docToUI
Combine

11/7/2014  11:40 >> Application_Name >> SMK :: BuyVoluntary_step2-docToUI
rg_prmm-06594

11/7/2014  11:40 >> Application_Name >> SMK :: BuyVoluntary_step2-docToUI
rg_prmm6594

11/7/2014  11:40 >> Application_Name >> SMK :: BuyVoluntary_step2-docToUI
cp_comp_prmm600.00

11/7/2014  11:55 >> Application_Name >> getDataCarMarkByCarMarkCode
SELECT * 
 FROM online_carmark 
 WHERE carmakcod = '' 
 ORDER BY desc_t, carmakcod 

11/7/2014  11:56 >> Application_Name >> getDataCarMarkByCarMarkCode
SELECT * 
 FROM online_carmark 
 WHERE carmakcod = 'JK-HO001' 
 ORDER BY desc_t, carmakcod 

11/7/2014  11:58 >> Application_Name >> getDataPremium
exec sp_calonlineweb 'Y','110','1','2','5 ','JK-HO001','2000','A','A',470250,574750,'0',0

11/7/2014  11:58 >> Application_Name >> getDataPremium
exec sp_calonlineweb 'Y','110','2','2','5 ','JK-HO001','2000','A','A',470250,574750,'0',0

11/7/2014  11:58 >> Application_Name >> getDataPremium
exec sp_calonlineweb 'Y','110','3','2','5 ','JK-HO001','2000','A','A',0,0,'0',0

11/7/2014  11:59 >> Application_Name >> getDataCarMarkByCarMarkCode
SELECT * 
 FROM online_carmark 
 WHERE carmakcod = '' 
 ORDER BY desc_t, carmakcod 

11/7/2014  11:59 >> Application_Name >> getDataCarMarkByCarMarkCode
SELECT * 
 FROM online_carmark 
 WHERE carmakcod = 'JK-TO240' 
 ORDER BY desc_t, carmakcod 

11/7/2014  12:2 >> Application_Name >> getDataPremium
exec sp_calonlineweb 'Y','110','1','2','3 ','JK-TO240','9999','A','A',760950,930050,'0',0

11/7/2014  12:2 >> Application_Name >> getDataPremium
exec sp_calonlineweb 'Y','110','2','2','3 ','JK-TO240','9999','A','A',760950,930050,'0',0

11/7/2014  12:2 >> Application_Name >> getDataPremium
exec sp_calonlineweb 'Y','110','3','2','3 ','JK-TO240','9999','A','A',0,0,'0',0

11/7/2014  12:7 >> Application_Name >> getDataCarMarkByCarMarkCode
SELECT * 
 FROM online_carmark 
 WHERE carmakcod = '' 
 ORDER BY desc_t, carmakcod 

11/7/2014  12:7 >> Application_Name >> getDataCarMarkByCarMarkCode
SELECT * 
 FROM online_carmark 
 WHERE carmakcod = '' 
 ORDER BY desc_t, carmakcod 

11/7/2014  12:19 >> Application_Name >> getDataCarMarkByCarMarkCode
SELECT * 
 FROM online_carmark 
 WHERE carmakcod = '' 
 ORDER BY desc_t, carmakcod 

11/7/2014  12:20 >> Application_Name >> getDataCarMarkByCarMarkCode
SELECT * 
 FROM online_carmark 
 WHERE carmakcod = 'JK-NI100' 
 ORDER BY desc_t, carmakcod 

11/7/2014  12:24 >> Application_Name >> getDataCarMarkByCarMarkCode
SELECT * 
 FROM online_carmark 
 WHERE carmakcod = '' 
 ORDER BY desc_t, carmakcod 

11/7/2014  12:25 >> Application_Name >> getDataPremium
exec sp_calonlineweb 'N','110','1','3','5 ','JK-NI100','2000','A','A',361000,397100,'0',30

11/7/2014  12:25 >> Application_Name >> getDataPremium
exec sp_calonlineweb 'N','110','2','3','5 ','JK-NI100','2000','A','A',361000,397100,'0',30

11/7/2014  12:25 >> Application_Name >> getDataPremium
exec sp_calonlineweb 'N','110','3','3','5 ','JK-NI100','2000','A','A',0,0,'0',30

11/7/2014  12:39 >> Application_Name >> getDataCarMarkByCarMarkCode
SELECT * 
 FROM online_carmark 
 WHERE carmakcod = '' 
 ORDER BY desc_t, carmakcod 

11/7/2014  12:39 >> Application_Name >> getDataCarMarkByCarMarkCode
SELECT * 
 FROM online_carmark 
 WHERE carmakcod = 'EK-FO078' 
 ORDER BY desc_t, carmakcod 

11/7/2014  12:41 >> Application_Name >> getDataPremium
exec sp_calonlineweb 'Y','110','1','3','3 ','EK-FO078','2000','A','A',609187.5,744562.5,'0',30

11/7/2014  12:41 >> Application_Name >> getDataPremium
exec sp_calonlineweb 'Y','110','2','3','3 ','EK-FO078','2000','A','A',609187.5,744562.5,'0',30

11/7/2014  12:41 >> Application_Name >> getDataPremium
exec sp_calonlineweb 'Y','110','3','3','3 ','EK-FO078','2000','A','A',0,0,'0',30

11/7/2014  12:42 >> Application_Name >> getDataPremium
exec sp_calonlineweb 'Y','110','1','3','3 ','EK-FO078','2000','A','A',609187.5,744562.5,'0',20

11/7/2014  12:42 >> Application_Name >> getDataPremium
exec sp_calonlineweb 'Y','110','2','3','3 ','EK-FO078','2000','A','A',609187.5,744562.5,'0',20

11/7/2014  12:42 >> Application_Name >> getDataPremium
exec sp_calonlineweb 'Y','110','3','3','3 ','EK-FO078','2000','A','A',0,0,'0',20

11/7/2014  12:47 >> Application_Name >> getDataCarMarkByCarMarkCode
SELECT * 
 FROM online_carmark 
 WHERE carmakcod = 'JK-HO001' 
 ORDER BY desc_t, carmakcod 

11/7/2014  12:50 >> Application_Name >> getDataPremium
exec sp_calonlineweb 'Y','110','1','3','3 ','EK-FO078','2000','A','A',609187.5,744562.5,'0',30

11/7/2014  12:50 >> Application_Name >> getDataPremium
exec sp_calonlineweb 'Y','110','2','3','3 ','EK-FO078','2000','A','A',609187.5,744562.5,'0',30

11/7/2014  12:50 >> Application_Name >> getDataPremium
exec sp_calonlineweb 'Y','110','3','3','3 ','EK-FO078','2000','A','A',0,0,'0',30

11/7/2014  12:51 >> Application_Name >> SMK :: BuyVoluntary_step2-docToUI
Combine

11/7/2014  12:51 >> Application_Name >> SMK :: BuyVoluntary_step2-docToUI
rg_prmm-014276.5

11/7/2014  12:51 >> Application_Name >> SMK :: BuyVoluntary_step2-docToUI
rg_prmm14276.5

11/7/2014  12:51 >> Application_Name >> SMK :: BuyVoluntary_step2-docToUI
cp_comp_prmm600.00

11/7/2014  13:3 >> Application_Name >> getDataCarMarkByCarMarkCode
SELECT * 
 FROM online_carmark 
 WHERE carmakcod = '' 
 ORDER BY desc_t, carmakcod 

11/7/2014  13:3 >> Application_Name >> getDataCarMarkByCarMarkCode
SELECT * 
 FROM online_carmark 
 WHERE carmakcod = 'JK-MA065' 
 ORDER BY desc_t, carmakcod 

11/7/2014  13:6 >> Application_Name >> getDataPremium
exec sp_calonlineweb 'Y','110','1','3','5 ','JK-MA065','2000','A','A',454860,555940,'0',0

11/7/2014  13:6 >> Application_Name >> getDataPremium
exec sp_calonlineweb 'Y','110','2','3','5 ','JK-MA065','2000','A','A',454860,555940,'0',0

11/7/2014  13:6 >> Application_Name >> getDataPremium
exec sp_calonlineweb 'Y','110','3','3','5 ','JK-MA065','2000','A','A',0,0,'0',0

11/7/2014  13:28 >> Application_Name >> getDataCarMarkByCarMarkCode
SELECT * 
 FROM online_carmark 
 WHERE carmakcod = '' 
 ORDER BY desc_t, carmakcod 

11/7/2014  13:28 >> Application_Name >> getDataCarMarkByCarMarkCode
SELECT * 
 FROM online_carmark 
 WHERE carmakcod = 'JK-TO321' 
 ORDER BY desc_t, carmakcod 

11/7/2014  13:30 >> Application_Name >> getDataPremium
exec sp_calonlineweb 'N','110','1','8','3 ','JK-TO321','9999','A','A',769036.963950281,849988.223313469,'0',20

11/7/2014  13:30 >> Application_Name >> getDataPremium
exec sp_calonlineweb 'N','110','2','8','3 ','JK-TO321','9999','A','A',769036.963950281,849988.223313469,'0',20

11/7/2014  13:30 >> Application_Name >> getDataPremium
exec sp_calonlineweb 'N','110','3','8','3 ','JK-TO321','9999','A','A',0,0,'0',20

11/7/2014  13:32 >> Application_Name >> getDataCarMarkByCarMarkCode
SELECT * 
 FROM online_carmark 
 WHERE carmakcod = '' 
 ORDER BY desc_t, carmakcod 

11/7/2014  13:32 >> Application_Name >> getDataCarMarkByCarMarkCode
SELECT * 
 FROM online_carmark 
 WHERE carmakcod = 'JK-TO255' 
 ORDER BY desc_t, carmakcod 

11/7/2014  13:57 >> Application_Name >> getDataCarMarkByCarMarkCode
SELECT * 
 FROM online_carmark 
 WHERE carmakcod = '' 
 ORDER BY desc_t, carmakcod 

11/7/2014  13:57 >> Application_Name >> getDataCarMarkByCarMarkCode
SELECT * 
 FROM online_carmark 
 WHERE carmakcod = '' 
 ORDER BY desc_t, carmakcod 

11/7/2014  13:58 >> Application_Name >> getDataCarMarkByCarMarkCode
SELECT * 
 FROM online_carmark 
 WHERE carmakcod = 'JP-IS052' 
 ORDER BY desc_t, carmakcod 

11/7/2014  13:59 >> Application_Name >> getDataPremium
exec sp_calonlineweb 'N','210','1','2','A','','2500','21','A',555940,614460,'0',0

11/7/2014  13:59 >> Application_Name >> getDataPremium
exec sp_calonlineweb 'N','210','2','2','A','','2500','21','A',555940,614460,'0',0

11/7/2014  13:59 >> Application_Name >> getDataPremium
exec sp_calonlineweb 'N','210','3','2','A','','2500','21','A',0,0,'0',0

11/7/2014  13:59 >> Application_Name >> getDataPremium
exec sp_calonlineweb 'N','210','1','2','A','','2500','21','A',555940,614460,'0',0

11/7/2014  13:59 >> Application_Name >> getDataPremium
exec sp_calonlineweb 'N','210','2','2','A','','2500','21','A',555940,614460,'0',0

11/7/2014  13:59 >> Application_Name >> getDataPremium
exec sp_calonlineweb 'N','210','3','2','A','','2500','21','A',0,0,'0',0

11/7/2014  14:4 >> Application_Name >> getDataCarMarkByCarMarkCode
SELECT * 
 FROM online_carmark 
 WHERE carmakcod = '' 
 ORDER BY desc_t, carmakcod 

11/7/2014  14:4 >> Application_Name >> getDataCarMarkByCarMarkCode
SELECT * 
 FROM online_carmark 
 WHERE carmakcod = 'JK-TO242' 
 ORDER BY desc_t, carmakcod 

11/7/2014  14:5 >> Application_Name >> getDataPremium
exec sp_calonlineweb 'Y','110','1','6','5 ','JK-TO242','2000','A','A',389985.5925,476649.0575,'0',0

11/7/2014  14:5 >> Application_Name >> getDataPremium
exec sp_calonlineweb 'Y','110','2','6','5 ','JK-TO242','2000','A','A',389985.5925,476649.0575,'0',0

11/7/2014  14:5 >> Application_Name >> getDataPremium
exec sp_calonlineweb 'Y','110','3','6','5 ','JK-TO242','2000','A','A',0,0,'0',0

11/7/2014  14:54 >> Application_Name >> getDataCarMarkByCarMarkCode
SELECT * 
 FROM online_carmark 
 WHERE carmakcod = 'JK-NI100' 
 ORDER BY desc_t, carmakcod 

11/7/2014  14:55 >> Application_Name >> getDataCarMarkByCarMarkCode
SELECT * 
 FROM online_carmark 
 WHERE carmakcod = '' 
 ORDER BY desc_t, carmakcod 

11/7/2014  14:56 >> Application_Name >> getDataCarMarkByCarMarkCode
SELECT * 
 FROM online_carmark 
 WHERE carmakcod = 'JK-NI100' 
 ORDER BY desc_t, carmakcod 

11/7/2014  14:57 >> Application_Name >> getDataCarMarkByCarMarkCode
SELECT * 
 FROM online_carmark 
 WHERE carmakcod = '' 
 ORDER BY desc_t, carmakcod 

11/7/2014  14:57 >> Application_Name >> getDataCarMarkByCarMarkCode
SELECT * 
 FROM online_carmark 
 WHERE carmakcod = '' 
 ORDER BY desc_t, carmakcod 

11/7/2014  14:57 >> Application_Name >> getDataCarMarkByCarMarkCode
SELECT * 
 FROM online_carmark 
 WHERE carmakcod = 'JK-NI100' 
 ORDER BY desc_t, carmakcod 

11/7/2014  15:52 >> Application_Name >> getDataCarMarkByCarMarkCode
SELECT * 
 FROM online_carmark 
 WHERE carmakcod = '' 
 ORDER BY desc_t, carmakcod 

11/7/2014  15:52 >> Application_Name >> getDataCarMarkByCarMarkCode
SELECT * 
 FROM online_carmark 
 WHERE carmakcod = 'JK-IS021' 
 ORDER BY desc_t, carmakcod 

11/7/2014  15:52 >> Application_Name >> getDataCarMarkByCarMarkCode
SELECT * 
 FROM online_carmark 
 WHERE carmakcod = 'JK-IS005' 
 ORDER BY desc_t, carmakcod 

11/7/2014  15:52 >> Application_Name >> getDataCarMarkByCarMarkCode
SELECT * 
 FROM online_carmark 
 WHERE carmakcod = 'JK-IS047' 
 ORDER BY desc_t, carmakcod 

11/7/2014  15:53 >> Application_Name >> getDataCarMarkByCarMarkCode
SELECT * 
 FROM online_carmark 
 WHERE carmakcod = '' 
 ORDER BY desc_t, carmakcod 

11/7/2014  15:53 >> Application_Name >> getDataCarMarkByCarMarkCode
SELECT * 
 FROM online_carmark 
 WHERE carmakcod = 'JP-IS052' 
 ORDER BY desc_t, carmakcod 

11/7/2014  15:54 >> Application_Name >> getDataPremium
exec sp_calonlineweb 'N','210','1','7','A','','12','21','A',430175.77439375,475457.43485625,'0',0

11/7/2014  15:54 >> Application_Name >> getDataPremium
exec sp_calonlineweb 'N','210','2','7','A','','12','21','A',430175.77439375,475457.43485625,'0',0

11/7/2014  15:54 >> Application_Name >> getDataPremium
exec sp_calonlineweb 'N','210','3','7','A','','12','21','A',0,0,'0',0

11/7/2014  16:31 >> Application_Name >> getDataCarMarkByCarMarkCode
SELECT * 
 FROM online_carmark 
 WHERE carmakcod = '' 
 ORDER BY desc_t, carmakcod 

11/7/2014  16:31 >> Application_Name >> getDataCarMarkByCarMarkCode
SELECT * 
 FROM online_carmark 
 WHERE carmakcod = 'EK-FO083' 
 ORDER BY desc_t, carmakcod 

11/7/2014  17:1 >> Application_Name >> getDataCarMarkByCarMarkCode
SELECT * 
 FROM online_carmark 
 WHERE carmakcod = '' 
 ORDER BY desc_t, carmakcod 

11/7/2014  17:1 >> Application_Name >> getDataCarMarkByCarMarkCode
SELECT * 
 FROM online_carmark 
 WHERE carmakcod = 'EK-CR041' 
 ORDER BY desc_t, carmakcod 

11/7/2014  17:4 >> Application_Name >> getDataCarMarkByCarMarkCode
SELECT * 
 FROM online_carmark 
 WHERE carmakcod = '' 
 ORDER BY desc_t, carmakcod 

11/7/2014  17:4 >> Application_Name >> getDataCarMarkByCarMarkCode
SELECT * 
 FROM online_carmark 
 WHERE carmakcod = 'JK-TO242' 
 ORDER BY desc_t, carmakcod 

11/7/2014  17:10 >> Application_Name >> getDataCarMarkByCarMarkCode
SELECT * 
 FROM online_carmark 
 WHERE carmakcod = '' 
 ORDER BY desc_t, carmakcod 

11/7/2014  17:10 >> Application_Name >> getDataCarMarkByCarMarkCode
SELECT * 
 FROM online_carmark 
 WHERE carmakcod = 'EK-CR041' 
 ORDER BY desc_t, carmakcod 

11/7/2014  17:43 >> Application_Name >> getCategoryCompByBrand
SELECT mdc_minor_cd , mdc_desc_t as mdc_desc FROM mtdesc_comp  WHERE mdc_minor_cd <> '0000' AND mdc_major_cd = 'T001' ORDER BY mdc_desc 

11/7/2014  18:5 >> Application_Name >> getDataCarMarkByCarMarkCode
SELECT * 
 FROM online_carmark 
 WHERE carmakcod = '' 
 ORDER BY desc_t, carmakcod 

11/7/2014  18:5 >> Application_Name >> getDataCarMarkByCarMarkCode
SELECT * 
 FROM online_carmark 
 WHERE carmakcod = '' 
 ORDER BY desc_t, carmakcod 

11/7/2014  18:17 >> Application_Name >> getDataCarMarkByCarMarkCode
SELECT * 
 FROM online_carmark 
 WHERE carmakcod = '' 
 ORDER BY desc_t, carmakcod 

11/7/2014  18:17 >> Application_Name >> getDataCarMarkByCarMarkCode
SELECT * 
 FROM online_carmark 
 WHERE carmakcod = '' 
 ORDER BY desc_t, carmakcod 

11/7/2014  18:17 >> Application_Name >> getDataCarMarkByCarMarkCode
SELECT * 
 FROM online_carmark 
 WHERE carmakcod = '' 
 ORDER BY desc_t, carmakcod 

11/7/2014  18:17 >> Application_Name >> getDataCarMarkByCarMarkCode
SELECT * 
 FROM online_carmark 
 WHERE carmakcod = 'JP-IS052' 
 ORDER BY desc_t, carmakcod 

11/7/2014  18:19 >> Application_Name >> getDataPremium
exec sp_calonlineweb 'N','320','1','3','A','','4','N','A',528143,583737,'0',0

11/7/2014  18:19 >> Application_Name >> getDataPremium
exec sp_calonlineweb 'N','320','2','3','A','','4','N','A',528143,583737,'0',0

11/7/2014  18:19 >> Application_Name >> getDataPremium
exec sp_calonlineweb 'N','320','3','3','A','','4','N','A',0,0,'0',0

11/7/2014  18:26 >> Application_Name >> getDataCarMarkByCarMarkCode
SELECT * 
 FROM online_carmark 
 WHERE carmakcod = '' 
 ORDER BY desc_t, carmakcod 

11/7/2014  18:26 >> Application_Name >> getDataCarMarkByCarMarkCode
SELECT * 
 FROM online_carmark 
 WHERE carmakcod = '' 
 ORDER BY desc_t, carmakcod 

11/7/2014  18:26 >> Application_Name >> getDataCarMarkByCarMarkCode
SELECT * 
 FROM online_carmark 
 WHERE carmakcod = '' 
 ORDER BY desc_t, carmakcod 

11/7/2014  18:26 >> Application_Name >> getDataCarMarkByCarMarkCode
SELECT * 
 FROM online_carmark 
 WHERE carmakcod = 'JP-TO100' 
 ORDER BY desc_t, carmakcod 

11/7/2014  18:27 >> Application_Name >> getDataPremium
exec sp_calonlineweb 'Y','210','1','4','A','','2500','21','A',497826.22,550228.98,'0',0

11/7/2014  18:27 >> Application_Name >> getDataPremium
exec sp_calonlineweb 'Y','210','2','4','A','','2500','21','A',497826.22,550228.98,'0',0

11/7/2014  18:27 >> Application_Name >> getDataPremium
exec sp_calonlineweb 'Y','210','3','4','A','','2500','21','A',0,0,'0',0

11/7/2014  18:27 >> Application_Name >> getDataPremium
exec sp_calonlineweb 'Y','210','1','4','A','','2500','21','A',497826.22,550228.98,'0',0

11/7/2014  18:27 >> Application_Name >> getDataPremium
exec sp_calonlineweb 'Y','210','2','4','A','','2500','21','A',497826.22,550228.98,'0',0

11/7/2014  18:27 >> Application_Name >> getDataPremium
exec sp_calonlineweb 'Y','210','3','4','A','','2500','21','A',0,0,'0',0

11/7/2014  18:28 >> Application_Name >> getDataCarMarkByCarMarkCode
SELECT * 
 FROM online_carmark 
 WHERE carmakcod = '' 
 ORDER BY desc_t, carmakcod 

11/7/2014  18:28 >> Application_Name >> getDataCarMarkByCarMarkCode
SELECT * 
 FROM online_carmark 
 WHERE carmakcod = 'JK-TO254' 
 ORDER BY desc_t, carmakcod 

11/7/2014  18:29 >> Application_Name >> getDataCarMarkByCarMarkCode
SELECT * 
 FROM online_carmark 
 WHERE carmakcod = '' 
 ORDER BY desc_t, carmakcod 

11/7/2014  18:29 >> Application_Name >> getDataCarMarkByCarMarkCode
SELECT * 
 FROM online_carmark 
 WHERE carmakcod = '' 
 ORDER BY desc_t, carmakcod 

11/7/2014  18:29 >> Application_Name >> getDataCarMarkByCarMarkCode
SELECT * 
 FROM online_carmark 
 WHERE carmakcod = 'JP-TO100' 
 ORDER BY desc_t, carmakcod 

11/7/2014  18:36 >> Application_Name >> getDataCarMarkByCarMarkCode
SELECT * 
 FROM online_carmark 
 WHERE carmakcod = '' 
 ORDER BY desc_t, carmakcod 

11/7/2014  18:37 >> Application_Name >> getDataCarMarkByCarMarkCode
SELECT * 
 FROM online_carmark 
 WHERE carmakcod = 'JK-TO196' 
 ORDER BY desc_t, carmakcod 

11/7/2014  18:40 >> Application_Name >> getDataCarMarkByCarMarkCode
SELECT * 
 FROM online_carmark 
 WHERE carmakcod = '' 
 ORDER BY desc_t, carmakcod 

11/7/2014  18:40 >> Application_Name >> getDataCarMarkByCarMarkCode
SELECT * 
 FROM online_carmark 
 WHERE carmakcod = 'JK-TO196' 
 ORDER BY desc_t, carmakcod 

11/7/2014  19:3 >> Application_Name >> getDataCarMarkByCarMarkCode
SELECT * 
 FROM online_carmark 
 WHERE carmakcod = '' 
 ORDER BY desc_t, carmakcod 

11/7/2014  19:3 >> Application_Name >> getDataCarMarkByCarMarkCode
SELECT * 
 FROM online_carmark 
 WHERE carmakcod = 'JK-TO196' 
 ORDER BY desc_t, carmakcod 

11/7/2014  19:5 >> Application_Name >> getDataPremium
exec sp_calonlineweb 'N','110','1','2','3 ','JK-TO196','2000','A','A',752400,919600,'36',30

11/7/2014  19:5 >> Application_Name >> getDataPremium
exec sp_calonlineweb 'N','110','2','2','3 ','JK-TO196','2000','A','A',752400,919600,'36',30

11/7/2014  19:5 >> Application_Name >> getDataPremium
exec sp_calonlineweb 'N','110','3','2','3 ','JK-TO196','2000','A','A',0,0,'36',30

11/7/2014  19:5 >> Application_Name >> getDataPremium
exec sp_calonlineweb 'N','110','1','2','3 ','JK-TO196','2000','A','A',752400,919600,'36',30

11/7/2014  19:5 >> Application_Name >> getDataPremium
exec sp_calonlineweb 'N','110','2','2','3 ','JK-TO196','2000','A','A',752400,919600,'36',30

11/7/2014  19:5 >> Application_Name >> getDataPremium
exec sp_calonlineweb 'N','110','3','2','3 ','JK-TO196','2000','A','A',0,0,'36',30

11/7/2014  19:12 >> Application_Name >> getDataPremium
exec sp_calonlineweb 'N','110','1','3','3 ','JK-TO196','2000','A','A',714780,873620,'36',30

11/7/2014  19:12 >> Application_Name >> getDataPremium
exec sp_calonlineweb 'N','110','2','3','3 ','JK-TO196','2000','A','A',714780,873620,'36',30

11/7/2014  19:12 >> Application_Name >> getDataPremium
exec sp_calonlineweb 'N','110','3','3','3 ','JK-TO196','2000','A','A',0,0,'36',30

11/7/2014  19:28 >> Application_Name >> getDataCarMarkByCarMarkCode
SELECT * 
 FROM online_carmark 
 WHERE carmakcod = '' 
 ORDER BY desc_t, carmakcod 

11/7/2014  19:28 >> Application_Name >> getDataCarMarkByCarMarkCode
SELECT * 
 FROM online_carmark 
 WHERE carmakcod = '' 
 ORDER BY desc_t, carmakcod 

11/7/2014  19:28 >> Application_Name >> getDataCarMarkByCarMarkCode
SELECT * 
 FROM online_carmark 
 WHERE carmakcod = '' 
 ORDER BY desc_t, carmakcod 

11/7/2014  19:28 >> Application_Name >> getDataCarMarkByCarMarkCode
SELECT * 
 FROM online_carmark 
 WHERE carmakcod = '' 
 ORDER BY desc_t, carmakcod 

11/7/2014  19:28 >> Application_Name >> getDataCarMarkByCarMarkCode
SELECT * 
 FROM online_carmark 
 WHERE carmakcod = '' 
 ORDER BY desc_t, carmakcod 

11/7/2014  19:28 >> Application_Name >> getDataCarMarkByCarMarkCode
SELECT * 
 FROM online_carmark 
 WHERE carmakcod = 'JK-MA065' 
 ORDER BY desc_t, carmakcod 

11/7/2014  19:28 >> Application_Name >> getDataCarMarkByCarMarkCode
SELECT * 
 FROM online_carmark 
 WHERE carmakcod = '' 
 ORDER BY desc_t, carmakcod 

11/7/2014  19:29 >> Application_Name >> getDataCarMarkByCarMarkCode
SELECT * 
 FROM online_carmark 
 WHERE carmakcod = 'JP-IS052' 
 ORDER BY desc_t, carmakcod 

11/7/2014  19:30 >> Application_Name >> getDataPremium
exec sp_calonlineweb 'N','110','1','4','5 ','JK-MA065','2000','A','A',432117,528143,'0',0

11/7/2014  19:30 >> Application_Name >> getDataPremium
exec sp_calonlineweb 'N','110','2','4','5 ','JK-MA065','2000','A','A',432117,528143,'0',0

11/7/2014  19:30 >> Application_Name >> getDataPremium
exec sp_calonlineweb 'N','110','3','4','5 ','JK-MA065','2000','A','A',0,0,'0',0

11/7/2014  19:59 >> Application_Name >> getDataCarMarkByCarMarkCode
SELECT * 
 FROM online_carmark 
 WHERE carmakcod = '' 
 ORDER BY desc_t, carmakcod 

11/7/2014  20:0 >> Application_Name >> getDataCarMarkByCarMarkCode
SELECT * 
 FROM online_carmark 
 WHERE carmakcod = 'JK-MI047' 
 ORDER BY desc_t, carmakcod 

11/7/2014  20:1 >> Application_Name >> getDataCarMarkByCarMarkCode
SELECT * 
 FROM online_carmark 
 WHERE carmakcod = '' 
 ORDER BY desc_t, carmakcod 

11/7/2014  20:43 >> Application_Name >> getDataCarMarkByCarMarkCode
SELECT * 
 FROM online_carmark 
 WHERE carmakcod = '' 
 ORDER BY desc_t, carmakcod 

11/7/2014  20:43 >> Application_Name >> getDataCarMarkByCarMarkCode
SELECT * 
 FROM online_carmark 
 WHERE carmakcod = 'JK-HO003' 
 ORDER BY desc_t, carmakcod 

11/7/2014  20:55 >> Application_Name >> getDataCarMarkByCarMarkCode
SELECT * 
 FROM online_carmark 
 WHERE carmakcod = '' 
 ORDER BY desc_t, carmakcod 

11/7/2014  20:55 >> Application_Name >> getDataCarMarkByCarMarkCode
SELECT * 
 FROM online_carmark 
 WHERE carmakcod = 'JK-TO234' 
 ORDER BY desc_t, carmakcod 

11/7/2014  21:0 >> Application_Name >> getDataPremium
exec sp_calonlineweb 'Y','110','1','3','5 ','JK-TO234','2000','A','A',487350,595650,'0',20

11/7/2014  21:0 >> Application_Name >> getDataPremium
exec sp_calonlineweb 'Y','110','2','3','5 ','JK-TO234','2000','A','A',487350,595650,'0',20

11/7/2014  21:0 >> Application_Name >> getDataPremium
exec sp_calonlineweb 'Y','110','3','3','5 ','JK-TO234','2000','A','A',0,0,'0',20

11/7/2014  21:2 >> Application_Name >> SMK :: BuyVoluntary_step2-docToUI
Combine

11/7/2014  21:2 >> Application_Name >> SMK :: BuyVoluntary_step2-docToUI
rg_prmm-013533.6

11/7/2014  21:2 >> Application_Name >> SMK :: BuyVoluntary_step2-docToUI
rg_prmm13533.6

11/7/2014  21:2 >> Application_Name >> SMK :: BuyVoluntary_step2-docToUI
cp_comp_prmm600.00

11/7/2014  21:9 >> Application_Name >> getDataCarMarkByCarMarkCode
SELECT * 
 FROM online_carmark 
 WHERE carmakcod = '' 
 ORDER BY desc_t, carmakcod 

11/7/2014  21:9 >> Application_Name >> getDataCarMarkByCarMarkCode
SELECT * 
 FROM online_carmark 
 WHERE carmakcod = 'JK-TO234' 
 ORDER BY desc_t, carmakcod 

11/7/2014  21:14 >> Application_Name >> getDataPremium
exec sp_calonlineweb 'Y','110','1','3','5 ','JK-TO234','2000','A','A',487350,595650,'0',0

11/7/2014  21:14 >> Application_Name >> getDataPremium
exec sp_calonlineweb 'Y','110','2','3','5 ','JK-TO234','2000','A','A',487350,595650,'0',0

11/7/2014  21:14 >> Application_Name >> getDataPremium
exec sp_calonlineweb 'Y','110','3','3','5 ','JK-TO234','2000','A','A',0,0,'0',0

11/7/2014  21:55 >> Application_Name >> getDataCarMarkByCarMarkCode
SELECT * 
 FROM online_carmark 
 WHERE carmakcod = '' 
 ORDER BY desc_t, carmakcod 

11/7/2014  21:55 >> Application_Name >> getDataCarMarkByCarMarkCode
SELECT * 
 FROM online_carmark 
 WHERE carmakcod = 'JK-TO234' 
 ORDER BY desc_t, carmakcod 

11/7/2014  21:57 >> Application_Name >> getDataPremium
exec sp_calonlineweb 'Y','110','1','6','5 ','JK-TO234','2000','A','A',417841.70625,510695.41875,'0',30

11/7/2014  21:57 >> Application_Name >> getDataPremium
exec sp_calonlineweb 'Y','110','2','6','5 ','JK-TO234','2000','A','A',417841.70625,510695.41875,'0',30

11/7/2014  21:57 >> Application_Name >> getDataPremium
exec sp_calonlineweb 'Y','110','3','6','5 ','JK-TO234','2000','A','A',0,0,'0',30

11/7/2014  21:58 >> Application_Name >> getDataPremium
exec sp_calonlineweb 'Y','110','1','7','5 ','JK-TO234','2000','A','A',396949.6209375,485160.6478125,'0',30

11/7/2014  21:58 >> Application_Name >> getDataPremium
exec sp_calonlineweb 'Y','110','2','7','5 ','JK-TO234','2000','A','A',396949.6209375,485160.6478125,'0',30

11/7/2014  21:58 >> Application_Name >> getDataPremium
exec sp_calonlineweb 'Y','110','3','7','5 ','JK-TO234','2000','A','A',0,0,'0',30

11/7/2014  21:59 >> Application_Name >> getDataPremium
exec sp_calonlineweb 'Y','110','1','7','5 ','JK-TO234','2000','A','A',396949.6209375,485160.6478125,'25',30

11/7/2014  21:59 >> Application_Name >> getDataPremium
exec sp_calonlineweb 'Y','110','2','7','5 ','JK-TO234','2000','A','A',396949.6209375,485160.6478125,'25',30

11/7/2014  21:59 >> Application_Name >> getDataPremium
exec sp_calonlineweb 'Y','110','3','7','5 ','JK-TO234','2000','A','A',0,0,'25',30

11/7/2014  21:59 >> Application_Name >> getDataPremium
exec sp_calonlineweb 'Y','110','1','7','5 ','JK-TO234','2000','A','A',396949.6209375,485160.6478125,'25',20

11/7/2014  21:59 >> Application_Name >> getDataPremium
exec sp_calonlineweb 'Y','110','2','7','5 ','JK-TO234','2000','A','A',396949.6209375,485160.6478125,'25',20

11/7/2014  21:59 >> Application_Name >> getDataPremium
exec sp_calonlineweb 'Y','110','3','7','5 ','JK-TO234','2000','A','A',0,0,'25',20

11/7/2014  21:59 >> Application_Name >> getDataPremium
exec sp_calonlineweb 'Y','110','1','7','5 ','JK-TO234','2000','A','A',396949.6209375,485160.6478125,'25',30

11/7/2014  21:59 >> Application_Name >> getDataPremium
exec sp_calonlineweb 'Y','110','2','7','5 ','JK-TO234','2000','A','A',396949.6209375,485160.6478125,'25',30

11/7/2014  21:59 >> Application_Name >> getDataPremium
exec sp_calonlineweb 'Y','110','3','7','5 ','JK-TO234','2000','A','A',0,0,'25',30

11/7/2014  22:55 >> Application_Name >> getCategoryCompByBrand
SELECT mdc_minor_cd , mdc_desc_t as mdc_desc FROM mtdesc_comp  WHERE mdc_minor_cd <> '0000' AND mdc_major_cd = 'H004' ORDER BY mdc_desc 

11/7/2014  23:15 >> Application_Name >> getDataCarMarkByCarMarkCode
SELECT * 
 FROM online_carmark 
 WHERE carmakcod = '' 
 ORDER BY desc_t, carmakcod 

11/7/2014  23:16 >> Application_Name >> getDataCarMarkByCarMarkCode
SELECT * 
 FROM online_carmark 
 WHERE carmakcod = '' 
 ORDER BY desc_t, carmakcod 

11/7/2014  23:16 >> Application_Name >> getDataCarMarkByCarMarkCode
SELECT * 
 FROM online_carmark 
 WHERE carmakcod = 'JP-MI034' 
 ORDER BY desc_t, carmakcod 

11/7/2014  23:16 >> Application_Name >> getCategoryCompByBrand
SELECT mdc_minor_cd , mdc_desc_t as mdc_desc FROM mtdesc_comp  WHERE mdc_minor_cd <> '0000' AND mdc_major_cd = 'T001' ORDER BY mdc_desc 

