19/3/2014  0:0 >> Application_Name >> getDataPremium
exec sp_calonlineweb 'Y','110','1','6','5 ','JK-TO242','2000','A','A',389985.5925,476649.0575,'0',30

19/3/2014  0:0 >> Application_Name >> getDataPremium
exec sp_calonlineweb 'Y','110','2','6','5 ','JK-TO242','2000','A','A',389985.5925,476649.0575,'0',30

19/3/2014  0:0 >> Application_Name >> getDataPremium
exec sp_calonlineweb 'Y','110','3','6','5 ','JK-TO242','2000','A','A',0,0,'0',30

19/3/2014  0:0 >> Application_Name >> getDataPremium
exec sp_calonlineweb 'Y','110','1','6','5 ','JK-TO242','2000','A','A',389985.5925,476649.0575,'0',30

19/3/2014  0:0 >> Application_Name >> getDataPremium
exec sp_calonlineweb 'Y','110','2','6','5 ','JK-TO242','2000','A','A',389985.5925,476649.0575,'0',30

19/3/2014  0:0 >> Application_Name >> getDataPremium
exec sp_calonlineweb 'Y','110','3','6','5 ','JK-TO242','2000','A','A',0,0,'0',30

19/3/2014  0:1 >> Application_Name >> SMK :: BuyVoluntary_step2-docToUI
Combine

19/3/2014  0:1 >> Application_Name >> SMK :: BuyVoluntary_step2-docToUI
rg_prmm-011543.7

19/3/2014  0:1 >> Application_Name >> SMK :: BuyVoluntary_step2-docToUI
rg_prmm11543.7

19/3/2014  0:1 >> Application_Name >> SMK :: BuyVoluntary_step2-docToUI
cp_comp_prmm600.00

19/3/2014  0:2 >> Application_Name >> getDataPremium
exec sp_calonlineweb 'N','110','1','6','5 ','JK-TO242','2000','A','A',389985.5925,476649.0575,'0',30

19/3/2014  0:2 >> Application_Name >> getDataPremium
exec sp_calonlineweb 'N','110','2','6','5 ','JK-TO242','2000','A','A',389985.5925,476649.0575,'0',30

19/3/2014  0:2 >> Application_Name >> getDataPremium
exec sp_calonlineweb 'N','110','3','6','5 ','JK-TO242','2000','A','A',0,0,'0',30

19/3/2014  4:26 >> Application_Name >> getDataCarMarkByCarMarkCode
SELECT * 
 FROM online_carmark 
 WHERE carmakcod = '' 
 ORDER BY desc_t, carmakcod 

19/3/2014  4:26 >> Application_Name >> getDataCarMarkByCarMarkCode
SELECT * 
 FROM online_carmark 
 WHERE carmakcod = 'JK-NI100' 
 ORDER BY desc_t, carmakcod 

19/3/2014  4:27 >> Application_Name >> getDataPremium
exec sp_calonlineweb 'Y','110','1','3','5 ','JK-NI100','2000','A','A',361000,397100,'25',30

19/3/2014  4:27 >> Application_Name >> getDataPremium
exec sp_calonlineweb 'Y','110','2','3','5 ','JK-NI100','2000','A','A',361000,397100,'25',30

19/3/2014  4:27 >> Application_Name >> getDataPremium
exec sp_calonlineweb 'Y','110','3','3','5 ','JK-NI100','2000','A','A',0,0,'25',30

19/3/2014  4:27 >> Application_Name >> getDataPremium
exec sp_calonlineweb 'Y','110','1','3','5 ','JK-NI100','2000','A','A',361000,397100,'25',0

19/3/2014  4:27 >> Application_Name >> getDataPremium
exec sp_calonlineweb 'Y','110','2','3','5 ','JK-NI100','2000','A','A',361000,397100,'25',0

19/3/2014  4:27 >> Application_Name >> getDataPremium
exec sp_calonlineweb 'Y','110','3','3','5 ','JK-NI100','2000','A','A',0,0,'25',0

19/3/2014  4:29 >> Application_Name >> getDataPremium
exec sp_calonlineweb 'Y','110','1','3','5 ','JK-NI100','2000','A','A',361000,397100,'25',0

19/3/2014  4:29 >> Application_Name >> getDataPremium
exec sp_calonlineweb 'Y','110','2','3','5 ','JK-NI100','2000','A','A',361000,397100,'25',0

19/3/2014  4:29 >> Application_Name >> getDataPremium
exec sp_calonlineweb 'Y','110','3','3','5 ','JK-NI100','2000','A','A',0,0,'25',0

19/3/2014  4:29 >> Application_Name >> getDataPremium
exec sp_calonlineweb 'Y','110','1','3','5 ','JK-NI100','2000','A','A',361000,397100,'25',30

19/3/2014  4:29 >> Application_Name >> getDataPremium
exec sp_calonlineweb 'Y','110','2','3','5 ','JK-NI100','2000','A','A',361000,397100,'25',30

19/3/2014  4:29 >> Application_Name >> getDataPremium
exec sp_calonlineweb 'Y','110','3','3','5 ','JK-NI100','2000','A','A',0,0,'25',30

19/3/2014  7:49 >> Application_Name >> getDataCarMarkByCarMarkCode
SELECT * 
 FROM online_carmark 
 WHERE carmakcod = 'JK-TO196' 
 ORDER BY desc_t, carmakcod 

19/3/2014  8:50 >> Application_Name >> getDataCarMarkByCarMarkCode
SELECT * 
 FROM online_carmark 
 WHERE carmakcod = '' 
 ORDER BY desc_t, carmakcod 

19/3/2014  8:50 >> Application_Name >> getDataCarMarkByCarMarkCode
SELECT * 
 FROM online_carmark 
 WHERE carmakcod = 'JK-NI100' 
 ORDER BY desc_t, carmakcod 

19/3/2014  8:56 >> Application_Name >> getDataPremium
exec sp_calonlineweb 'N','110','1','2','5 ','JK-NI100','2000','A','A',380000,418000,'25',30

19/3/2014  8:56 >> Application_Name >> getDataPremium
exec sp_calonlineweb 'N','110','2','2','5 ','JK-NI100','2000','A','A',380000,418000,'25',30

19/3/2014  8:56 >> Application_Name >> getDataPremium
exec sp_calonlineweb 'N','110','3','2','5 ','JK-NI100','2000','A','A',0,0,'25',30

19/3/2014  8:57 >> Application_Name >> getDataPremium
exec sp_calonlineweb 'N','110','1','2','5 ','JK-NI100','2000','A','A',380000,418000,'25',30

19/3/2014  8:57 >> Application_Name >> getDataPremium
exec sp_calonlineweb 'N','110','2','2','5 ','JK-NI100','2000','A','A',380000,418000,'25',30

19/3/2014  8:57 >> Application_Name >> getDataPremium
exec sp_calonlineweb 'N','110','3','2','5 ','JK-NI100','2000','A','A',0,0,'25',30

19/3/2014  9:21 >> Application_Name >> getDataCarMarkByCarMarkCode
SELECT * 
 FROM online_carmark 
 WHERE carmakcod = '' 
 ORDER BY desc_t, carmakcod 

19/3/2014  9:21 >> Application_Name >> getDataCarMarkByCarMarkCode
SELECT * 
 FROM online_carmark 
 WHERE carmakcod = '' 
 ORDER BY desc_t, carmakcod 

19/3/2014  9:21 >> Application_Name >> getDataCarMarkByCarMarkCode
SELECT * 
 FROM online_carmark 
 WHERE carmakcod = 'JP-NI006' 
 ORDER BY desc_t, carmakcod 

19/3/2014  9:51 >> Application_Name >> getDataCarMarkByCarMarkCode
SELECT * 
 FROM online_carmark 
 WHERE carmakcod = '' 
 ORDER BY desc_t, carmakcod 

19/3/2014  9:51 >> Application_Name >> getDataCarMarkByCarMarkCode
SELECT * 
 FROM online_carmark 
 WHERE carmakcod = 'JK-TO206' 
 ORDER BY desc_t, carmakcod 

19/3/2014  9:53 >> Application_Name >> getDataPremium
exec sp_calonlineweb 'Y','110','1','2','4 ','JK-TO206','2000','A','A',530100,647900,'0',30

19/3/2014  9:53 >> Application_Name >> getDataPremium
exec sp_calonlineweb 'Y','110','2','2','4 ','JK-TO206','2000','A','A',530100,647900,'0',30

19/3/2014  9:53 >> Application_Name >> getDataPremium
exec sp_calonlineweb 'Y','110','3','2','4 ','JK-TO206','2000','A','A',0,0,'0',30

19/3/2014  9:55 >> Application_Name >> getDataCarMarkByCarMarkCode
SELECT * 
 FROM online_carmark 
 WHERE carmakcod = '' 
 ORDER BY desc_t, carmakcod 

19/3/2014  9:55 >> Application_Name >> getDataCarMarkByCarMarkCode
SELECT * 
 FROM online_carmark 
 WHERE carmakcod = 'JK-MI080' 
 ORDER BY desc_t, carmakcod 

19/3/2014  9:56 >> Application_Name >> getDataPremium
exec sp_calonlineweb 'Y','110','1','2','5 ','JK-MI080','2000','A','A',376200,459800,'0',20

19/3/2014  9:56 >> Application_Name >> getDataPremium
exec sp_calonlineweb 'Y','110','2','2','5 ','JK-MI080','2000','A','A',376200,459800,'0',20

19/3/2014  9:56 >> Application_Name >> getDataPremium
exec sp_calonlineweb 'Y','110','3','2','5 ','JK-MI080','2000','A','A',0,0,'0',20

19/3/2014  10:5 >> Application_Name >> getDataCarMarkByCarMarkCode
SELECT * 
 FROM online_carmark 
 WHERE carmakcod = '' 
 ORDER BY desc_t, carmakcod 

19/3/2014  10:6 >> Application_Name >> getDataCarMarkByCarMarkCode
SELECT * 
 FROM online_carmark 
 WHERE carmakcod = 'JK-TO254' 
 ORDER BY desc_t, carmakcod 

19/3/2014  10:7 >> Application_Name >> getDataPremium
exec sp_calonlineweb 'Y','110','1','2','3 ','JK-TO254','9999','A','A',551608,609672,'0',0

19/3/2014  10:7 >> Application_Name >> getDataPremium
exec sp_calonlineweb 'Y','110','2','2','3 ','JK-TO254','9999','A','A',551608,609672,'0',0

19/3/2014  10:7 >> Application_Name >> getDataPremium
exec sp_calonlineweb 'Y','110','3','2','3 ','JK-TO254','9999','A','A',0,0,'0',0

19/3/2014  10:8 >> Application_Name >> SMK :: BuyVoluntary_step2-docToUI
Combine

19/3/2014  10:8 >> Application_Name >> SMK :: BuyVoluntary_step2-docToUI
rg_prmm-020073

19/3/2014  10:8 >> Application_Name >> SMK :: BuyVoluntary_step2-docToUI
rg_prmm20073

19/3/2014  10:8 >> Application_Name >> SMK :: BuyVoluntary_step2-docToUI
cp_comp_prmm600.00

19/3/2014  10:10 >> Application_Name >> getDataPremium
exec sp_calonlineweb 'N','110','1','2','5 ','JK-NI100','2000','A','A',380000,418000,'25',20

19/3/2014  10:10 >> Application_Name >> getDataPremium
exec sp_calonlineweb 'N','110','2','2','5 ','JK-NI100','2000','A','A',380000,418000,'25',20

19/3/2014  10:10 >> Application_Name >> getDataPremium
exec sp_calonlineweb 'N','110','3','2','5 ','JK-NI100','2000','A','A',0,0,'25',20

19/3/2014  10:12 >> Application_Name >> getDataCarMarkByCarMarkCode
SELECT * 
 FROM online_carmark 
 WHERE carmakcod = '' 
 ORDER BY desc_t, carmakcod 

19/3/2014  10:12 >> Application_Name >> getDataCarMarkByCarMarkCode
SELECT * 
 FROM online_carmark 
 WHERE carmakcod = 'JK-TO240' 
 ORDER BY desc_t, carmakcod 

19/3/2014  10:14 >> Application_Name >> BLWorker::executeUpdate
String or binary data would be truncated.
The statement has been terminated.

19/3/2014  10:14 >> Application_Name >> BLWorker::SQL
INSERT INTO tmpreg(tm_tmp_cd, tm_main_class, tm_pol_type, tm_effect_dt, tm_expiry_dt, tm_regis_dt, tm_regis_time, tm_regis_type, tm_ins_fname, tm_ins_lname, tm_ins_addr1, tm_ins_addr2, tm_ins_amphor, tm_ins_changwat, tm_ins_postcode, tm_ins_tel, tm_ins_email, tm_sum_ins, tm_prmm, tm_tax, tm_stamp, tm_fleet_perc, tm_stat, tm_ins_mobile, tm_ins_idcard, tm_oth_distance, tm_oth_region, tm_oth_flagdeduct, tm_oth_oldpolicy, tm_mott_id, tm_insc_id, tm_prmmgross ) VALUES('140319-001','M',      '1',      '2014/03/25',     '2015/03/25',     '2014/3/19',      '10:14',      'N',      'ณัชดา',      'พรมสอน',      '1088 บริษัีทตรีเพชร อีซูซุ (แผนกช่าง) ซ.วิภาวดี30 ถนนวิภาวดี ',      'แขวงจตุจักร ',      'จตุจักร',      '00',      '10900',      '',      '',      '560000',      '20073',      '1410.78',      '81',      '0',      'N',      '091-8744755',      '-',      '',      '1',      '',      'N',      '',      '',      '22209.99' ) 

19/3/2014  10:15 >> Application_Name >> BLWorker::executeUpdate
String or binary data would be truncated.
The statement has been terminated.

19/3/2014  10:15 >> Application_Name >> BLWorker::SQL
INSERT INTO tmpreg(tm_tmp_cd, tm_main_class, tm_pol_type, tm_effect_dt, tm_expiry_dt, tm_regis_dt, tm_regis_time, tm_regis_type, tm_ins_fname, tm_ins_lname, tm_ins_addr1, tm_ins_addr2, tm_ins_amphor, tm_ins_changwat, tm_ins_postcode, tm_ins_tel, tm_ins_email, tm_sum_ins, tm_prmm, tm_tax, tm_stamp, tm_fleet_perc, tm_stat, tm_ins_mobile, tm_ins_idcard, tm_oth_distance, tm_oth_region, tm_oth_flagdeduct, tm_oth_oldpolicy, tm_mott_id, tm_insc_id, tm_prmmgross ) VALUES('140319-001','M',      '1',      '2014/03/25',     '2015/03/25',     '2014/3/19',      '10:15',      'N',      'ณัชดา',      'พรมสอน',      '1088 บริษัีทตรีเพชร อีซูซุ (แผนกช่าง) ซ.วิภาวดี30 ถนนวิภาวดี ',      'แขวงจตุจักร ',      'จตุจักร',      '00',      '10900',      '',      '',      '560000',      '20073',      '1410.78',      '81',      '0',      'N',      '091-8744755',      '-',      '',      '1',      '',      'N',      '',      '',      '22209.99' ) 

19/3/2014  10:15 >> Application_Name >> BLWorker::executeUpdate
String or binary data would be truncated.
The statement has been terminated.

19/3/2014  10:15 >> Application_Name >> BLWorker::SQL
INSERT INTO tmpreg(tm_tmp_cd, tm_main_class, tm_pol_type, tm_effect_dt, tm_expiry_dt, tm_regis_dt, tm_regis_time, tm_regis_type, tm_ins_fname, tm_ins_lname, tm_ins_addr1, tm_ins_addr2, tm_ins_amphor, tm_ins_changwat, tm_ins_postcode, tm_ins_tel, tm_ins_email, tm_sum_ins, tm_prmm, tm_tax, tm_stamp, tm_fleet_perc, tm_stat, tm_ins_mobile, tm_ins_idcard, tm_oth_distance, tm_oth_region, tm_oth_flagdeduct, tm_oth_oldpolicy, tm_mott_id, tm_insc_id, tm_prmmgross ) VALUES('140319-001','M',      '1',      '2014/03/25',     '2015/03/25',     '2014/3/19',      '10:15',      'N',      'ณัชดา',      'พรมสอน',      '1088 บริษัีทตรีเพชร อีซูซุ (แผนกช่าง) ซ.วิภาวดี30 ถนนวิภาวดี ',      'แขวงจตุจักร ',      'จตุจักร',      '00',      '10900',      '',      '',      '560000',      '20073',      '1410.78',      '81',      '0',      'N',      '091-8744755',      '-',      '',      '1',      '',      'N',      '',      '',      '22209.99' ) 

19/3/2014  10:15 >> Application_Name >> BLWorker::executeUpdate
String or binary data would be truncated.
The statement has been terminated.

19/3/2014  10:15 >> Application_Name >> BLWorker::SQL
INSERT INTO tmpreg(tm_tmp_cd, tm_main_class, tm_pol_type, tm_effect_dt, tm_expiry_dt, tm_regis_dt, tm_regis_time, tm_regis_type, tm_ins_fname, tm_ins_lname, tm_ins_addr1, tm_ins_addr2, tm_ins_amphor, tm_ins_changwat, tm_ins_postcode, tm_ins_tel, tm_ins_email, tm_sum_ins, tm_prmm, tm_tax, tm_stamp, tm_fleet_perc, tm_stat, tm_ins_mobile, tm_ins_idcard, tm_oth_distance, tm_oth_region, tm_oth_flagdeduct, tm_oth_oldpolicy, tm_mott_id, tm_insc_id, tm_prmmgross ) VALUES('140319-001','M',      '1',      '2014/03/25',     '2015/03/25',     '2014/3/19',      '10:15',      'N',      'ณัชดา',      'พรมสอน',      '1088 บริษัีทตรีเพชร อีซูซุ (แผนกช่าง) ซ.วิภาวดี30 ถนนวิภาวดี ',      'แขวงจตุจักร ',      'จตุจักร',      '00',      '10900',      '',      '',      '560000',      '20073',      '1410.78',      '81',      '0',      'N',      '091-8744755',      '-',      '',      '1',      '',      'N',      '',      '',      '22209.99' ) 

19/3/2014  10:15 >> Application_Name >> getDataCarMarkByCarMarkCode
SELECT * 
 FROM online_carmark 
 WHERE carmakcod = '' 
 ORDER BY desc_t, carmakcod 

19/3/2014  10:15 >> Application_Name >> getDataCarMarkByCarMarkCode
SELECT * 
 FROM online_carmark 
 WHERE carmakcod = 'JK-TO254' 
 ORDER BY desc_t, carmakcod 

19/3/2014  10:16 >> Application_Name >> getDataPremium
exec sp_calonlineweb 'Y','110','1','2','3 ','JK-TO254','9999','A','A',551608,609672,'0',0

19/3/2014  10:16 >> Application_Name >> getDataPremium
exec sp_calonlineweb 'Y','110','2','2','3 ','JK-TO254','9999','A','A',551608,609672,'0',0

19/3/2014  10:16 >> Application_Name >> getDataPremium
exec sp_calonlineweb 'Y','110','3','2','3 ','JK-TO254','9999','A','A',0,0,'0',0

19/3/2014  10:16 >> Application_Name >> SMK :: BuyVoluntary_step2-docToUI
Combine

19/3/2014  10:16 >> Application_Name >> SMK :: BuyVoluntary_step2-docToUI
rg_prmm-020073

19/3/2014  10:16 >> Application_Name >> SMK :: BuyVoluntary_step2-docToUI
rg_prmm20073

19/3/2014  10:16 >> Application_Name >> SMK :: BuyVoluntary_step2-docToUI
cp_comp_prmm600.00

19/3/2014  10:18 >> Application_Name >> getDataCarMarkByCarMarkCode
SELECT * 
 FROM online_carmark 
 WHERE carmakcod = '' 
 ORDER BY desc_t, carmakcod 

19/3/2014  10:18 >> Application_Name >> getDataCarMarkByCarMarkCode
SELECT * 
 FROM online_carmark 
 WHERE carmakcod = '' 
 ORDER BY desc_t, carmakcod 

19/3/2014  10:18 >> Application_Name >> getDataCarMarkByCarMarkCode
SELECT * 
 FROM online_carmark 
 WHERE carmakcod = '' 
 ORDER BY desc_t, carmakcod 

19/3/2014  10:18 >> Application_Name >> getDataCarMarkByCarMarkCode
SELECT * 
 FROM online_carmark 
 WHERE carmakcod = 'JK-MI080' 
 ORDER BY desc_t, carmakcod 

19/3/2014  10:21 >> Application_Name >> getDataPremium
exec sp_calonlineweb 'Y','110','1','3','5 ','JK-MI080','2000','A','A',357390,436810,'0',20

19/3/2014  10:21 >> Application_Name >> getDataPremium
exec sp_calonlineweb 'Y','110','2','3','5 ','JK-MI080','2000','A','A',357390,436810,'0',20

19/3/2014  10:21 >> Application_Name >> getDataPremium
exec sp_calonlineweb 'Y','110','3','3','5 ','JK-MI080','2000','A','A',0,0,'0',20

19/3/2014  10:22 >> Application_Name >> getDataPremium
exec sp_calonlineweb 'Y','110','1','3','5 ','JK-MI080','2000','A','A',357390,436810,'36',20

19/3/2014  10:22 >> Application_Name >> getDataPremium
exec sp_calonlineweb 'Y','110','2','3','5 ','JK-MI080','2000','A','A',357390,436810,'36',20

19/3/2014  10:22 >> Application_Name >> getDataPremium
exec sp_calonlineweb 'Y','110','3','3','5 ','JK-MI080','2000','A','A',0,0,'36',20

19/3/2014  10:28 >> Application_Name >> getDataCarMarkByCarMarkCode
SELECT * 
 FROM online_carmark 
 WHERE carmakcod = '' 
 ORDER BY desc_t, carmakcod 

19/3/2014  10:28 >> Application_Name >> getDataCarMarkByCarMarkCode
SELECT * 
 FROM online_carmark 
 WHERE carmakcod = 'JK-TO234' 
 ORDER BY desc_t, carmakcod 

19/3/2014  10:28 >> Application_Name >> getCategoryCompByBrand
SELECT mdc_minor_cd , mdc_desc_t as mdc_desc FROM mtdesc_comp  WHERE mdc_minor_cd <> '0000' AND mdc_major_cd = 'H004' ORDER BY mdc_desc 

19/3/2014  10:30 >> Application_Name >> getDataPremium
exec sp_calonlineweb 'Y','110','1','5','5 ','JK-TO234','2000','A','A',439833.375,537574.125,'0',0

19/3/2014  10:30 >> Application_Name >> getDataPremium
exec sp_calonlineweb 'Y','110','1','5','5 ','JK-TO234','2000','A','A',439833.375,537574.125,'0',0

19/3/2014  10:30 >> Application_Name >> getDataPremium
exec sp_calonlineweb 'Y','110','2','5','5 ','JK-TO234','2000','A','A',439833.375,537574.125,'0',0

19/3/2014  10:30 >> Application_Name >> getDataPremium
exec sp_calonlineweb 'Y','110','3','5','5 ','JK-TO234','2000','A','A',0,0,'0',0

19/3/2014  10:30 >> Application_Name >> getDataPremium
exec sp_calonlineweb 'Y','110','2','5','5 ','JK-TO234','2000','A','A',439833.375,537574.125,'0',0

19/3/2014  10:30 >> Application_Name >> getDataPremium
exec sp_calonlineweb 'Y','110','3','5','5 ','JK-TO234','2000','A','A',0,0,'0',0

19/3/2014  10:32 >> Application_Name >> getNewPremium - compprmm
SELECT cp_com_prmm, cp_stamp, cp_tax FROM comprmm WHERE cp_veh_cd = '1.10   '

19/3/2014  10:57 >> Application_Name >> getDataCarMarkByCarMarkCode
SELECT * 
 FROM online_carmark 
 WHERE carmakcod = '' 
 ORDER BY desc_t, carmakcod 

19/3/2014  10:57 >> Application_Name >> getDataCarMarkByCarMarkCode
SELECT * 
 FROM online_carmark 
 WHERE carmakcod = '' 
 ORDER BY desc_t, carmakcod 

19/3/2014  10:57 >> Application_Name >> getDataCarMarkByCarMarkCode
SELECT * 
 FROM online_carmark 
 WHERE carmakcod = 'JP-IS052' 
 ORDER BY desc_t, carmakcod 

19/3/2014  11:1 >> Application_Name >> getDataCarMarkByCarMarkCode
SELECT * 
 FROM online_carmark 
 WHERE carmakcod = '' 
 ORDER BY desc_t, carmakcod 

19/3/2014  11:1 >> Application_Name >> getDataCarMarkByCarMarkCode
SELECT * 
 FROM online_carmark 
 WHERE carmakcod = 'EK-FO083' 
 ORDER BY desc_t, carmakcod 

19/3/2014  11:2 >> Application_Name >> getDataPremium
exec sp_calonlineweb 'Y','110','1','3','5 ','EK-FO083','2000','A','A',454860,555940,'0',20

19/3/2014  11:2 >> Application_Name >> getDataPremium
exec sp_calonlineweb 'Y','110','2','3','5 ','EK-FO083','2000','A','A',454860,555940,'0',20

19/3/2014  11:2 >> Application_Name >> getDataPremium
exec sp_calonlineweb 'Y','110','3','3','5 ','EK-FO083','2000','A','A',0,0,'0',20

19/3/2014  11:17 >> Application_Name >> getDataCarMarkByCarMarkCode
SELECT * 
 FROM online_carmark 
 WHERE carmakcod = '' 
 ORDER BY desc_t, carmakcod 

19/3/2014  11:17 >> Application_Name >> getDataCarMarkByCarMarkCode
SELECT * 
 FROM online_carmark 
 WHERE carmakcod = 'JK-NI100' 
 ORDER BY desc_t, carmakcod 

19/3/2014  11:18 >> Application_Name >> getDataPremium
exec sp_calonlineweb 'Y','110','1','2','5 ','JK-NI100','2000','A','A',380000,418000,'0',20

19/3/2014  11:18 >> Application_Name >> getDataPremium
exec sp_calonlineweb 'Y','110','1','2','5 ','JK-NI100','2000','A','A',380000,418000,'0',20

19/3/2014  11:18 >> Application_Name >> getDataPremium
exec sp_calonlineweb 'Y','110','1','2','5 ','JK-NI100','2000','A','A',380000,418000,'0',20

19/3/2014  11:18 >> Application_Name >> getDataPremium
exec sp_calonlineweb 'Y','110','2','2','5 ','JK-NI100','2000','A','A',380000,418000,'0',20

19/3/2014  11:18 >> Application_Name >> getDataPremium
exec sp_calonlineweb 'Y','110','2','2','5 ','JK-NI100','2000','A','A',380000,418000,'0',20

19/3/2014  11:18 >> Application_Name >> getDataPremium
exec sp_calonlineweb 'Y','110','2','2','5 ','JK-NI100','2000','A','A',380000,418000,'0',20

19/3/2014  11:18 >> Application_Name >> getDataPremium
exec sp_calonlineweb 'Y','110','3','2','5 ','JK-NI100','2000','A','A',0,0,'0',20

19/3/2014  11:18 >> Application_Name >> getDataPremium
exec sp_calonlineweb 'Y','110','3','2','5 ','JK-NI100','2000','A','A',0,0,'0',20

19/3/2014  11:18 >> Application_Name >> getDataPremium
exec sp_calonlineweb 'Y','110','3','2','5 ','JK-NI100','2000','A','A',0,0,'0',20

19/3/2014  11:18 >> Application_Name >> SMK :: BuyVoluntary_step2-docToUI
Combine

19/3/2014  11:18 >> Application_Name >> SMK :: BuyVoluntary_step2-docToUI
rg_prmm-010994.4

19/3/2014  11:18 >> Application_Name >> SMK :: BuyVoluntary_step2-docToUI
rg_prmm10994.4

19/3/2014  11:18 >> Application_Name >> SMK :: BuyVoluntary_step2-docToUI
cp_comp_prmm600.00

19/3/2014  11:19 >> Application_Name >> BLWorker::executeUpdate
String or binary data would be truncated.
The statement has been terminated.

19/3/2014  11:19 >> Application_Name >> BLWorker::SQL
INSERT INTO tmpreg(tm_tmp_cd, tm_main_class, tm_pol_type, tm_effect_dt, tm_expiry_dt, tm_regis_dt, tm_regis_time, tm_regis_type, tm_ins_fname, tm_ins_lname, tm_ins_addr1, tm_ins_addr2, tm_ins_amphor, tm_ins_changwat, tm_ins_postcode, tm_ins_tel, tm_ins_email, tm_sum_ins, tm_prmm, tm_tax, tm_stamp, tm_fleet_perc, tm_stat, tm_ins_mobile, tm_ins_idcard, tm_oth_distance, tm_oth_region, tm_oth_flagdeduct, tm_oth_oldpolicy, tm_mott_id, tm_insc_id, tm_prmmgross ) VALUES('140319-003','M',      '1',      '2014/03/19',     '2015/03/19',     '2014/3/19',      '11:19',      'N',      'tt',      'tt',      '313',      'บางกะปิ',      'บางกะปิ',      '00',      '10240',      '',      'tt',      '380000',      '10994.4',      '772.688',      '44',      '0',      'N',      'tt',      '0000000000000000000',      '',      '1',      '',      'N',      '1',      '5607000002',      '12456.30' ) 

19/3/2014  11:19 >> Application_Name >> BLWorker::executeUpdate
String or binary data would be truncated.
The statement has been terminated.

19/3/2014  11:19 >> Application_Name >> BLWorker::SQL
INSERT INTO tmpreg(tm_tmp_cd, tm_main_class, tm_pol_type, tm_effect_dt, tm_expiry_dt, tm_regis_dt, tm_regis_time, tm_regis_type, tm_ins_fname, tm_ins_lname, tm_ins_addr1, tm_ins_addr2, tm_ins_amphor, tm_ins_changwat, tm_ins_postcode, tm_ins_tel, tm_ins_email, tm_sum_ins, tm_prmm, tm_tax, tm_stamp, tm_fleet_perc, tm_stat, tm_ins_mobile, tm_ins_idcard, tm_oth_distance, tm_oth_region, tm_oth_flagdeduct, tm_oth_oldpolicy, tm_mott_id, tm_insc_id, tm_prmmgross ) VALUES('140319-003','M',      '1',      '2014/03/19',     '2015/03/19',     '2014/3/19',      '11:19',      'N',      'tt',      'tt',      '313',      'บางกะปิ',      'บางกะปิ',      '00',      '10240',      '',      'tt',      '380000',      '10994.4',      '772.688',      '44',      '0',      'N',      'tt',      '0000000000000000000',      '',      '1',      '',      'N',      '1',      '5607000002',      '12456.30' ) 

19/3/2014  11:19 >> Application_Name >> BLWorker::executeUpdate
String or binary data would be truncated.
The statement has been terminated.

19/3/2014  11:19 >> Application_Name >> BLWorker::SQL
INSERT INTO tmpreg(tm_tmp_cd, tm_main_class, tm_pol_type, tm_effect_dt, tm_expiry_dt, tm_regis_dt, tm_regis_time, tm_regis_type, tm_ins_fname, tm_ins_lname, tm_ins_addr1, tm_ins_addr2, tm_ins_amphor, tm_ins_changwat, tm_ins_postcode, tm_ins_tel, tm_ins_email, tm_sum_ins, tm_prmm, tm_tax, tm_stamp, tm_fleet_perc, tm_stat, tm_ins_mobile, tm_ins_idcard, tm_oth_distance, tm_oth_region, tm_oth_flagdeduct, tm_oth_oldpolicy, tm_mott_id, tm_insc_id, tm_prmmgross ) VALUES('140319-003','M',      '1',      '2014/03/19',     '2015/03/19',     '2014/3/19',      '11:19',      'N',      'tt',      'tt',      '313',      'บางกะปิ',      'บางกะปิ',      '00',      '10240',      '',      'tt',      '380000',      '10994.4',      '772.688',      '44',      '0',      'N',      'tt',      '0000000000000000000',      '',      '1',      '',      'N',      '1',      '5607000002',      '12456.30' ) 

19/3/2014  11:20 >> Application_Name >> BLWorker::executeUpdate
String or binary data would be truncated.
The statement has been terminated.

19/3/2014  11:20 >> Application_Name >> BLWorker::SQL
INSERT INTO tmpreg(tm_tmp_cd, tm_main_class, tm_pol_type, tm_effect_dt, tm_expiry_dt, tm_regis_dt, tm_regis_time, tm_regis_type, tm_ins_fname, tm_ins_lname, tm_ins_addr1, tm_ins_addr2, tm_ins_amphor, tm_ins_changwat, tm_ins_postcode, tm_ins_tel, tm_ins_email, tm_sum_ins, tm_prmm, tm_tax, tm_stamp, tm_fleet_perc, tm_stat, tm_ins_mobile, tm_ins_idcard, tm_oth_distance, tm_oth_region, tm_oth_flagdeduct, tm_oth_oldpolicy, tm_mott_id, tm_insc_id, tm_prmmgross ) VALUES('140319-003','M',      '1',      '2014/03/19',     '2015/03/19',     '2014/3/19',      '11:20',      'N',      'tt',      'tt',      '313',      'บางกะปิ',      'บางกะปิ',      '00',      '10240',      '',      'tt',      '380000',      '10994.4',      '772.688',      '44',      '0',      'N',      'tt',      '0000000000000000000',      '',      '1',      '',      'N',      '1',      '5607000002',      '12456.30' ) 

19/3/2014  11:20 >> Application_Name >> BLWorker::executeUpdate
String or binary data would be truncated.
The statement has been terminated.

19/3/2014  11:20 >> Application_Name >> BLWorker::SQL
INSERT INTO tmpreg(tm_tmp_cd, tm_main_class, tm_pol_type, tm_effect_dt, tm_expiry_dt, tm_regis_dt, tm_regis_time, tm_regis_type, tm_ins_fname, tm_ins_lname, tm_ins_addr1, tm_ins_addr2, tm_ins_amphor, tm_ins_changwat, tm_ins_postcode, tm_ins_tel, tm_ins_email, tm_sum_ins, tm_prmm, tm_tax, tm_stamp, tm_fleet_perc, tm_stat, tm_ins_mobile, tm_ins_idcard, tm_oth_distance, tm_oth_region, tm_oth_flagdeduct, tm_oth_oldpolicy, tm_mott_id, tm_insc_id, tm_prmmgross ) VALUES('140319-003','M',      '1',      '2014/03/19',     '2015/03/19',     '2014/3/19',      '11:20',      'N',      'tt',      'tt',      '313',      'บางกะปิ',      'บางกะปิ',      '00',      '10240',      '-',      'tt',      '380000',      '10994.4',      '772.688',      '44',      '0',      'N',      'tt',      '0000000000000000000',      '',      '1',      '',      'N',      '1',      '5607000002',      '12456.30' ) 

19/3/2014  12:1 >> Application_Name >> getDataCarMarkByCarMarkCode
SELECT * 
 FROM online_carmark 
 WHERE carmakcod = '' 
 ORDER BY desc_t, carmakcod 

19/3/2014  12:1 >> Application_Name >> getDataCarMarkByCarMarkCode
SELECT * 
 FROM online_carmark 
 WHERE carmakcod = 'JK-TO242' 
 ORDER BY desc_t, carmakcod 

19/3/2014  12:3 >> Application_Name >> getDataPremium
exec sp_calonlineweb 'Y','110','1','6','5 ','JK-TO242','2000','A','A',389985.5925,476649.0575,'0',0

19/3/2014  12:3 >> Application_Name >> getDataPremium
exec sp_calonlineweb 'Y','110','2','6','5 ','JK-TO242','2000','A','A',389985.5925,476649.0575,'0',0

19/3/2014  12:3 >> Application_Name >> getDataPremium
exec sp_calonlineweb 'Y','110','3','6','5 ','JK-TO242','2000','A','A',0,0,'0',0

19/3/2014  12:5 >> Application_Name >> SMK :: BuyVoluntary_step2-docToUI
Combine

19/3/2014  12:5 >> Application_Name >> SMK :: BuyVoluntary_step2-docToUI
rg_prmm-022900

19/3/2014  12:5 >> Application_Name >> SMK :: BuyVoluntary_step2-docToUI
rg_prmm22900

19/3/2014  12:5 >> Application_Name >> SMK :: BuyVoluntary_step2-docToUI
cp_comp_prmm600.00

19/3/2014  12:50 >> Application_Name >> getDataCarMarkByCarMarkCode
SELECT * 
 FROM online_carmark 
 WHERE carmakcod = '' 
 ORDER BY desc_t, carmakcod 

19/3/2014  12:50 >> Application_Name >> getDataCarMarkByCarMarkCode
SELECT * 
 FROM online_carmark 
 WHERE carmakcod = 'JK-HO001' 
 ORDER BY desc_t, carmakcod 

19/3/2014  12:51 >> Application_Name >> getDataPremium
exec sp_calonlineweb 'Y','110','1','2','5 ','JK-HO001','2000','A','A',470250,574750,'0',0

19/3/2014  12:51 >> Application_Name >> getDataPremium
exec sp_calonlineweb 'Y','110','2','2','5 ','JK-HO001','2000','A','A',470250,574750,'0',0

19/3/2014  12:51 >> Application_Name >> getDataPremium
exec sp_calonlineweb 'Y','110','3','2','5 ','JK-HO001','2000','A','A',0,0,'0',0

19/3/2014  13:13 >> Application_Name >> getCategoryCompByBrand
SELECT mdc_minor_cd , mdc_desc_t as mdc_desc FROM mtdesc_comp  WHERE mdc_minor_cd <> '0000' AND mdc_major_cd = 'T001' ORDER BY mdc_desc 

19/3/2014  13:16 >> Application_Name >> getDataCarMarkByCarMarkCode
SELECT * 
 FROM online_carmark 
 WHERE carmakcod = '' 
 ORDER BY desc_t, carmakcod 

19/3/2014  13:17 >> Application_Name >> getDataCarMarkByCarMarkCode
SELECT * 
 FROM online_carmark 
 WHERE carmakcod = 'JK-HO001' 
 ORDER BY desc_t, carmakcod 

19/3/2014  13:17 >> Application_Name >> getDataCarMarkByCarMarkCode
SELECT * 
 FROM online_carmark 
 WHERE carmakcod = '' 
 ORDER BY desc_t, carmakcod 

19/3/2014  13:17 >> Application_Name >> getDataCarMarkByCarMarkCode
SELECT * 
 FROM online_carmark 
 WHERE carmakcod = 'JK-NI077' 
 ORDER BY desc_t, carmakcod 

19/3/2014  13:18 >> Application_Name >> getDataPremium
exec sp_calonlineweb 'Y','110','1','2','5 ','JK-HO001','2000','A','A',470250,574750,'0',0

19/3/2014  13:18 >> Application_Name >> getDataPremium
exec sp_calonlineweb 'Y','110','2','2','5 ','JK-HO001','2000','A','A',470250,574750,'0',0

19/3/2014  13:18 >> Application_Name >> getDataPremium
exec sp_calonlineweb 'Y','110','3','2','5 ','JK-HO001','2000','A','A',0,0,'0',0

19/3/2014  13:18 >> Application_Name >> getNewPremium - compprmm
SELECT cp_com_prmm, cp_stamp, cp_tax FROM comprmm WHERE cp_veh_cd = '1.10   '

19/3/2014  13:19 >> Application_Name >> getCategoryCompByCode
SELECT mdc_minor_cd , mdc_desc_t as mdc_desc FROM mtdesc_comp  WHERE mdc_minor_cd <> '0000' AND mdc_major_cd = 'T001'     AND mdc_minor_cd = '0004    '  ORDER BY mdc_desc 

19/3/2014  13:20 >> Application_Name >> getDataPremium
exec sp_calonlineweb 'Y','110','1','10','3 ','JK-NI077','9999','A','A',564728.681089639,624173.805414864,'0',0

19/3/2014  13:20 >> Application_Name >> getDataPremium
exec sp_calonlineweb 'Y','110','2','10','3 ','JK-NI077','9999','A','A',564728.681089639,624173.805414864,'0',0

19/3/2014  13:20 >> Application_Name >> getDataPremium
exec sp_calonlineweb 'Y','110','3','10','3 ','JK-NI077','9999','A','A',0,0,'0',0

19/3/2014  13:20 >> Application_Name >> getDataCarMarkByCarMarkCode
SELECT * 
 FROM online_carmark 
 WHERE carmakcod = '' 
 ORDER BY desc_t, carmakcod 

19/3/2014  13:32 >> Application_Name >> BLWorker::executeQuery
The ConnectionString property has not been initialized.

19/3/2014  13:32 >> Application_Name >> BLWorker::SQL
SELECT * 
 FROM  campaign 
 WHERE cp_sts = 'ACTIVE' AND 
     pattern in ('S', 'C')  ORDER BY campaign

19/3/2014  13:32 >> Application_Name >> BLWorker::executeQuery
The ConnectionString property has not been initialized.

19/3/2014  13:32 >> Application_Name >> BLWorker::SQL
SELECT * 
 FROM  campaign 
 WHERE cp_sts = 'ACTIVE' AND 
     pattern in ('S', 'C')  ORDER BY campaign

19/3/2014  13:32 >> Application_Name >> BLWorker::executeQuery
The ConnectionString property has not been initialized.

19/3/2014  13:32 >> Application_Name >> BLWorker::SQL
SELECT * 
 FROM  campaign 
 WHERE cp_sts = 'ACTIVE' AND 
     pattern in ('S', 'C')  ORDER BY campaign

19/3/2014  13:32 >> Application_Name >> BLWorker::executeQuery
The ConnectionString property has not been initialized.

19/3/2014  13:32 >> Application_Name >> BLWorker::SQL
SELECT * 
 FROM  campaign 
 WHERE cp_sts = 'ACTIVE' AND 
     pattern in ('S', 'C')  ORDER BY campaign

19/3/2014  13:33 >> Application_Name >> BLWorker::executeQuery
The ConnectionString property has not been initialized.

19/3/2014  13:33 >> Application_Name >> BLWorker::SQL
SELECT * 
 FROM  campaign 
 WHERE cp_sts = 'ACTIVE' AND 
     pattern in ('S', 'C')  ORDER BY campaign

19/3/2014  13:33 >> Application_Name >> BLWorker::executeQuery
The ConnectionString property has not been initialized.

19/3/2014  13:33 >> Application_Name >> BLWorker::SQL
SELECT * 
 FROM  campaign 
 WHERE cp_sts = 'ACTIVE' AND 
     pattern in ('S', 'C')  ORDER BY campaign

19/3/2014  13:33 >> Application_Name >> BLWorker::executeQuery
The ConnectionString property has not been initialized.

19/3/2014  13:33 >> Application_Name >> BLWorker::SQL
SELECT * 
 FROM  campaign 
 WHERE cp_sts = 'ACTIVE' AND 
     pattern in ('S', 'C')  ORDER BY campaign

19/3/2014  13:33 >> Application_Name >> BLWorker::executeQuery
The ConnectionString property has not been initialized.

19/3/2014  13:33 >> Application_Name >> BLWorker::SQL
SELECT * 
 FROM  campaign 
 WHERE cp_sts = 'ACTIVE' AND 
     pattern in ('S', 'C')  ORDER BY campaign

19/3/2014  13:34 >> Application_Name >> BLWorker::executeQuery
The ConnectionString property has not been initialized.

19/3/2014  13:34 >> Application_Name >> BLWorker::SQL
SELECT * 
 FROM  campaign 
 WHERE cp_sts = 'ACTIVE' AND 
     pattern in ('S', 'C')  ORDER BY campaign

19/3/2014  13:57 >> Application_Name >> getDataPremium
exec sp_calonlineweb 'Y','110','1','2','5 ','JK-NI100','2000','A','A',380000,418000,'25',20

19/3/2014  13:57 >> Application_Name >> getDataPremium
exec sp_calonlineweb 'Y','110','2','2','5 ','JK-NI100','2000','A','A',380000,418000,'25',20

19/3/2014  13:57 >> Application_Name >> getDataPremium
exec sp_calonlineweb 'Y','110','3','2','5 ','JK-NI100','2000','A','A',0,0,'25',20

19/3/2014  13:58 >> Application_Name >> getDataPremium
exec sp_calonlineweb 'N','110','1','2','5 ','JK-NI100','2000','A','A',380000,418000,'25',20

19/3/2014  13:58 >> Application_Name >> getDataPremium
exec sp_calonlineweb 'N','110','2','2','5 ','JK-NI100','2000','A','A',380000,418000,'25',20

19/3/2014  13:58 >> Application_Name >> getDataPremium
exec sp_calonlineweb 'N','110','3','2','5 ','JK-NI100','2000','A','A',0,0,'25',20

19/3/2014  14:8 >> Application_Name >> getDataPremium
exec sp_calonlineweb 'N','110','1','2','5 ','JK-NI100','2000','A','A',380000,418000,'0',20

19/3/2014  14:8 >> Application_Name >> getDataPremium
exec sp_calonlineweb 'N','110','2','2','5 ','JK-NI100','2000','A','A',380000,418000,'0',20

19/3/2014  14:8 >> Application_Name >> getDataPremium
exec sp_calonlineweb 'N','110','3','2','5 ','JK-NI100','2000','A','A',0,0,'0',20

19/3/2014  14:11 >> Application_Name >> getDataCarMarkByCarMarkCode
SELECT * 
 FROM online_carmark 
 WHERE carmakcod = '' 
 ORDER BY desc_t, carmakcod 

19/3/2014  14:11 >> Application_Name >> getDataCarMarkByCarMarkCode
SELECT * 
 FROM online_carmark 
 WHERE carmakcod = '' 
 ORDER BY desc_t, carmakcod 

19/3/2014  14:11 >> Application_Name >> getDataCarMarkByCarMarkCode
SELECT * 
 FROM online_carmark 
 WHERE carmakcod = 'JP-NI043' 
 ORDER BY desc_t, carmakcod 

19/3/2014  14:11 >> Application_Name >> getDataCarMarkByCarMarkCode
SELECT * 
 FROM online_carmark 
 WHERE carmakcod = '' 
 ORDER BY desc_t, carmakcod 

19/3/2014  14:11 >> Application_Name >> getDataCarMarkByCarMarkCode
SELECT * 
 FROM online_carmark 
 WHERE carmakcod = 'JK-NI082' 
 ORDER BY desc_t, carmakcod 

19/3/2014  14:14 >> Application_Name >> getCategoryCompByCode
SELECT mdc_minor_cd , mdc_desc_t as mdc_desc FROM mtdesc_comp  WHERE mdc_minor_cd <> '0000' AND mdc_major_cd = 'T001'     AND mdc_minor_cd = '0004    '  ORDER BY mdc_desc 

19/3/2014  14:14 >> Application_Name >> getDataCarMarkByCarMarkCode
SELECT * 
 FROM online_carmark 
 WHERE carmakcod = '' 
 ORDER BY desc_t, carmakcod 

19/3/2014  14:14 >> Application_Name >> getDataCarMarkByCarMarkCode
SELECT * 
 FROM online_carmark 
 WHERE carmakcod = '' 
 ORDER BY desc_t, carmakcod 

19/3/2014  14:14 >> Application_Name >> getDataCarMarkByCarMarkCode
SELECT * 
 FROM online_carmark 
 WHERE carmakcod = 'JP-NI043' 
 ORDER BY desc_t, carmakcod 

19/3/2014  14:15 >> Application_Name >> getCategoryCompByCode
SELECT mdc_minor_cd , mdc_desc_t as mdc_desc FROM mtdesc_comp  WHERE mdc_minor_cd <> '0000' AND mdc_major_cd = 'T001'     AND mdc_minor_cd = '0004    '  ORDER BY mdc_desc 

19/3/2014  14:16 >> Application_Name >> getCategoryCompByCode
SELECT mdc_minor_cd , mdc_desc_t as mdc_desc FROM mtdesc_comp  WHERE mdc_minor_cd <> '0000' AND mdc_major_cd = 'T001'     AND mdc_minor_cd = '0004    '  ORDER BY mdc_desc 

19/3/2014  14:19 >> Application_Name >> getDataCarMarkByCarMarkCode
SELECT * 
 FROM online_carmark 
 WHERE carmakcod = '' 
 ORDER BY desc_t, carmakcod 

19/3/2014  14:19 >> Application_Name >> getDataCarMarkByCarMarkCode
SELECT * 
 FROM online_carmark 
 WHERE carmakcod = 'JK-TO242' 
 ORDER BY desc_t, carmakcod 

19/3/2014  14:20 >> Application_Name >> getDataPremium
exec sp_calonlineweb 'Y','110','1','3','5 ','JK-TO242','2000','A','A',454860,555940,'0',0

19/3/2014  14:20 >> Application_Name >> getDataPremium
exec sp_calonlineweb 'Y','110','2','3','5 ','JK-TO242','2000','A','A',454860,555940,'0',0

19/3/2014  14:20 >> Application_Name >> getDataPremium
exec sp_calonlineweb 'Y','110','3','3','5 ','JK-TO242','2000','A','A',0,0,'0',0

19/3/2014  14:45 >> Application_Name >> getCategoryCompByCode
SELECT mdc_minor_cd , mdc_desc_t as mdc_desc FROM mtdesc_comp  WHERE mdc_minor_cd <> '0000' AND mdc_major_cd = 'T001'     AND mdc_minor_cd = '0004    '  ORDER BY mdc_desc 

19/3/2014  14:56 >> Application_Name >> getDataCarMarkByCarMarkCode
SELECT * 
 FROM online_carmark 
 WHERE carmakcod = '' 
 ORDER BY desc_t, carmakcod 

19/3/2014  15:1 >> Application_Name >> getDataCarMarkByCarMarkCode
SELECT * 
 FROM online_carmark 
 WHERE carmakcod = '' 
 ORDER BY desc_t, carmakcod 

19/3/2014  15:1 >> Application_Name >> getDataCarMarkByCarMarkCode
SELECT * 
 FROM online_carmark 
 WHERE carmakcod = '' 
 ORDER BY desc_t, carmakcod 

19/3/2014  15:1 >> Application_Name >> getDataCarMarkByCarMarkCode
SELECT * 
 FROM online_carmark 
 WHERE carmakcod = 'JK-HO001' 
 ORDER BY desc_t, carmakcod 

19/3/2014  15:4 >> Application_Name >> getDataCarMarkByCarMarkCode
SELECT * 
 FROM online_carmark 
 WHERE carmakcod = '' 
 ORDER BY desc_t, carmakcod 

19/3/2014  15:4 >> Application_Name >> getDataCarMarkByCarMarkCode
SELECT * 
 FROM online_carmark 
 WHERE carmakcod = '' 
 ORDER BY desc_t, carmakcod 

19/3/2014  15:4 >> Application_Name >> getDataCarMarkByCarMarkCode
SELECT * 
 FROM online_carmark 
 WHERE carmakcod = '' 
 ORDER BY desc_t, carmakcod 

19/3/2014  15:4 >> Application_Name >> getDataCarMarkByCarMarkCode
SELECT * 
 FROM online_carmark 
 WHERE carmakcod = 'JP-IS052' 
 ORDER BY desc_t, carmakcod 

19/3/2014  15:5 >> Application_Name >> getDataPremium
exec sp_calonlineweb 'Y','320','1','2','A','','4','N','A',555940,614460,'0',30

19/3/2014  15:5 >> Application_Name >> getDataPremium
exec sp_calonlineweb 'Y','320','2','2','A','','4','N','A',555940,614460,'0',30

19/3/2014  15:5 >> Application_Name >> getDataPremium
exec sp_calonlineweb 'Y','320','3','2','A','','4','N','A',0,0,'0',30

19/3/2014  15:5 >> Application_Name >> getDataCarMarkByCarMarkCode
SELECT * 
 FROM online_carmark 
 WHERE carmakcod = '' 
 ORDER BY desc_t, carmakcod 

19/3/2014  15:6 >> Application_Name >> getDataCarMarkByCarMarkCode
SELECT * 
 FROM online_carmark 
 WHERE carmakcod = 'JK-TO004' 
 ORDER BY desc_t, carmakcod 

19/3/2014  15:7 >> Application_Name >> getDataPremium
exec sp_calonlineweb 'Y','110','1','4','3 ','JK-TO004','2000','A','A',846434.895,935533.305,'0',0

19/3/2014  15:7 >> Application_Name >> getDataPremium
exec sp_calonlineweb 'Y','110','2','4','3 ','JK-TO004','2000','A','A',846434.895,935533.305,'0',0

19/3/2014  15:7 >> Application_Name >> getDataPremium
exec sp_calonlineweb 'Y','110','3','4','3 ','JK-TO004','2000','A','A',0,0,'0',0

19/3/2014  15:7 >> Application_Name >> SMK :: BuyVoluntary_step2-docToUI
Combine

19/3/2014  15:7 >> Application_Name >> SMK :: BuyVoluntary_step2-docToUI
rg_prmm-026205

19/3/2014  15:7 >> Application_Name >> SMK :: BuyVoluntary_step2-docToUI
rg_prmm26205

19/3/2014  15:7 >> Application_Name >> SMK :: BuyVoluntary_step2-docToUI
cp_comp_prmm600.00

19/3/2014  15:7 >> Application_Name >> getDataPremium
exec sp_calonlineweb 'Y','110','1','4','3 ','JK-MA011','2000','A','A',846434.895,935533.305,'0',0

19/3/2014  15:7 >> Application_Name >> getDataPremium
exec sp_calonlineweb 'Y','110','2','4','3 ','JK-MA011','2000','A','A',846434.895,935533.305,'0',0

19/3/2014  15:7 >> Application_Name >> getDataPremium
exec sp_calonlineweb 'Y','110','3','4','3 ','JK-MA011','2000','A','A',0,0,'0',0

19/3/2014  15:8 >> Application_Name >> getDataCarMarkByCarMarkCode
SELECT * 
 FROM online_carmark 
 WHERE carmakcod = '' 
 ORDER BY desc_t, carmakcod 

19/3/2014  15:8 >> Application_Name >> getDataCarMarkByCarMarkCode
SELECT * 
 FROM online_carmark 
 WHERE carmakcod = 'JK-HO001' 
 ORDER BY desc_t, carmakcod 

19/3/2014  15:8 >> Application_Name >> SMK :: BuyVoluntary_step2-docToUI
Combine

19/3/2014  15:8 >> Application_Name >> SMK :: BuyVoluntary_step2-docToUI
rg_prmm-036049

19/3/2014  15:8 >> Application_Name >> SMK :: BuyVoluntary_step2-docToUI
rg_prmm36049

19/3/2014  15:8 >> Application_Name >> SMK :: BuyVoluntary_step2-docToUI
cp_comp_prmm600.00

19/3/2014  15:10 >> Application_Name >> getDataPremium
exec sp_calonlineweb 'Y','110','1','14','5 ','JK-HO001','2000','A','A',254104.331223356,310571.960384101,'51',0

19/3/2014  15:10 >> Application_Name >> getDataPremium
exec sp_calonlineweb 'Y','110','2','14','5 ','JK-HO001','2000','A','A',254104.331223356,310571.960384101,'51',0

19/3/2014  15:10 >> Application_Name >> getDataPremium
exec sp_calonlineweb 'Y','110','3','14','5 ','JK-HO001','2000','A','A',0,0,'51',0

19/3/2014  15:15 >> Application_Name >> getDataPremium
exec sp_calonlineweb 'N','110','1','2','5 ','JK-NI100','2000','A','A',380000,418000,'0',20

19/3/2014  15:15 >> Application_Name >> getDataPremium
exec sp_calonlineweb 'N','110','2','2','5 ','JK-NI100','2000','A','A',380000,418000,'0',20

19/3/2014  15:15 >> Application_Name >> getDataPremium
exec sp_calonlineweb 'N','110','3','2','5 ','JK-NI100','2000','A','A',0,0,'0',20

19/3/2014  15:21 >> Application_Name >> getDataPremium
exec sp_calonlineweb 'N','110','1','2','5 ','JK-NI100','2000','A','A',380000,418000,'25',20

19/3/2014  15:21 >> Application_Name >> getDataPremium
exec sp_calonlineweb 'N','110','2','2','5 ','JK-NI100','2000','A','A',380000,418000,'25',20

19/3/2014  15:21 >> Application_Name >> getDataPremium
exec sp_calonlineweb 'N','110','3','2','5 ','JK-NI100','2000','A','A',0,0,'25',20

19/3/2014  15:23 >> Application_Name >> getDataCarMarkByCarMarkCode
SELECT * 
 FROM online_carmark 
 WHERE carmakcod = '' 
 ORDER BY desc_t, carmakcod 

19/3/2014  15:24 >> Application_Name >> getDataCarMarkByCarMarkCode
SELECT * 
 FROM online_carmark 
 WHERE carmakcod = 'JK-HO002' 
 ORDER BY desc_t, carmakcod 

19/3/2014  15:24 >> Application_Name >> getDataCarMarkByCarMarkCode
SELECT * 
 FROM online_carmark 
 WHERE carmakcod = 'JK-HO001' 
 ORDER BY desc_t, carmakcod 

19/3/2014  15:25 >> Application_Name >> getDataPremium
exec sp_calonlineweb 'Y','110','1','2','5 ','JK-HO001','2000','A','A',470250,574750,'0',0

19/3/2014  15:25 >> Application_Name >> getDataPremium
exec sp_calonlineweb 'Y','110','2','2','5 ','JK-HO001','2000','A','A',470250,574750,'0',0

19/3/2014  15:25 >> Application_Name >> getDataPremium
exec sp_calonlineweb 'Y','110','3','2','5 ','JK-HO001','2000','A','A',0,0,'0',0

19/3/2014  15:38 >> Application_Name >> getDataCarMarkByCarMarkCode
SELECT * 
 FROM online_carmark 
 WHERE carmakcod = 'JK-HO001' 
 ORDER BY desc_t, carmakcod 

19/3/2014  15:39 >> Application_Name >> getDataCarMarkByCarMarkCode
SELECT * 
 FROM online_carmark 
 WHERE carmakcod = '' 
 ORDER BY desc_t, carmakcod 

19/3/2014  15:39 >> Application_Name >> getDataCarMarkByCarMarkCode
SELECT * 
 FROM online_carmark 
 WHERE carmakcod = 'JK-HO001' 
 ORDER BY desc_t, carmakcod 

19/3/2014  15:40 >> Application_Name >> getDataPremium
exec sp_calonlineweb 'Y','110','1','2','5 ','JK-HO001','2000','A','A',470250,574750,'0',30

19/3/2014  15:40 >> Application_Name >> getDataPremium
exec sp_calonlineweb 'Y','110','2','2','5 ','JK-HO001','2000','A','A',470250,574750,'0',30

19/3/2014  15:40 >> Application_Name >> getDataPremium
exec sp_calonlineweb 'Y','110','3','2','5 ','JK-HO001','2000','A','A',0,0,'0',30

19/3/2014  15:43 >> Application_Name >> getCategoryCompByBrand
SELECT mdc_minor_cd , mdc_desc_t as mdc_desc FROM mtdesc_comp  WHERE mdc_minor_cd <> '0000' AND mdc_major_cd = 'F002' ORDER BY mdc_desc 

19/3/2014  15:50 >> Application_Name >> getCategoryCompByBrand
SELECT mdc_minor_cd , mdc_desc_t as mdc_desc FROM mtdesc_comp  WHERE mdc_minor_cd <> '0000' AND mdc_major_cd = 'N001' ORDER BY mdc_desc 

19/3/2014  15:52 >> Application_Name >> getDataCarMarkByCarMarkCode
SELECT * 
 FROM online_carmark 
 WHERE carmakcod = '' 
 ORDER BY desc_t, carmakcod 

19/3/2014  15:52 >> Application_Name >> getDataCarMarkByCarMarkCode
SELECT * 
 FROM online_carmark 
 WHERE carmakcod = 'JK-TO242' 
 ORDER BY desc_t, carmakcod 

19/3/2014  15:53 >> Application_Name >> getNewPremium - compprmm
SELECT cp_com_prmm, cp_stamp, cp_tax FROM comprmm WHERE cp_veh_cd = '1.10   '

19/3/2014  15:59 >> Application_Name >> getDataCarMarkByCarMarkCode
SELECT * 
 FROM online_carmark 
 WHERE carmakcod = '' 
 ORDER BY desc_t, carmakcod 

19/3/2014  16:0 >> Application_Name >> getDataCarMarkByCarMarkCode
SELECT * 
 FROM online_carmark 
 WHERE carmakcod = 'JK-MI080' 
 ORDER BY desc_t, carmakcod 

19/3/2014  16:2 >> Application_Name >> getDataPremium
exec sp_calonlineweb 'N','110','1','2','5 ','JK-MI080','2000','A','A',376200,459800,'25',20

19/3/2014  16:2 >> Application_Name >> getDataPremium
exec sp_calonlineweb 'N','110','2','2','5 ','JK-MI080','2000','A','A',376200,459800,'25',20

19/3/2014  16:2 >> Application_Name >> getDataPremium
exec sp_calonlineweb 'N','110','3','2','5 ','JK-MI080','2000','A','A',0,0,'25',20

19/3/2014  16:2 >> Application_Name >> getDataCarMarkByCarMarkCode
SELECT * 
 FROM online_carmark 
 WHERE carmakcod = '' 
 ORDER BY desc_t, carmakcod 

19/3/2014  16:2 >> Application_Name >> getDataCarMarkByCarMarkCode
SELECT * 
 FROM online_carmark 
 WHERE carmakcod = 'JK-HO001' 
 ORDER BY desc_t, carmakcod 

19/3/2014  16:3 >> Application_Name >> getDataCarMarkByCarMarkCode
SELECT * 
 FROM online_carmark 
 WHERE carmakcod = '' 
 ORDER BY desc_t, carmakcod 

19/3/2014  16:3 >> Application_Name >> getDataPremium
exec sp_calonlineweb 'N','110','1','2','5 ','JK-MI080','2000','A','A',376200,459800,'25',20

19/3/2014  16:3 >> Application_Name >> getDataPremium
exec sp_calonlineweb 'N','110','2','2','5 ','JK-MI080','2000','A','A',376200,459800,'25',20

19/3/2014  16:3 >> Application_Name >> getDataPremium
exec sp_calonlineweb 'N','110','3','2','5 ','JK-MI080','2000','A','A',0,0,'25',20

19/3/2014  16:3 >> Application_Name >> getDataPremium
exec sp_calonlineweb 'N','110','1','2','5 ','JK-MI080','2000','A','A',376200,459800,'25',20

19/3/2014  16:3 >> Application_Name >> getDataPremium
exec sp_calonlineweb 'N','110','2','2','5 ','JK-MI080','2000','A','A',376200,459800,'25',20

19/3/2014  16:3 >> Application_Name >> getDataPremium
exec sp_calonlineweb 'N','110','3','2','5 ','JK-MI080','2000','A','A',0,0,'25',20

19/3/2014  16:3 >> Application_Name >> getDataCarMarkByCarMarkCode
SELECT * 
 FROM online_carmark 
 WHERE carmakcod = 'JK-HO001' 
 ORDER BY desc_t, carmakcod 

19/3/2014  16:3 >> Application_Name >> getDataPremium
exec sp_calonlineweb 'Y','110','1','2','5 ','JK-HO001','2000','A','A',470250,574750,'0',20

19/3/2014  16:3 >> Application_Name >> getDataPremium
exec sp_calonlineweb 'Y','110','2','2','5 ','JK-HO001','2000','A','A',470250,574750,'0',20

19/3/2014  16:3 >> Application_Name >> getDataPremium
exec sp_calonlineweb 'Y','110','3','2','5 ','JK-HO001','2000','A','A',0,0,'0',20

19/3/2014  16:4 >> Application_Name >> getDataPremium
exec sp_calonlineweb 'N','110','1','2','5 ','JK-MI080','2000','A','A',376200,459800,'25',20

19/3/2014  16:4 >> Application_Name >> getDataPremium
exec sp_calonlineweb 'N','110','2','2','5 ','JK-MI080','2000','A','A',376200,459800,'25',20

19/3/2014  16:4 >> Application_Name >> getDataPremium
exec sp_calonlineweb 'N','110','3','2','5 ','JK-MI080','2000','A','A',0,0,'25',20

19/3/2014  16:5 >> Application_Name >> SMK :: BuyVoluntary_step2-docToUI
Combine

19/3/2014  16:5 >> Application_Name >> SMK :: BuyVoluntary_step2-docToUI
rg_prmm-013268

19/3/2014  16:5 >> Application_Name >> SMK :: BuyVoluntary_step2-docToUI
rg_prmm13268

19/3/2014  16:5 >> Application_Name >> SMK :: BuyVoluntary_step2-docToUI
cp_comp_prmm600.00

19/3/2014  16:5 >> Application_Name >> getDataPremium
exec sp_calonlineweb 'Y','110','1','2','5 ','JK-HO001','2000','A','A',470250,574750,'0',20

19/3/2014  16:5 >> Application_Name >> getDataPremium
exec sp_calonlineweb 'Y','110','2','2','5 ','JK-HO001','2000','A','A',470250,574750,'0',20

19/3/2014  16:5 >> Application_Name >> getDataPremium
exec sp_calonlineweb 'Y','110','3','2','5 ','JK-HO001','2000','A','A',0,0,'0',20

19/3/2014  16:6 >> Application_Name >> SMK :: BuyVoluntary_step2-docToUI
Combine

19/3/2014  16:6 >> Application_Name >> SMK :: BuyVoluntary_step2-docToUI
rg_prmm-013268

19/3/2014  16:6 >> Application_Name >> SMK :: BuyVoluntary_step2-docToUI
rg_prmm13268

19/3/2014  16:6 >> Application_Name >> SMK :: BuyVoluntary_step2-docToUI
cp_comp_prmm600.00

19/3/2014  16:15 >> Application_Name >> BLWorker::executeUpdate
String or binary data would be truncated.
The statement has been terminated.

19/3/2014  16:15 >> Application_Name >> BLWorker::SQL
 INSERT INTO tmpmtveh(tv_tmp_cd, tv_major_cd, tv_minor_cd,      tv_veh_year, tv_veh_cc, tv_veh_seat, tv_veh_weight,      tv_license_no, tv_license_area, tv_engin_no, tv_chas_no,      tv_combine) VALUES('140319-006',      'MI',      'JK-MI080',      '2013',      '1200',      '0',      '0',      '1dV9410',      '00',      '-',      'MMTXTA03ADH0551123A92 UAN0467',      'N') 

19/3/2014  16:15 >> Application_Name >> BLWorker::executeUpdate
String or binary data would be truncated.
The statement has been terminated.

19/3/2014  16:15 >> Application_Name >> BLWorker::SQL
 INSERT INTO tmpmtveh(tv_tmp_cd, tv_major_cd, tv_minor_cd,      tv_veh_year, tv_veh_cc, tv_veh_seat, tv_veh_weight,      tv_license_no, tv_license_area, tv_engin_no, tv_chas_no,      tv_combine) VALUES('140319-006',      'MI',      'JK-MI080',      '2013',      '1200',      '0',      '0',      '1กฮ9410',      '00',      '-',      'MMTXTA03ADH0551123A92 UAN0467',      'N') 

19/3/2014  16:15 >> Application_Name >> BLWorker::executeUpdate
String or binary data would be truncated.
The statement has been terminated.

19/3/2014  16:15 >> Application_Name >> BLWorker::SQL
 INSERT INTO tmpmtveh(tv_tmp_cd, tv_major_cd, tv_minor_cd,      tv_veh_year, tv_veh_cc, tv_veh_seat, tv_veh_weight,      tv_license_no, tv_license_area, tv_engin_no, tv_chas_no,      tv_combine) VALUES('140319-006',      'MI',      'JK-MI080',      '2013',      '1200',      '0',      '0',      '1กฮ9410',      '00',      '-',      'MMTXTA03ADH0551123A92 UAN0467',      'N') 

19/3/2014  16:16 >> Application_Name >> BLWorker::executeUpdate
String or binary data would be truncated.
The statement has been terminated.

19/3/2014  16:16 >> Application_Name >> BLWorker::SQL
 INSERT INTO tmpmtveh(tv_tmp_cd, tv_major_cd, tv_minor_cd,      tv_veh_year, tv_veh_cc, tv_veh_seat, tv_veh_weight,      tv_license_no, tv_license_area, tv_engin_no, tv_chas_no,      tv_combine) VALUES('140319-006',      'MI',      'JK-MI080',      '2013',      '1200',      '0',      '0',      '1dV9410',      '00',      '-',      'MMTXTA03ADH0551123A92 UAN0467',      'N') 

19/3/2014  16:16 >> Application_Name >> BLWorker::executeUpdate
String or binary data would be truncated.
The statement has been terminated.

19/3/2014  16:16 >> Application_Name >> BLWorker::SQL
 INSERT INTO tmpmtveh(tv_tmp_cd, tv_major_cd, tv_minor_cd,      tv_veh_year, tv_veh_cc, tv_veh_seat, tv_veh_weight,      tv_license_no, tv_license_area, tv_engin_no, tv_chas_no,      tv_combine) VALUES('140319-006',      'MI',      'JK-MI080',      '2013',      '1200',      '0',      '0',      '1dV9410',      '00',      '-',      'MMTXTA03ADH0551123A92 UAN0467',      'N') 

19/3/2014  16:16 >> Application_Name >> getDataPremium
exec sp_calonlineweb 'Y','110','1','2','5 ','JK-HO001','2000','A','A',470250,574750,'0',20

19/3/2014  16:16 >> Application_Name >> getDataPremium
exec sp_calonlineweb 'Y','110','2','2','5 ','JK-HO001','2000','A','A',470250,574750,'0',20

19/3/2014  16:16 >> Application_Name >> getDataPremium
exec sp_calonlineweb 'Y','110','3','2','5 ','JK-HO001','2000','A','A',0,0,'0',20

19/3/2014  16:16 >> Application_Name >> getDataCarMarkByCarMarkCode
SELECT * 
 FROM online_carmark 
 WHERE carmakcod = '' 
 ORDER BY desc_t, carmakcod 

19/3/2014  16:17 >> Application_Name >> getDataCarMarkByCarMarkCode
SELECT * 
 FROM online_carmark 
 WHERE carmakcod = 'JK-HO002' 
 ORDER BY desc_t, carmakcod 

19/3/2014  16:17 >> Application_Name >> getDataPremium
exec sp_calonlineweb 'Y','110','1','2','5 ','JK-HO001','2000','A','A',470250,574750,'0',20

19/3/2014  16:17 >> Application_Name >> getDataPremium
exec sp_calonlineweb 'Y','110','2','2','5 ','JK-HO001','2000','A','A',470250,574750,'0',20

19/3/2014  16:17 >> Application_Name >> getDataPremium
exec sp_calonlineweb 'Y','110','3','2','5 ','JK-HO001','2000','A','A',0,0,'0',20

19/3/2014  16:18 >> Application_Name >> getDataPremium
exec sp_calonlineweb 'Y','110','1','2','3 ','JK-HO002','2000','A','A',743850,909150,'0',0

19/3/2014  16:18 >> Application_Name >> getDataPremium
exec sp_calonlineweb 'Y','110','2','2','3 ','JK-HO002','2000','A','A',743850,909150,'0',0

19/3/2014  16:18 >> Application_Name >> getDataPremium
exec sp_calonlineweb 'Y','110','3','2','3 ','JK-HO002','2000','A','A',0,0,'0',0

19/3/2014  16:19 >> Application_Name >> getDataCarMarkByCarMarkCode
SELECT * 
 FROM online_carmark 
 WHERE carmakcod = '' 
 ORDER BY desc_t, carmakcod 

19/3/2014  16:19 >> Application_Name >> getDataCarMarkByCarMarkCode
SELECT * 
 FROM online_carmark 
 WHERE carmakcod = 'JK-HO002' 
 ORDER BY desc_t, carmakcod 

19/3/2014  16:19 >> Application_Name >> getDataPremium
exec sp_calonlineweb 'Y','110','1','2','3 ','JK-HO002','2000','A','A',743850,909150,'0',0

19/3/2014  16:19 >> Application_Name >> getDataPremium
exec sp_calonlineweb 'Y','110','2','2','3 ','JK-HO002','2000','A','A',743850,909150,'0',0

19/3/2014  16:19 >> Application_Name >> getDataPremium
exec sp_calonlineweb 'Y','110','3','2','3 ','JK-HO002','2000','A','A',0,0,'0',0

19/3/2014  16:19 >> Application_Name >> SMK :: BuyVoluntary_step2-docToUI
Combine

19/3/2014  16:19 >> Application_Name >> SMK :: BuyVoluntary_step2-docToUI
rg_prmm-013268

19/3/2014  16:19 >> Application_Name >> SMK :: BuyVoluntary_step2-docToUI
rg_prmm13268

19/3/2014  16:19 >> Application_Name >> SMK :: BuyVoluntary_step2-docToUI
cp_comp_prmm600.00

19/3/2014  16:46 >> Application_Name >> getDataCarMarkByCarMarkCode
SELECT * 
 FROM online_carmark 
 WHERE carmakcod = '' 
 ORDER BY desc_t, carmakcod 

19/3/2014  16:46 >> Application_Name >> getDataCarMarkByCarMarkCode
SELECT * 
 FROM online_carmark 
 WHERE carmakcod = 'JK-MI080' 
 ORDER BY desc_t, carmakcod 

19/3/2014  16:47 >> Application_Name >> getDataPremium
exec sp_calonlineweb 'N','110','1','2','5 ','JK-MI080','2000','A','A',376200,459800,'25',20

19/3/2014  16:47 >> Application_Name >> getDataPremium
exec sp_calonlineweb 'N','110','2','2','5 ','JK-MI080','2000','A','A',376200,459800,'25',20

19/3/2014  16:47 >> Application_Name >> getDataPremium
exec sp_calonlineweb 'N','110','3','2','5 ','JK-MI080','2000','A','A',0,0,'25',20

19/3/2014  16:49 >> Application_Name >> BLWorker::executeUpdate
String or binary data would be truncated.
The statement has been terminated.

19/3/2014  16:49 >> Application_Name >> BLWorker::SQL
 INSERT INTO tmpmtveh(tv_tmp_cd, tv_major_cd, tv_minor_cd,      tv_veh_year, tv_veh_cc, tv_veh_seat, tv_veh_weight,      tv_license_no, tv_license_area, tv_engin_no, tv_chas_no,      tv_combine) VALUES('140319-006',      'MI',      'JK-MI080',      '2013',      '1200',      '0',      '0',      '1กฮ9410',      '00',      '-',      'MMTXTA03ADH0551123A92 UAN0467',      'N') 

19/3/2014  16:49 >> Application_Name >> BLWorker::executeUpdate
String or binary data would be truncated.
The statement has been terminated.

19/3/2014  16:49 >> Application_Name >> BLWorker::SQL
 INSERT INTO tmpmtveh(tv_tmp_cd, tv_major_cd, tv_minor_cd,      tv_veh_year, tv_veh_cc, tv_veh_seat, tv_veh_weight,      tv_license_no, tv_license_area, tv_engin_no, tv_chas_no,      tv_combine) VALUES('140319-006',      'MI',      'JK-MI080',      '2013',      '1200',      '0',      '0',      '1กฮ9410',      '00',      '-',      'MMTXTA03ADH0551123A92 UAN0467',      'N') 

19/3/2014  16:49 >> Application_Name >> BLWorker::executeUpdate
String or binary data would be truncated.
The statement has been terminated.

19/3/2014  16:49 >> Application_Name >> BLWorker::SQL
 INSERT INTO tmpmtveh(tv_tmp_cd, tv_major_cd, tv_minor_cd,      tv_veh_year, tv_veh_cc, tv_veh_seat, tv_veh_weight,      tv_license_no, tv_license_area, tv_engin_no, tv_chas_no,      tv_combine) VALUES('140319-006',      'MI',      'JK-MI080',      '2013',      '1200',      '0',      '0',      '1กฮ9410',      '00',      '-',      'MMTXTA03ADH0551123A92 UAN0467',      'N') 

19/3/2014  17:6 >> Application_Name >> getDataCarMarkByCarMarkCode
SELECT * 
 FROM online_carmark 
 WHERE carmakcod = '' 
 ORDER BY desc_t, carmakcod 

19/3/2014  17:6 >> Application_Name >> getDataCarMarkByCarMarkCode
SELECT * 
 FROM online_carmark 
 WHERE carmakcod = 'JK-NI100' 
 ORDER BY desc_t, carmakcod 

19/3/2014  17:9 >> Application_Name >> getDataPremium
exec sp_calonlineweb 'N','110','1','2','5 ','JK-NI100','2000','A','A',380000,418000,'0',0

19/3/2014  17:9 >> Application_Name >> getDataPremium
exec sp_calonlineweb 'N','110','2','2','5 ','JK-NI100','2000','A','A',380000,418000,'0',0

19/3/2014  17:9 >> Application_Name >> getDataPremium
exec sp_calonlineweb 'N','110','3','2','5 ','JK-NI100','2000','A','A',0,0,'0',0

19/3/2014  17:12 >> Application_Name >> getDataCarMarkByCarMarkCode
SELECT * 
 FROM online_carmark 
 WHERE carmakcod = '' 
 ORDER BY desc_t, carmakcod 

19/3/2014  17:12 >> Application_Name >> getDataCarMarkByCarMarkCode
SELECT * 
 FROM online_carmark 
 WHERE carmakcod = 'JK-NI100' 
 ORDER BY desc_t, carmakcod 

19/3/2014  17:13 >> Application_Name >> getDataPremium
exec sp_calonlineweb 'N','110','1','2','5 ','JK-NI100','2000','A','A',380000,418000,'0',20

19/3/2014  17:13 >> Application_Name >> getDataPremium
exec sp_calonlineweb 'N','110','2','2','5 ','JK-NI100','2000','A','A',380000,418000,'0',20

19/3/2014  17:13 >> Application_Name >> getDataPremium
exec sp_calonlineweb 'N','110','3','2','5 ','JK-NI100','2000','A','A',0,0,'0',20

19/3/2014  17:18 >> Application_Name >> getDataCarMarkByCarMarkCode
SELECT * 
 FROM online_carmark 
 WHERE carmakcod = '' 
 ORDER BY desc_t, carmakcod 

19/3/2014  17:18 >> Application_Name >> getDataCarMarkByCarMarkCode
SELECT * 
 FROM online_carmark 
 WHERE carmakcod = 'EK-FO062' 
 ORDER BY desc_t, carmakcod 

19/3/2014  17:20 >> Application_Name >> getDataPremium
exec sp_calonlineweb 'N','110','1','2','5 ','JK-NI015','2000','A','A',380000,418000,'0',20

19/3/2014  17:20 >> Application_Name >> getDataPremium
exec sp_calonlineweb 'N','110','2','2','5 ','JK-NI015','2000','A','A',380000,418000,'0',20

19/3/2014  17:20 >> Application_Name >> getDataPremium
exec sp_calonlineweb 'N','110','3','2','5 ','JK-NI015','2000','A','A',0,0,'0',20

19/3/2014  17:57 >> Application_Name >> getDataCarMarkByCarMarkCode
SELECT * 
 FROM online_carmark 
 WHERE carmakcod = '' 
 ORDER BY desc_t, carmakcod 

19/3/2014  17:57 >> Application_Name >> getDataCarMarkByCarMarkCode
SELECT * 
 FROM online_carmark 
 WHERE carmakcod = 'JK-HO001' 
 ORDER BY desc_t, carmakcod 

19/3/2014  17:58 >> Application_Name >> getDataPremium
exec sp_calonlineweb 'Y','110','1','2','5 ','JK-HO001','2000','A','A',470250,574750,'0',20

19/3/2014  17:58 >> Application_Name >> getDataPremium
exec sp_calonlineweb 'Y','110','2','2','5 ','JK-HO001','2000','A','A',470250,574750,'0',20

19/3/2014  17:58 >> Application_Name >> getDataPremium
exec sp_calonlineweb 'Y','110','3','2','5 ','JK-HO001','2000','A','A',0,0,'0',20

19/3/2014  17:59 >> Application_Name >> SMK :: BuyVoluntary_step2-docToUI
Combine

19/3/2014  17:59 >> Application_Name >> SMK :: BuyVoluntary_step2-docToUI
rg_prmm-013268

19/3/2014  17:59 >> Application_Name >> SMK :: BuyVoluntary_step2-docToUI
rg_prmm13268

19/3/2014  17:59 >> Application_Name >> SMK :: BuyVoluntary_step2-docToUI
cp_comp_prmm600.00

19/3/2014  18:6 >> Application_Name >> SMK :: BuyVoluntary_step2-docToUI
Combine

19/3/2014  18:6 >> Application_Name >> SMK :: BuyVoluntary_step2-docToUI
rg_prmm-013268

19/3/2014  18:6 >> Application_Name >> SMK :: BuyVoluntary_step2-docToUI
rg_prmm13268

19/3/2014  18:6 >> Application_Name >> SMK :: BuyVoluntary_step2-docToUI
cp_comp_prmm600.00

19/3/2014  18:9 >> Application_Name >> SMK :: BuyVoluntary_step2-docToUI
Combine

19/3/2014  18:9 >> Application_Name >> SMK :: BuyVoluntary_step2-docToUI
rg_prmm-013268

19/3/2014  18:9 >> Application_Name >> SMK :: BuyVoluntary_step2-docToUI
rg_prmm13268

19/3/2014  18:9 >> Application_Name >> SMK :: BuyVoluntary_step2-docToUI
cp_comp_prmm600.00

19/3/2014  20:20 >> Application_Name >> getDataCarMarkByCarMarkCode
SELECT * 
 FROM online_carmark 
 WHERE carmakcod = '' 
 ORDER BY desc_t, carmakcod 

19/3/2014  20:21 >> Application_Name >> getDataCarMarkByCarMarkCode
SELECT * 
 FROM online_carmark 
 WHERE carmakcod = '' 
 ORDER BY desc_t, carmakcod 

19/3/2014  20:21 >> Application_Name >> getDataCarMarkByCarMarkCode
SELECT * 
 FROM online_carmark 
 WHERE carmakcod = 'JK-NI100' 
 ORDER BY desc_t, carmakcod 

19/3/2014  20:36 >> Application_Name >> getDataCarMarkByCarMarkCode
SELECT * 
 FROM online_carmark 
 WHERE carmakcod = '' 
 ORDER BY desc_t, carmakcod 

19/3/2014  20:36 >> Application_Name >> getDataCarMarkByCarMarkCode
SELECT * 
 FROM online_carmark 
 WHERE carmakcod = 'JK-TO067' 
 ORDER BY desc_t, carmakcod 

19/3/2014  20:37 >> Application_Name >> getDataPremium
exec sp_calonlineweb 'N','110','1','2','5 ','JK-TO067','2000','A','A',476235,582065,'0',20

19/3/2014  20:37 >> Application_Name >> getDataPremium
exec sp_calonlineweb 'N','110','2','2','5 ','JK-TO067','2000','A','A',476235,582065,'0',20

19/3/2014  20:37 >> Application_Name >> getDataPremium
exec sp_calonlineweb 'N','110','3','2','5 ','JK-TO067','2000','A','A',0,0,'0',20

19/3/2014  20:40 >> Application_Name >> getDataCarMarkByCarMarkCode
SELECT * 
 FROM online_carmark 
 WHERE carmakcod = '' 
 ORDER BY desc_t, carmakcod 

19/3/2014  20:41 >> Application_Name >> getDataCarMarkByCarMarkCode
SELECT * 
 FROM online_carmark 
 WHERE carmakcod = 'JK-TO242' 
 ORDER BY desc_t, carmakcod 

19/3/2014  21:33 >> Application_Name >> getDataCarMarkByCarMarkCode
SELECT * 
 FROM online_carmark 
 WHERE carmakcod = '' 
 ORDER BY desc_t, carmakcod 

19/3/2014  21:33 >> Application_Name >> getDataCarMarkByCarMarkCode
SELECT * 
 FROM online_carmark 
 WHERE carmakcod = 'JK-HO001' 
 ORDER BY desc_t, carmakcod 

19/3/2014  22:21 >> Application_Name >> getDataCarMarkByCarMarkCode
SELECT * 
 FROM online_carmark 
 WHERE carmakcod = '' 
 ORDER BY desc_t, carmakcod 

19/3/2014  22:21 >> Application_Name >> getDataCarMarkByCarMarkCode
SELECT * 
 FROM online_carmark 
 WHERE carmakcod = 'JK-HO001' 
 ORDER BY desc_t, carmakcod 

19/3/2014  22:23 >> Application_Name >> getDataPremium
exec sp_calonlineweb 'Y','110','1','2','5 ','JK-HO001','2000','A','A',470250,574750,'0',0

19/3/2014  22:23 >> Application_Name >> getDataPremium
exec sp_calonlineweb 'Y','110','2','2','5 ','JK-HO001','2000','A','A',470250,574750,'0',0

19/3/2014  22:23 >> Application_Name >> getDataPremium
exec sp_calonlineweb 'Y','110','3','2','5 ','JK-HO001','2000','A','A',0,0,'0',0

19/3/2014  22:27 >> Application_Name >> getDataPremium
exec sp_calonlineweb 'Y','110','1','2','5 ','JK-HO001','2000','A','A',470250,574750,'0',30

19/3/2014  22:27 >> Application_Name >> getDataPremium
exec sp_calonlineweb 'Y','110','2','2','5 ','JK-HO001','2000','A','A',470250,574750,'0',30

19/3/2014  22:27 >> Application_Name >> getDataPremium
exec sp_calonlineweb 'Y','110','3','2','5 ','JK-HO001','2000','A','A',0,0,'0',30

19/3/2014  22:48 >> Application_Name >> getDataCarMarkByCarMarkCode
SELECT * 
 FROM online_carmark 
 WHERE carmakcod = '' 
 ORDER BY desc_t, carmakcod 

19/3/2014  22:49 >> Application_Name >> getDataCarMarkByCarMarkCode
SELECT * 
 FROM online_carmark 
 WHERE carmakcod = 'JK-HO001' 
 ORDER BY desc_t, carmakcod 

19/3/2014  22:50 >> Application_Name >> getDataPremium
exec sp_calonlineweb 'Y','110','1','3','5 ','JK-HO001','2000','A','A',446737.5,546012.5,'0',0

19/3/2014  22:50 >> Application_Name >> getDataPremium
exec sp_calonlineweb 'Y','110','2','3','5 ','JK-HO001','2000','A','A',446737.5,546012.5,'0',0

19/3/2014  22:50 >> Application_Name >> getDataPremium
exec sp_calonlineweb 'Y','110','3','3','5 ','JK-HO001','2000','A','A',0,0,'0',0

19/3/2014  22:54 >> Application_Name >> getDataPremium
exec sp_calonlineweb 'Y','110','1','3','5 ','JK-HO001','2000','A','A',446737.5,546012.5,'25',0

19/3/2014  22:54 >> Application_Name >> getDataPremium
exec sp_calonlineweb 'Y','110','2','3','5 ','JK-HO001','2000','A','A',446737.5,546012.5,'25',0

19/3/2014  22:54 >> Application_Name >> getDataPremium
exec sp_calonlineweb 'Y','110','3','3','5 ','JK-HO001','2000','A','A',0,0,'25',0

19/3/2014  22:55 >> Application_Name >> getDataCarMarkByCarMarkCode
SELECT * 
 FROM online_carmark 
 WHERE carmakcod = '' 
 ORDER BY desc_t, carmakcod 

19/3/2014  22:55 >> Application_Name >> getDataCarMarkByCarMarkCode
SELECT * 
 FROM online_carmark 
 WHERE carmakcod = '' 
 ORDER BY desc_t, carmakcod 

19/3/2014  22:55 >> Application_Name >> getDataCarMarkByCarMarkCode
SELECT * 
 FROM online_carmark 
 WHERE carmakcod = 'JK-HO001' 
 ORDER BY desc_t, carmakcod 

19/3/2014  22:55 >> Application_Name >> getDataPremium
exec sp_calonlineweb 'Y','110','1','3','5 ','JK-HO001','2000','A','A',446737.5,546012.5,'25',30

19/3/2014  22:55 >> Application_Name >> getDataPremium
exec sp_calonlineweb 'Y','110','2','3','5 ','JK-HO001','2000','A','A',446737.5,546012.5,'25',30

19/3/2014  22:55 >> Application_Name >> getDataPremium
exec sp_calonlineweb 'Y','110','3','3','5 ','JK-HO001','2000','A','A',0,0,'25',30

19/3/2014  22:55 >> Application_Name >> getDataPremium
exec sp_calonlineweb 'Y','110','1','3','5 ','JK-HO001','2000','A','A',446737.5,546012.5,'0',30

19/3/2014  22:55 >> Application_Name >> getDataPremium
exec sp_calonlineweb 'Y','110','2','3','5 ','JK-HO001','2000','A','A',446737.5,546012.5,'0',30

19/3/2014  22:55 >> Application_Name >> getDataPremium
exec sp_calonlineweb 'Y','110','3','3','5 ','JK-HO001','2000','A','A',0,0,'0',30

19/3/2014  22:55 >> Application_Name >> getDataPremium
exec sp_calonlineweb 'Y','110','1','3','5 ','JK-HO001','2000','A','A',446737.5,546012.5,'0',30

19/3/2014  22:55 >> Application_Name >> getDataPremium
exec sp_calonlineweb 'Y','110','2','3','5 ','JK-HO001','2000','A','A',446737.5,546012.5,'0',30

19/3/2014  22:55 >> Application_Name >> getDataPremium
exec sp_calonlineweb 'Y','110','3','3','5 ','JK-HO001','2000','A','A',0,0,'0',30

