28/4/2014  4:3 >> Application_Name >> getDataCarMarkByCarMarkCode
SELECT * 
 FROM online_carmark 
 WHERE carmakcod = '' 
 ORDER BY desc_t, carmakcod 

28/4/2014  4:3 >> Application_Name >> getDataCarMarkByCarMarkCode
SELECT * 
 FROM online_carmark 
 WHERE carmakcod = '' 
 ORDER BY desc_t, carmakcod 

28/4/2014  4:3 >> Application_Name >> getDataCarMarkByCarMarkCode
SELECT * 
 FROM online_carmark 
 WHERE carmakcod = 'JK-SZ004' 
 ORDER BY desc_t, carmakcod 

28/4/2014  4:5 >> Application_Name >> getDataPremium
exec sp_calonlineweb 'N','110','1','2','5 ','JK-SZ004','2000','A','A',342000,380000,'36',0

28/4/2014  4:5 >> Application_Name >> getDataPremium
exec sp_calonlineweb 'N','110','2','2','5 ','JK-SZ004','2000','A','A',342000,380000,'36',0

28/4/2014  4:5 >> Application_Name >> getDataPremium
exec sp_calonlineweb 'N','110','3','2','5 ','JK-SZ004','2000','A','A',0,0,'36',0

28/4/2014  4:6 >> Application_Name >> getDataPremium
exec sp_calonlineweb 'N','110','1','2','5 ','JK-SZ004','2000','A','A',342000,380000,'36',0

28/4/2014  4:6 >> Application_Name >> getDataPremium
exec sp_calonlineweb 'N','110','2','2','5 ','JK-SZ004','2000','A','A',342000,380000,'36',0

28/4/2014  4:6 >> Application_Name >> getDataPremium
exec sp_calonlineweb 'N','110','3','2','5 ','JK-SZ004','2000','A','A',0,0,'36',0

28/4/2014  5:26 >> Application_Name >> getDataCarMarkByCarMarkCode
SELECT * 
 FROM online_carmark 
 WHERE carmakcod = '' 
 ORDER BY desc_t, carmakcod 

28/4/2014  5:27 >> Application_Name >> getDataCarMarkByCarMarkCode
SELECT * 
 FROM online_carmark 
 WHERE carmakcod = 'JK-TO186' 
 ORDER BY desc_t, carmakcod 

28/4/2014  5:27 >> Application_Name >> getDataCarMarkByCarMarkCode
SELECT * 
 FROM online_carmark 
 WHERE carmakcod = '' 
 ORDER BY desc_t, carmakcod 

28/4/2014  5:28 >> Application_Name >> getDataCarMarkByCarMarkCode
SELECT * 
 FROM online_carmark 
 WHERE carmakcod = '' 
 ORDER BY desc_t, carmakcod 

28/4/2014  5:32 >> Application_Name >> getDataCarMarkByCarMarkCode
SELECT * 
 FROM online_carmark 
 WHERE carmakcod = 'JP-TO043' 
 ORDER BY desc_t, carmakcod 

28/4/2014  5:33 >> Application_Name >> getDataPremium
exec sp_calonlineweb 'N','210','1','3','A','','2500','21','A',460238.9,508685.1,'0',0

28/4/2014  5:33 >> Application_Name >> getDataPremium
exec sp_calonlineweb 'N','210','2','3','A','','2500','21','A',460238.9,508685.1,'0',0

28/4/2014  5:33 >> Application_Name >> getDataPremium
exec sp_calonlineweb 'N','210','3','3','A','','2500','21','A',0,0,'0',0

28/4/2014  5:34 >> Application_Name >> getDataPremium
exec sp_calonlineweb 'N','210','1','3','A','','2500','21','A',460238.9,508685.1,'0',0

28/4/2014  5:34 >> Application_Name >> getDataPremium
exec sp_calonlineweb 'N','210','2','3','A','','2500','21','A',460238.9,508685.1,'0',0

28/4/2014  5:34 >> Application_Name >> getDataPremium
exec sp_calonlineweb 'N','210','3','3','A','','2500','21','A',0,0,'0',0

28/4/2014  5:42 >> Application_Name >> getDataPremium
exec sp_calonlineweb 'N','210','1','3','A','','2500','21','A',460238.9,508685.1,'0',0

28/4/2014  5:42 >> Application_Name >> getDataPremium
exec sp_calonlineweb 'N','210','2','3','A','','2500','21','A',460238.9,508685.1,'0',0

28/4/2014  5:42 >> Application_Name >> getDataPremium
exec sp_calonlineweb 'N','210','3','3','A','','2500','21','A',0,0,'0',0

28/4/2014  8:52 >> Application_Name >> getDataCarMarkByCarMarkCode
SELECT * 
 FROM online_carmark 
 WHERE carmakcod = '' 
 ORDER BY desc_t, carmakcod 

28/4/2014  8:52 >> Application_Name >> getDataCarMarkByCarMarkCode
SELECT * 
 FROM online_carmark 
 WHERE carmakcod = 'JK-NI100' 
 ORDER BY desc_t, carmakcod 

28/4/2014  8:54 >> Application_Name >> getDataPremium
exec sp_calonlineweb 'Y','110','1','3','5 ','JK-NI100','2000','A','A',361000,397100,'0',30

28/4/2014  8:54 >> Application_Name >> getDataPremium
exec sp_calonlineweb 'Y','110','2','3','5 ','JK-NI100','2000','A','A',361000,397100,'0',30

28/4/2014  8:54 >> Application_Name >> getDataPremium
exec sp_calonlineweb 'Y','110','3','3','5 ','JK-NI100','2000','A','A',0,0,'0',30

28/4/2014  8:56 >> Application_Name >> SMK :: BuyVoluntary_step2-docToUI
Combine

28/4/2014  8:56 >> Application_Name >> SMK :: BuyVoluntary_step2-docToUI
rg_prmm-011214.4

28/4/2014  8:56 >> Application_Name >> SMK :: BuyVoluntary_step2-docToUI
rg_prmm11214.4

28/4/2014  8:56 >> Application_Name >> SMK :: BuyVoluntary_step2-docToUI
cp_comp_prmm600.00

28/4/2014  9:3 >> Application_Name >> getDataPremium
exec sp_calonlineweb 'Y','110','1','3','5 ','JK-NI100','2000','A','A',361000,397100,'0',30

28/4/2014  9:3 >> Application_Name >> getDataPremium
exec sp_calonlineweb 'Y','110','2','3','5 ','JK-NI100','2000','A','A',361000,397100,'0',30

28/4/2014  9:3 >> Application_Name >> getDataPremium
exec sp_calonlineweb 'Y','110','3','3','5 ','JK-NI100','2000','A','A',0,0,'0',30

28/4/2014  9:12 >> Application_Name >> getDataPremium
exec sp_calonlineweb 'Y','110','1','3','5 ','JK-NI100','2000','A','A',361000,397100,'25',30

28/4/2014  9:12 >> Application_Name >> getDataPremium
exec sp_calonlineweb 'Y','110','2','3','5 ','JK-NI100','2000','A','A',361000,397100,'25',30

28/4/2014  9:12 >> Application_Name >> getDataPremium
exec sp_calonlineweb 'Y','110','3','3','5 ','JK-NI100','2000','A','A',0,0,'25',30

28/4/2014  9:13 >> Application_Name >> getDataCarMarkByCarMarkCode
SELECT * 
 FROM online_carmark 
 WHERE carmakcod = '' 
 ORDER BY desc_t, carmakcod 

28/4/2014  9:13 >> Application_Name >> getDataCarMarkByCarMarkCode
SELECT * 
 FROM online_carmark 
 WHERE carmakcod = 'JK-SZ004' 
 ORDER BY desc_t, carmakcod 

28/4/2014  9:14 >> Application_Name >> SMK :: BuyVoluntary_step2-docToUI
Combine

28/4/2014  9:14 >> Application_Name >> SMK :: BuyVoluntary_step2-docToUI
rg_prmm-010093.6

28/4/2014  9:14 >> Application_Name >> SMK :: BuyVoluntary_step2-docToUI
rg_prmm10093.6

28/4/2014  9:14 >> Application_Name >> SMK :: BuyVoluntary_step2-docToUI
cp_comp_prmm600.00

28/4/2014  9:18 >> Application_Name >> getDataCarMarkByCarMarkCode
SELECT * 
 FROM online_carmark 
 WHERE carmakcod = '' 
 ORDER BY desc_t, carmakcod 

28/4/2014  9:18 >> Application_Name >> getDataCarMarkByCarMarkCode
SELECT * 
 FROM online_carmark 
 WHERE carmakcod = 'JK-SZ004' 
 ORDER BY desc_t, carmakcod 

28/4/2014  9:21 >> Application_Name >> getDataCarMarkByCarMarkCode
SELECT * 
 FROM online_carmark 
 WHERE carmakcod = '' 
 ORDER BY desc_t, carmakcod 

28/4/2014  9:27 >> Application_Name >> getDataCarMarkByCarMarkCode
SELECT * 
 FROM online_carmark 
 WHERE carmakcod = '' 
 ORDER BY desc_t, carmakcod 

28/4/2014  9:27 >> Application_Name >> getDataCarMarkByCarMarkCode
SELECT * 
 FROM online_carmark 
 WHERE carmakcod = 'JK-SZ004' 
 ORDER BY desc_t, carmakcod 

28/4/2014  9:28 >> Application_Name >> getDataPremium
exec sp_calonlineweb 'Y','110','1','3','5 ','JK-SZ004','2000','A','A',324900,361000,'0',0

28/4/2014  9:28 >> Application_Name >> getDataPremium
exec sp_calonlineweb 'Y','110','2','3','5 ','JK-SZ004','2000','A','A',324900,361000,'0',0

28/4/2014  9:28 >> Application_Name >> getDataPremium
exec sp_calonlineweb 'Y','110','3','3','5 ','JK-SZ004','2000','A','A',0,0,'0',0

28/4/2014  9:30 >> Application_Name >> getDataCarMarkByCarMarkCode
SELECT * 
 FROM online_carmark 
 WHERE carmakcod = '' 
 ORDER BY desc_t, carmakcod 

28/4/2014  9:31 >> Application_Name >> getDataCarMarkByCarMarkCode
SELECT * 
 FROM online_carmark 
 WHERE carmakcod = 'JK-HO002' 
 ORDER BY desc_t, carmakcod 

28/4/2014  9:32 >> Application_Name >> getDataPremium
exec sp_calonlineweb 'N','110','1','5','3 ','JK-HO002','2000','A','A',637758.39375,779482.48125,'0',0

28/4/2014  9:32 >> Application_Name >> getDataPremium
exec sp_calonlineweb 'N','110','2','5','3 ','JK-HO002','2000','A','A',637758.39375,779482.48125,'0',0

28/4/2014  9:32 >> Application_Name >> getDataPremium
exec sp_calonlineweb 'N','110','3','5','3 ','JK-HO002','2000','A','A',0,0,'0',0

28/4/2014  9:33 >> Application_Name >> getDataCarMarkByCarMarkCode
SELECT * 
 FROM online_carmark 
 WHERE carmakcod = '' 
 ORDER BY desc_t, carmakcod 

28/4/2014  9:33 >> Application_Name >> getDataCarMarkByCarMarkCode
SELECT * 
 FROM online_carmark 
 WHERE carmakcod = 'JK-IS068' 
 ORDER BY desc_t, carmakcod 

28/4/2014  9:34 >> Application_Name >> getDataPremium
exec sp_calonlineweb 'N','110','1','3','3 ','JK-IS068','9999','A','A',852862.5,1042387.5,'0',30

28/4/2014  9:34 >> Application_Name >> getDataPremium
exec sp_calonlineweb 'N','110','2','3','3 ','JK-IS068','9999','A','A',852862.5,1042387.5,'0',30

28/4/2014  9:34 >> Application_Name >> getDataPremium
exec sp_calonlineweb 'N','110','3','3','3 ','JK-IS068','9999','A','A',0,0,'0',30

28/4/2014  9:37 >> Application_Name >> getDataCarMarkByCarMarkCode
SELECT * 
 FROM online_carmark 
 WHERE carmakcod = '' 
 ORDER BY desc_t, carmakcod 

28/4/2014  9:37 >> Application_Name >> getDataCarMarkByCarMarkCode
SELECT * 
 FROM online_carmark 
 WHERE carmakcod = 'JK-NI100' 
 ORDER BY desc_t, carmakcod 

28/4/2014  9:38 >> Application_Name >> getDataPremium
exec sp_calonlineweb 'N','110','1','2','5 ','JK-NI100','2000','A','A',380000,418000,'0',30

28/4/2014  9:38 >> Application_Name >> getDataPremium
exec sp_calonlineweb 'N','110','2','2','5 ','JK-NI100','2000','A','A',380000,418000,'0',30

28/4/2014  9:38 >> Application_Name >> getDataPremium
exec sp_calonlineweb 'N','110','3','2','5 ','JK-NI100','2000','A','A',0,0,'0',30

28/4/2014  9:38 >> Application_Name >> getDataPremium
exec sp_calonlineweb 'N','110','1','2','5 ','JK-NI100','2000','A','A',380000,418000,'0',30

28/4/2014  9:38 >> Application_Name >> getDataPremium
exec sp_calonlineweb 'N','110','2','2','5 ','JK-NI100','2000','A','A',380000,418000,'0',30

28/4/2014  9:38 >> Application_Name >> getDataPremium
exec sp_calonlineweb 'N','110','3','2','5 ','JK-NI100','2000','A','A',0,0,'0',30

28/4/2014  9:40 >> Application_Name >> getDataCarMarkByCarMarkCode
SELECT * 
 FROM online_carmark 
 WHERE carmakcod = '' 
 ORDER BY desc_t, carmakcod 

28/4/2014  9:40 >> Application_Name >> getDataCarMarkByCarMarkCode
SELECT * 
 FROM online_carmark 
 WHERE carmakcod = '' 
 ORDER BY desc_t, carmakcod 

28/4/2014  9:40 >> Application_Name >> getDataCarMarkByCarMarkCode
SELECT * 
 FROM online_carmark 
 WHERE carmakcod = 'JK-NI100' 
 ORDER BY desc_t, carmakcod 

28/4/2014  9:41 >> Application_Name >> getDataPremium
exec sp_calonlineweb 'N','110','1','2','5 ','JK-NI100','2000','A','A',380000,418000,'25',30

28/4/2014  9:41 >> Application_Name >> getDataPremium
exec sp_calonlineweb 'N','110','2','2','5 ','JK-NI100','2000','A','A',380000,418000,'25',30

28/4/2014  9:41 >> Application_Name >> getDataPremium
exec sp_calonlineweb 'N','110','3','2','5 ','JK-NI100','2000','A','A',0,0,'25',30

28/4/2014  9:43 >> Application_Name >> getDataCarMarkByCarMarkCode
SELECT * 
 FROM online_carmark 
 WHERE carmakcod = '' 
 ORDER BY desc_t, carmakcod 

28/4/2014  9:44 >> Application_Name >> getDataCarMarkByCarMarkCode
SELECT * 
 FROM online_carmark 
 WHERE carmakcod = 'JK-TO067' 
 ORDER BY desc_t, carmakcod 

28/4/2014  9:47 >> Application_Name >> getDataPremium
exec sp_calonlineweb 'N','110','1','7','5 ','JK-TO067','2000','A','A',368501.564770313,450390.801385937,'0',0

28/4/2014  9:47 >> Application_Name >> getDataPremium
exec sp_calonlineweb 'N','110','2','7','5 ','JK-TO067','2000','A','A',368501.564770313,450390.801385937,'0',0

28/4/2014  9:47 >> Application_Name >> getDataPremium
exec sp_calonlineweb 'N','110','3','7','5 ','JK-TO067','2000','A','A',0,0,'0',0

28/4/2014  9:48 >> Application_Name >> getDataCarMarkByCarMarkCode
SELECT * 
 FROM online_carmark 
 WHERE carmakcod = '' 
 ORDER BY desc_t, carmakcod 

28/4/2014  9:48 >> Application_Name >> getDataCarMarkByCarMarkCode
SELECT * 
 FROM online_carmark 
 WHERE carmakcod = 'JK-MI080' 
 ORDER BY desc_t, carmakcod 

28/4/2014  9:50 >> Application_Name >> getDataPremium
exec sp_calonlineweb 'Y','110','1','3','5 ','JK-MI080','2000','A','A',357390,436810,'0',0

28/4/2014  9:50 >> Application_Name >> getDataPremium
exec sp_calonlineweb 'Y','110','2','3','5 ','JK-MI080','2000','A','A',357390,436810,'0',0

28/4/2014  9:50 >> Application_Name >> getDataPremium
exec sp_calonlineweb 'Y','110','3','3','5 ','JK-MI080','2000','A','A',0,0,'0',0

28/4/2014  9:52 >> Application_Name >> getDataPremium
exec sp_calonlineweb 'Y','110','1','3','5 ','JK-MI080','2000','A','A',357390,436810,'25',0

28/4/2014  9:52 >> Application_Name >> getDataPremium
exec sp_calonlineweb 'Y','110','2','3','5 ','JK-MI080','2000','A','A',357390,436810,'25',0

28/4/2014  9:52 >> Application_Name >> getDataPremium
exec sp_calonlineweb 'Y','110','3','3','5 ','JK-MI080','2000','A','A',0,0,'25',0

28/4/2014  9:53 >> Application_Name >> getDataPremium
exec sp_calonlineweb 'Y','110','1','3','5 ','JK-MI080','2000','A','A',357390,436810,'25',0

28/4/2014  9:53 >> Application_Name >> getDataPremium
exec sp_calonlineweb 'Y','110','2','3','5 ','JK-MI080','2000','A','A',357390,436810,'25',0

28/4/2014  9:53 >> Application_Name >> getDataPremium
exec sp_calonlineweb 'Y','110','3','3','5 ','JK-MI080','2000','A','A',0,0,'25',0

28/4/2014  9:53 >> Application_Name >> getDataPremium
exec sp_calonlineweb 'Y','110','1','3','5 ','JK-MI080','2000','A','A',357390,436810,'25',0

28/4/2014  9:53 >> Application_Name >> getDataPremium
exec sp_calonlineweb 'Y','110','2','3','5 ','JK-MI080','2000','A','A',357390,436810,'25',0

28/4/2014  9:53 >> Application_Name >> getDataPremium
exec sp_calonlineweb 'Y','110','3','3','5 ','JK-MI080','2000','A','A',0,0,'25',0

28/4/2014  9:53 >> Application_Name >> getDataPremium
exec sp_calonlineweb 'Y','110','1','3','5 ','JK-MI080','2000','A','A',357390,436810,'25',0

28/4/2014  9:53 >> Application_Name >> getDataPremium
exec sp_calonlineweb 'Y','110','2','3','5 ','JK-MI080','2000','A','A',357390,436810,'25',0

28/4/2014  9:53 >> Application_Name >> getDataPremium
exec sp_calonlineweb 'Y','110','3','3','5 ','JK-MI080','2000','A','A',0,0,'25',0

28/4/2014  9:54 >> Application_Name >> getDataCarMarkByCarMarkCode
SELECT * 
 FROM online_carmark 
 WHERE carmakcod = '' 
 ORDER BY desc_t, carmakcod 

28/4/2014  9:54 >> Application_Name >> getDataCarMarkByCarMarkCode
SELECT * 
 FROM online_carmark 
 WHERE carmakcod = '' 
 ORDER BY desc_t, carmakcod 

28/4/2014  9:55 >> Application_Name >> getDataCarMarkByCarMarkCode
SELECT * 
 FROM online_carmark 
 WHERE carmakcod = 'JP-TO104' 
 ORDER BY desc_t, carmakcod 

28/4/2014  9:55 >> Application_Name >> getDataPremium
exec sp_calonlineweb 'Y','110','1','3','5 ','JK-MI080','2000','A','A',357390,436810,'25',30

28/4/2014  9:55 >> Application_Name >> getDataPremium
exec sp_calonlineweb 'Y','110','2','3','5 ','JK-MI080','2000','A','A',357390,436810,'25',30

28/4/2014  9:55 >> Application_Name >> getDataPremium
exec sp_calonlineweb 'Y','110','3','3','5 ','JK-MI080','2000','A','A',0,0,'25',30

28/4/2014  9:57 >> Application_Name >> getDataPremium
exec sp_calonlineweb 'Y','210','1','3','A','','2500','21','A',418399,462441,'0',0

28/4/2014  9:57 >> Application_Name >> getDataPremium
exec sp_calonlineweb 'Y','210','2','3','A','','2500','21','A',418399,462441,'0',0

28/4/2014  9:57 >> Application_Name >> getDataPremium
exec sp_calonlineweb 'Y','210','3','3','A','','2500','21','A',0,0,'0',0

28/4/2014  9:57 >> Application_Name >> getDataPremium
exec sp_calonlineweb 'Y','210','1','3','A','','2500','21','A',418399,462441,'0',0

28/4/2014  9:57 >> Application_Name >> getDataPremium
exec sp_calonlineweb 'Y','210','2','3','A','','2500','21','A',418399,462441,'0',0

28/4/2014  9:57 >> Application_Name >> getDataPremium
exec sp_calonlineweb 'Y','210','3','3','A','','2500','21','A',0,0,'0',0

28/4/2014  10:6 >> Application_Name >> getDataCarMarkByCarMarkCode
SELECT * 
 FROM online_carmark 
 WHERE carmakcod = '' 
 ORDER BY desc_t, carmakcod 

28/4/2014  10:6 >> Application_Name >> getDataCarMarkByCarMarkCode
SELECT * 
 FROM online_carmark 
 WHERE carmakcod = 'JK-TO255' 
 ORDER BY desc_t, carmakcod 

28/4/2014  10:8 >> Application_Name >> getDataCarMarkByCarMarkCode
SELECT * 
 FROM online_carmark 
 WHERE carmakcod = '' 
 ORDER BY desc_t, carmakcod 

28/4/2014  10:8 >> Application_Name >> getDataCarMarkByCarMarkCode
SELECT * 
 FROM online_carmark 
 WHERE carmakcod = '' 
 ORDER BY desc_t, carmakcod 

28/4/2014  10:8 >> Application_Name >> getDataCarMarkByCarMarkCode
SELECT * 
 FROM online_carmark 
 WHERE carmakcod = 'JK-HO001' 
 ORDER BY desc_t, carmakcod 

28/4/2014  10:8 >> Application_Name >> getDataPremium
exec sp_calonlineweb 'Y','110','1','2','3 ','JK-TO255','2000','A','A',1110645,1357455,'25',0

28/4/2014  10:8 >> Application_Name >> getDataPremium
exec sp_calonlineweb 'Y','110','2','2','3 ','JK-TO255','2000','A','A',1110645,1357455,'25',0

28/4/2014  10:9 >> Application_Name >> getDataPremium
exec sp_calonlineweb 'Y','110','3','2','3 ','JK-TO255','2000','A','A',0,0,'25',0

28/4/2014  10:10 >> Application_Name >> getDataPremium
exec sp_calonlineweb 'Y','110','1','2','5 ','JK-HO001','2000','A','A',470250,574750,'25',0

28/4/2014  10:10 >> Application_Name >> getDataPremium
exec sp_calonlineweb 'Y','110','2','2','5 ','JK-HO001','2000','A','A',470250,574750,'25',0

28/4/2014  10:10 >> Application_Name >> getDataPremium
exec sp_calonlineweb 'Y','110','3','2','5 ','JK-HO001','2000','A','A',0,0,'25',0

28/4/2014  10:11 >> Application_Name >> getDataCarMarkByCarMarkCode
SELECT * 
 FROM online_carmark 
 WHERE carmakcod = '' 
 ORDER BY desc_t, carmakcod 

28/4/2014  10:12 >> Application_Name >> getDataCarMarkByCarMarkCode
SELECT * 
 FROM online_carmark 
 WHERE carmakcod = '' 
 ORDER BY desc_t, carmakcod 

28/4/2014  10:12 >> Application_Name >> getDataCarMarkByCarMarkCode
SELECT * 
 FROM online_carmark 
 WHERE carmakcod = '' 
 ORDER BY desc_t, carmakcod 

28/4/2014  10:14 >> Application_Name >> getDataCarMarkByCarMarkCode
SELECT * 
 FROM online_carmark 
 WHERE carmakcod = '' 
 ORDER BY desc_t, carmakcod 

28/4/2014  10:14 >> Application_Name >> getDataCarMarkByCarMarkCode
SELECT * 
 FROM online_carmark 
 WHERE carmakcod = 'EK-BE180' 
 ORDER BY desc_t, carmakcod 

28/4/2014  10:15 >> Application_Name >> getDataPremium
exec sp_calonlineweb 'Y','110','1','1','2 ','EK-BE180','9999','A','A',8100000,9900000,'0',30

28/4/2014  10:15 >> Application_Name >> getDataPremium
exec sp_calonlineweb 'Y','110','2','1','2 ','EK-BE180','9999','A','A',8100000,9900000,'0',30

28/4/2014  10:15 >> Application_Name >> getDataPremium
exec sp_calonlineweb 'Y','110','3','1','2 ','EK-BE180','9999','A','A',0,0,'0',30

28/4/2014  10:16 >> Application_Name >> SMK :: BuyVoluntary_step2-docToUI
Combine

28/4/2014  10:16 >> Application_Name >> SMK :: BuyVoluntary_step2-docToUI
rg_prmm-07239

28/4/2014  10:16 >> Application_Name >> SMK :: BuyVoluntary_step2-docToUI
rg_prmm7239

28/4/2014  10:16 >> Application_Name >> SMK :: BuyVoluntary_step2-docToUI
cp_comp_prmm600.00

28/4/2014  10:27 >> Application_Name >> getDataCarMarkByCarMarkCode
SELECT * 
 FROM online_carmark 
 WHERE carmakcod = '' 
 ORDER BY desc_t, carmakcod 

28/4/2014  10:27 >> Application_Name >> getDataCarMarkByCarMarkCode
SELECT * 
 FROM online_carmark 
 WHERE carmakcod = 'JK-TO242' 
 ORDER BY desc_t, carmakcod 

28/4/2014  10:29 >> Application_Name >> getDataPremium
exec sp_calonlineweb 'N','110','1','2','5 ','JK-TO242','2000','A','A',478800,585200,'0',0

28/4/2014  10:29 >> Application_Name >> getDataPremium
exec sp_calonlineweb 'N','110','2','2','5 ','JK-TO242','2000','A','A',478800,585200,'0',0

28/4/2014  10:29 >> Application_Name >> getDataPremium
exec sp_calonlineweb 'N','110','3','2','5 ','JK-TO242','2000','A','A',0,0,'0',0

28/4/2014  10:31 >> Application_Name >> getDataCarMarkByCarMarkCode
SELECT * 
 FROM online_carmark 
 WHERE carmakcod = '' 
 ORDER BY desc_t, carmakcod 

28/4/2014  10:31 >> Application_Name >> getDataCarMarkByCarMarkCode
SELECT * 
 FROM online_carmark 
 WHERE carmakcod = 'JK-MI002' 
 ORDER BY desc_t, carmakcod 

28/4/2014  10:34 >> Application_Name >> getDataCarMarkByCarMarkCode
SELECT * 
 FROM online_carmark 
 WHERE carmakcod = '' 
 ORDER BY desc_t, carmakcod 

28/4/2014  10:35 >> Application_Name >> getDataCarMarkByCarMarkCode
SELECT * 
 FROM online_carmark 
 WHERE carmakcod = '' 
 ORDER BY desc_t, carmakcod 

28/4/2014  10:35 >> Application_Name >> getDataCarMarkByCarMarkCode
SELECT * 
 FROM online_carmark 
 WHERE carmakcod = 'JK-NI114' 
 ORDER BY desc_t, carmakcod 

28/4/2014  10:36 >> Application_Name >> getDataPremium
exec sp_calonlineweb 'Y','110','1','4','4 ','JK-MI002','2000','A','A',385818.75,471556.25,'25',20

28/4/2014  10:36 >> Application_Name >> getDataPremium
exec sp_calonlineweb 'Y','110','2','4','4 ','JK-MI002','2000','A','A',385818.75,471556.25,'25',20

28/4/2014  10:36 >> Application_Name >> getDataPremium
exec sp_calonlineweb 'Y','110','3','4','4 ','JK-MI002','2000','A','A',0,0,'25',20

28/4/2014  10:37 >> Application_Name >> getDataPremium
exec sp_calonlineweb 'Y','110','1','2','4 ','JK-NI114','2000','A','A',617500,674500,'36',0

28/4/2014  10:37 >> Application_Name >> getDataPremium
exec sp_calonlineweb 'Y','110','2','2','4 ','JK-NI114','2000','A','A',617500,674500,'36',0

28/4/2014  10:37 >> Application_Name >> getDataPremium
exec sp_calonlineweb 'Y','110','3','2','4 ','JK-NI114','2000','A','A',0,0,'36',0

28/4/2014  10:38 >> Application_Name >> getDataCarMarkByCarMarkCode
SELECT * 
 FROM online_carmark 
 WHERE carmakcod = '' 
 ORDER BY desc_t, carmakcod 

28/4/2014  10:39 >> Application_Name >> SMK :: BuyVoluntary_step2-docToUI
Combine

28/4/2014  10:39 >> Application_Name >> SMK :: BuyVoluntary_step2-docToUI
rg_prmm-011688.8

28/4/2014  10:39 >> Application_Name >> SMK :: BuyVoluntary_step2-docToUI
rg_prmm11688.8

28/4/2014  10:39 >> Application_Name >> SMK :: BuyVoluntary_step2-docToUI
cp_comp_prmm600.00

28/4/2014  10:39 >> Application_Name >> getDataCarMarkByCarMarkCode
SELECT * 
 FROM online_carmark 
 WHERE carmakcod = '' 
 ORDER BY desc_t, carmakcod 

28/4/2014  10:41 >> Application_Name >> getDataPremium
exec sp_calonlineweb 'Y','110','1','4','4 ','JK-MI002','2000','A','A',385818.75,471556.25,'25',20

28/4/2014  10:41 >> Application_Name >> getDataPremium
exec sp_calonlineweb 'Y','110','2','4','4 ','JK-MI002','2000','A','A',385818.75,471556.25,'25',20

28/4/2014  10:41 >> Application_Name >> getDataPremium
exec sp_calonlineweb 'Y','110','3','4','4 ','JK-MI002','2000','A','A',0,0,'25',20

28/4/2014  10:45 >> Application_Name >> getDataCarMarkByCarMarkCode
SELECT * 
 FROM online_carmark 
 WHERE carmakcod = '' 
 ORDER BY desc_t, carmakcod 

28/4/2014  10:45 >> Application_Name >> getDataCarMarkByCarMarkCode
SELECT * 
 FROM online_carmark 
 WHERE carmakcod = 'JK-IS047' 
 ORDER BY desc_t, carmakcod 

28/4/2014  10:46 >> Application_Name >> getDataCarMarkByCarMarkCode
SELECT * 
 FROM online_carmark 
 WHERE carmakcod = '' 
 ORDER BY desc_t, carmakcod 

28/4/2014  10:46 >> Application_Name >> getDataCarMarkByCarMarkCode
SELECT * 
 FROM online_carmark 
 WHERE carmakcod = 'JK-TO321' 
 ORDER BY desc_t, carmakcod 

28/4/2014  10:46 >> Application_Name >> getDataCarMarkByCarMarkCode
SELECT * 
 FROM online_carmark 
 WHERE carmakcod = '' 
 ORDER BY desc_t, carmakcod 

28/4/2014  10:46 >> Application_Name >> getDataCarMarkByCarMarkCode
SELECT * 
 FROM online_carmark 
 WHERE carmakcod = 'JK-NI100' 
 ORDER BY desc_t, carmakcod 

28/4/2014  10:47 >> Application_Name >> getDataCarMarkByCarMarkCode
SELECT * 
 FROM online_carmark 
 WHERE carmakcod = '' 
 ORDER BY desc_t, carmakcod 

28/4/2014  10:47 >> Application_Name >> getDataPremium
exec sp_calonlineweb 'N','110','1','2','5 ','JK-NI100','2000','A','A',380000,418000,'0',20

28/4/2014  10:47 >> Application_Name >> getDataPremium
exec sp_calonlineweb 'N','110','2','2','5 ','JK-NI100','2000','A','A',380000,418000,'0',20

28/4/2014  10:47 >> Application_Name >> getDataPremium
exec sp_calonlineweb 'N','110','3','2','5 ','JK-NI100','2000','A','A',0,0,'0',20

28/4/2014  10:47 >> Application_Name >> getDataCarMarkByCarMarkCode
SELECT * 
 FROM online_carmark 
 WHERE carmakcod = '' 
 ORDER BY desc_t, carmakcod 

28/4/2014  10:47 >> Application_Name >> getDataCarMarkByCarMarkCode
SELECT * 
 FROM online_carmark 
 WHERE carmakcod = 'JK-HO001' 
 ORDER BY desc_t, carmakcod 

28/4/2014  10:47 >> Application_Name >> getDataCarMarkByCarMarkCode
SELECT * 
 FROM online_carmark 
 WHERE carmakcod = '' 
 ORDER BY desc_t, carmakcod 

28/4/2014  10:48 >> Application_Name >> getDataCarMarkByCarMarkCode
SELECT * 
 FROM online_carmark 
 WHERE carmakcod = 'JK-TO045' 
 ORDER BY desc_t, carmakcod 

28/4/2014  10:48 >> Application_Name >> getDataCarMarkByCarMarkCode
SELECT * 
 FROM online_carmark 
 WHERE carmakcod = '' 
 ORDER BY desc_t, carmakcod 

28/4/2014  10:48 >> Application_Name >> getDataCarMarkByCarMarkCode
SELECT * 
 FROM online_carmark 
 WHERE carmakcod = 'JK-TO175' 
 ORDER BY desc_t, carmakcod 

28/4/2014  10:48 >> Application_Name >> SMK :: BuyVoluntary_step2-docToUI
Combine

28/4/2014  10:48 >> Application_Name >> SMK :: BuyVoluntary_step2-docToUI
rg_prmm-011688.8

28/4/2014  10:48 >> Application_Name >> SMK :: BuyVoluntary_step2-docToUI
rg_prmm11688.8

28/4/2014  10:48 >> Application_Name >> SMK :: BuyVoluntary_step2-docToUI
cp_comp_prmm600.00

28/4/2014  10:49 >> Application_Name >> getDataPremium
exec sp_calonlineweb 'N','110','1','14','3 ','JK-TO045','9999','A','A',203283.464978685,248457.56830728,'0',20

28/4/2014  10:49 >> Application_Name >> getDataPremium
exec sp_calonlineweb 'N','110','2','14','3 ','JK-TO045','9999','A','A',203283.464978685,248457.56830728,'0',20

28/4/2014  10:49 >> Application_Name >> getDataPremium
exec sp_calonlineweb 'N','110','3','14','3 ','JK-TO045','9999','A','A',0,0,'0',20

28/4/2014  10:49 >> Application_Name >> getDataPremium
exec sp_calonlineweb 'N','110','1','8','3 ','JK-TO321','9999','A','A',769036.963950281,849988.223313469,'0',0

28/4/2014  10:49 >> Application_Name >> getDataPremium
exec sp_calonlineweb 'N','110','2','8','3 ','JK-TO321','9999','A','A',769036.963950281,849988.223313469,'0',0

28/4/2014  10:49 >> Application_Name >> getDataPremium
exec sp_calonlineweb 'N','110','3','8','3 ','JK-TO321','9999','A','A',0,0,'0',0

28/4/2014  10:49 >> Application_Name >> getDataCarMarkByCarMarkCode
SELECT * 
 FROM online_carmark 
 WHERE carmakcod = 'JP-IS052' 
 ORDER BY desc_t, carmakcod 

28/4/2014  10:49 >> Application_Name >> getDataPremium
exec sp_calonlineweb 'Y','320','1','6','A','','4','N','A',452816.604625,500481.510375,'36',30

28/4/2014  10:49 >> Application_Name >> getDataPremium
exec sp_calonlineweb 'Y','320','2','6','A','','4','N','A',452816.604625,500481.510375,'36',30

28/4/2014  10:49 >> Application_Name >> getDataPremium
exec sp_calonlineweb 'Y','320','3','6','A','','4','N','A',0,0,'36',30

28/4/2014  10:50 >> Application_Name >> getDataPremium
exec sp_calonlineweb 'N','110','1','14','3 ','JK-TO045','9999','A','A',203283.464978685,248457.56830728,'0',20

28/4/2014  10:50 >> Application_Name >> getDataPremium
exec sp_calonlineweb 'N','110','2','14','3 ','JK-TO045','9999','A','A',203283.464978685,248457.56830728,'0',20

28/4/2014  10:50 >> Application_Name >> getDataPremium
exec sp_calonlineweb 'N','110','3','14','3 ','JK-TO045','9999','A','A',0,0,'0',20

28/4/2014  10:51 >> Application_Name >> getDataPremium
exec sp_calonlineweb 'N','110','1','3','5 ','JK-TO175','2000','A','A',406125,496375,'0',0

28/4/2014  10:51 >> Application_Name >> getDataPremium
exec sp_calonlineweb 'N','110','2','3','5 ','JK-TO175','2000','A','A',406125,496375,'0',0

28/4/2014  10:51 >> Application_Name >> getDataPremium
exec sp_calonlineweb 'N','110','3','3','5 ','JK-TO175','2000','A','A',0,0,'0',0

28/4/2014  10:54 >> Application_Name >> getDataCarMarkByCarMarkCode
SELECT * 
 FROM online_carmark 
 WHERE carmakcod = '' 
 ORDER BY desc_t, carmakcod 

28/4/2014  10:54 >> Application_Name >> getDataCarMarkByCarMarkCode
SELECT * 
 FROM online_carmark 
 WHERE carmakcod = 'JK-SZ004' 
 ORDER BY desc_t, carmakcod 

28/4/2014  10:55 >> Application_Name >> getDataPremium
exec sp_calonlineweb 'N','110','1','2','5 ','JK-SZ004','2000','A','A',342000,380000,'0',30

28/4/2014  10:55 >> Application_Name >> getDataPremium
exec sp_calonlineweb 'N','110','2','2','5 ','JK-SZ004','2000','A','A',342000,380000,'0',30

28/4/2014  10:55 >> Application_Name >> getDataPremium
exec sp_calonlineweb 'N','110','3','2','5 ','JK-SZ004','2000','A','A',0,0,'0',30

28/4/2014  10:58 >> Application_Name >> getDataCarMarkByCarMarkCode
SELECT * 
 FROM online_carmark 
 WHERE carmakcod = '' 
 ORDER BY desc_t, carmakcod 

28/4/2014  10:58 >> Application_Name >> getDataCarMarkByCarMarkCode
SELECT * 
 FROM online_carmark 
 WHERE carmakcod = 'EK-FO078' 
 ORDER BY desc_t, carmakcod 

28/4/2014  11:0 >> Application_Name >> getDataCarMarkByCarMarkCode
SELECT * 
 FROM online_carmark 
 WHERE carmakcod = '' 
 ORDER BY desc_t, carmakcod 

28/4/2014  11:0 >> Application_Name >> getDataCarMarkByCarMarkCode
SELECT * 
 FROM online_carmark 
 WHERE carmakcod = 'EK-FO083' 
 ORDER BY desc_t, carmakcod 

28/4/2014  11:0 >> Application_Name >> getDataPremium
exec sp_calonlineweb 'Y','110','1','5','3 ','EK-FO078','2000','A','A',549791.71875,671967.65625,'0',0

28/4/2014  11:0 >> Application_Name >> getDataPremium
exec sp_calonlineweb 'Y','110','2','5','3 ','EK-FO078','2000','A','A',549791.71875,671967.65625,'0',0

28/4/2014  11:0 >> Application_Name >> getDataPremium
exec sp_calonlineweb 'Y','110','3','5','3 ','EK-FO078','2000','A','A',0,0,'0',0

28/4/2014  11:1 >> Application_Name >> getDataPremium
exec sp_calonlineweb 'N','110','1','4','5 ','EK-FO083','2000','A','A',432117,528143,'0',30

28/4/2014  11:1 >> Application_Name >> getDataPremium
exec sp_calonlineweb 'N','110','2','4','5 ','EK-FO083','2000','A','A',432117,528143,'0',30

28/4/2014  11:1 >> Application_Name >> getDataPremium
exec sp_calonlineweb 'N','110','3','4','5 ','EK-FO083','2000','A','A',0,0,'0',30

28/4/2014  11:2 >> Application_Name >> getDataCarMarkByCarMarkCode
SELECT * 
 FROM online_carmark 
 WHERE carmakcod = '' 
 ORDER BY desc_t, carmakcod 

28/4/2014  11:2 >> Application_Name >> getDataCarMarkByCarMarkCode
SELECT * 
 FROM online_carmark 
 WHERE carmakcod = 'EK-BE034' 
 ORDER BY desc_t, carmakcod 

28/4/2014  11:4 >> Application_Name >> getDataCarMarkByCarMarkCode
SELECT * 
 FROM online_carmark 
 WHERE carmakcod = '' 
 ORDER BY desc_t, carmakcod 

28/4/2014  11:4 >> Application_Name >> getDataCarMarkByCarMarkCode
SELECT * 
 FROM online_carmark 
 WHERE carmakcod = 'JK-HO084' 
 ORDER BY desc_t, carmakcod 

28/4/2014  11:4 >> Application_Name >> getDataCarMarkByCarMarkCode
SELECT * 
 FROM online_carmark 
 WHERE carmakcod = '' 
 ORDER BY desc_t, carmakcod 

28/4/2014  11:4 >> Application_Name >> getDataCarMarkByCarMarkCode
SELECT * 
 FROM online_carmark 
 WHERE carmakcod = '' 
 ORDER BY desc_t, carmakcod 

28/4/2014  11:4 >> Application_Name >> getDataCarMarkByCarMarkCode
SELECT * 
 FROM online_carmark 
 WHERE carmakcod = 'JP-IS052' 
 ORDER BY desc_t, carmakcod 

28/4/2014  11:6 >> Application_Name >> getDataPremium
exec sp_calonlineweb 'Y','320','1','6','A','','4','N','A',452816.604625,500481.510375,'36',0

28/4/2014  11:6 >> Application_Name >> getDataPremium
exec sp_calonlineweb 'Y','320','2','6','A','','4','N','A',452816.604625,500481.510375,'36',0

28/4/2014  11:6 >> Application_Name >> getDataPremium
exec sp_calonlineweb 'Y','320','3','6','A','','4','N','A',0,0,'36',0

28/4/2014  11:6 >> Application_Name >> getDataPremium
exec sp_calonlineweb 'Y','110','1','2','5 ','JK-HO084','2000','A','A',487350,595650,'36',20

28/4/2014  11:6 >> Application_Name >> getDataPremium
exec sp_calonlineweb 'Y','110','2','2','5 ','JK-HO084','2000','A','A',487350,595650,'36',20

28/4/2014  11:6 >> Application_Name >> getDataPremium
exec sp_calonlineweb 'Y','110','3','2','5 ','JK-HO084','2000','A','A',0,0,'36',20

28/4/2014  11:7 >> Application_Name >> getDataPremium
exec sp_calonlineweb 'Y','320','1','6','A','','4','N','A',452816.604625,500481.510375,'36',0

28/4/2014  11:7 >> Application_Name >> getDataPremium
exec sp_calonlineweb 'Y','320','2','6','A','','4','N','A',452816.604625,500481.510375,'36',0

28/4/2014  11:7 >> Application_Name >> getDataPremium
exec sp_calonlineweb 'Y','320','3','6','A','','4','N','A',0,0,'36',0

28/4/2014  11:9 >> Application_Name >> getDataCarMarkByCarMarkCode
SELECT * 
 FROM online_carmark 
 WHERE carmakcod = '' 
 ORDER BY desc_t, carmakcod 

28/4/2014  11:9 >> Application_Name >> getDataCarMarkByCarMarkCode
SELECT * 
 FROM online_carmark 
 WHERE carmakcod = 'JK-TO162' 
 ORDER BY desc_t, carmakcod 

28/4/2014  11:18 >> Application_Name >> getDataCarMarkByCarMarkCode
SELECT * 
 FROM online_carmark 
 WHERE carmakcod = '' 
 ORDER BY desc_t, carmakcod 

28/4/2014  11:19 >> Application_Name >> getDataCarMarkByCarMarkCode
SELECT * 
 FROM online_carmark 
 WHERE carmakcod = '' 
 ORDER BY desc_t, carmakcod 

28/4/2014  11:19 >> Application_Name >> getDataCarMarkByCarMarkCode
SELECT * 
 FROM online_carmark 
 WHERE carmakcod = '' 
 ORDER BY desc_t, carmakcod 

28/4/2014  11:20 >> Application_Name >> getDataCarMarkByCarMarkCode
SELECT * 
 FROM online_carmark 
 WHERE carmakcod = 'JP-TO044' 
 ORDER BY desc_t, carmakcod 

28/4/2014  11:24 >> Application_Name >> getDataCarMarkByCarMarkCode
SELECT * 
 FROM online_carmark 
 WHERE carmakcod = 'JK-HO001' 
 ORDER BY desc_t, carmakcod 

28/4/2014  11:27 >> Application_Name >> getDataPremium
exec sp_calonlineweb 'N','110','1','3','5 ','JK-HO001','2000','A','A',446737.5,546012.5,'0',0

28/4/2014  11:27 >> Application_Name >> getDataPremium
exec sp_calonlineweb 'N','110','2','3','5 ','JK-HO001','2000','A','A',446737.5,546012.5,'0',0

28/4/2014  11:27 >> Application_Name >> getDataPremium
exec sp_calonlineweb 'N','110','3','3','5 ','JK-HO001','2000','A','A',0,0,'0',0

28/4/2014  11:27 >> Application_Name >> getDataPremium
exec sp_calonlineweb 'N','110','1','3','5 ','JK-HO001','2000','A','A',446737.5,546012.5,'0',0

28/4/2014  11:27 >> Application_Name >> getDataPremium
exec sp_calonlineweb 'N','110','2','3','5 ','JK-HO001','2000','A','A',446737.5,546012.5,'0',0

28/4/2014  11:27 >> Application_Name >> getDataPremium
exec sp_calonlineweb 'N','110','3','3','5 ','JK-HO001','2000','A','A',0,0,'0',0

28/4/2014  11:30 >> Application_Name >> getDataCarMarkByCarMarkCode
SELECT * 
 FROM online_carmark 
 WHERE carmakcod = '' 
 ORDER BY desc_t, carmakcod 

28/4/2014  11:30 >> Application_Name >> getDataCarMarkByCarMarkCode
SELECT * 
 FROM online_carmark 
 WHERE carmakcod = 'JK-MI080' 
 ORDER BY desc_t, carmakcod 

28/4/2014  11:31 >> Application_Name >> getDataCarMarkByCarMarkCode
SELECT * 
 FROM online_carmark 
 WHERE carmakcod = '' 
 ORDER BY desc_t, carmakcod 

28/4/2014  11:31 >> Application_Name >> getDataCarMarkByCarMarkCode
SELECT * 
 FROM online_carmark 
 WHERE carmakcod = 'JK-HO001' 
 ORDER BY desc_t, carmakcod 

28/4/2014  11:31 >> Application_Name >> getDataPremium
exec sp_calonlineweb 'N','210','1','3','A','','2800','21','A',501392.9,554171.1,'0',30

28/4/2014  11:31 >> Application_Name >> getDataPremium
exec sp_calonlineweb 'N','210','2','3','A','','2800','21','A',501392.9,554171.1,'0',30

28/4/2014  11:31 >> Application_Name >> getDataPremium
exec sp_calonlineweb 'N','210','3','3','A','','2800','21','A',0,0,'0',30

28/4/2014  11:31 >> Application_Name >> getDataPremium
exec sp_calonlineweb 'Y','110','1','3','5 ','JK-HO001','2000','A','A',446737.5,546012.5,'0',0

28/4/2014  11:31 >> Application_Name >> getDataPremium
exec sp_calonlineweb 'Y','110','2','3','5 ','JK-HO001','2000','A','A',446737.5,546012.5,'0',0

28/4/2014  11:31 >> Application_Name >> getDataPremium
exec sp_calonlineweb 'Y','110','3','3','5 ','JK-HO001','2000','A','A',0,0,'0',0

28/4/2014  11:31 >> Application_Name >> getDataPremium
exec sp_calonlineweb 'N','210','1','3','A','','2800','21','A',501392.9,554171.1,'0',30

28/4/2014  11:31 >> Application_Name >> getDataPremium
exec sp_calonlineweb 'N','210','2','3','A','','2800','21','A',501392.9,554171.1,'0',30

28/4/2014  11:31 >> Application_Name >> getDataPremium
exec sp_calonlineweb 'N','210','3','3','A','','2800','21','A',0,0,'0',30

28/4/2014  11:31 >> Application_Name >> getDataPremium
exec sp_calonlineweb 'N','210','1','3','A','','2800','21','A',501392.9,554171.1,'0',30

28/4/2014  11:31 >> Application_Name >> getDataPremium
exec sp_calonlineweb 'N','210','2','3','A','','2800','21','A',501392.9,554171.1,'0',30

28/4/2014  11:31 >> Application_Name >> getDataPremium
exec sp_calonlineweb 'N','210','3','3','A','','2800','21','A',0,0,'0',30

28/4/2014  11:32 >> Application_Name >> getDataCarMarkByCarMarkCode
SELECT * 
 FROM online_carmark 
 WHERE carmakcod = '' 
 ORDER BY desc_t, carmakcod 

28/4/2014  11:32 >> Application_Name >> getDataCarMarkByCarMarkCode
SELECT * 
 FROM online_carmark 
 WHERE carmakcod = 'EK-FO062' 
 ORDER BY desc_t, carmakcod 

28/4/2014  11:33 >> Application_Name >> getDataCarMarkByCarMarkCode
SELECT * 
 FROM online_carmark 
 WHERE carmakcod = '' 
 ORDER BY desc_t, carmakcod 

28/4/2014  11:33 >> Application_Name >> getDataCarMarkByCarMarkCode
SELECT * 
 FROM online_carmark 
 WHERE carmakcod = 'JK-NI100' 
 ORDER BY desc_t, carmakcod 

28/4/2014  11:34 >> Application_Name >> getDataPremium
exec sp_calonlineweb 'N','110','1','2','5 ','JK-NI100','2000','A','A',380000,418000,'25',20

28/4/2014  11:34 >> Application_Name >> getDataPremium
exec sp_calonlineweb 'N','110','2','2','5 ','JK-NI100','2000','A','A',380000,418000,'25',20

28/4/2014  11:34 >> Application_Name >> getDataPremium
exec sp_calonlineweb 'N','110','3','2','5 ','JK-NI100','2000','A','A',0,0,'25',20

28/4/2014  11:35 >> Application_Name >> getDataPremium
exec sp_calonlineweb 'Y','110','1','2','3 ','EK-FO062','9999','A','A',470250,574750,'0',30

28/4/2014  11:35 >> Application_Name >> getDataPremium
exec sp_calonlineweb 'Y','110','2','2','3 ','EK-FO062','9999','A','A',470250,574750,'0',30

28/4/2014  11:35 >> Application_Name >> getDataPremium
exec sp_calonlineweb 'Y','110','3','2','3 ','EK-FO062','9999','A','A',0,0,'0',30

28/4/2014  11:35 >> Application_Name >> getDataPremium
exec sp_calonlineweb 'Y','110','1','3','5 ','JK-HO001','2000','A','A',446737.5,546012.5,'0',0

28/4/2014  11:35 >> Application_Name >> getDataPremium
exec sp_calonlineweb 'Y','110','2','3','5 ','JK-HO001','2000','A','A',446737.5,546012.5,'0',0

28/4/2014  11:35 >> Application_Name >> getDataPremium
exec sp_calonlineweb 'Y','110','3','3','5 ','JK-HO001','2000','A','A',0,0,'0',0

28/4/2014  11:35 >> Application_Name >> getDataCarMarkByCarMarkCode
SELECT * 
 FROM online_carmark 
 WHERE carmakcod = '' 
 ORDER BY desc_t, carmakcod 

28/4/2014  11:35 >> Application_Name >> getDataCarMarkByCarMarkCode
SELECT * 
 FROM online_carmark 
 WHERE carmakcod = 'JK-HO001' 
 ORDER BY desc_t, carmakcod 

28/4/2014  11:36 >> Application_Name >> getDataPremium
exec sp_calonlineweb 'Y','110','1','2','3 ','EK-FO062','9999','A','A',470250,574750,'0',0

28/4/2014  11:36 >> Application_Name >> getDataPremium
exec sp_calonlineweb 'Y','110','2','2','3 ','EK-FO062','9999','A','A',470250,574750,'0',0

28/4/2014  11:36 >> Application_Name >> getDataPremium
exec sp_calonlineweb 'Y','110','3','2','3 ','EK-FO062','9999','A','A',0,0,'0',0

28/4/2014  11:36 >> Application_Name >> getDataPremium
exec sp_calonlineweb 'Y','110','1','2','3 ','EK-FO062','9999','A','A',470250,574750,'0',0

28/4/2014  11:36 >> Application_Name >> getDataPremium
exec sp_calonlineweb 'Y','110','2','2','3 ','EK-FO062','9999','A','A',470250,574750,'0',0

28/4/2014  11:36 >> Application_Name >> getDataPremium
exec sp_calonlineweb 'Y','110','3','2','3 ','EK-FO062','9999','A','A',0,0,'0',0

28/4/2014  11:37 >> Application_Name >> getDataPremium
exec sp_calonlineweb 'Y','110','1','3','5 ','JK-HO001','2000','A','A',446737.5,546012.5,'0',0

28/4/2014  11:37 >> Application_Name >> getDataPremium
exec sp_calonlineweb 'Y','110','2','3','5 ','JK-HO001','2000','A','A',446737.5,546012.5,'0',0

28/4/2014  11:37 >> Application_Name >> getDataPremium
exec sp_calonlineweb 'Y','110','3','3','5 ','JK-HO001','2000','A','A',0,0,'0',0

28/4/2014  11:37 >> Application_Name >> getDataCarMarkByCarMarkCode
SELECT * 
 FROM online_carmark 
 WHERE carmakcod = '' 
 ORDER BY desc_t, carmakcod 

28/4/2014  11:37 >> Application_Name >> getDataCarMarkByCarMarkCode
SELECT * 
 FROM online_carmark 
 WHERE carmakcod = 'JK-NI100' 
 ORDER BY desc_t, carmakcod 

28/4/2014  11:37 >> Application_Name >> getDataCarMarkByCarMarkCode
SELECT * 
 FROM online_carmark 
 WHERE carmakcod = '' 
 ORDER BY desc_t, carmakcod 

28/4/2014  11:38 >> Application_Name >> getDataCarMarkByCarMarkCode
SELECT * 
 FROM online_carmark 
 WHERE carmakcod = 'JK-TO179' 
 ORDER BY desc_t, carmakcod 

28/4/2014  11:39 >> Application_Name >> getDataPremium
exec sp_calonlineweb 'Y','110','1','3','5 ','JK-HO001','2000','A','A',446737.5,546012.5,'0',0

28/4/2014  11:39 >> Application_Name >> getDataPremium
exec sp_calonlineweb 'Y','110','2','3','5 ','JK-HO001','2000','A','A',446737.5,546012.5,'0',0

28/4/2014  11:39 >> Application_Name >> getDataPremium
exec sp_calonlineweb 'Y','110','3','3','5 ','JK-HO001','2000','A','A',0,0,'0',0

28/4/2014  11:39 >> Application_Name >> getDataPremium
exec sp_calonlineweb 'Y','110','1','3','5 ','JK-HO001','2000','A','A',446737.5,546012.5,'0',0

28/4/2014  11:39 >> Application_Name >> getDataPremium
exec sp_calonlineweb 'Y','110','2','3','5 ','JK-HO001','2000','A','A',446737.5,546012.5,'0',0

28/4/2014  11:39 >> Application_Name >> getDataPremium
exec sp_calonlineweb 'Y','110','3','3','5 ','JK-HO001','2000','A','A',0,0,'0',0

28/4/2014  11:39 >> Application_Name >> getDataPremium
exec sp_calonlineweb 'Y','110','1','3','5 ','JK-HO001','2000','A','A',446737.5,546012.5,'0',0

28/4/2014  11:39 >> Application_Name >> getDataPremium
exec sp_calonlineweb 'Y','110','2','3','5 ','JK-HO001','2000','A','A',446737.5,546012.5,'0',0

28/4/2014  11:39 >> Application_Name >> getDataPremium
exec sp_calonlineweb 'Y','110','3','3','5 ','JK-HO001','2000','A','A',0,0,'0',0

28/4/2014  11:39 >> Application_Name >> getDataPremium
exec sp_calonlineweb 'Y','110','1','3','5 ','JK-HO001','2000','A','A',446737.5,546012.5,'0',0

28/4/2014  11:39 >> Application_Name >> getDataPremium
exec sp_calonlineweb 'Y','110','2','3','5 ','JK-HO001','2000','A','A',446737.5,546012.5,'0',0

28/4/2014  11:39 >> Application_Name >> getDataPremium
exec sp_calonlineweb 'Y','110','3','3','5 ','JK-HO001','2000','A','A',0,0,'0',0

28/4/2014  11:40 >> Application_Name >> SMK :: BuyVoluntary_step2-docToUI
Combine

28/4/2014  11:40 >> Application_Name >> SMK :: BuyVoluntary_step2-docToUI
rg_prmm-016193

28/4/2014  11:40 >> Application_Name >> SMK :: BuyVoluntary_step2-docToUI
rg_prmm16193

28/4/2014  11:40 >> Application_Name >> SMK :: BuyVoluntary_step2-docToUI
cp_comp_prmm600.00

28/4/2014  11:41 >> Application_Name >> getDataPremium
exec sp_calonlineweb 'N','110','1','3','3 ','JK-TO179','9999','A','A',487674.9,539009.1,'36',30

28/4/2014  11:41 >> Application_Name >> getDataPremium
exec sp_calonlineweb 'N','110','2','3','3 ','JK-TO179','9999','A','A',487674.9,539009.1,'36',30

28/4/2014  11:41 >> Application_Name >> getDataPremium
exec sp_calonlineweb 'N','110','3','3','3 ','JK-TO179','9999','A','A',0,0,'36',30

28/4/2014  11:45 >> Application_Name >> getDataCarMarkByCarMarkCode
SELECT * 
 FROM online_carmark 
 WHERE carmakcod = '' 
 ORDER BY desc_t, carmakcod 

28/4/2014  11:46 >> Application_Name >> getDataCarMarkByCarMarkCode
SELECT * 
 FROM online_carmark 
 WHERE carmakcod = '' 
 ORDER BY desc_t, carmakcod 

28/4/2014  11:46 >> Application_Name >> getDataPremium
exec sp_calonlineweb 'N','110','1','3','5 ','JK-HO001','2000','A','A',446737.5,546012.5,'0',0

28/4/2014  11:46 >> Application_Name >> getDataPremium
exec sp_calonlineweb 'N','110','2','3','5 ','JK-HO001','2000','A','A',446737.5,546012.5,'0',0

28/4/2014  11:46 >> Application_Name >> getDataPremium
exec sp_calonlineweb 'N','110','3','3','5 ','JK-HO001','2000','A','A',0,0,'0',0

28/4/2014  11:54 >> Application_Name >> getDataCarMarkByCarMarkCode
SELECT * 
 FROM online_carmark 
 WHERE carmakcod = '' 
 ORDER BY desc_t, carmakcod 

28/4/2014  11:54 >> Application_Name >> getDataCarMarkByCarMarkCode
SELECT * 
 FROM online_carmark 
 WHERE carmakcod = 'JK-MA056' 
 ORDER BY desc_t, carmakcod 

28/4/2014  11:56 >> Application_Name >> getDataCarMarkByCarMarkCode
SELECT * 
 FROM online_carmark 
 WHERE carmakcod = '' 
 ORDER BY desc_t, carmakcod 

28/4/2014  11:56 >> Application_Name >> getDataCarMarkByCarMarkCode
SELECT * 
 FROM online_carmark 
 WHERE carmakcod = 'JK-MI081' 
 ORDER BY desc_t, carmakcod 

28/4/2014  12:5 >> Application_Name >> getDataCarMarkByCarMarkCode
SELECT * 
 FROM online_carmark 
 WHERE carmakcod = '' 
 ORDER BY desc_t, carmakcod 

28/4/2014  12:5 >> Application_Name >> getDataCarMarkByCarMarkCode
SELECT * 
 FROM online_carmark 
 WHERE carmakcod = 'JK-TO242' 
 ORDER BY desc_t, carmakcod 

28/4/2014  12:5 >> Application_Name >> getDataCarMarkByCarMarkCode
SELECT * 
 FROM online_carmark 
 WHERE carmakcod = 'JK-TO162' 
 ORDER BY desc_t, carmakcod 

28/4/2014  12:5 >> Application_Name >> getDataCarMarkByCarMarkCode
SELECT * 
 FROM online_carmark 
 WHERE carmakcod = 'JK-TO242' 
 ORDER BY desc_t, carmakcod 

28/4/2014  12:6 >> Application_Name >> getDataPremium
exec sp_calonlineweb 'Y','110','1','2','5 ','JK-TO242','2000','A','A',478800,585200,'0',0

28/4/2014  12:6 >> Application_Name >> getDataPremium
exec sp_calonlineweb 'Y','110','2','2','5 ','JK-TO242','2000','A','A',478800,585200,'0',0

28/4/2014  12:6 >> Application_Name >> getDataPremium
exec sp_calonlineweb 'Y','110','3','2','5 ','JK-TO242','2000','A','A',0,0,'0',0

28/4/2014  12:7 >> Application_Name >> getDataPremium
exec sp_calonlineweb 'Y','110','1','2','5 ','JK-TO242','2000','A','A',478800,585200,'0',0

28/4/2014  12:7 >> Application_Name >> getDataPremium
exec sp_calonlineweb 'Y','110','2','2','5 ','JK-TO242','2000','A','A',478800,585200,'0',0

28/4/2014  12:7 >> Application_Name >> getDataPremium
exec sp_calonlineweb 'Y','110','3','2','5 ','JK-TO242','2000','A','A',0,0,'0',0

28/4/2014  12:7 >> Application_Name >> getDataPremium
exec sp_calonlineweb 'Y','110','1','2','5 ','JK-TO242','2000','A','A',478800,585200,'0',30

28/4/2014  12:7 >> Application_Name >> getDataPremium
exec sp_calonlineweb 'Y','110','2','2','5 ','JK-TO242','2000','A','A',478800,585200,'0',30

28/4/2014  12:7 >> Application_Name >> getDataPremium
exec sp_calonlineweb 'Y','110','3','2','5 ','JK-TO242','2000','A','A',0,0,'0',30

28/4/2014  12:32 >> Application_Name >> getDataCarMarkByCarMarkCode
SELECT * 
 FROM online_carmark 
 WHERE carmakcod = '' 
 ORDER BY desc_t, carmakcod 

28/4/2014  12:32 >> Application_Name >> getDataCarMarkByCarMarkCode
SELECT * 
 FROM online_carmark 
 WHERE carmakcod = 'JK-TO240' 
 ORDER BY desc_t, carmakcod 

28/4/2014  12:39 >> Application_Name >> getDataCarMarkByCarMarkCode
SELECT * 
 FROM online_carmark 
 WHERE carmakcod = '' 
 ORDER BY desc_t, carmakcod 

28/4/2014  12:39 >> Application_Name >> getDataCarMarkByCarMarkCode
SELECT * 
 FROM online_carmark 
 WHERE carmakcod = 'EK-CR038' 
 ORDER BY desc_t, carmakcod 

28/4/2014  12:42 >> Application_Name >> getDataPremium
exec sp_calonlineweb 'Y','110','1','1','3 ','EK-CR038','2000','A','A',680000,750000,'0',0

28/4/2014  12:42 >> Application_Name >> getDataPremium
exec sp_calonlineweb 'Y','110','2','1','3 ','EK-CR038','2000','A','A',680000,750000,'0',0

28/4/2014  12:42 >> Application_Name >> getDataPremium
exec sp_calonlineweb 'Y','110','3','1','3 ','EK-CR038','2000','A','A',0,0,'0',0

28/4/2014  12:53 >> Application_Name >> getDataCarMarkByCarMarkCode
SELECT * 
 FROM online_carmark 
 WHERE carmakcod = '' 
 ORDER BY desc_t, carmakcod 

28/4/2014  12:53 >> Application_Name >> getDataCarMarkByCarMarkCode
SELECT * 
 FROM online_carmark 
 WHERE carmakcod = 'JK-NI100' 
 ORDER BY desc_t, carmakcod 

28/4/2014  12:54 >> Application_Name >> getDataCarMarkByCarMarkCode
SELECT * 
 FROM online_carmark 
 WHERE carmakcod = '' 
 ORDER BY desc_t, carmakcod 

28/4/2014  12:54 >> Application_Name >> getDataCarMarkByCarMarkCode
SELECT * 
 FROM online_carmark 
 WHERE carmakcod = '' 
 ORDER BY desc_t, carmakcod 

28/4/2014  12:54 >> Application_Name >> getDataCarMarkByCarMarkCode
SELECT * 
 FROM online_carmark 
 WHERE carmakcod = 'JP-TO043' 
 ORDER BY desc_t, carmakcod 

28/4/2014  13:1 >> Application_Name >> getDataCarMarkByCarMarkCode
SELECT * 
 FROM online_carmark 
 WHERE carmakcod = '' 
 ORDER BY desc_t, carmakcod 

28/4/2014  13:1 >> Application_Name >> getDataCarMarkByCarMarkCode
SELECT * 
 FROM online_carmark 
 WHERE carmakcod = '' 
 ORDER BY desc_t, carmakcod 

28/4/2014  13:1 >> Application_Name >> getDataCarMarkByCarMarkCode
SELECT * 
 FROM online_carmark 
 WHERE carmakcod = '' 
 ORDER BY desc_t, carmakcod 

28/4/2014  13:1 >> Application_Name >> getDataCarMarkByCarMarkCode
SELECT * 
 FROM online_carmark 
 WHERE carmakcod = '' 
 ORDER BY desc_t, carmakcod 

28/4/2014  13:1 >> Application_Name >> getDataCarMarkByCarMarkCode
SELECT * 
 FROM online_carmark 
 WHERE carmakcod = '' 
 ORDER BY desc_t, carmakcod 

28/4/2014  13:1 >> Application_Name >> getDataCarMarkByCarMarkCode
SELECT * 
 FROM online_carmark 
 WHERE carmakcod = '' 
 ORDER BY desc_t, carmakcod 

28/4/2014  13:1 >> Application_Name >> getDataCarMarkByCarMarkCode
SELECT * 
 FROM online_carmark 
 WHERE carmakcod = '' 
 ORDER BY desc_t, carmakcod 

28/4/2014  13:1 >> Application_Name >> getDataCarMarkByCarMarkCode
SELECT * 
 FROM online_carmark 
 WHERE carmakcod = '' 
 ORDER BY desc_t, carmakcod 

28/4/2014  13:2 >> Application_Name >> getDataCarMarkByCarMarkCode
SELECT * 
 FROM online_carmark 
 WHERE carmakcod = 'JK-NI100' 
 ORDER BY desc_t, carmakcod 

28/4/2014  13:3 >> Application_Name >> getDataPremium
exec sp_calonlineweb 'Y','110','1','2','5 ','JK-NI100','2000','A','A',380000,418000,'0',30

28/4/2014  13:3 >> Application_Name >> getDataPremium
exec sp_calonlineweb 'Y','110','2','2','5 ','JK-NI100','2000','A','A',380000,418000,'0',30

28/4/2014  13:3 >> Application_Name >> getDataPremium
exec sp_calonlineweb 'Y','110','3','2','5 ','JK-NI100','2000','A','A',0,0,'0',30

28/4/2014  13:5 >> Application_Name >> SMK :: BuyVoluntary_step2-docToUI
Combine

28/4/2014  13:5 >> Application_Name >> SMK :: BuyVoluntary_step2-docToUI
rg_prmm-09462.6

28/4/2014  13:5 >> Application_Name >> SMK :: BuyVoluntary_step2-docToUI
rg_prmm9462.6

28/4/2014  13:5 >> Application_Name >> SMK :: BuyVoluntary_step2-docToUI
cp_comp_prmm600.00

28/4/2014  13:20 >> Application_Name >> getDataCarMarkByCarMarkCode
SELECT * 
 FROM online_carmark 
 WHERE carmakcod = '' 
 ORDER BY desc_t, carmakcod 

28/4/2014  13:21 >> Application_Name >> getDataCarMarkByCarMarkCode
SELECT * 
 FROM online_carmark 
 WHERE carmakcod = 'JK-HO122' 
 ORDER BY desc_t, carmakcod 

28/4/2014  13:21 >> Application_Name >> getDataPremium
exec sp_calonlineweb 'Y','110','1','2','5 ','JK-HO122','2000','A','A',427500,522500,'0',20

28/4/2014  13:21 >> Application_Name >> getDataPremium
exec sp_calonlineweb 'Y','110','2','2','5 ','JK-HO122','2000','A','A',427500,522500,'0',20

28/4/2014  13:21 >> Application_Name >> getDataPremium
exec sp_calonlineweb 'Y','110','3','2','5 ','JK-HO122','2000','A','A',0,0,'0',20

28/4/2014  13:24 >> Application_Name >> getDataPremium
exec sp_calonlineweb 'Y','110','1','3','5 ','JK-HO122','2000','A','A',406125,496375,'0',20

28/4/2014  13:24 >> Application_Name >> getDataPremium
exec sp_calonlineweb 'Y','110','2','3','5 ','JK-HO122','2000','A','A',406125,496375,'0',20

28/4/2014  13:24 >> Application_Name >> getDataPremium
exec sp_calonlineweb 'Y','110','3','3','5 ','JK-HO122','2000','A','A',0,0,'0',20

28/4/2014  13:33 >> Application_Name >> getDataCarMarkByCarMarkCode
SELECT * 
 FROM online_carmark 
 WHERE carmakcod = '' 
 ORDER BY desc_t, carmakcod 

28/4/2014  13:33 >> Application_Name >> getDataCarMarkByCarMarkCode
SELECT * 
 FROM online_carmark 
 WHERE carmakcod = 'JK-NI100' 
 ORDER BY desc_t, carmakcod 

28/4/2014  13:36 >> Application_Name >> getDataPremium
exec sp_calonlineweb 'N','110','1','2','5 ','JK-NI100','2000','A','A',380000,418000,'18',30

28/4/2014  13:36 >> Application_Name >> getDataPremium
exec sp_calonlineweb 'N','110','2','2','5 ','JK-NI100','2000','A','A',380000,418000,'18',30

28/4/2014  13:36 >> Application_Name >> getDataPremium
exec sp_calonlineweb 'N','110','3','2','5 ','JK-NI100','2000','A','A',0,0,'18',30

28/4/2014  13:48 >> Application_Name >> getDataCarMarkByCarMarkCode
SELECT * 
 FROM online_carmark 
 WHERE carmakcod = '' 
 ORDER BY desc_t, carmakcod 

28/4/2014  13:48 >> Application_Name >> getDataCarMarkByCarMarkCode
SELECT * 
 FROM online_carmark 
 WHERE carmakcod = 'JK-NI100' 
 ORDER BY desc_t, carmakcod 

28/4/2014  13:49 >> Application_Name >> getDataPremium
exec sp_calonlineweb 'Y','110','1','2','5 ','JK-NI100','2000','A','A',380000,418000,'0',0

28/4/2014  13:49 >> Application_Name >> getDataPremium
exec sp_calonlineweb 'Y','110','2','2','5 ','JK-NI100','2000','A','A',380000,418000,'0',0

28/4/2014  13:49 >> Application_Name >> getDataPremium
exec sp_calonlineweb 'Y','110','3','2','5 ','JK-NI100','2000','A','A',0,0,'0',0

28/4/2014  13:51 >> Application_Name >> getDataPremium
exec sp_calonlineweb 'Y','110','1','2','5 ','JK-NI100','2000','A','A',380000,418000,'0',0

28/4/2014  13:51 >> Application_Name >> getDataPremium
exec sp_calonlineweb 'Y','110','2','2','5 ','JK-NI100','2000','A','A',380000,418000,'0',0

28/4/2014  13:51 >> Application_Name >> getDataPremium
exec sp_calonlineweb 'Y','110','3','2','5 ','JK-NI100','2000','A','A',0,0,'0',0

28/4/2014  13:52 >> Application_Name >> getDataPremium
exec sp_calonlineweb 'Y','110','1','2','5 ','JK-NI100','2000','A','A',380000,418000,'0',0

28/4/2014  13:52 >> Application_Name >> getDataPremium
exec sp_calonlineweb 'Y','110','2','2','5 ','JK-NI100','2000','A','A',380000,418000,'0',0

28/4/2014  13:52 >> Application_Name >> getDataPremium
exec sp_calonlineweb 'Y','110','3','2','5 ','JK-NI100','2000','A','A',0,0,'0',0

28/4/2014  13:54 >> Application_Name >> getDataCarMarkByCarMarkCode
SELECT * 
 FROM online_carmark 
 WHERE carmakcod = '' 
 ORDER BY desc_t, carmakcod 

28/4/2014  13:54 >> Application_Name >> getDataCarMarkByCarMarkCode
SELECT * 
 FROM online_carmark 
 WHERE carmakcod = 'JK-HO001' 
 ORDER BY desc_t, carmakcod 

28/4/2014  13:55 >> Application_Name >> getDataPremium
exec sp_calonlineweb 'Y','110','1','2','5 ','JK-HO001','2000','A','A',470250,574750,'0',0

28/4/2014  13:55 >> Application_Name >> getDataPremium
exec sp_calonlineweb 'Y','110','2','2','5 ','JK-HO001','2000','A','A',470250,574750,'0',0

28/4/2014  13:55 >> Application_Name >> getDataPremium
exec sp_calonlineweb 'Y','110','3','2','5 ','JK-HO001','2000','A','A',0,0,'0',0

28/4/2014  13:56 >> Application_Name >> getDataPremium
exec sp_calonlineweb 'Y','110','1','2','5 ','JK-HO001','2000','A','A',470250,574750,'0',30

28/4/2014  13:56 >> Application_Name >> getDataPremium
exec sp_calonlineweb 'Y','110','2','2','5 ','JK-HO001','2000','A','A',470250,574750,'0',30

28/4/2014  13:56 >> Application_Name >> getDataPremium
exec sp_calonlineweb 'Y','110','3','2','5 ','JK-HO001','2000','A','A',0,0,'0',30

28/4/2014  13:56 >> Application_Name >> SMK :: BuyVoluntary_step2-docToUI
Combine

28/4/2014  13:56 >> Application_Name >> SMK :: BuyVoluntary_step2-docToUI
rg_prmm-013268

28/4/2014  13:56 >> Application_Name >> SMK :: BuyVoluntary_step2-docToUI
rg_prmm13268

28/4/2014  13:56 >> Application_Name >> SMK :: BuyVoluntary_step2-docToUI
cp_comp_prmm600.00

28/4/2014  13:59 >> Application_Name >> getDataPremium
exec sp_calonlineweb 'N','110','1','2','5 ','JK-NI100','2000','A','A',380000,418000,'0',0

28/4/2014  13:59 >> Application_Name >> getDataPremium
exec sp_calonlineweb 'N','110','2','2','5 ','JK-NI100','2000','A','A',380000,418000,'0',0

28/4/2014  13:59 >> Application_Name >> getDataPremium
exec sp_calonlineweb 'N','110','3','2','5 ','JK-NI100','2000','A','A',0,0,'0',0

28/4/2014  13:59 >> Application_Name >> getDataPremium
exec sp_calonlineweb 'Y','110','1','2','5 ','JK-NI100','2000','A','A',380000,418000,'0',0

28/4/2014  13:59 >> Application_Name >> getDataPremium
exec sp_calonlineweb 'Y','110','2','2','5 ','JK-NI100','2000','A','A',380000,418000,'0',0

28/4/2014  13:59 >> Application_Name >> getDataPremium
exec sp_calonlineweb 'Y','110','3','2','5 ','JK-NI100','2000','A','A',0,0,'0',0

28/4/2014  14:1 >> Application_Name >> getDataPremium
exec sp_calonlineweb 'Y','110','1','2','5 ','JK-NI100','2000','A','A',380000,418000,'51',0

28/4/2014  14:1 >> Application_Name >> getDataPremium
exec sp_calonlineweb 'Y','110','2','2','5 ','JK-NI100','2000','A','A',380000,418000,'51',0

28/4/2014  14:1 >> Application_Name >> getDataPremium
exec sp_calonlineweb 'Y','110','3','2','5 ','JK-NI100','2000','A','A',0,0,'51',0

28/4/2014  14:2 >> Application_Name >> getDataCarMarkByCarMarkCode
SELECT * 
 FROM online_carmark 
 WHERE carmakcod = '' 
 ORDER BY desc_t, carmakcod 

28/4/2014  14:2 >> Application_Name >> getDataCarMarkByCarMarkCode
SELECT * 
 FROM online_carmark 
 WHERE carmakcod = 'JK-MA065' 
 ORDER BY desc_t, carmakcod 

28/4/2014  14:3 >> Application_Name >> getDataPremium
exec sp_calonlineweb 'Y','110','1','3','5 ','JK-MA065','2000','A','A',454860,555940,'0',0

28/4/2014  14:3 >> Application_Name >> getDataPremium
exec sp_calonlineweb 'Y','110','2','3','5 ','JK-MA065','2000','A','A',454860,555940,'0',0

28/4/2014  14:3 >> Application_Name >> getDataPremium
exec sp_calonlineweb 'Y','110','3','3','5 ','JK-MA065','2000','A','A',0,0,'0',0

28/4/2014  14:3 >> Application_Name >> getDataPremium
exec sp_calonlineweb 'Y','110','1','2','5 ','JK-NI100','2000','A','A',380000,418000,'0',0

28/4/2014  14:3 >> Application_Name >> getDataPremium
exec sp_calonlineweb 'Y','110','2','2','5 ','JK-NI100','2000','A','A',380000,418000,'0',0

28/4/2014  14:3 >> Application_Name >> getDataPremium
exec sp_calonlineweb 'Y','110','3','2','5 ','JK-NI100','2000','A','A',0,0,'0',0

28/4/2014  14:3 >> Application_Name >> getDataPremium
exec sp_calonlineweb 'Y','110','1','3','5 ','JK-MA065','2000','A','A',454860,555940,'0',0

28/4/2014  14:3 >> Application_Name >> getDataPremium
exec sp_calonlineweb 'Y','110','2','3','5 ','JK-MA065','2000','A','A',454860,555940,'0',0

28/4/2014  14:3 >> Application_Name >> getDataPremium
exec sp_calonlineweb 'Y','110','3','3','5 ','JK-MA065','2000','A','A',0,0,'0',0

28/4/2014  14:3 >> Application_Name >> getDataPremium
exec sp_calonlineweb 'Y','110','1','2','5 ','JK-NI100','2000','A','A',380000,418000,'51',0

28/4/2014  14:3 >> Application_Name >> getDataPremium
exec sp_calonlineweb 'Y','110','2','2','5 ','JK-NI100','2000','A','A',380000,418000,'51',0

28/4/2014  14:3 >> Application_Name >> getDataPremium
exec sp_calonlineweb 'Y','110','3','2','5 ','JK-NI100','2000','A','A',0,0,'51',0

28/4/2014  14:3 >> Application_Name >> getDataPremium
exec sp_calonlineweb 'Y','110','1','3','5 ','JK-MA065','2000','A','A',454860,555940,'0',20

28/4/2014  14:3 >> Application_Name >> getDataPremium
exec sp_calonlineweb 'Y','110','2','3','5 ','JK-MA065','2000','A','A',454860,555940,'0',20

28/4/2014  14:3 >> Application_Name >> getDataPremium
exec sp_calonlineweb 'Y','110','3','3','5 ','JK-MA065','2000','A','A',0,0,'0',20

28/4/2014  14:4 >> Application_Name >> getDataPremium
exec sp_calonlineweb 'Y','110','1','2','5 ','JK-NI100','2000','A','A',380000,418000,'0',0

28/4/2014  14:4 >> Application_Name >> getDataPremium
exec sp_calonlineweb 'Y','110','2','2','5 ','JK-NI100','2000','A','A',380000,418000,'0',0

28/4/2014  14:4 >> Application_Name >> getDataPremium
exec sp_calonlineweb 'Y','110','3','2','5 ','JK-NI100','2000','A','A',0,0,'0',0

28/4/2014  14:13 >> Application_Name >> getDataCarMarkByCarMarkCode
SELECT * 
 FROM online_carmark 
 WHERE carmakcod = '' 
 ORDER BY desc_t, carmakcod 

28/4/2014  14:13 >> Application_Name >> getDataCarMarkByCarMarkCode
SELECT * 
 FROM online_carmark 
 WHERE carmakcod = 'JK-MA065' 
 ORDER BY desc_t, carmakcod 

28/4/2014  14:14 >> Application_Name >> getDataCarMarkByCarMarkCode
SELECT * 
 FROM online_carmark 
 WHERE carmakcod = '' 
 ORDER BY desc_t, carmakcod 

28/4/2014  14:14 >> Application_Name >> getDataCarMarkByCarMarkCode
SELECT * 
 FROM online_carmark 
 WHERE carmakcod = 'JK-MI080' 
 ORDER BY desc_t, carmakcod 

28/4/2014  14:16 >> Application_Name >> getDataPremium
exec sp_calonlineweb 'Y','110','1','2','5 ','JK-MA065','2000','A','A',478800,585200,'0',0

28/4/2014  14:16 >> Application_Name >> getDataPremium
exec sp_calonlineweb 'Y','110','2','2','5 ','JK-MA065','2000','A','A',478800,585200,'0',0

28/4/2014  14:16 >> Application_Name >> getDataPremium
exec sp_calonlineweb 'Y','110','3','2','5 ','JK-MA065','2000','A','A',0,0,'0',0

28/4/2014  14:17 >> Application_Name >> getDataPremium
exec sp_calonlineweb 'Y','110','1','3','5 ','JK-MI080','2000','A','A',357390,436810,'0',20

28/4/2014  14:17 >> Application_Name >> getDataPremium
exec sp_calonlineweb 'Y','110','2','3','5 ','JK-MI080','2000','A','A',357390,436810,'0',20

28/4/2014  14:17 >> Application_Name >> getDataPremium
exec sp_calonlineweb 'Y','110','3','3','5 ','JK-MI080','2000','A','A',0,0,'0',20

28/4/2014  14:17 >> Application_Name >> SMK :: BuyVoluntary_step2-docToUI
Combine

28/4/2014  14:17 >> Application_Name >> SMK :: BuyVoluntary_step2-docToUI
rg_prmm-017059

28/4/2014  14:17 >> Application_Name >> SMK :: BuyVoluntary_step2-docToUI
rg_prmm17059

28/4/2014  14:17 >> Application_Name >> SMK :: BuyVoluntary_step2-docToUI
cp_comp_prmm600.00

28/4/2014  14:22 >> Application_Name >> getDataCarMarkByCarMarkCode
SELECT * 
 FROM online_carmark 
 WHERE carmakcod = '' 
 ORDER BY desc_t, carmakcod 

28/4/2014  14:23 >> Application_Name >> getDataCarMarkByCarMarkCode
SELECT * 
 FROM online_carmark 
 WHERE carmakcod = 'JK-HO001' 
 ORDER BY desc_t, carmakcod 

28/4/2014  14:24 >> Application_Name >> getDataCarMarkByCarMarkCode
SELECT * 
 FROM online_carmark 
 WHERE carmakcod = '' 
 ORDER BY desc_t, carmakcod 

28/4/2014  14:24 >> Application_Name >> getDataCarMarkByCarMarkCode
SELECT * 
 FROM online_carmark 
 WHERE carmakcod = '' 
 ORDER BY desc_t, carmakcod 

28/4/2014  14:24 >> Application_Name >> getDataCarMarkByCarMarkCode
SELECT * 
 FROM online_carmark 
 WHERE carmakcod = 'JK-TO133' 
 ORDER BY desc_t, carmakcod 

28/4/2014  14:24 >> Application_Name >> getDataCarMarkByCarMarkCode
SELECT * 
 FROM online_carmark 
 WHERE carmakcod = 'JK-TO002' 
 ORDER BY desc_t, carmakcod 

28/4/2014  14:25 >> Application_Name >> getDataCarMarkByCarMarkCode
SELECT * 
 FROM online_carmark 
 WHERE carmakcod = '' 
 ORDER BY desc_t, carmakcod 

28/4/2014  14:25 >> Application_Name >> getDataCarMarkByCarMarkCode
SELECT * 
 FROM online_carmark 
 WHERE carmakcod = 'JK-HO001' 
 ORDER BY desc_t, carmakcod 

28/4/2014  14:28 >> Application_Name >> getCategoryCompByBrand
SELECT mdc_minor_cd , mdc_desc_t as mdc_desc FROM mtdesc_comp  WHERE mdc_minor_cd <> '0000' AND mdc_major_cd = 'H004' ORDER BY mdc_desc 

28/4/2014  14:32 >> Application_Name >> getCategoryCompByBrand
SELECT mdc_minor_cd , mdc_desc_t as mdc_desc FROM mtdesc_comp  WHERE mdc_minor_cd <> '0000' AND mdc_major_cd = 'F002' ORDER BY mdc_desc 

28/4/2014  14:34 >> Application_Name >> getCategoryCompByBrand
SELECT mdc_minor_cd , mdc_desc_t as mdc_desc FROM mtdesc_comp  WHERE mdc_minor_cd <> '0000' AND mdc_major_cd = 'L005' ORDER BY mdc_desc 

28/4/2014  14:35 >> Application_Name >> getCategoryCompByBrand
SELECT mdc_minor_cd , mdc_desc_t as mdc_desc FROM mtdesc_comp  WHERE mdc_minor_cd <> '0000' AND mdc_major_cd = 'F002' ORDER BY mdc_desc 

28/4/2014  14:37 >> Application_Name >> getCategoryCompByBrand
SELECT mdc_minor_cd , mdc_desc_t as mdc_desc FROM mtdesc_comp  WHERE mdc_minor_cd <> '0000' AND mdc_major_cd = 'C002' ORDER BY mdc_desc 

28/4/2014  14:41 >> Application_Name >> getNewPremium - compprmm
SELECT cp_com_prmm, cp_stamp, cp_tax FROM comprmm WHERE cp_veh_cd = '1.10   '

28/4/2014  14:45 >> Application_Name >> getDataCarMarkByCarMarkCode
SELECT * 
 FROM online_carmark 
 WHERE carmakcod = '' 
 ORDER BY desc_t, carmakcod 

28/4/2014  14:45 >> Application_Name >> getDataCarMarkByCarMarkCode
SELECT * 
 FROM online_carmark 
 WHERE carmakcod = 'JK-HO001' 
 ORDER BY desc_t, carmakcod 

28/4/2014  14:47 >> Application_Name >> getDataPremium
exec sp_calonlineweb 'Y','110','1','2','5 ','JK-HO001','2000','A','A',470250,574750,'0',20

28/4/2014  14:47 >> Application_Name >> getDataPremium
exec sp_calonlineweb 'Y','110','2','2','5 ','JK-HO001','2000','A','A',470250,574750,'0',20

28/4/2014  14:47 >> Application_Name >> getDataPremium
exec sp_calonlineweb 'Y','110','3','2','5 ','JK-HO001','2000','A','A',0,0,'0',20

28/4/2014  14:54 >> Application_Name >> getDataCarMarkByCarMarkCode
SELECT * 
 FROM online_carmark 
 WHERE carmakcod = '' 
 ORDER BY desc_t, carmakcod 

28/4/2014  14:54 >> Application_Name >> getDataCarMarkByCarMarkCode
SELECT * 
 FROM online_carmark 
 WHERE carmakcod = 'JK-HO001' 
 ORDER BY desc_t, carmakcod 

28/4/2014  14:56 >> Application_Name >> getDataPremium
exec sp_calonlineweb 'Y','110','1','2','5 ','JK-HO001','2000','A','A',470250,574750,'0',0

28/4/2014  14:56 >> Application_Name >> getDataPremium
exec sp_calonlineweb 'Y','110','2','2','5 ','JK-HO001','2000','A','A',470250,574750,'0',0

28/4/2014  14:56 >> Application_Name >> getDataPremium
exec sp_calonlineweb 'Y','110','3','2','5 ','JK-HO001','2000','A','A',0,0,'0',0

28/4/2014  15:3 >> Application_Name >> getCategoryCompByBrand
SELECT mdc_minor_cd , mdc_desc_t as mdc_desc FROM mtdesc_comp  WHERE mdc_minor_cd <> '0000' AND mdc_major_cd = 'T001' ORDER BY mdc_desc 

28/4/2014  15:10 >> Application_Name >> getDataCarMarkByCarMarkCode
SELECT * 
 FROM online_carmark 
 WHERE carmakcod = '' 
 ORDER BY desc_t, carmakcod 

28/4/2014  15:10 >> Application_Name >> getDataCarMarkByCarMarkCode
SELECT * 
 FROM online_carmark 
 WHERE carmakcod = 'JK-HO001' 
 ORDER BY desc_t, carmakcod 

28/4/2014  15:12 >> Application_Name >> getDataPremium
exec sp_calonlineweb 'Y','110','1','5','5 ','JK-HO001','2000','A','A',403180.59375,492776.28125,'0',0

28/4/2014  15:12 >> Application_Name >> getDataPremium
exec sp_calonlineweb 'Y','110','2','5','5 ','JK-HO001','2000','A','A',403180.59375,492776.28125,'0',0

28/4/2014  15:12 >> Application_Name >> getDataPremium
exec sp_calonlineweb 'Y','110','3','5','5 ','JK-HO001','2000','A','A',0,0,'0',0

28/4/2014  15:13 >> Application_Name >> SMK :: BuyVoluntary_step2-docToUI
Combine

28/4/2014  15:13 >> Application_Name >> SMK :: BuyVoluntary_step2-docToUI
rg_prmm-015898

28/4/2014  15:13 >> Application_Name >> SMK :: BuyVoluntary_step2-docToUI
rg_prmm15898

28/4/2014  15:13 >> Application_Name >> SMK :: BuyVoluntary_step2-docToUI
cp_comp_prmm600.00

28/4/2014  15:13 >> Application_Name >> getDataPremium
exec sp_calonlineweb 'Y','110','1','5','5 ','JK-HO001','2000','A','A',403180.59375,492776.28125,'0',20

28/4/2014  15:13 >> Application_Name >> getDataPremium
exec sp_calonlineweb 'Y','110','2','5','5 ','JK-HO001','2000','A','A',403180.59375,492776.28125,'0',20

28/4/2014  15:13 >> Application_Name >> getDataPremium
exec sp_calonlineweb 'Y','110','3','5','5 ','JK-HO001','2000','A','A',0,0,'0',20

28/4/2014  15:21 >> Application_Name >> getDataCarMarkByCarMarkCode
SELECT * 
 FROM online_carmark 
 WHERE carmakcod = '' 
 ORDER BY desc_t, carmakcod 

28/4/2014  15:21 >> Application_Name >> getDataCarMarkByCarMarkCode
SELECT * 
 FROM online_carmark 
 WHERE carmakcod = 'JK-MA056' 
 ORDER BY desc_t, carmakcod 

28/4/2014  15:22 >> Application_Name >> getDataPremium
exec sp_calonlineweb 'N','110','1','2','3 ','JK-MA056','2000','A','A',752400,919600,'0',0

28/4/2014  15:22 >> Application_Name >> getDataPremium
exec sp_calonlineweb 'N','110','2','2','3 ','JK-MA056','2000','A','A',752400,919600,'0',0

28/4/2014  15:22 >> Application_Name >> getDataPremium
exec sp_calonlineweb 'N','110','3','2','3 ','JK-MA056','2000','A','A',0,0,'0',0

28/4/2014  15:25 >> Application_Name >> getDataCarMarkByCarMarkCode
SELECT * 
 FROM online_carmark 
 WHERE carmakcod = '' 
 ORDER BY desc_t, carmakcod 

28/4/2014  15:25 >> Application_Name >> getDataCarMarkByCarMarkCode
SELECT * 
 FROM online_carmark 
 WHERE carmakcod = 'JK-TO242' 
 ORDER BY desc_t, carmakcod 

28/4/2014  15:33 >> Application_Name >> getDataCarMarkByCarMarkCode
SELECT * 
 FROM online_carmark 
 WHERE carmakcod = '' 
 ORDER BY desc_t, carmakcod 

28/4/2014  15:33 >> Application_Name >> getDataCarMarkByCarMarkCode
SELECT * 
 FROM online_carmark 
 WHERE carmakcod = 'JK-HO001' 
 ORDER BY desc_t, carmakcod 

28/4/2014  15:35 >> Application_Name >> getDataPremium
exec sp_calonlineweb 'N','110','1','2','5 ','JK-HO001','2000','A','A',470250,574750,'0',0

28/4/2014  15:35 >> Application_Name >> getDataPremium
exec sp_calonlineweb 'N','110','2','2','5 ','JK-HO001','2000','A','A',470250,574750,'0',0

28/4/2014  15:35 >> Application_Name >> getDataPremium
exec sp_calonlineweb 'N','110','3','2','5 ','JK-HO001','2000','A','A',0,0,'0',0

28/4/2014  16:1 >> Application_Name >> getDataCarMarkByCarMarkCode
SELECT * 
 FROM online_carmark 
 WHERE carmakcod = '' 
 ORDER BY desc_t, carmakcod 

28/4/2014  16:1 >> Application_Name >> getDataCarMarkByCarMarkCode
SELECT * 
 FROM online_carmark 
 WHERE carmakcod = 'JK-MA065' 
 ORDER BY desc_t, carmakcod 

28/4/2014  16:1 >> Application_Name >> getDataCarMarkByCarMarkCode
SELECT * 
 FROM online_carmark 
 WHERE carmakcod = '' 
 ORDER BY desc_t, carmakcod 

28/4/2014  16:1 >> Application_Name >> getDataCarMarkByCarMarkCode
SELECT * 
 FROM online_carmark 
 WHERE carmakcod = 'JK-TO242' 
 ORDER BY desc_t, carmakcod 

28/4/2014  16:2 >> Application_Name >> getDataPremium
exec sp_calonlineweb 'Y','110','1','2','5 ','JK-MA065','2000','A','A',478800,585200,'0',20

28/4/2014  16:2 >> Application_Name >> getDataPremium
exec sp_calonlineweb 'Y','110','2','2','5 ','JK-MA065','2000','A','A',478800,585200,'0',20

28/4/2014  16:2 >> Application_Name >> getDataPremium
exec sp_calonlineweb 'Y','110','3','2','5 ','JK-MA065','2000','A','A',0,0,'0',20

28/4/2014  16:3 >> Application_Name >> getDataPremium
exec sp_calonlineweb 'Y','110','1','2','5 ','JK-TO242','2000','A','A',478800,585200,'0',20

28/4/2014  16:3 >> Application_Name >> getDataPremium
exec sp_calonlineweb 'Y','110','2','2','5 ','JK-TO242','2000','A','A',478800,585200,'0',20

28/4/2014  16:3 >> Application_Name >> getDataPremium
exec sp_calonlineweb 'Y','110','3','2','5 ','JK-TO242','2000','A','A',0,0,'0',20

28/4/2014  16:3 >> Application_Name >> SMK :: BuyVoluntary_step2-docToUI
Combine

28/4/2014  16:3 >> Application_Name >> SMK :: BuyVoluntary_step2-docToUI
rg_prmm-013051.2

28/4/2014  16:3 >> Application_Name >> SMK :: BuyVoluntary_step2-docToUI
rg_prmm13051.2

28/4/2014  16:3 >> Application_Name >> SMK :: BuyVoluntary_step2-docToUI
cp_comp_prmm600.00

28/4/2014  16:4 >> Application_Name >> getDataPremium
exec sp_calonlineweb 'Y','110','1','2','5 ','JK-MA065','2000','A','A',478800,585200,'0',20

28/4/2014  16:4 >> Application_Name >> getDataPremium
exec sp_calonlineweb 'Y','110','2','2','5 ','JK-MA065','2000','A','A',478800,585200,'0',20

28/4/2014  16:4 >> Application_Name >> getDataPremium
exec sp_calonlineweb 'Y','110','3','2','5 ','JK-MA065','2000','A','A',0,0,'0',20

28/4/2014  16:4 >> Application_Name >> SMK :: BuyVoluntary_step2-docToUI
Combine

28/4/2014  16:4 >> Application_Name >> SMK :: BuyVoluntary_step2-docToUI
rg_prmm-013051.2

28/4/2014  16:4 >> Application_Name >> SMK :: BuyVoluntary_step2-docToUI
rg_prmm13051.2

28/4/2014  16:4 >> Application_Name >> SMK :: BuyVoluntary_step2-docToUI
cp_comp_prmm600.00

28/4/2014  16:5 >> Application_Name >> SMK :: BuyVoluntary_step2-docToUI
Combine

28/4/2014  16:5 >> Application_Name >> SMK :: BuyVoluntary_step2-docToUI
rg_prmm-013268

28/4/2014  16:5 >> Application_Name >> SMK :: BuyVoluntary_step2-docToUI
rg_prmm13268

28/4/2014  16:5 >> Application_Name >> SMK :: BuyVoluntary_step2-docToUI
cp_comp_prmm600.00

28/4/2014  16:6 >> Application_Name >> getDataCarMarkByCarMarkCode
SELECT * 
 FROM online_carmark 
 WHERE carmakcod = '' 
 ORDER BY desc_t, carmakcod 

28/4/2014  16:6 >> Application_Name >> getDataCarMarkByCarMarkCode
SELECT * 
 FROM online_carmark 
 WHERE carmakcod = 'EK-FO083' 
 ORDER BY desc_t, carmakcod 

28/4/2014  16:8 >> Application_Name >> getDataPremium
exec sp_calonlineweb 'Y','110','1','2','5 ','EK-FO083','2000','A','A',478800,585200,'0',0

28/4/2014  16:8 >> Application_Name >> getDataPremium
exec sp_calonlineweb 'Y','110','2','2','5 ','EK-FO083','2000','A','A',478800,585200,'0',0

28/4/2014  16:8 >> Application_Name >> getDataPremium
exec sp_calonlineweb 'Y','110','3','2','5 ','EK-FO083','2000','A','A',0,0,'0',0

28/4/2014  16:9 >> Application_Name >> getDataCarMarkByCarMarkCode
SELECT * 
 FROM online_carmark 
 WHERE carmakcod = '' 
 ORDER BY desc_t, carmakcod 

28/4/2014  16:9 >> Application_Name >> getDataCarMarkByCarMarkCode
SELECT * 
 FROM online_carmark 
 WHERE carmakcod = 'JK-HO001' 
 ORDER BY desc_t, carmakcod 

28/4/2014  16:9 >> Application_Name >> SMK :: BuyVoluntary_step2-docToUI
Combine

28/4/2014  16:9 >> Application_Name >> SMK :: BuyVoluntary_step2-docToUI
rg_prmm-017059

28/4/2014  16:9 >> Application_Name >> SMK :: BuyVoluntary_step2-docToUI
rg_prmm17059

28/4/2014  16:9 >> Application_Name >> SMK :: BuyVoluntary_step2-docToUI
cp_comp_prmm600.00

28/4/2014  16:10 >> Application_Name >> getDataPremium
exec sp_calonlineweb 'Y','110','1','3','5 ','JK-HO001','2000','A','A',446737.5,546012.5,'0',20

28/4/2014  16:10 >> Application_Name >> getDataPremium
exec sp_calonlineweb 'Y','110','2','3','5 ','JK-HO001','2000','A','A',446737.5,546012.5,'0',20

28/4/2014  16:10 >> Application_Name >> getDataPremium
exec sp_calonlineweb 'Y','110','3','3','5 ','JK-HO001','2000','A','A',0,0,'0',20

28/4/2014  16:31 >> Application_Name >> getDataCarMarkByCarMarkCode
SELECT * 
 FROM online_carmark 
 WHERE carmakcod = '' 
 ORDER BY desc_t, carmakcod 

28/4/2014  16:31 >> Application_Name >> getDataCarMarkByCarMarkCode
SELECT * 
 FROM online_carmark 
 WHERE carmakcod = 'JK-MA065' 
 ORDER BY desc_t, carmakcod 

28/4/2014  16:49 >> Application_Name >> getDataCarMarkByCarMarkCode
SELECT * 
 FROM online_carmark 
 WHERE carmakcod = '' 
 ORDER BY desc_t, carmakcod 

28/4/2014  16:49 >> Application_Name >> getDataCarMarkByCarMarkCode
SELECT * 
 FROM online_carmark 
 WHERE carmakcod = 'JK-TO242' 
 ORDER BY desc_t, carmakcod 

28/4/2014  16:51 >> Application_Name >> getDataCarMarkByCarMarkCode
SELECT * 
 FROM online_carmark 
 WHERE carmakcod = '' 
 ORDER BY desc_t, carmakcod 

28/4/2014  16:52 >> Application_Name >> getDataCarMarkByCarMarkCode
SELECT * 
 FROM online_carmark 
 WHERE carmakcod = 'JK-TO242' 
 ORDER BY desc_t, carmakcod 

28/4/2014  16:56 >> Application_Name >> getDataPremium
exec sp_calonlineweb 'Y','110','1','3','5 ','JK-TO242','2000','A','A',454860,555940,'25',20

28/4/2014  16:56 >> Application_Name >> getDataPremium
exec sp_calonlineweb 'Y','110','2','3','5 ','JK-TO242','2000','A','A',454860,555940,'25',20

28/4/2014  16:56 >> Application_Name >> getDataPremium
exec sp_calonlineweb 'Y','110','3','3','5 ','JK-TO242','2000','A','A',0,0,'25',20

28/4/2014  16:57 >> Application_Name >> SMK :: BuyVoluntary_step2-docToUI
Combine

28/4/2014  16:57 >> Application_Name >> SMK :: BuyVoluntary_step2-docToUI
rg_prmm-011659.2

28/4/2014  16:57 >> Application_Name >> SMK :: BuyVoluntary_step2-docToUI
rg_prmm11659.2

28/4/2014  16:57 >> Application_Name >> SMK :: BuyVoluntary_step2-docToUI
cp_comp_prmm600.00

28/4/2014  16:57 >> Application_Name >> getDataCarMarkByCarMarkCode
SELECT * 
 FROM online_carmark 
 WHERE carmakcod = '' 
 ORDER BY desc_t, carmakcod 

28/4/2014  16:57 >> Application_Name >> getDataCarMarkByCarMarkCode
SELECT * 
 FROM online_carmark 
 WHERE carmakcod = 'JK-HO084' 
 ORDER BY desc_t, carmakcod 

28/4/2014  16:57 >> Application_Name >> getDataPremium
exec sp_calonlineweb 'Y','110','1','3','5 ','JK-TO242','2000','A','A',454860,555940,'25',20

28/4/2014  16:57 >> Application_Name >> getDataPremium
exec sp_calonlineweb 'Y','110','2','3','5 ','JK-TO242','2000','A','A',454860,555940,'25',20

28/4/2014  16:57 >> Application_Name >> getDataPremium
exec sp_calonlineweb 'Y','110','3','3','5 ','JK-TO242','2000','A','A',0,0,'25',20

28/4/2014  16:58 >> Application_Name >> SMK :: BuyVoluntary_step2-docToUI
Combine

28/4/2014  16:58 >> Application_Name >> SMK :: BuyVoluntary_step2-docToUI
rg_prmm-011659.2

28/4/2014  16:58 >> Application_Name >> SMK :: BuyVoluntary_step2-docToUI
rg_prmm11659.2

28/4/2014  16:58 >> Application_Name >> SMK :: BuyVoluntary_step2-docToUI
cp_comp_prmm600.00

28/4/2014  16:58 >> Application_Name >> getDataPremium
exec sp_calonlineweb 'Y','110','1','3','5 ','JK-HO084','2000','A','A',462982.5,565867.5,'0',20

28/4/2014  16:58 >> Application_Name >> getDataPremium
exec sp_calonlineweb 'Y','110','2','3','5 ','JK-HO084','2000','A','A',462982.5,565867.5,'0',20

28/4/2014  16:58 >> Application_Name >> getDataPremium
exec sp_calonlineweb 'Y','110','3','3','5 ','JK-HO084','2000','A','A',0,0,'0',20

28/4/2014  16:58 >> Application_Name >> getDataCarMarkByCarMarkCode
SELECT * 
 FROM online_carmark 
 WHERE carmakcod = '' 
 ORDER BY desc_t, carmakcod 

28/4/2014  16:58 >> Application_Name >> SMK :: BuyVoluntary_step2-docToUI
Combine

28/4/2014  16:58 >> Application_Name >> SMK :: BuyVoluntary_step2-docToUI
rg_prmm-012954.4

28/4/2014  16:58 >> Application_Name >> SMK :: BuyVoluntary_step2-docToUI
rg_prmm12954.4

28/4/2014  16:58 >> Application_Name >> SMK :: BuyVoluntary_step2-docToUI
cp_comp_prmm600.00

28/4/2014  16:58 >> Application_Name >> getDataCarMarkByCarMarkCode
SELECT * 
 FROM online_carmark 
 WHERE carmakcod = 'JK-MA065' 
 ORDER BY desc_t, carmakcod 

28/4/2014  17:9 >> Application_Name >> getDataPremium
exec sp_calonlineweb 'Y','110','1','2','5 ','JK-MA065','2000','A','A',478800,585200,'18',20

28/4/2014  17:9 >> Application_Name >> getDataPremium
exec sp_calonlineweb 'Y','110','2','2','5 ','JK-MA065','2000','A','A',478800,585200,'18',20

28/4/2014  17:9 >> Application_Name >> getDataPremium
exec sp_calonlineweb 'Y','110','3','2','5 ','JK-MA065','2000','A','A',0,0,'18',20

28/4/2014  17:13 >> Application_Name >> getDataCarMarkByCarMarkCode
SELECT * 
 FROM online_carmark 
 WHERE carmakcod = '' 
 ORDER BY desc_t, carmakcod 

28/4/2014  17:13 >> Application_Name >> getDataCarMarkByCarMarkCode
SELECT * 
 FROM online_carmark 
 WHERE carmakcod = 'JK-MA056' 
 ORDER BY desc_t, carmakcod 

28/4/2014  17:14 >> Application_Name >> getCategoryCompByBrand
SELECT mdc_minor_cd , mdc_desc_t as mdc_desc FROM mtdesc_comp  WHERE mdc_minor_cd <> '0000' AND mdc_major_cd = 'M001' ORDER BY mdc_desc 

28/4/2014  17:15 >> Application_Name >> getDataCarMarkByCarMarkCode
SELECT * 
 FROM online_carmark 
 WHERE carmakcod = '' 
 ORDER BY desc_t, carmakcod 

28/4/2014  17:16 >> Application_Name >> getDataCarMarkByCarMarkCode
SELECT * 
 FROM online_carmark 
 WHERE carmakcod = 'JK-MA065' 
 ORDER BY desc_t, carmakcod 

28/4/2014  17:19 >> Application_Name >> getDataPremium
exec sp_calonlineweb 'Y','110','1','5','5 ','JK-MA065','2000','A','A',410511.15,501735.85,'18',20

28/4/2014  17:19 >> Application_Name >> getDataPremium
exec sp_calonlineweb 'Y','110','2','5','5 ','JK-MA065','2000','A','A',410511.15,501735.85,'18',20

28/4/2014  17:19 >> Application_Name >> getDataPremium
exec sp_calonlineweb 'Y','110','3','5','5 ','JK-MA065','2000','A','A',0,0,'18',20

28/4/2014  17:28 >> Application_Name >> getDataPremium
exec sp_calonlineweb 'Y','110','1','1','3 ','JK-MA056','2000','A','A',792000,968000,'0',0

28/4/2014  17:28 >> Application_Name >> getDataPremium
exec sp_calonlineweb 'Y','110','2','1','3 ','JK-MA056','2000','A','A',792000,968000,'0',0

28/4/2014  17:28 >> Application_Name >> getDataPremium
exec sp_calonlineweb 'Y','110','3','1','3 ','JK-MA056','2000','A','A',0,0,'0',0

28/4/2014  17:49 >> Application_Name >> getDataCarMarkByCarMarkCode
SELECT * 
 FROM online_carmark 
 WHERE carmakcod = '' 
 ORDER BY desc_t, carmakcod 

28/4/2014  17:49 >> Application_Name >> getDataCarMarkByCarMarkCode
SELECT * 
 FROM online_carmark 
 WHERE carmakcod = 'JK-TO242' 
 ORDER BY desc_t, carmakcod 

28/4/2014  18:1 >> Application_Name >> getDataCarMarkByCarMarkCode
SELECT * 
 FROM online_carmark 
 WHERE carmakcod = '' 
 ORDER BY desc_t, carmakcod 

28/4/2014  18:1 >> Application_Name >> getDataCarMarkByCarMarkCode
SELECT * 
 FROM online_carmark 
 WHERE carmakcod = 'EK-CR015' 
 ORDER BY desc_t, carmakcod 

28/4/2014  18:2 >> Application_Name >> getDataPremium
exec sp_calonlineweb 'Y','110','1','5','4 ','EK-CR015','2000','A','A',498477.825,609250.675,'0',0

28/4/2014  18:2 >> Application_Name >> getDataPremium
exec sp_calonlineweb 'Y','110','2','5','4 ','EK-CR015','2000','A','A',498477.825,609250.675,'0',0

28/4/2014  18:2 >> Application_Name >> getDataPremium
exec sp_calonlineweb 'Y','110','3','5','4 ','EK-CR015','2000','A','A',0,0,'0',0

28/4/2014  18:3 >> Application_Name >> getDataPremium
exec sp_calonlineweb 'Y','110','1','5','4 ','EK-CR015','2000','A','A',498477.825,609250.675,'0',0

28/4/2014  18:3 >> Application_Name >> getDataPremium
exec sp_calonlineweb 'Y','110','2','5','4 ','EK-CR015','2000','A','A',498477.825,609250.675,'0',0

28/4/2014  18:3 >> Application_Name >> getDataPremium
exec sp_calonlineweb 'Y','110','3','5','4 ','EK-CR015','2000','A','A',0,0,'0',0

28/4/2014  19:6 >> Application_Name >> getDataCarMarkByCarMarkCode
SELECT * 
 FROM online_carmark 
 WHERE carmakcod = '' 
 ORDER BY desc_t, carmakcod 

28/4/2014  19:6 >> Application_Name >> getDataCarMarkByCarMarkCode
SELECT * 
 FROM online_carmark 
 WHERE carmakcod = 'JK-HO001' 
 ORDER BY desc_t, carmakcod 

28/4/2014  19:9 >> Application_Name >> getDataPremium
exec sp_calonlineweb 'Y','110','1','2','5 ','JK-HO001','2000','A','A',470250,574750,'0',20

28/4/2014  19:9 >> Application_Name >> getDataPremium
exec sp_calonlineweb 'Y','110','2','2','5 ','JK-HO001','2000','A','A',470250,574750,'0',20

28/4/2014  19:9 >> Application_Name >> getDataPremium
exec sp_calonlineweb 'Y','110','3','2','5 ','JK-HO001','2000','A','A',0,0,'0',20

28/4/2014  19:9 >> Application_Name >> getDataPremium
exec sp_calonlineweb 'Y','110','1','2','5 ','JK-HO001','2000','A','A',470250,574750,'0',0

28/4/2014  19:9 >> Application_Name >> getDataPremium
exec sp_calonlineweb 'Y','110','2','2','5 ','JK-HO001','2000','A','A',470250,574750,'0',0

28/4/2014  19:9 >> Application_Name >> getDataPremium
exec sp_calonlineweb 'Y','110','3','2','5 ','JK-HO001','2000','A','A',0,0,'0',0

28/4/2014  19:17 >> Application_Name >> getCategoryCompByBrand
SELECT mdc_minor_cd , mdc_desc_t as mdc_desc FROM mtdesc_comp  WHERE mdc_minor_cd <> '0000' AND mdc_major_cd = 'H004' ORDER BY mdc_desc 

28/4/2014  19:21 >> Application_Name >> getDataCarMarkByCarMarkCode
SELECT * 
 FROM online_carmark 
 WHERE carmakcod = '' 
 ORDER BY desc_t, carmakcod 

28/4/2014  19:22 >> Application_Name >> getDataCarMarkByCarMarkCode
SELECT * 
 FROM online_carmark 
 WHERE carmakcod = '' 
 ORDER BY desc_t, carmakcod 

28/4/2014  19:22 >> Application_Name >> getDataCarMarkByCarMarkCode
SELECT * 
 FROM online_carmark 
 WHERE carmakcod = 'JP-MI034' 
 ORDER BY desc_t, carmakcod 

28/4/2014  19:28 >> Application_Name >> getDataCarMarkByCarMarkCode
SELECT * 
 FROM online_carmark 
 WHERE carmakcod = '' 
 ORDER BY desc_t, carmakcod 

28/4/2014  19:28 >> Application_Name >> getDataCarMarkByCarMarkCode
SELECT * 
 FROM online_carmark 
 WHERE carmakcod = '' 
 ORDER BY desc_t, carmakcod 

28/4/2014  19:29 >> Application_Name >> getDataCarMarkByCarMarkCode
SELECT * 
 FROM online_carmark 
 WHERE carmakcod = 'JP-MI034' 
 ORDER BY desc_t, carmakcod 

28/4/2014  19:35 >> Application_Name >> getDataPremium
exec sp_calonlineweb 'Y','210','1','2','A','','2500','21','A',417316,461244,'0',0

28/4/2014  19:35 >> Application_Name >> getDataPremium
exec sp_calonlineweb 'Y','210','2','2','A','','2500','21','A',417316,461244,'0',0

28/4/2014  19:35 >> Application_Name >> getDataPremium
exec sp_calonlineweb 'Y','210','3','2','A','','2500','21','A',0,0,'0',0

28/4/2014  19:36 >> Application_Name >> getDataPremium
exec sp_calonlineweb 'Y','210','1','2','A','','2500','21','A',417316,461244,'0',0

28/4/2014  19:36 >> Application_Name >> getDataPremium
exec sp_calonlineweb 'Y','210','2','2','A','','2500','21','A',417316,461244,'0',0

28/4/2014  19:36 >> Application_Name >> getDataPremium
exec sp_calonlineweb 'Y','210','3','2','A','','2500','21','A',0,0,'0',0

28/4/2014  19:37 >> Application_Name >> getDataPremium
exec sp_calonlineweb 'Y','210','1','2','A','','2500','21','A',417316,461244,'0',0

28/4/2014  19:37 >> Application_Name >> getDataPremium
exec sp_calonlineweb 'Y','210','2','2','A','','2500','21','A',417316,461244,'0',0

28/4/2014  19:37 >> Application_Name >> getDataPremium
exec sp_calonlineweb 'Y','210','3','2','A','','2500','21','A',0,0,'0',0

28/4/2014  19:58 >> Application_Name >> getDataCarMarkByCarMarkCode
SELECT * 
 FROM online_carmark 
 WHERE carmakcod = '' 
 ORDER BY desc_t, carmakcod 

28/4/2014  19:58 >> Application_Name >> getDataCarMarkByCarMarkCode
SELECT * 
 FROM online_carmark 
 WHERE carmakcod = 'JK-NI100' 
 ORDER BY desc_t, carmakcod 

28/4/2014  19:58 >> Application_Name >> getDataPremium
exec sp_calonlineweb 'N','110','1','2','5 ','JK-NI100','2000','A','A',380000,418000,'0',0

28/4/2014  19:58 >> Application_Name >> getDataPremium
exec sp_calonlineweb 'N','110','2','2','5 ','JK-NI100','2000','A','A',380000,418000,'0',0

28/4/2014  19:58 >> Application_Name >> getDataPremium
exec sp_calonlineweb 'N','110','3','2','5 ','JK-NI100','2000','A','A',0,0,'0',0

28/4/2014  21:2 >> Application_Name >> getDataCarMarkByCarMarkCode
SELECT * 
 FROM online_carmark 
 WHERE carmakcod = '' 
 ORDER BY desc_t, carmakcod 

28/4/2014  21:2 >> Application_Name >> getDataCarMarkByCarMarkCode
SELECT * 
 FROM online_carmark 
 WHERE carmakcod = 'JK-TO067' 
 ORDER BY desc_t, carmakcod 

28/4/2014  21:3 >> Application_Name >> getDataPremium
exec sp_calonlineweb 'Y','110','1','2','5 ','JK-TO067','2000','A','A',476235,582065,'0',20

28/4/2014  21:3 >> Application_Name >> getDataPremium
exec sp_calonlineweb 'Y','110','2','2','5 ','JK-TO067','2000','A','A',476235,582065,'0',20

28/4/2014  21:3 >> Application_Name >> getDataPremium
exec sp_calonlineweb 'Y','110','3','2','5 ','JK-TO067','2000','A','A',0,0,'0',20

28/4/2014  21:5 >> Application_Name >> getDataPremium
exec sp_calonlineweb 'Y','110','1','2','5 ','EK-BE028','2000','A','A',476235,582065,'0',20

28/4/2014  21:5 >> Application_Name >> getDataPremium
exec sp_calonlineweb 'Y','110','2','2','5 ','EK-BE028','2000','A','A',476235,582065,'0',20

28/4/2014  21:5 >> Application_Name >> getDataPremium
exec sp_calonlineweb 'Y','110','3','2','5 ','EK-BE028','2000','A','A',0,0,'0',20

28/4/2014  21:7 >> Application_Name >> getDataCarMarkByCarMarkCode
SELECT * 
 FROM online_carmark 
 WHERE carmakcod = '' 
 ORDER BY desc_t, carmakcod 

28/4/2014  21:7 >> Application_Name >> getDataCarMarkByCarMarkCode
SELECT * 
 FROM online_carmark 
 WHERE carmakcod = 'JK-TO206' 
 ORDER BY desc_t, carmakcod 

28/4/2014  21:7 >> Application_Name >> getDataCarMarkByCarMarkCode
SELECT * 
 FROM online_carmark 
 WHERE carmakcod = 'JK-TO067' 
 ORDER BY desc_t, carmakcod 

28/4/2014  21:8 >> Application_Name >> getDataPremium
exec sp_calonlineweb 'Y','110','1','2','5 ','JK-TO067','2000','A','A',476235,582065,'0',20

28/4/2014  21:8 >> Application_Name >> getDataPremium
exec sp_calonlineweb 'Y','110','2','2','5 ','JK-TO067','2000','A','A',476235,582065,'0',20

28/4/2014  21:8 >> Application_Name >> getDataPremium
exec sp_calonlineweb 'Y','110','3','2','5 ','JK-TO067','2000','A','A',0,0,'0',20

28/4/2014  21:12 >> Application_Name >> getDataCarMarkByCarMarkCode
SELECT * 
 FROM online_carmark 
 WHERE carmakcod = '' 
 ORDER BY desc_t, carmakcod 

28/4/2014  21:12 >> Application_Name >> getDataCarMarkByCarMarkCode
SELECT * 
 FROM online_carmark 
 WHERE carmakcod = 'JK-TO242' 
 ORDER BY desc_t, carmakcod 

28/4/2014  21:14 >> Application_Name >> getDataPremium
exec sp_calonlineweb 'Y','110','1','2','5 ','JK-TO242','2000','A','A',478800,585200,'0',30

28/4/2014  21:14 >> Application_Name >> getDataPremium
exec sp_calonlineweb 'Y','110','1','2','5 ','JK-TO242','2000','A','A',478800,585200,'0',30

28/4/2014  21:14 >> Application_Name >> getDataPremium
exec sp_calonlineweb 'Y','110','2','2','5 ','JK-TO242','2000','A','A',478800,585200,'0',30

28/4/2014  21:14 >> Application_Name >> getDataPremium
exec sp_calonlineweb 'Y','110','3','2','5 ','JK-TO242','2000','A','A',0,0,'0',30

28/4/2014  21:14 >> Application_Name >> getDataPremium
exec sp_calonlineweb 'Y','110','2','2','5 ','JK-TO242','2000','A','A',478800,585200,'0',30

28/4/2014  21:14 >> Application_Name >> getDataPremium
exec sp_calonlineweb 'Y','110','3','2','5 ','JK-TO242','2000','A','A',0,0,'0',30

28/4/2014  21:38 >> Application_Name >> getDataCarMarkByCarMarkCode
SELECT * 
 FROM online_carmark 
 WHERE carmakcod = '' 
 ORDER BY desc_t, carmakcod 

28/4/2014  21:38 >> Application_Name >> getDataCarMarkByCarMarkCode
SELECT * 
 FROM online_carmark 
 WHERE carmakcod = 'JK-MI080' 
 ORDER BY desc_t, carmakcod 

28/4/2014  21:41 >> Application_Name >> getDataPremium
exec sp_calonlineweb 'Y','110','1','3','5 ','JK-MI080','2000','A','A',357390,436810,'0',0

28/4/2014  21:41 >> Application_Name >> getDataPremium
exec sp_calonlineweb 'Y','110','2','3','5 ','JK-MI080','2000','A','A',357390,436810,'0',0

28/4/2014  21:41 >> Application_Name >> getDataPremium
exec sp_calonlineweb 'Y','110','3','3','5 ','JK-MI080','2000','A','A',0,0,'0',0

28/4/2014  21:47 >> Application_Name >> getDataCarMarkByCarMarkCode
SELECT * 
 FROM online_carmark 
 WHERE carmakcod = '' 
 ORDER BY desc_t, carmakcod 

28/4/2014  21:47 >> Application_Name >> getDataCarMarkByCarMarkCode
SELECT * 
 FROM online_carmark 
 WHERE carmakcod = 'JK-TO175' 
 ORDER BY desc_t, carmakcod 

28/4/2014  21:48 >> Application_Name >> getDataPremium
exec sp_calonlineweb 'Y','110','1','2','5 ','JK-TO175','2000','A','A',427500,522500,'0',20

28/4/2014  21:48 >> Application_Name >> getDataPremium
exec sp_calonlineweb 'Y','110','2','2','5 ','JK-TO175','2000','A','A',427500,522500,'0',20

28/4/2014  21:48 >> Application_Name >> getDataPremium
exec sp_calonlineweb 'Y','110','3','2','5 ','JK-TO175','2000','A','A',0,0,'0',20

28/4/2014  22:26 >> Application_Name >> getDataCarMarkByCarMarkCode
SELECT * 
 FROM online_carmark 
 WHERE carmakcod = '' 
 ORDER BY desc_t, carmakcod 

28/4/2014  22:26 >> Application_Name >> getDataCarMarkByCarMarkCode
SELECT * 
 FROM online_carmark 
 WHERE carmakcod = 'JK-TO175' 
 ORDER BY desc_t, carmakcod 

28/4/2014  22:48 >> Application_Name >> getDataCarMarkByCarMarkCode
SELECT * 
 FROM online_carmark 
 WHERE carmakcod = '' 
 ORDER BY desc_t, carmakcod 

28/4/2014  22:48 >> Application_Name >> getDataCarMarkByCarMarkCode
SELECT * 
 FROM online_carmark 
 WHERE carmakcod = 'JK-NI097' 
 ORDER BY desc_t, carmakcod 

28/4/2014  22:53 >> Application_Name >> getDataPremium
exec sp_calonlineweb 'Y','110','1','5','4 ','JK-NI097','2000','A','A',513138.9375,627169.8125,'0',30

28/4/2014  22:53 >> Application_Name >> getDataPremium
exec sp_calonlineweb 'Y','110','2','5','4 ','JK-NI097','2000','A','A',513138.9375,627169.8125,'0',30

28/4/2014  22:53 >> Application_Name >> getDataPremium
exec sp_calonlineweb 'Y','110','3','5','4 ','JK-NI097','2000','A','A',0,0,'0',30

28/4/2014  22:57 >> Application_Name >> getDataCarMarkByCarMarkCode
SELECT * 
 FROM online_carmark 
 WHERE carmakcod = '' 
 ORDER BY desc_t, carmakcod 

28/4/2014  22:57 >> Application_Name >> getDataCarMarkByCarMarkCode
SELECT * 
 FROM online_carmark 
 WHERE carmakcod = '' 
 ORDER BY desc_t, carmakcod 

28/4/2014  22:58 >> Application_Name >> getDataPremium
exec sp_calonlineweb 'Y','110','1','5','4 ','JK-NI097','2000','A','A',513138.9375,627169.8125,'0',30

28/4/2014  22:59 >> Application_Name >> getDataPremium
exec sp_calonlineweb 'Y','110','2','5','4 ','JK-NI097','2000','A','A',513138.9375,627169.8125,'0',30

28/4/2014  22:59 >> Application_Name >> getDataPremium
exec sp_calonlineweb 'Y','110','3','5','4 ','JK-NI097','2000','A','A',0,0,'0',30

28/4/2014  23:3 >> Application_Name >> getDataCarMarkByCarMarkCode
SELECT * 
 FROM online_carmark 
 WHERE carmakcod = '' 
 ORDER BY desc_t, carmakcod 

28/4/2014  23:3 >> Application_Name >> getDataCarMarkByCarMarkCode
SELECT * 
 FROM online_carmark 
 WHERE carmakcod = 'JK-NI097' 
 ORDER BY desc_t, carmakcod 

28/4/2014  23:4 >> Application_Name >> getDataPremium
exec sp_calonlineweb 'Y','110','1','5','4 ','JK-NI097','2000','A','A',513138.9375,627169.8125,'0',30

28/4/2014  23:4 >> Application_Name >> getDataPremium
exec sp_calonlineweb 'Y','110','2','5','4 ','JK-NI097','2000','A','A',513138.9375,627169.8125,'0',30

28/4/2014  23:4 >> Application_Name >> getDataPremium
exec sp_calonlineweb 'Y','110','3','5','4 ','JK-NI097','2000','A','A',0,0,'0',30

28/4/2014  23:5 >> Application_Name >> SMK :: BuyVoluntary_step2-docToUI
Combine

28/4/2014  23:5 >> Application_Name >> SMK :: BuyVoluntary_step2-docToUI
rg_prmm-013566

28/4/2014  23:5 >> Application_Name >> SMK :: BuyVoluntary_step2-docToUI
rg_prmm13566

28/4/2014  23:5 >> Application_Name >> SMK :: BuyVoluntary_step2-docToUI
cp_comp_prmm600.00

28/4/2014  23:6 >> Application_Name >> getDataCarMarkByCarMarkCode
SELECT * 
 FROM online_carmark 
 WHERE carmakcod = '' 
 ORDER BY desc_t, carmakcod 

28/4/2014  23:6 >> Application_Name >> getDataCarMarkByCarMarkCode
SELECT * 
 FROM online_carmark 
 WHERE carmakcod = 'JK-MI047' 
 ORDER BY desc_t, carmakcod 

28/4/2014  23:7 >> Application_Name >> SMK :: BuyVoluntary_step2-docToUI
Combine

28/4/2014  23:7 >> Application_Name >> SMK :: BuyVoluntary_step2-docToUI
rg_prmm-013566

28/4/2014  23:7 >> Application_Name >> SMK :: BuyVoluntary_step2-docToUI
rg_prmm13566

28/4/2014  23:7 >> Application_Name >> SMK :: BuyVoluntary_step2-docToUI
cp_comp_prmm600.00

28/4/2014  23:8 >> Application_Name >> SMK :: BuyVoluntary_step2-docToUI
Combine

28/4/2014  23:8 >> Application_Name >> SMK :: BuyVoluntary_step2-docToUI
rg_prmm-013566

28/4/2014  23:8 >> Application_Name >> SMK :: BuyVoluntary_step2-docToUI
rg_prmm13566

28/4/2014  23:8 >> Application_Name >> SMK :: BuyVoluntary_step2-docToUI
cp_comp_prmm600.00

28/4/2014  23:11 >> Application_Name >> getDataCarMarkByCarMarkCode
SELECT * 
 FROM online_carmark 
 WHERE carmakcod = '' 
 ORDER BY desc_t, carmakcod 

28/4/2014  23:11 >> Application_Name >> getDataCarMarkByCarMarkCode
SELECT * 
 FROM online_carmark 
 WHERE carmakcod = 'JK-NI097' 
 ORDER BY desc_t, carmakcod 

28/4/2014  23:12 >> Application_Name >> getDataCarMarkByCarMarkCode
SELECT * 
 FROM online_carmark 
 WHERE carmakcod = '' 
 ORDER BY desc_t, carmakcod 

28/4/2014  23:12 >> Application_Name >> getDataCarMarkByCarMarkCode
SELECT * 
 FROM online_carmark 
 WHERE carmakcod = 'JK-NI097' 
 ORDER BY desc_t, carmakcod 

28/4/2014  23:13 >> Application_Name >> getDataPremium
exec sp_calonlineweb 'Y','110','1','5','4 ','JK-NI097','2000','A','A',513138.9375,627169.8125,'0',30

28/4/2014  23:13 >> Application_Name >> getDataPremium
exec sp_calonlineweb 'Y','110','2','5','4 ','JK-NI097','2000','A','A',513138.9375,627169.8125,'0',30

28/4/2014  23:13 >> Application_Name >> getDataPremium
exec sp_calonlineweb 'Y','110','3','5','4 ','JK-NI097','2000','A','A',0,0,'0',30

28/4/2014  23:14 >> Application_Name >> SMK :: BuyVoluntary_step2-docToUI
Combine

28/4/2014  23:14 >> Application_Name >> SMK :: BuyVoluntary_step2-docToUI
rg_prmm-013566

28/4/2014  23:14 >> Application_Name >> SMK :: BuyVoluntary_step2-docToUI
rg_prmm13566

28/4/2014  23:14 >> Application_Name >> SMK :: BuyVoluntary_step2-docToUI
cp_comp_prmm600.00

28/4/2014  23:14 >> Application_Name >> getDataPremium
exec sp_calonlineweb 'Y','110','1','4','3 ','JK-MI047','9999','A','A',725339.25,886525.75,'0',0

28/4/2014  23:14 >> Application_Name >> getDataPremium
exec sp_calonlineweb 'Y','110','2','4','3 ','JK-MI047','9999','A','A',725339.25,886525.75,'0',0

28/4/2014  23:14 >> Application_Name >> getDataPremium
exec sp_calonlineweb 'Y','110','3','4','3 ','JK-MI047','9999','A','A',0,0,'0',0

28/4/2014  23:23 >> Application_Name >> SENDBACK : regis_no
90-01310

28/4/2014  23:23 >> Application_Name >> SENDBACK : HOSTRESP
00

28/4/2014  23:23 >> Application_Name >> SENDBACK : REFCODE
XXXXXXXXXXXX

28/4/2014  23:23 >> Application_Name >> SENDBACK : AUTHCODE
004033

28/4/2014  23:23 >> Application_Name >> SENDBACK : RETURNINV
000009001310

28/4/2014  23:23 >> Application_Name >> SENDBACK : UAID
XXXXXXXXXXXXXXXXXXXXXXXXXXXXXXXXXXXX

28/4/2014  23:23 >> Application_Name >> SENDBACK : CARDNUMBER
4033XXXXXXXX8076

28/4/2014  23:23 >> Application_Name >> SENDBACK : AMOUNT
000001521968

28/4/2014  23:23 >> Application_Name >> SENDBACK : CURISO
764

28/4/2014  23:23 >> Application_Name >> SENDBACK : FILLSPACE
VISACARDXXXXXXXXXXXX

28/4/2014  23:23 >> Application_Name >> RegisterManager.updateCreditResult :: SQL 
UPDATE CREDIT_POST SET cp_stat = '00'  WHERE cp_ref_no = '90-01310' 

28/4/2014  23:23 >> Application_Name >> SENDBACK : 90-01310:00
buyVoluntary_step4.aspx?regis_no=90-01310&paid_at=4

28/4/2014  23:30 >> Application_Name >> getDataCarMarkByCarMarkCode
SELECT * 
 FROM online_carmark 
 WHERE carmakcod = '' 
 ORDER BY desc_t, carmakcod 

28/4/2014  23:30 >> Application_Name >> getDataCarMarkByCarMarkCode
SELECT * 
 FROM online_carmark 
 WHERE carmakcod = 'JK-NI097' 
 ORDER BY desc_t, carmakcod 

28/4/2014  23:31 >> Application_Name >> getDataPremium
exec sp_calonlineweb 'Y','110','1','5','4 ','JK-NI097','2000','A','A',513138.9375,627169.8125,'0',30

28/4/2014  23:31 >> Application_Name >> getDataPremium
exec sp_calonlineweb 'Y','110','2','5','4 ','JK-NI097','2000','A','A',513138.9375,627169.8125,'0',30

28/4/2014  23:31 >> Application_Name >> getDataPremium
exec sp_calonlineweb 'Y','110','3','5','4 ','JK-NI097','2000','A','A',0,0,'0',30

