28/12/2013  11:22 >> Application_Name >> insertTmpRegister - e.ToString()
System.Data.SqlClient.SqlException: String or binary data would be truncated.
The statement has been terminated.
   at TDS.BL.BLWorker_MSSQL.executeUpdate(String cmdString, SqlConnection Cnn, SqlTransaction cnnTransaction) in D:\WebApps\TDSLib\BL\BLWorker_MSSQL.cs:line 238
   at RegisterManager.insertTmpRegister(String strKey, DataSet dsData, SqlConnection conn, SqlTransaction trans) in e:\webroot\WEBSMK\App_Code\BL\RegisterManager.cs:line 803

28/12/2013  11:22 >> Application_Name >> insertTmpRegister - strSQL
INSERT INTO tmpreg(tm_tmp_cd, tm_main_class, tm_pol_type, tm_effect_dt, tm_expiry_dt, tm_regis_dt, tm_regis_time, tm_regis_type, tm_ins_fname, tm_ins_lname, tm_ins_addr1, tm_ins_addr2, tm_ins_amphor, tm_ins_changwat, tm_ins_postcode, tm_ins_tel, tm_ins_email, tm_sum_ins, tm_prmm, tm_tax, tm_stamp, tm_fleet_perc, tm_stat, tm_ins_mobile, tm_ins_idcard, tm_oth_distance, tm_oth_region, tm_oth_flagdeduct, tm_oth_oldpolicy, tm_mott_id, tm_insc_id, tm_prmmgross ) VALUES('131228-001','M',      '1',      '2013/12/28',     '2014/12/28',     '2013/12/28',      '11:22',      'N',      'ภัทร์ฐิตา',      'อภิศราธนานันต์',      '41/129รังสิตแลนด์คอนโดตึกB ห้อง129 ชั้น5 ถ.รังสิต-ปทุมซอย15 ',      'ประชาธิปัตย์',      'ธัญบุรี',      '27',      '12130',      '080-0590095',      '-',      '380000',      '17054',      '1198.61',      '69',      '0',      'N',      '-',      '-',      '',      '1',      '',      'N',      '1',      '5607000003',      '19288.89' ) 

28/12/2013  11:22 >> Application_Name >> insertTmp - error
System.Exception: Error when call insertTmpRegister
   at RegisterManager.insertTmpVoluntary(DataSet dsData) in e:\webroot\WEBSMK\App_Code\BL\RegisterManager.cs:line 49

28/12/2013  11:22 >> Application_Name >> insertTmpRegister - e.ToString()
System.Data.SqlClient.SqlException: String or binary data would be truncated.
The statement has been terminated.
   at TDS.BL.BLWorker_MSSQL.executeUpdate(String cmdString, SqlConnection Cnn, SqlTransaction cnnTransaction) in D:\WebApps\TDSLib\BL\BLWorker_MSSQL.cs:line 238
   at RegisterManager.insertTmpRegister(String strKey, DataSet dsData, SqlConnection conn, SqlTransaction trans) in e:\webroot\WEBSMK\App_Code\BL\RegisterManager.cs:line 803

28/12/2013  11:22 >> Application_Name >> insertTmpRegister - strSQL
INSERT INTO tmpreg(tm_tmp_cd, tm_main_class, tm_pol_type, tm_effect_dt, tm_expiry_dt, tm_regis_dt, tm_regis_time, tm_regis_type, tm_ins_fname, tm_ins_lname, tm_ins_addr1, tm_ins_addr2, tm_ins_amphor, tm_ins_changwat, tm_ins_postcode, tm_ins_tel, tm_ins_email, tm_sum_ins, tm_prmm, tm_tax, tm_stamp, tm_fleet_perc, tm_stat, tm_ins_mobile, tm_ins_idcard, tm_oth_distance, tm_oth_region, tm_oth_flagdeduct, tm_oth_oldpolicy, tm_mott_id, tm_insc_id, tm_prmmgross ) VALUES('131228-001','M',      '1',      '2013/12/28',     '2014/12/28',     '2013/12/28',      '11:22',      'N',      'ภัทร์ฐิตา',      'อภิศราธนานันต์',      '41/129รังสิตแลนด์คอนโดตึกB ห้อง129 ชั้น5 ถ.รังสิต-ปทุมซอย15 ',      'ประชาธิปัตย์',      'ธัญบุรี',      '27',      '12130',      '080-0590095',      '-',      '380000',      '17054',      '1198.61',      '69',      '0',      'N',      '-',      '-',      '',      '1',      '',      'N',      '1',      '5607000003',      '19288.89' ) 

28/12/2013  11:22 >> Application_Name >> insertTmp - error
System.Exception: Error when call insertTmpRegister
   at RegisterManager.insertTmpVoluntary(DataSet dsData) in e:\webroot\WEBSMK\App_Code\BL\RegisterManager.cs:line 49

