22/8/2013  16:40 >> Application_Name >> insertTmp - error
System.Exception: Error when call insertTmpRegister
   at RegisterManager.insertTmpVoluntary(DataSet dsData) in e:\webroot\WEBSMK\App_Code\BL\RegisterManager.cs:line 47

22/8/2013  16:50 >> Application_Name >> insertTmp - error
System.Exception: Error when call insertTmpRegister
   at RegisterManager.insertTmpVoluntary(DataSet dsData) in e:\webroot\WEBSMK\App_Code\BL\RegisterManager.cs:line 47

22/8/2013  16:51 >> Application_Name >> insertTmp - error
System.Exception: Error when call insertTmpRegister
   at RegisterManager.insertTmpVoluntary(DataSet dsData) in e:\webroot\WEBSMK\App_Code\BL\RegisterManager.cs:line 47

22/8/2013  16:56 >> Application_Name >> insertTmp - error
System.Exception: Error when call insertTmpRegister
   at RegisterManager.insertTmpVoluntary(DataSet dsData) in e:\webroot\WEBSMK\App_Code\BL\RegisterManager.cs:line 47

22/8/2013  16:56 >> Application_Name >> insertTmp - error
System.Exception: Error when call insertTmpRegister
   at RegisterManager.insertTmpVoluntary(DataSet dsData) in e:\webroot\WEBSMK\App_Code\BL\RegisterManager.cs:line 47

22/8/2013  16:56 >> Application_Name >> insertTmp - error
System.Exception: Error when call insertTmpRegister
   at RegisterManager.insertTmpVoluntary(DataSet dsData) in e:\webroot\WEBSMK\App_Code\BL\RegisterManager.cs:line 47

22/8/2013  16:57 >> Application_Name >> insertTmp - error
System.Exception: Error when call insertTmpRegister
   at RegisterManager.insertTmpVoluntary(DataSet dsData) in e:\webroot\WEBSMK\App_Code\BL\RegisterManager.cs:line 47

22/8/2013  17:6 >> Application_Name >> insertTmp - error
System.Exception: Error when call insertTmpRegister
   at RegisterManager.insertTmpVoluntary(DataSet dsData) in e:\webroot\WEBSMK\App_Code\BL\RegisterManager.cs:line 47

22/8/2013  17:6 >> Application_Name >> insertTmp - error
System.Exception: Error when call insertTmpRegister
   at RegisterManager.insertTmpVoluntary(DataSet dsData) in e:\webroot\WEBSMK\App_Code\BL\RegisterManager.cs:line 47

22/8/2013  17:7 >> Application_Name >> insertTmp - error
System.Exception: Error when call insertTmpRegister
   at RegisterManager.insertTmpVoluntary(DataSet dsData) in e:\webroot\WEBSMK\App_Code\BL\RegisterManager.cs:line 47

22/8/2013  17:7 >> Application_Name >> insertTmp - error
System.Exception: Error when call insertTmpRegister
   at RegisterManager.insertTmpVoluntary(DataSet dsData) in e:\webroot\WEBSMK\App_Code\BL\RegisterManager.cs:line 47

