2/4/2014  13:12 >> Application_Name >> CommonReport 
DsReport

2/4/2014  13:12 >> Application_Name >> CommonReport -ds.Count
1

2/4/2014  13:12 >> Application_Name >> CommonReport 
DsReport

2/4/2014  13:12 >> Application_Name >> CommonReport -ds.Count
1

2/4/2014  13:12 >> Application_Name >> CommonReport 
DsReport

2/4/2014  13:12 >> Application_Name >> CommonReport -ds.Count
1

2/4/2014  16:36 >> Application_Name >> CommonReport 
DsReport

2/4/2014  16:36 >> Application_Name >> CommonReport -ds.Count
1

2/4/2014  22:36 >> Application_Name >> CommonReport 
DsReport

2/4/2014  22:36 >> Application_Name >> CommonReport -ds.Count
1

