7/4/2014  18:14 >> Application_Name >> insertTmp - error
System.Exception: Error when call insertTmpCompul
   at RegisterManager.insertTmpVoluntary(DataSet dsData) in e:\webroot\WEBSMK\App_Code\BL\RegisterManager.cs:line 75

7/4/2014  18:14 >> Application_Name >> insertTmp - error
System.Exception: Error when call insertTmpCompul
   at RegisterManager.insertTmpVoluntary(DataSet dsData) in e:\webroot\WEBSMK\App_Code\BL\RegisterManager.cs:line 75

7/4/2014  18:15 >> Application_Name >> insertTmp - error
System.Exception: Error when call insertTmpCompul
   at RegisterManager.insertTmpVoluntary(DataSet dsData) in e:\webroot\WEBSMK\App_Code\BL\RegisterManager.cs:line 75

7/4/2014  18:15 >> Application_Name >> insertTmp - error
System.Exception: Error when call insertTmpCompul
   at RegisterManager.insertTmpVoluntary(DataSet dsData) in e:\webroot\WEBSMK\App_Code\BL\RegisterManager.cs:line 75

7/4/2014  18:16 >> Application_Name >> insertTmp - error
System.Exception: Error when call insertTmpCompul
   at RegisterManager.insertTmpVoluntary(DataSet dsData) in e:\webroot\WEBSMK\App_Code\BL\RegisterManager.cs:line 75

7/4/2014  18:20 >> Application_Name >> insertTmp - error
System.Exception: Error when call insertTmpCompul
   at RegisterManager.insertTmpVoluntary(DataSet dsData) in e:\webroot\WEBSMK\App_Code\BL\RegisterManager.cs:line 75

7/4/2014  18:21 >> Application_Name >> insertTmp - error
System.Exception: Error when call insertTmpCompul
   at RegisterManager.insertTmpVoluntary(DataSet dsData) in e:\webroot\WEBSMK\App_Code\BL\RegisterManager.cs:line 75

