2/7/2014  10:43 >> Application_Name >> buyVoluntary_step4.sendMail() 
System.Exception: Send Mail Error : A recipient must be specified.
   at TDSLib.Libs.net.mail.TDSMail.Send(MailAddress oSender, String strPassword) in D:\WebApps\TDSLib\Libs\net\mail\TDSMail.cs:line 287
   at RegisterManager.sendMail(DataSet dsContact) in e:\webroot\WEBSMK\App_Code\BL\RegisterManager.cs:line 1911

2/7/2014  16:13 >> Application_Name >> CommonReport 
DsReport

2/7/2014  16:13 >> Application_Name >> CommonReport -ds.Count
1

2/7/2014  16:13 >> Application_Name >> CommonReport 
DsReport

