16/5/2014  14:18 >> Application_Name >> CommonReport 
DsReport

16/5/2014  14:18 >> Application_Name >> CommonReport -ds.Count
1

16/5/2014  14:18 >> Application_Name >> CommonReport 
DsReport

16/5/2014  14:18 >> Application_Name >> CommonReport -ds.Count
1

16/5/2014  14:18 >> Application_Name >> CommonReport 
DsReport

16/5/2014  14:18 >> Application_Name >> CommonReport -ds.Count
1

16/5/2014  14:18 >> Application_Name >> CommonReport 
DsReport

16/5/2014  14:18 >> Application_Name >> CommonReport -ds.Count
1

16/5/2014  14:18 >> Application_Name >> CommonReport 
DsReport

16/5/2014  14:18 >> Application_Name >> CommonReport -ds.Count
1

16/5/2014  18:43 >> Application_Name >> CommonReport 
DsReport

16/5/2014  18:43 >> Application_Name >> CommonReport -ds.Count
1

