19/2/2014  9:17 >> Application_Name >> CommonReport 
DsReport

19/2/2014  9:17 >> Application_Name >> CommonReport -ds.Count
1

19/2/2014  9:17 >> Application_Name >> CommonReport 
DsReport

19/2/2014  9:17 >> Application_Name >> CommonReport -ds.Count
1

19/2/2014  9:17 >> Application_Name >> CommonReport 
DsReport

19/2/2014  9:17 >> Application_Name >> CommonReport -ds.Count
1

19/2/2014  9:17 >> Application_Name >> CommonReport 
DsReport

19/2/2014  9:17 >> Application_Name >> CommonReport -ds.Count
1

19/2/2014  9:17 >> Application_Name >> CommonReport 
DsReport

19/2/2014  9:17 >> Application_Name >> CommonReport -ds.Count
1

19/2/2014  10:33 >> Application_Name >> CommonReport 
DsReport

19/2/2014  10:33 >> Application_Name >> CommonReport -ds.Count
1

19/2/2014  10:33 >> Application_Name >> CommonReport 
DsReport

19/2/2014  10:33 >> Application_Name >> CommonReport -ds.Count
1

19/2/2014  12:14 >> Application_Name >> CommonReport 
DsReport

19/2/2014  12:14 >> Application_Name >> CommonReport -ds.Count
1

