23/2/2014  23:8 >> Application_Name >> insertTmp - error
System.Exception: Error when call insertTmpMtVeh
   at RegisterManager.insertTmpVoluntary(DataSet dsData) in e:\webroot\WEBSMK\App_Code\BL\RegisterManager.cs:line 67

23/2/2014  23:8 >> Application_Name >> insertTmp - error
System.Exception: Error when call insertTmpMtVeh
   at RegisterManager.insertTmpVoluntary(DataSet dsData) in e:\webroot\WEBSMK\App_Code\BL\RegisterManager.cs:line 67

23/2/2014  23:9 >> Application_Name >> insertTmp - error
System.Exception: Error when call insertTmpMtVeh
   at RegisterManager.insertTmpVoluntary(DataSet dsData) in e:\webroot\WEBSMK\App_Code\BL\RegisterManager.cs:line 67

23/2/2014  23:9 >> Application_Name >> insertTmp - error
System.Exception: Error when call insertTmpMtVeh
   at RegisterManager.insertTmpVoluntary(DataSet dsData) in e:\webroot\WEBSMK\App_Code\BL\RegisterManager.cs:line 67

23/2/2014  23:9 >> Application_Name >> insertTmp - error
System.Exception: Error when call insertTmpMtVeh
   at RegisterManager.insertTmpVoluntary(DataSet dsData) in e:\webroot\WEBSMK\App_Code\BL\RegisterManager.cs:line 67

23/2/2014  23:9 >> Application_Name >> insertTmp - error
System.Exception: Error when call insertTmpMtVeh
   at RegisterManager.insertTmpVoluntary(DataSet dsData) in e:\webroot\WEBSMK\App_Code\BL\RegisterManager.cs:line 67

23/2/2014  23:9 >> Application_Name >> insertTmp - error
System.Exception: Error when call insertTmpMtVeh
   at RegisterManager.insertTmpVoluntary(DataSet dsData) in e:\webroot\WEBSMK\App_Code\BL\RegisterManager.cs:line 67

23/2/2014  23:9 >> Application_Name >> insertTmp - error
System.Exception: Error when call insertTmpMtVeh
   at RegisterManager.insertTmpVoluntary(DataSet dsData) in e:\webroot\WEBSMK\App_Code\BL\RegisterManager.cs:line 67

23/2/2014  23:10 >> Application_Name >> insertTmp - error
System.Exception: Error when call insertTmpMtVeh
   at RegisterManager.insertTmpVoluntary(DataSet dsData) in e:\webroot\WEBSMK\App_Code\BL\RegisterManager.cs:line 67

23/2/2014  23:10 >> Application_Name >> insertTmp - error
System.Exception: Error when call insertTmpMtVeh
   at RegisterManager.insertTmpVoluntary(DataSet dsData) in e:\webroot\WEBSMK\App_Code\BL\RegisterManager.cs:line 67

