24/12/2013  6:12 >> Application_Name >> CommonReport 
DsReport

24/12/2013  6:12 >> Application_Name >> CommonReport -ds.Count
1

24/12/2013  10:5 >> Application_Name >> CommonReport 
DsReport

24/12/2013  10:5 >> Application_Name >> CommonReport -ds.Count
1

24/12/2013  12:9 >> Application_Name >> CommonReport 
DsReport

24/12/2013  12:9 >> Application_Name >> CommonReport -ds.Count
1

24/12/2013  12:9 >> Application_Name >> CommonReport 
DsReport

24/12/2013  12:9 >> Application_Name >> CommonReport -ds.Count
1

24/12/2013  20:58 >> Application_Name >> CommonReport 
DsReport

24/12/2013  20:58 >> Application_Name >> CommonReport -ds.Count
1

