7/8/2014  11:46 >> Application_Name >> CommonReport 
DsReport

7/8/2014  11:46 >> Application_Name >> CommonReport -ds.Count
1

7/8/2014  13:18 >> Application_Name >> CommonReport 
DsReport

7/8/2014  13:18 >> Application_Name >> CommonReport -ds.Count
1

