8/1/2014  9:38 >> Application_Name >> CommonReport 
DsReport

8/1/2014  9:38 >> Application_Name >> CommonReport -ds.Count
1

8/1/2014  9:38 >> Application_Name >> CommonReport 
DsReport

8/1/2014  9:38 >> Application_Name >> CommonReport -ds.Count
1

8/1/2014  9:39 >> Application_Name >> CommonReport 
DsReport

8/1/2014  9:39 >> Application_Name >> CommonReport -ds.Count
1

8/1/2014  9:39 >> Application_Name >> CommonReport 
DsReport

8/1/2014  9:39 >> Application_Name >> CommonReport -ds.Count
1

8/1/2014  10:26 >> Application_Name >> CommonReport 
DsReport

8/1/2014  10:30 >> Application_Name >> insertTmpRegister - e.ToString()
System.Data.SqlClient.SqlException: String or binary data would be truncated.
The statement has been terminated.
   at TDS.BL.BLWorker_MSSQL.executeUpdate(String cmdString, SqlConnection Cnn, SqlTransaction cnnTransaction) in D:\WebApps\TDSLib\BL\BLWorker_MSSQL.cs:line 238
   at RegisterManager.insertTmpRegister(String strKey, DataSet dsData, SqlConnection conn, SqlTransaction trans) in e:\webroot\WEBSMK\App_Code\BL\RegisterManager.cs:line 803

8/1/2014  10:30 >> Application_Name >> insertTmpRegister - strSQL
INSERT INTO tmpreg(tm_tmp_cd, tm_main_class, tm_pol_type, tm_effect_dt, tm_expiry_dt, tm_regis_dt, tm_regis_time, tm_regis_type, tm_ins_fname, tm_ins_lname, tm_ins_addr1, tm_ins_addr2, tm_ins_amphor, tm_ins_changwat, tm_ins_postcode, tm_ins_tel, tm_ins_email, tm_sum_ins, tm_prmm, tm_tax, tm_stamp, tm_fleet_perc, tm_stat, tm_ins_mobile, tm_ins_idcard, tm_oth_distance, tm_oth_region, tm_oth_flagdeduct, tm_oth_oldpolicy, tm_mott_id, tm_insc_id, tm_prmmgross ) VALUES('140108-007','M',      '1',      '2014/01/31',     '2015/01/31',     '2014/1/8',      '10:30',      'N',      'พงษ์ศักดิ์',      'เอมสมบูรณ์',      '111111111111111111111',      '1111111',      '11111111',      '00',      '11111',      '',      'doraice@hotmail.com',      '440000',      '12131.2',      '852.614',      '49',      '0',      'N',      '0839222686',      '1111111111111111111111',      '5607000003',      '1',      '',      'Y',      '1',      '9900999999',      '13678.02' ) 

8/1/2014  10:30 >> Application_Name >> insertTmp - error
System.Exception: Error when call insertTmpRegister
   at RegisterManager.insertTmpVoluntary(DataSet dsData) in e:\webroot\WEBSMK\App_Code\BL\RegisterManager.cs:line 49

8/1/2014  10:30 >> Application_Name >> insertTmpRegister - e.ToString()
System.Data.SqlClient.SqlException: String or binary data would be truncated.
The statement has been terminated.
   at TDS.BL.BLWorker_MSSQL.executeUpdate(String cmdString, SqlConnection Cnn, SqlTransaction cnnTransaction) in D:\WebApps\TDSLib\BL\BLWorker_MSSQL.cs:line 238
   at RegisterManager.insertTmpRegister(String strKey, DataSet dsData, SqlConnection conn, SqlTransaction trans) in e:\webroot\WEBSMK\App_Code\BL\RegisterManager.cs:line 803

8/1/2014  10:30 >> Application_Name >> insertTmpRegister - strSQL
INSERT INTO tmpreg(tm_tmp_cd, tm_main_class, tm_pol_type, tm_effect_dt, tm_expiry_dt, tm_regis_dt, tm_regis_time, tm_regis_type, tm_ins_fname, tm_ins_lname, tm_ins_addr1, tm_ins_addr2, tm_ins_amphor, tm_ins_changwat, tm_ins_postcode, tm_ins_tel, tm_ins_email, tm_sum_ins, tm_prmm, tm_tax, tm_stamp, tm_fleet_perc, tm_stat, tm_ins_mobile, tm_ins_idcard, tm_oth_distance, tm_oth_region, tm_oth_flagdeduct, tm_oth_oldpolicy, tm_mott_id, tm_insc_id, tm_prmmgross ) VALUES('140108-007','M',      '1',      '2014/01/31',     '2015/01/31',     '2014/1/8',      '10:30',      'N',      'พงษ์ศักดิ์',      'เอมสมบูรณ์',      '111111111111111111111',      '1111111',      '11111111',      '00',      '11111',      '',      'doraice@hotmail.com',      '440000',      '12131.2',      '852.614',      '49',      '0',      'N',      '0839222686',      '1111111111111111111111',      '5607000003',      '1',      '',      'Y',      '1',      '9900999999',      '13678.02' ) 

8/1/2014  10:30 >> Application_Name >> insertTmp - error
System.Exception: Error when call insertTmpRegister
   at RegisterManager.insertTmpVoluntary(DataSet dsData) in e:\webroot\WEBSMK\App_Code\BL\RegisterManager.cs:line 49

8/1/2014  10:48 >> Application_Name >> CommonReport 
DsReport

8/1/2014  14:46 >> Application_Name >> CommonReport 
DsReport

8/1/2014  14:46 >> Application_Name >> CommonReport -ds.Count
1

8/1/2014  14:46 >> Application_Name >> CommonReport 
DsReport

8/1/2014  14:46 >> Application_Name >> CommonReport -ds.Count
1

8/1/2014  14:48 >> Application_Name >> CommonReport 
DsReport

8/1/2014  14:48 >> Application_Name >> CommonReport -ds.Count
1

8/1/2014  14:48 >> Application_Name >> CommonReport 
DsReport

8/1/2014  14:48 >> Application_Name >> CommonReport -ds.Count
1

8/1/2014  21:39 >> Application_Name >> CommonReport 
DsReport

8/1/2014  21:39 >> Application_Name >> CommonReport -ds.Count
1

