3/5/2014  9:24 >> Application_Name >> CommonReport 
DsReport

3/5/2014  9:24 >> Application_Name >> CommonReport 
DsReport

3/5/2014  9:29 >> Application_Name >> insertTmp - error
System.Exception: Error when call insertTmpMtVeh
   at RegisterManager.insertTmpVoluntary(DataSet dsData) in e:\webroot\WEBSMK\App_Code\BL\RegisterManager.cs:line 67

3/5/2014  9:29 >> Application_Name >> insertTmp - error
System.Exception: Error when call insertTmpMtVeh
   at RegisterManager.insertTmpVoluntary(DataSet dsData) in e:\webroot\WEBSMK\App_Code\BL\RegisterManager.cs:line 67

3/5/2014  9:33 >> Application_Name >> insertTmp - error
System.Exception: Error when call insertTmpMtVeh
   at RegisterManager.insertTmpVoluntary(DataSet dsData) in e:\webroot\WEBSMK\App_Code\BL\RegisterManager.cs:line 67

3/5/2014  9:33 >> Application_Name >> insertTmp - error
System.Exception: Error when call insertTmpMtVeh
   at RegisterManager.insertTmpVoluntary(DataSet dsData) in e:\webroot\WEBSMK\App_Code\BL\RegisterManager.cs:line 67

3/5/2014  9:34 >> Application_Name >> insertTmp - error
System.Exception: Error when call insertTmpMtVeh
   at RegisterManager.insertTmpVoluntary(DataSet dsData) in e:\webroot\WEBSMK\App_Code\BL\RegisterManager.cs:line 67

3/5/2014  9:38 >> Application_Name >> CommonReport 
DsReport

3/5/2014  9:38 >> Application_Name >> CommonReport 
DsReport

3/5/2014  9:42 >> Application_Name >> CommonReport 
DsReport

3/5/2014  9:42 >> Application_Name >> CommonReport 
DsReport

3/5/2014  9:52 >> Application_Name >> CommonReport 
DsReport

3/5/2014  9:52 >> Application_Name >> CommonReport 
DsReport

