3/1/2014  9:39 >> Application_Name >> insertTmpRegister - e.ToString()
System.Data.SqlClient.SqlException: Incorrect syntax near 'dtxb'.
Unclosed quotation mark after the character string ' ) '.
   at TDS.BL.BLWorker_MSSQL.executeUpdate(String cmdString, SqlConnection Cnn, SqlTransaction cnnTransaction) in D:\WebApps\TDSLib\BL\BLWorker_MSSQL.cs:line 238
   at RegisterManager.insertTmpRegister(String strKey, DataSet dsData, SqlConnection conn, SqlTransaction trans) in e:\webroot\WEBSMK\App_Code\BL\RegisterManager.cs:line 803

3/1/2014  9:39 >> Application_Name >> insertTmpRegister - strSQL
INSERT INTO tmpreg(tm_tmp_cd, tm_main_class, tm_pol_type, tm_effect_dt, tm_expiry_dt, tm_regis_dt, tm_regis_time, tm_regis_type, tm_ins_fname, tm_ins_lname, tm_ins_addr1, tm_ins_addr2, tm_ins_amphor, tm_ins_changwat, tm_ins_postcode, tm_ins_tel, tm_ins_email, tm_sum_ins, tm_prmm, tm_tax, tm_stamp, tm_fleet_perc, tm_stat, tm_ins_mobile, tm_ins_idcard, tm_oth_distance, tm_oth_region, tm_oth_flagdeduct, tm_oth_oldpolicy, tm_mott_id, tm_insc_id, tm_prmmgross ) VALUES('140103-005','M',      'C',      '2014/01/13',     '2015/01/13',     '2014/1/3',      '09:39',      'N',      '2',      '8',      '2',      '[k'dtxb',      'บางกะปิ ',      '00',      '10240',      '',      '',      '0.00',      '600.00',      '42.21',      '3.00',      '0',      'N',      '2',      '',      '',      '',      '',      '',      '',      '',      '645.21' ) 

