31/7/2014  13:12 >> Application_Name >> CommonReport 
DsReport

31/7/2014  13:12 >> Application_Name >> CommonReport -ds.Count
1

31/7/2014  13:12 >> Application_Name >> CommonReport 
DsReport

31/7/2014  13:12 >> Application_Name >> CommonReport -ds.Count
1

31/7/2014  19:9 >> Application_Name >> buyVoluntary_step4.sendMail() 
System.Exception: Send Mail Error : A recipient must be specified.
   at TDSLib.Libs.net.mail.TDSMail.Send(MailAddress oSender, String strPassword) in D:\WebApps\TDSLib\Libs\net\mail\TDSMail.cs:line 287
   at RegisterManager.sendMail(DataSet dsContact) in e:\webroot\WEBSMK\App_Code\BL\RegisterManager.cs:line 1911

31/7/2014  20:54 >> Application_Name >> buyVoluntary_step4.sendMail() 
System.Exception: Send Mail Error : A recipient must be specified.
   at TDSLib.Libs.net.mail.TDSMail.Send(MailAddress oSender, String strPassword) in D:\WebApps\TDSLib\Libs\net\mail\TDSMail.cs:line 287
   at RegisterManager.sendMail(DataSet dsContact) in e:\webroot\WEBSMK\App_Code\BL\RegisterManager.cs:line 1911

