13/1/2014  11:9 >> Application_Name >> CommonReport 
DsReport

13/1/2014  11:9 >> Application_Name >> CommonReport -ds.Count
1

13/1/2014  11:9 >> Application_Name >> CommonReport 
DsReport

13/1/2014  11:9 >> Application_Name >> CommonReport -ds.Count
1

13/1/2014  11:9 >> Application_Name >> CommonReport 
DsReport

13/1/2014  11:9 >> Application_Name >> CommonReport -ds.Count
1

13/1/2014  11:38 >> Application_Name >> insertTmpRegister - e.ToString()
System.Data.SqlClient.SqlException: String or binary data would be truncated.
The statement has been terminated.
   at TDS.BL.BLWorker_MSSQL.executeUpdate(String cmdString, SqlConnection Cnn, SqlTransaction cnnTransaction) in D:\WebApps\TDSLib\BL\BLWorker_MSSQL.cs:line 238
   at RegisterManager.insertTmpRegister(String strKey, DataSet dsData, SqlConnection conn, SqlTransaction trans) in e:\webroot\WEBSMK\App_Code\BL\RegisterManager.cs:line 803

13/1/2014  11:38 >> Application_Name >> insertTmpRegister - strSQL
INSERT INTO tmpreg(tm_tmp_cd, tm_main_class, tm_pol_type, tm_effect_dt, tm_expiry_dt, tm_regis_dt, tm_regis_time, tm_regis_type, tm_ins_fname, tm_ins_lname, tm_ins_addr1, tm_ins_addr2, tm_ins_amphor, tm_ins_changwat, tm_ins_postcode, tm_ins_tel, tm_ins_email, tm_sum_ins, tm_prmm, tm_tax, tm_stamp, tm_fleet_perc, tm_stat, tm_ins_mobile, tm_ins_idcard, tm_oth_distance, tm_oth_region, tm_oth_flagdeduct, tm_oth_oldpolicy, tm_mott_id, tm_insc_id, tm_prmmgross ) VALUES('140113-006','M',      '1',      '2014/02/15',     '2015/02/15',     '2014/1/13',      '11:38',      'N',      'ดวงใจ',      'รัตนะพันธ์',      '49/27 หมู่ 4 หมู่บ้านแก้วถาวร ซอยวัดเสาธงหิน ถ.กาญจนาภิเษก',      'ต.เสาธงหิน',      'บางใหญ่',      '23',      '11140',      '',      'rattanaphan9@gmail.com',      '380000',      '9652.3',      '678.391',      '39',      '0',      'N',      '0870970202',      '3480100810498',      '5607000004',      '1',      '',      'N',      '1',      '9900999999',      '11014.90' ) 

13/1/2014  11:38 >> Application_Name >> insertTmp - error
System.Exception: Error when call insertTmpRegister
   at RegisterManager.insertTmpVoluntary(DataSet dsData) in e:\webroot\WEBSMK\App_Code\BL\RegisterManager.cs:line 49

13/1/2014  11:38 >> Application_Name >> insertTmpRegister - e.ToString()
System.Data.SqlClient.SqlException: String or binary data would be truncated.
The statement has been terminated.
   at TDS.BL.BLWorker_MSSQL.executeUpdate(String cmdString, SqlConnection Cnn, SqlTransaction cnnTransaction) in D:\WebApps\TDSLib\BL\BLWorker_MSSQL.cs:line 238
   at RegisterManager.insertTmpRegister(String strKey, DataSet dsData, SqlConnection conn, SqlTransaction trans) in e:\webroot\WEBSMK\App_Code\BL\RegisterManager.cs:line 803

13/1/2014  11:38 >> Application_Name >> insertTmpRegister - strSQL
INSERT INTO tmpreg(tm_tmp_cd, tm_main_class, tm_pol_type, tm_effect_dt, tm_expiry_dt, tm_regis_dt, tm_regis_time, tm_regis_type, tm_ins_fname, tm_ins_lname, tm_ins_addr1, tm_ins_addr2, tm_ins_amphor, tm_ins_changwat, tm_ins_postcode, tm_ins_tel, tm_ins_email, tm_sum_ins, tm_prmm, tm_tax, tm_stamp, tm_fleet_perc, tm_stat, tm_ins_mobile, tm_ins_idcard, tm_oth_distance, tm_oth_region, tm_oth_flagdeduct, tm_oth_oldpolicy, tm_mott_id, tm_insc_id, tm_prmmgross ) VALUES('140113-006','M',      '1',      '2014/02/15',     '2015/02/15',     '2014/1/13',      '11:38',      'N',      'ดวงใจ',      'รัตนะพันธ์',      '49/27 หมู่ 4 หมู่บ้านแก้วถาวร ซอยวัดเสาธงหิน ถ.กาญจนาภิเษก',      'ต.เสาธงหิน',      'บางใหญ่',      '23',      '11140',      '',      'rattanaphan9@gmail.com',      '380000',      '9652.3',      '678.391',      '39',      '0',      'N',      '0870970202',      '3480100810498',      '5607000004',      '1',      '',      'N',      '1',      '9900999999',      '11014.90' ) 

13/1/2014  11:38 >> Application_Name >> insertTmp - error
System.Exception: Error when call insertTmpRegister
   at RegisterManager.insertTmpVoluntary(DataSet dsData) in e:\webroot\WEBSMK\App_Code\BL\RegisterManager.cs:line 49

13/1/2014  11:39 >> Application_Name >> insertTmpRegister - e.ToString()
System.Data.SqlClient.SqlException: String or binary data would be truncated.
The statement has been terminated.
   at TDS.BL.BLWorker_MSSQL.executeUpdate(String cmdString, SqlConnection Cnn, SqlTransaction cnnTransaction) in D:\WebApps\TDSLib\BL\BLWorker_MSSQL.cs:line 238
   at RegisterManager.insertTmpRegister(String strKey, DataSet dsData, SqlConnection conn, SqlTransaction trans) in e:\webroot\WEBSMK\App_Code\BL\RegisterManager.cs:line 803

13/1/2014  11:39 >> Application_Name >> insertTmpRegister - strSQL
INSERT INTO tmpreg(tm_tmp_cd, tm_main_class, tm_pol_type, tm_effect_dt, tm_expiry_dt, tm_regis_dt, tm_regis_time, tm_regis_type, tm_ins_fname, tm_ins_lname, tm_ins_addr1, tm_ins_addr2, tm_ins_amphor, tm_ins_changwat, tm_ins_postcode, tm_ins_tel, tm_ins_email, tm_sum_ins, tm_prmm, tm_tax, tm_stamp, tm_fleet_perc, tm_stat, tm_ins_mobile, tm_ins_idcard, tm_oth_distance, tm_oth_region, tm_oth_flagdeduct, tm_oth_oldpolicy, tm_mott_id, tm_insc_id, tm_prmmgross ) VALUES('140113-006','M',      '1',      '2014/02/15',     '2015/02/15',     '2014/1/13',      '11:39',      'N',      'ดวงใจ',      'รัตนะพันธ์',      '49/27 หมู่ 4 หมู่บ้านแก้วถาวร ซอยวัดเสาธงหิน ถ.กาญจนาภิเษก',      'ต.เสาธงหิน',      'บางใหญ่',      '23',      '11140',      '',      'rattanaphan9@gmail.com',      '380000',      '9652.3',      '678.391',      '39',      '0',      'N',      '0870970202',      '3480100810498',      '5607000004',      '1',      '',      'N',      '1',      '9900999999',      '11014.90' ) 

13/1/2014  11:39 >> Application_Name >> insertTmp - error
System.Exception: Error when call insertTmpRegister
   at RegisterManager.insertTmpVoluntary(DataSet dsData) in e:\webroot\WEBSMK\App_Code\BL\RegisterManager.cs:line 49

13/1/2014  11:39 >> Application_Name >> insertTmpRegister - e.ToString()
System.Data.SqlClient.SqlException: String or binary data would be truncated.
The statement has been terminated.
   at TDS.BL.BLWorker_MSSQL.executeUpdate(String cmdString, SqlConnection Cnn, SqlTransaction cnnTransaction) in D:\WebApps\TDSLib\BL\BLWorker_MSSQL.cs:line 238
   at RegisterManager.insertTmpRegister(String strKey, DataSet dsData, SqlConnection conn, SqlTransaction trans) in e:\webroot\WEBSMK\App_Code\BL\RegisterManager.cs:line 803

13/1/2014  11:39 >> Application_Name >> insertTmpRegister - strSQL
INSERT INTO tmpreg(tm_tmp_cd, tm_main_class, tm_pol_type, tm_effect_dt, tm_expiry_dt, tm_regis_dt, tm_regis_time, tm_regis_type, tm_ins_fname, tm_ins_lname, tm_ins_addr1, tm_ins_addr2, tm_ins_amphor, tm_ins_changwat, tm_ins_postcode, tm_ins_tel, tm_ins_email, tm_sum_ins, tm_prmm, tm_tax, tm_stamp, tm_fleet_perc, tm_stat, tm_ins_mobile, tm_ins_idcard, tm_oth_distance, tm_oth_region, tm_oth_flagdeduct, tm_oth_oldpolicy, tm_mott_id, tm_insc_id, tm_prmmgross ) VALUES('140113-006','M',      '1',      '2014/02/15',     '2015/02/15',     '2014/1/13',      '11:39',      'N',      'ดวงใจ',      'รัตนะพันธ์',      '49/27 หมู่ 4 หมู่บ้านแก้วถาวร ซอยวัดเสาธงหิน ถ.กาญจนาภิเษก',      'ต.เสาธงหิน',      'บางใหญ่',      '23',      '11140',      '',      'rattanaphan9@gmail.com',      '380000',      '9652.3',      '678.391',      '39',      '0',      'N',      '0870970202',      '3480100810498',      '5607000004',      '1',      '',      'N',      '1',      '9900999999',      '11014.90' ) 

13/1/2014  11:39 >> Application_Name >> insertTmp - error
System.Exception: Error when call insertTmpRegister
   at RegisterManager.insertTmpVoluntary(DataSet dsData) in e:\webroot\WEBSMK\App_Code\BL\RegisterManager.cs:line 49

13/1/2014  16:15 >> Application_Name >> insertTmp - error
System.Exception: Error when call insertTmpMtVeh
   at RegisterManager.insertTmpVoluntary(DataSet dsData) in e:\webroot\WEBSMK\App_Code\BL\RegisterManager.cs:line 67

13/1/2014  16:15 >> Application_Name >> insertTmp - error
System.Exception: Error when call insertTmpMtVeh
   at RegisterManager.insertTmpVoluntary(DataSet dsData) in e:\webroot\WEBSMK\App_Code\BL\RegisterManager.cs:line 67

13/1/2014  16:16 >> Application_Name >> insertTmp - error
System.Exception: Error when call insertTmpMtVeh
   at RegisterManager.insertTmpVoluntary(DataSet dsData) in e:\webroot\WEBSMK\App_Code\BL\RegisterManager.cs:line 67

13/1/2014  16:16 >> Application_Name >> insertTmp - error
System.Exception: Error when call insertTmpMtVeh
   at RegisterManager.insertTmpVoluntary(DataSet dsData) in e:\webroot\WEBSMK\App_Code\BL\RegisterManager.cs:line 67

13/1/2014  16:18 >> Application_Name >> insertTmp - error
System.Exception: Error when call insertTmpMtVeh
   at RegisterManager.insertTmpVoluntary(DataSet dsData) in e:\webroot\WEBSMK\App_Code\BL\RegisterManager.cs:line 67

13/1/2014  16:18 >> Application_Name >> insertTmp - error
System.Exception: Error when call insertTmpMtVeh
   at RegisterManager.insertTmpVoluntary(DataSet dsData) in e:\webroot\WEBSMK\App_Code\BL\RegisterManager.cs:line 67

13/1/2014  16:18 >> Application_Name >> insertTmp - error
System.Exception: Error when call insertTmpMtVeh
   at RegisterManager.insertTmpVoluntary(DataSet dsData) in e:\webroot\WEBSMK\App_Code\BL\RegisterManager.cs:line 67

13/1/2014  16:19 >> Application_Name >> insertTmp - error
System.Exception: Error when call insertTmpMtVeh
   at RegisterManager.insertTmpVoluntary(DataSet dsData) in e:\webroot\WEBSMK\App_Code\BL\RegisterManager.cs:line 67

13/1/2014  16:22 >> Application_Name >> insertTmp - error
System.Exception: Error when call insertTmpCompul
   at RegisterManager.insertTmpVoluntary(DataSet dsData) in e:\webroot\WEBSMK\App_Code\BL\RegisterManager.cs:line 75

13/1/2014  16:23 >> Application_Name >> insertTmp - error
System.Exception: Error when call insertTmpCompul
   at RegisterManager.insertTmpVoluntary(DataSet dsData) in e:\webroot\WEBSMK\App_Code\BL\RegisterManager.cs:line 75

13/1/2014  16:23 >> Application_Name >> insertTmp - error
System.Exception: Error when call insertTmpCompul
   at RegisterManager.insertTmpVoluntary(DataSet dsData) in e:\webroot\WEBSMK\App_Code\BL\RegisterManager.cs:line 75

13/1/2014  16:27 >> Application_Name >> insertTmp - error
System.Exception: Error when call insertTmpCompul
   at RegisterManager.insertTmpVoluntary(DataSet dsData) in e:\webroot\WEBSMK\App_Code\BL\RegisterManager.cs:line 75

13/1/2014  16:27 >> Application_Name >> insertTmp - error
System.Exception: Error when call insertTmpCompul
   at RegisterManager.insertTmpVoluntary(DataSet dsData) in e:\webroot\WEBSMK\App_Code\BL\RegisterManager.cs:line 75

13/1/2014  16:28 >> Application_Name >> insertTmp - error
System.Exception: Error when call insertTmpCompul
   at RegisterManager.insertTmpVoluntary(DataSet dsData) in e:\webroot\WEBSMK\App_Code\BL\RegisterManager.cs:line 75

13/1/2014  16:28 >> Application_Name >> insertTmp - error
System.Exception: Error when call insertTmpCompul
   at RegisterManager.insertTmpVoluntary(DataSet dsData) in e:\webroot\WEBSMK\App_Code\BL\RegisterManager.cs:line 75

13/1/2014  16:29 >> Application_Name >> insertTmp - error
System.Exception: Error when call insertTmpCompul
   at RegisterManager.insertTmpVoluntary(DataSet dsData) in e:\webroot\WEBSMK\App_Code\BL\RegisterManager.cs:line 75

13/1/2014  16:30 >> Application_Name >> insertTmp - error
System.Exception: Error when call insertTmpCompul
   at RegisterManager.insertTmpVoluntary(DataSet dsData) in e:\webroot\WEBSMK\App_Code\BL\RegisterManager.cs:line 75

13/1/2014  16:32 >> Application_Name >> insertTmp - error
System.Exception: Error when call insertTmpCompul
   at RegisterManager.insertTmpVoluntary(DataSet dsData) in e:\webroot\WEBSMK\App_Code\BL\RegisterManager.cs:line 75

