21/2/2014  11:44 >> Application_Name >> CommonReport 
DsReport

21/2/2014  11:44 >> Application_Name >> CommonReport -ds.Count
1

21/2/2014  14:57 >> Application_Name >> CommonReport 
DsReport

21/2/2014  14:57 >> Application_Name >> CommonReport -ds.Count
1

21/2/2014  14:59 >> Application_Name >> CommonReport 
DsReport

21/2/2014  14:59 >> Application_Name >> CommonReport -ds.Count
1

21/2/2014  15:3 >> Application_Name >> CommonReport 
DsReport

21/2/2014  15:3 >> Application_Name >> CommonReport -ds.Count
1

21/2/2014  15:8 >> Application_Name >> CommonReport 
DsReport

21/2/2014  15:8 >> Application_Name >> CommonReport -ds.Count
1

21/2/2014  15:9 >> Application_Name >> CommonReport 
DsReport

21/2/2014  15:9 >> Application_Name >> CommonReport -ds.Count
1

21/2/2014  15:9 >> Application_Name >> CommonReport 
DsReport

21/2/2014  15:9 >> Application_Name >> CommonReport -ds.Count
1

21/2/2014  15:10 >> Application_Name >> CommonReport 
DsReport

21/2/2014  15:10 >> Application_Name >> CommonReport -ds.Count
1

21/2/2014  16:18 >> Application_Name >> CommonReport 
DsReport

21/2/2014  16:18 >> Application_Name >> CommonReport -ds.Count
1

