14/1/2014  9:2 >> Application_Name >> CommonReport 
DsReport

14/1/2014  9:2 >> Application_Name >> CommonReport -ds.Count
1

14/1/2014  9:2 >> Application_Name >> CommonReport 
DsReport

14/1/2014  9:2 >> Application_Name >> CommonReport -ds.Count
1

14/1/2014  9:3 >> Application_Name >> CommonReport 
DsReport

14/1/2014  9:3 >> Application_Name >> CommonReport -ds.Count
1

14/1/2014  9:3 >> Application_Name >> CommonReport 
DsReport

14/1/2014  9:3 >> Application_Name >> CommonReport -ds.Count
1

14/1/2014  9:3 >> Application_Name >> CommonReport 
DsReport

14/1/2014  9:3 >> Application_Name >> CommonReport -ds.Count
1

14/1/2014  9:3 >> Application_Name >> CommonReport 
DsReport

14/1/2014  9:3 >> Application_Name >> CommonReport -ds.Count
1

14/1/2014  9:14 >> Application_Name >> insertTmp - error
System.Exception: Error when call insertTmpMtVeh
   at RegisterManager.insertTmpVoluntary(DataSet dsData) in e:\webroot\WEBSMK\App_Code\BL\RegisterManager.cs:line 67

14/1/2014  9:15 >> Application_Name >> insertTmp - error
System.Exception: Error when call insertTmpMtVeh
   at RegisterManager.insertTmpVoluntary(DataSet dsData) in e:\webroot\WEBSMK\App_Code\BL\RegisterManager.cs:line 67

14/1/2014  9:15 >> Application_Name >> insertTmp - error
System.Exception: Error when call insertTmpMtVeh
   at RegisterManager.insertTmpVoluntary(DataSet dsData) in e:\webroot\WEBSMK\App_Code\BL\RegisterManager.cs:line 67

14/1/2014  10:50 >> Application_Name >> CommonReport 
DsReport

14/1/2014  10:50 >> Application_Name >> CommonReport -ds.Count
1

14/1/2014  11:44 >> Application_Name >> insertTmp - error
System.Exception: Error when call insertTmpMtVeh
   at RegisterManager.insertTmpVoluntary(DataSet dsData) in e:\webroot\WEBSMK\App_Code\BL\RegisterManager.cs:line 67

14/1/2014  11:44 >> Application_Name >> insertTmp - error
System.Exception: Error when call insertTmpMtVeh
   at RegisterManager.insertTmpVoluntary(DataSet dsData) in e:\webroot\WEBSMK\App_Code\BL\RegisterManager.cs:line 67

14/1/2014  11:44 >> Application_Name >> insertTmp - error
System.Exception: Error when call insertTmpMtVeh
   at RegisterManager.insertTmpVoluntary(DataSet dsData) in e:\webroot\WEBSMK\App_Code\BL\RegisterManager.cs:line 67

14/1/2014  11:45 >> Application_Name >> insertTmp - error
System.Exception: Error when call insertTmpMtVeh
   at RegisterManager.insertTmpVoluntary(DataSet dsData) in e:\webroot\WEBSMK\App_Code\BL\RegisterManager.cs:line 67

14/1/2014  11:45 >> Application_Name >> insertTmp - error
System.Exception: Error when call insertTmpMtVeh
   at RegisterManager.insertTmpVoluntary(DataSet dsData) in e:\webroot\WEBSMK\App_Code\BL\RegisterManager.cs:line 67

14/1/2014  11:45 >> Application_Name >> insertTmp - error
System.Exception: Error when call insertTmpMtVeh
   at RegisterManager.insertTmpVoluntary(DataSet dsData) in e:\webroot\WEBSMK\App_Code\BL\RegisterManager.cs:line 67

14/1/2014  11:46 >> Application_Name >> insertTmp - error
System.Exception: Error when call insertTmpMtVeh
   at RegisterManager.insertTmpVoluntary(DataSet dsData) in e:\webroot\WEBSMK\App_Code\BL\RegisterManager.cs:line 67

14/1/2014  11:46 >> Application_Name >> insertTmp - error
System.Exception: Error when call insertTmpMtVeh
   at RegisterManager.insertTmpVoluntary(DataSet dsData) in e:\webroot\WEBSMK\App_Code\BL\RegisterManager.cs:line 67

14/1/2014  20:44 >> Application_Name >> CommonReport 
DsReport

14/1/2014  20:44 >> Application_Name >> CommonReport -ds.Count
1

14/1/2014  20:45 >> Application_Name >> CommonReport 
DsReport

14/1/2014  20:45 >> Application_Name >> CommonReport -ds.Count
1

14/1/2014  20:47 >> Application_Name >> CommonReport 
DsReport

14/1/2014  20:47 >> Application_Name >> CommonReport -ds.Count
1

14/1/2014  20:51 >> Application_Name >> CommonReport 
DsReport

14/1/2014  20:51 >> Application_Name >> CommonReport -ds.Count
1

14/1/2014  21:49 >> Application_Name >> CommonReport 
DsReport

14/1/2014  21:49 >> Application_Name >> CommonReport -ds.Count
1

